{
    "common": {
        "effectAttachShape": {
            "$type": "ConfigEffectAttachSkinnedMesh",
            "mesh": "EffectMesh"
        },
        "mass": 1000000000.0,
        "shadowViewSizeRatio": 0.0,
        "scale": 1.2999999523162842,
        "disableTickDistance": 100000.0,
        "FEPPLDIAIFJ": true,
        "useFinalIK": true
    },
    "specialPoint": {
        "elementAbsorb": "RootNode",
        "elementPendant": "",
        "elementDrop": "RootNode",
        "bulletAim": "LockPoint01",
        "hitPoints": [
            "LockPoint01",
            "LockPoint02",
            "LockPoint03",
            "LockPoint04",
            "LockPoint05",
            "LockPoint06",
            "LockPoint07",
            "LockPoint08",
            "LockPoint09",
            "LockPoint10",
            "LockPoint11",
            "LockPoint12",
            "LockPoint13",
            "LockPoint14"
        ],
        "selectedPoints": [
            "LockPoint01",
            "LockPoint02",
            "LockPoint03",
            "LockPoint04",
            "LockPoint05",
            "LockPoint06",
            "LockPoint07",
            "LockPoint08",
            "LockPoint09",
            "LockPoint10",
            "LockPoint11",
            "LockPoint12",
            "LockPoint13",
            "LockPoint14"
        ],
        "BCMLNPBBHLL": true
    },
    "model": {
        "bornEffect": "",
        "attachEffect": "",
        "AIIEHEGCLIM": false
    },
    "dither": {
        "normalBetweenCamera": {
            "detectDitherRange": 20.0
        }
    },
    "globalValue": {
        "serverGlobalValues": [
            "SGV_MONSTER_NADA"
        ],
        "HKIAGCBMBFC": {
            "SGV_MONSTER_NADA": 0.0
        }
    },
    "combat": {
        "property": {
            "endureType": "Monster_Boss_Other",
            "weight": 20000.0
        },
        "beHit": {
            "hitBloodEffect": ""
        },
        "combatLock": {
            "lockShape": "CircleLockEnemy",
            "lockType": "Boss_Lv5"
        },
        "die": {
            "hasAnimatorDie": true,
            "dieEndTime": 0.10000000149011612,
            "dieForceDisappearTime": 4.0,
            "dieDisappearEffect": "",
            "LFLHBBLFMNL": true,
            "DNOKPNKKHLO": true,
            "ILIIAFJADIB": true,
            "MDKFHDHIKGH": true,
            "HABEAIAAGLF": true,
            "LEHDFPPJPKJ": true
        }
    },
    "abilities": [
        {
            "abilityID": "",
            "abilityName": "Monster_Nada_Stage01_Controller",
            "abilityOverride": ""
        },
        {
            "abilityID": "",
            "abilityName": "Monster_Nada_Stage01_WeakState",
            "abilityOverride": ""
        },
        {
            "abilityID": "",
            "abilityName": "Monster_Nada_HandLightNormal",
            "abilityOverride": ""
        },
        {
            "abilityID": "",
            "abilityName": "Monster_Nada_HandLightElectric",
            "abilityOverride": ""
        },
        {
            "abilityID": "",
            "abilityName": "Monster_Nada_HandLightWind",
            "abilityOverride": ""
        },
        {
            "abilityID": "",
            "abilityName": "Monster_Nada_HandLightWater",
            "abilityOverride": ""
        },
        {
            "abilityID": "",
            "abilityName": "Monster_Nada_HandLightIce",
            "abilityOverride": ""
        },
        {
            "abilityID": "",
            "abilityName": "Monster_Nada_HandLightFire",
            "abilityOverride": ""
        },
        {
            "abilityID": "",
            "abilityName": "Monster_Nada_Stage01_Alert",
            "abilityOverride": ""
        },
        {
            "abilityID": "",
            "abilityName": "Monster_Nada_SlamAtkL_Attack",
            "abilityOverride": ""
        },
        {
            "abilityID": "",
            "abilityName": "Monster_Nada_SlamAtkR_Attack",
            "abilityOverride": ""
        },
        {
            "abilityID": "",
            "abilityName": "Monster_Nada_SwapAtkL",
            "abilityOverride": ""
        },
        {
            "abilityID": "",
            "abilityName": "Monster_Nada_SwapAtkR",
            "abilityOverride": ""
        },
        {
            "abilityID": "",
            "abilityName": "Monster_Nada_EnergySprayL_SprayAttack",
            "abilityOverride": ""
        },
        {
            "abilityID": "",
            "abilityName": "Monster_Nada_EnergySprayR_SprayAttack",
            "abilityOverride": ""
        },
        {
            "abilityID": "",
            "abilityName": "Monster_Nada_EnergySprayL_Slam",
            "abilityOverride": ""
        },
        {
            "abilityID": "",
            "abilityName": "Monster_Nada_EnergySprayR_Slam",
            "abilityOverride": ""
        },
        {
            "abilityID": "",
            "abilityName": "Monster_Nada_LaserArray",
            "abilityOverride": ""
        },
        {
            "abilityID": "",
            "abilityName": "Monster_Nada_EnergyFire",
            "abilityOverride": ""
        },
        {
            "abilityID": "",
            "abilityName": "Monster_Nada_EnergySpire",
            "abilityOverride": ""
        },
        {
            "abilityID": "",
            "abilityName": "Monster_Nada_CoreExplode",
            "abilityOverride": ""
        },
        {
            "abilityID": "",
            "abilityName": "Monster_Nada_Stage01_WeakAtk",
            "abilityOverride": ""
        },
        {
            "abilityID": "",
            "abilityName": "Monster_Nada_Circle",
            "abilityOverride": ""
        },
        {
            "abilityID": "",
            "abilityName": "Monster_Nada_CreateEnergyCube",
            "abilityOverride": ""
        }
    ],
    "stateLayers": {
        "defaultLayer": {
            "$type": "ConfigNormalStateLayer",
            "layerIndexName": "",
            "stateIDs": {
                "Born": {
                    "$type": "ConfigMonsterStateIDInfo",
                    "animatorStates": {
                        "Born": []
                    },
                    "resetAnimatorTriggerOnExit": [
                        "DoSkill"
                    ]
                },
                "NormalIdle": {
                    "$type": "ConfigMonsterStateIDInfo",
                    "animatorStates": {
                        "Standby_Free": [],
                        "StandbyM": []
                    },
                    "canDoSkill": true,
                    "canSyncMove": true,
                    "resetAnimatorTriggerOnEnter": [
                        "HandNormal"
                    ],
                    "resetAnimatorTriggerOnExit": [
                        "DoSkill"
                    ]
                },
                "Die": {
                    "$type": "ConfigMonsterStateIDInfo",
                    "animatorStates": {
                        "Die": [
                            "Monster_Nada_Stage01_Die",
                            "Audio_Monster_Nada_Stage_Die"
                        ]
                    }
                },
                "Alert": {
                    "$type": "ConfigMonsterStateIDInfo",
                    "animatorStates": {
                        "Alert": [
                            "Audio_Monster_Nada_Alert"
                        ]
                    },
                    "resetAnimatorTriggerOnExit": [
                        "DoSkill"
                    ]
                },
                "Show01": {
                    "$type": "ConfigMonsterStateIDInfo",
                    "animatorStates": {
                        "Show01": []
                    },
                    "resetAnimatorTriggerOnExit": [
                        "DoSkill"
                    ]
                },
                "AlertASM": {
                    "$type": "ConfigMonsterStateIDInfo",
                    "animatorStates": {
                        "AlertASM": [
                            "Audio_Monster_Nada_Alert_ASM"
                        ]
                    },
                    "resetAnimatorTriggerOnExit": [
                        "DoSkill"
                    ]
                },
                "SlamAtkL": {
                    "$type": "ConfigMonsterStateIDInfo",
                    "animatorStates": {
                        "SlamAtkLBS": [
                            "Monster_Nada_SlamAtkLBS",
                            "Audio_Monster_Nada_SlamAtkL_BS"
                        ],
                        "SlamAtkL": [
                            "Monster_Nada_SlamAtkL",
                            "Audio_Monster_Nada_SlamAtkL"
                        ],
                        "SlamAtkLASM": [
                            "Audio_Monster_Nada_SlamAtkL_ASM"
                        ]
                    },
                    "resetAnimatorTriggerOnEnter": [
                        "HandFire"
                    ],
                    "resetAnimatorTriggerOnExit": [
                        "DoSkill"
                    ]
                },
                "SlamAtkR": {
                    "$type": "ConfigMonsterStateIDInfo",
                    "animatorStates": {
                        "SlamAtkRBS": [
                            "Monster_Nada_SlamAtkRBS",
                            "Audio_Monster_Nada_SlamAtkL_BS"
                        ],
                        "SlamAtkR": [
                            "Monster_Nada_SlamAtkR",
                            "Audio_Monster_Nada_SlamAtkL"
                        ],
                        "SlamAtkRASM": [
                            "Audio_Monster_Nada_SlamAtkL_ASM"
                        ]
                    },
                    "resetAnimatorTriggerOnEnter": [
                        "HandIce"
                    ],
                    "resetAnimatorTriggerOnExit": [
                        "DoSkill"
                    ]
                },
                "SwapAtkL": {
                    "$type": "ConfigMonsterStateIDInfo",
                    "animatorStates": {
                        "SwapAtkL": [
                            "Monster_Nada_SwapAtkL",
                            "Audio_Monster_Nada_SwapAtkR"
                        ],
                        "SwapAtkLASM": [
                            "Audio_Monster_Nada_SwapAtkR_ASM"
                        ]
                    },
                    "resetAnimatorTriggerOnEnter": [
                        "HandFire"
                    ],
                    "resetAnimatorTriggerOnExit": [
                        "DoSkill"
                    ]
                },
                "SwapAtkR": {
                    "$type": "ConfigMonsterStateIDInfo",
                    "animatorStates": {
                        "SwapAtkR": [
                            "Monster_Nada_SwapAtkR",
                            "Audio_Monster_Nada_SwapAtkR"
                        ],
                        "SwapAtkRASM": [
                            "Audio_Monster_Nada_SwapAtkR_ASM"
                        ]
                    },
                    "resetAnimatorTriggerOnEnter": [
                        "HandIce"
                    ],
                    "resetAnimatorTriggerOnExit": [
                        "DoSkill"
                    ]
                },
                "EnergySprayL": {
                    "$type": "ConfigMonsterStateIDInfo",
                    "animatorStates": {
                        "EnergySprayLBS": [
                            "Monster_Nada_EnergySprayLBS",
                            "Audio_Monster_Nada_EnergySpray_BS"
                        ],
                        "EnergySprayL": [
                            "Monster_Nada_EnergySprayL",
                            "Audio_Monster_Nada_EnergySpray"
                        ],
                        "EnergySprayLASM": [
                            "Audio_Monster_Nada_EnergySpray_ASM"
                        ]
                    },
                    "resetAnimatorTriggerOnEnter": [
                        "HandFire"
                    ],
                    "resetAnimatorTriggerOnExit": [
                        "DoSkill"
                    ]
                },
                "EnergySprayR": {
                    "$type": "ConfigMonsterStateIDInfo",
                    "animatorStates": {
                        "EnergySprayRBS": [
                            "Monster_Nada_EnergySprayRBS",
                            "Audio_Monster_Nada_EnergySpray_BS"
                        ],
                        "EnergySprayR": [
                            "Monster_Nada_EnergySprayR",
                            "Audio_Monster_Nada_EnergySpray"
                        ],
                        "EnergySprayRASM": [
                            "Audio_Monster_Nada_EnergySpray_ASM"
                        ]
                    },
                    "resetAnimatorTriggerOnEnter": [
                        "HandIce"
                    ],
                    "resetAnimatorTriggerOnExit": [
                        "DoSkill"
                    ]
                },
                "EnergySpire": {
                    "$type": "ConfigMonsterStateIDInfo",
                    "animatorStates": {
                        "EnergySpireBS": [
                            "Audio_Monster_Nada_EnergySpire_BS"
                        ],
                        "EnergySpire": [
                            "Monster_Nada_EnergySpire",
                            "Audio_Monster_Nada_EnergySpire"
                        ],
                        "EnergySpireASM": [
                            "Audio_Monster_Nada_EnergySpire_ASM"
                        ]
                    },
                    "resetAnimatorTriggerOnEnter": [
                        "HandWind"
                    ],
                    "resetAnimatorTriggerOnExit": [
                        "DoSkill"
                    ]
                },
                "EnergyFire": {
                    "$type": "ConfigMonsterStateIDInfo",
                    "animatorStates": {
                        "EnergyFireBS": [
                            "Monster_Nada_EnergyFireBS",
                            "Audio_Monster_Nada_EnergyFire_BS"
                        ],
                        "EnergyFireAS": [
                            "Monster_Nada_EnergyFire",
                            "Audio_Monster_Nada_EnergyFire_AS"
                        ],
                        "EnergyFireASM": [
                            "Audio_Monster_Nada_EnergyFire_ASM"
                        ]
                    },
                    "resetAnimatorTriggerOnEnter": [
                        "HandElectric"
                    ],
                    "resetAnimatorTriggerOnExit": [
                        "DoSkill"
                    ]
                },
                "CoreExplode": {
                    "$type": "ConfigMonsterStateIDInfo",
                    "animatorStates": {
                        "CoreExplodeBS": [
                            "Monster_Nada_CoreExplodeBS",
                            "Audio_Monster_Nada_CoreExplode_BS"
                        ],
                        "CoreExplode": [
                            "Monster_Nada_CoreExplode",
                            "Audio_Monster_Nada_CoreExplode"
                        ],
                        "CoreExplodeASM": [
                            "Audio_Monster_Nada_CoreExplode_ASM"
                        ]
                    },
                    "resetAnimatorTriggerOnEnter": [
                        "HandElectric"
                    ],
                    "resetAnimatorTriggerOnExit": [
                        "DoSkill"
                    ]
                },
                "LaserArray": {
                    "$type": "ConfigMonsterStateIDInfo",
                    "animatorStates": {
                        "LaserArrayBS": [
                            "Audio_Monster_Nada_LaserArray_BS"
                        ],
                        "LaserArray": [
                            "Monster_Nada_LaserArray",
                            "Audio_Monster_Nada_LaserArray"
                        ],
                        "LaserArrayASM": []
                    },
                    "resetAnimatorTriggerOnEnter": [
                        "HandElectric"
                    ],
                    "resetAnimatorTriggerOnExit": [
                        "DoSkill"
                    ]
                },
                "WeakStateL": {
                    "$type": "ConfigMonsterStateIDInfo",
                    "animatorStates": {
                        "WeakStateLBS": [
                            "Monster_Nada_WeakAtkL_BS",
                            "Audio_Monster_Nada_WeakStateL_BS"
                        ],
                        "WeakStateLLoop": [],
                        "WeakStateLAS": [
                            "Monster_Nada_WeakAtkAS",
                            "Audio_Monster_Nada_WeakStateL_AS"
                        ],
                        "WeakStateLASM": [
                            "Audio_Monster_Nada_WeakStateL_ASM"
                        ]
                    },
                    "resetAnimatorTriggerOnEnter": [
                        "WeakStateStart"
                    ],
                    "resetAnimatorTriggerOnExit": [
                        "DoSkill",
                        "WeakStateEnd"
                    ]
                },
                "WeakStateR": {
                    "$type": "ConfigMonsterStateIDInfo",
                    "animatorStates": {
                        "WeakStateRBS": [
                            "Monster_Nada_WeakAtkR_BS",
                            "Audio_Monster_Nada_WeakStateL_BS"
                        ],
                        "WeakStateRLoop": [],
                        "WeakStateRAS": [
                            "Monster_Nada_WeakAtkAS",
                            "Audio_Monster_Nada_WeakStateL_AS"
                        ],
                        "WeakStateRASM": [
                            "Audio_Monster_Nada_WeakStateL_ASM"
                        ]
                    },
                    "resetAnimatorTriggerOnEnter": [
                        "WeakStateStart"
                    ],
                    "resetAnimatorTriggerOnExit": [
                        "DoSkill",
                        "WeakStateEnd"
                    ]
                },
                "WeakCritL": {
                    "$type": "ConfigMonsterStateIDInfo",
                    "animatorStates": {
                        "WeakCritLBS": [
                            "Monster_Nada_WeakCritBS",
                            "Audio_Monster_Nada_WeakCritL_BS"
                        ],
                        "WeakCritLLoop": [],
                        "WeakCritLAS": [
                            "Monster_Nada_WeakCritAS",
                            "Audio_Monster_Nada_WeakCritL_AS"
                        ],
                        "WeakCritLASM": [
                            "Audio_Monster_Nada_WeakCritL_ASM"
                        ]
                    },
                    "resetAnimatorTriggerOnEnter": [
                        "WeakCritStart"
                    ],
                    "resetAnimatorTriggerOnExit": [
                        "DoSkill",
                        "WeakCritEnd"
                    ]
                },
                "WeakCritR": {
                    "$type": "ConfigMonsterStateIDInfo",
                    "animatorStates": {
                        "WeakCritRBS": [
                            "Monster_Nada_WeakCritBS",
                            "Audio_Monster_Nada_WeakCritL_BS"
                        ],
                        "WeakCritRLoop": [],
                        "WeakCritRAS": [
                            "Monster_Nada_WeakCritAS",
                            "Audio_Monster_Nada_WeakCritL_AS"
                        ],
                        "WeakCritRASM": [
                            "Audio_Monster_Nada_WeakCritL_ASM"
                        ]
                    },
                    "resetAnimatorTriggerOnEnter": [
                        "WeakCritStart"
                    ],
                    "resetAnimatorTriggerOnExit": [
                        "DoSkill",
                        "WeakCritEnd"
                    ]
                },
                "Return": {
                    "$type": "ConfigMonsterStateIDInfo",
                    "animatorStates": {
                        "Return": []
                    },
                    "resetAnimatorTriggerOnExit": [
                        "DoSkill"
                    ]
                }
            }
        }
    },
    "billboard": {
        "$type": "ConfigCombatBillboard",
        "attachPoint": "BillboardAttach",
        "offset": {
            "y": 1.0
        },
        "radiusOffset": 1.0,
        "showDistance": 200.0,
        "showHPBar": true,
        "size": "Grand"
    },
    "initialPoses": {
        "Default": {},
        "Quest": {
            "initialPoseID": 11,
            "initialPoseParams": {
                "boolParams": {
                    "QuestFlag": "true"
                }
            }
        }
    },
    "aibeta": {
        "enable": true,
        "moveSetting": {
            "useNavMesh": false,
            "navMeshAgentName": "Undead01"
        },
        "aiCombat": {},
        "sensing": {
            "settings": {
                "DefaultSetting": {
                    "viewRange": 24.799999237060547,
                    "viewPanoramic": true,
                    "hearAttractionRange": 0.0,
                    "feelRange": 24.0
                }
            },
            "templates": {
                "DefaultTemplate": {
                    "DefaultPoses": "DefaultSetting",
                    "11": "DefaultSetting"
                }
            }
        },
        "threat": {
            "clearThreatTargetDistance": 1000.0,
            "clearThreatEdgeDistance": 10.0,
            "clearThreatTimerByDistance": 10.0,
            "viewThreatGrow": 10.0,
            "hearThreatGrow": 0.0,
            "feelThreatGrow": 1000.0,
            "resistTauntLevel": "Monster_TauntLevel_5"
        },
        "defendArea": {
            "defendRange": 100.0
        },
        "ui": {
            "hasDirectionIndicator": false
        },
        "profiling": {
            "lodStrategy": "Best"
        },
        "network": {
            "syncSkill": true,
            "resetHpOnSpawn": false
        },
        "skillGroupCDConfigs": [
            {
                "skillGroupCDID": 1,
                "skillGroupCDTime": 10.0
            },
            {
                "skillGroupCDID": 2,
                "skillGroupCDTime": 15.0
            },
            {
                "skillGroupCDID": 3,
                "skillGroupCDTime": 30.0
            },
            {
                "skillGroupCDID": 4,
                "skillGroupCDTime": 20.0
            },
            {
                "skillGroupCDID": 5,
                "skillGroupCDTime": 10.0
            },
            {
                "skillGroupCDID": 6,
                "skillGroupCDTime": 10.0
            }
        ],
        "skillSetting": {
            "skillEliteSet": {
                "1": [
                    1,
                    101,
                    102,
                    201,
                    202,
                    301,
                    401,
                    501,
                    601
                ],
                "2": [
                    11,
                    101,
                    102,
                    201,
                    202,
                    301,
                    401,
                    501,
                    601,
                    901
                ],
                "3": [
                    1,
                    101,
                    102,
                    201,
                    202,
                    301,
                    401,
                    502,
                    602
                ]
            }
        },
        "skills": {
            "1": {
                "name": "OnAlert",
                "skillType": "OnAlert",
                "castCondition": {
                    "pose": [
                        1
                    ]
                },
                "cd": 999999.0,
                "publicCDGroup": "",
                "stateIDs": [
                    "Alert",
                    "AlertASM"
                ],
                "skillQueryingTime": 3.5,
                "flagTargetReachable": "10",
                "flagSelfOnTemplateCollider": "01",
                "flagSelfInZone": "10",
                "flagTargetInZone": "11"
            },
            "11": {
                "name": "OnAlert",
                "skillType": "OnAlert",
                "castCondition": {
                    "pose": [
                        11
                    ]
                },
                "cd": 999999.0,
                "publicCDGroup": "",
                "stateIDs": [
                    "Show01",
                    "AlertASM"
                ],
                "skillQueryingTime": 3.5,
                "flagTargetReachable": "10",
                "flagSelfOnTemplateCollider": "01",
                "flagSelfInZone": "10",
                "flagTargetInZone": "11"
            },
            "101": {
                "name": "SlamAtk",
                "priority": 4,
                "castCondition": {
                    "pose": [
                        101
                    ],
                    "minTargetAngleXZ": 10.0,
                    "maxTargetAngleXZ": 0.0,
                    "pickRangeMax": 50.0
                },
                "cd": 7.5,
                "cdUpperRange": 5.0,
                "publicCDGroup": "",
                "skillGroupCDID": 1,
                "stateIDs": [
                    "SlamAtkL",
                    "SlamAtkR"
                ],
                "skillQueryingTime": 3.0,
                "flagTargetReachable": "10",
                "flagSelfOnTemplateCollider": "01",
                "flagSelfInZone": "10",
                "flagTargetInZone": "11"
            },
            "102": {
                "name": "SlamAtk",
                "priority": 3,
                "castCondition": {
                    "pose": [
                        101
                    ],
                    "minTargetAngleXZ": 10.0,
                    "pickRangeMax": 50.0
                },
                "cd": 15.0,
                "cdUpperRange": 7.5,
                "publicCDGroup": "",
                "skillGroupCDID": 1,
                "stateIDs": [
                    "SlamAtkL",
                    "SlamAtkR"
                ],
                "skillQueryingTime": 3.0,
                "flagTargetReachable": "10",
                "flagSelfOnTemplateCollider": "01",
                "flagSelfInZone": "10",
                "flagTargetInZone": "11"
            },
            "201": {
                "name": "EnergySpray",
                "priority": 4,
                "castCondition": {
                    "pose": [
                        101
                    ],
                    "minTargetAngleXZ": 10.0,
                    "maxTargetAngleXZ": 0.0,
                    "pickRangeMax": 50.0
                },
                "cd": 10.0,
                "cdUpperRange": 7.5,
                "publicCDGroup": "",
                "skillGroupCDID": 2,
                "stateIDs": [
                    "EnergySprayL",
                    "EnergySprayR"
                ],
                "skillQueryingTime": 3.0,
                "flagTargetReachable": "10",
                "flagSelfOnTemplateCollider": "01",
                "flagSelfInZone": "10",
                "flagTargetInZone": "11"
            },
            "202": {
                "name": "EnergySpray",
                "priority": 3,
                "castCondition": {
                    "pose": [
                        101
                    ],
                    "minTargetAngleXZ": 10.0,
                    "pickRangeMax": 50.0
                },
                "cd": 15.0,
                "cdUpperRange": 7.5,
                "publicCDGroup": "",
                "skillGroupCDID": 2,
                "stateIDs": [
                    "EnergySprayL",
                    "EnergySprayR"
                ],
                "skillQueryingTime": 3.0,
                "flagTargetReachable": "10",
                "flagSelfOnTemplateCollider": "01",
                "flagSelfInZone": "10",
                "flagTargetInZone": "11"
            },
            "301": {
                "name": "EnergyFire",
                "priority": 4,
                "castCondition": {
                    "pose": [
                        101
                    ],
                    "pickRangeMax": 50.0
                },
                "cd": 20.0,
                "cdUpperRange": 7.5,
                "publicCDGroup": "",
                "stateIDs": [
                    "EnergyFire"
                ],
                "skillQueryingTime": 3.0,
                "flagTargetReachable": "10",
                "flagSelfOnTemplateCollider": "01",
                "flagSelfInZone": "10",
                "flagTargetInZone": "11"
            },
            "401": {
                "name": "EnergySpire",
                "priority": 4,
                "castCondition": {
                    "pose": [
                        101
                    ],
                    "pickRangeMax": 50.0
                },
                "cd": 15.0,
                "cdUpperRange": 7.5,
                "publicCDGroup": "",
                "stateIDs": [
                    "EnergySpire"
                ],
                "skillQueryingTime": 3.0,
                "flagTargetReachable": "10",
                "flagSelfOnTemplateCollider": "01",
                "flagSelfInZone": "10",
                "flagTargetInZone": "11"
            },
            "501": {
                "name": "CoreExplode",
                "priority": 1,
                "castCondition": {
                    "pose": [
                        101
                    ],
                    "pickRangeMax": 50.0
                },
                "cd": 75.0,
                "cdUpperRange": 15.0,
                "initialCD": 30.0,
                "initialCDUpperRange": 5.0,
                "publicCDGroup": "",
                "skillGroupCDID": 3,
                "stateIDs": [
                    "CoreExplode"
                ],
                "skillQueryingTime": 3.0,
                "flagTargetReachable": "10",
                "flagSelfOnTemplateCollider": "01",
                "flagSelfInZone": "10",
                "flagTargetInZone": "11"
            },
            "502": {
                "name": "CoreExplode",
                "priority": 1,
                "castCondition": {
                    "pose": [
                        101
                    ],
                    "pickRangeMax": 50.0
                },
                "cd": 90.0,
                "cdUpperRange": 10.0,
                "initialCD": 25.0,
                "initialCDUpperRange": 5.0,
                "publicCDGroup": "",
                "stateIDs": [
                    "CoreExplode"
                ],
                "skillQueryingTime": 3.0,
                "flagTargetReachable": "10",
                "flagSelfOnTemplateCollider": "01",
                "flagSelfInZone": "10",
                "flagTargetInZone": "11"
            },
            "601": {
                "name": "LaserArray",
                "priority": 1,
                "castCondition": {
                    "pose": [
                        101
                    ],
                    "pickRangeMax": 50.0
                },
                "cd": 75.0,
                "cdUpperRange": 15.0,
                "initialCD": 30.0,
                "initialCDUpperRange": 5.0,
                "publicCDGroup": "",
                "skillGroupCDID": 3,
                "stateIDs": [
                    "LaserArray"
                ],
                "skillQueryingTime": 3.0,
                "flagTargetReachable": "10",
                "flagSelfOnTemplateCollider": "01",
                "flagSelfInZone": "10",
                "flagTargetInZone": "11"
            },
            "602": {
                "name": "LaserArray",
                "priority": 1,
                "castCondition": {
                    "pose": [
                        101
                    ],
                    "pickRangeMax": 50.0
                },
                "cd": 95.0,
                "cdUpperRange": 15.0,
                "initialCD": 60.0,
                "initialCDUpperRange": 5.0,
                "publicCDGroup": "",
                "stateIDs": [
                    "LaserArray"
                ],
                "skillQueryingTime": 3.0,
                "flagTargetReachable": "10",
                "flagSelfOnTemplateCollider": "01",
                "flagSelfInZone": "10",
                "flagTargetInZone": "11"
            },
            "901": {
                "name": "Return",
                "priority": 1,
                "castCondition": {
                    "pose": [
                        901
                    ]
                },
                "cd": 999999.0,
                "publicCDGroup": "",
                "ALJOJAMBLBE": false,
                "stateIDs": [
                    "Return"
                ],
                "skillQueryingTime": 3.0,
                "flagTargetReachable": "10",
                "flagSelfOnTemplateCollider": "01",
                "flagSelfInZone": "10",
                "flagTargetInZone": "11"
            }
        },
        "skillGCD": 0.0
    },
    "inputKeys": [
        {
            "keyID": 101,
            "inputKeyCode": 257,
            "abilityName": ""
        },
        {
            "keyID": 151,
            "inputKeyCode": 258,
            "abilityName": ""
        },
        {
            "keyID": 201,
            "inputKeyCode": 259,
            "abilityName": ""
        },
        {
            "keyID": 251,
            "inputKeyCode": 260,
            "abilityName": ""
        },
        {
            "keyID": 301,
            "inputKeyCode": 261,
            "abilityName": ""
        },
        {
            "keyID": 401,
            "inputKeyCode": 262,
            "abilityName": ""
        },
        {
            "keyID": 501,
            "inputKeyCode": 263,
            "abilityName": ""
        },
        {
            "keyID": 601,
            "inputKeyCode": 264,
            "abilityName": ""
        },
        {
            "keyID": 901,
            "inputKeyCode": 265,
            "abilityName": ""
        },
        {
            "keyID": 902,
            "inputKeyCode": 266,
            "abilityName": ""
        },
        {
            "keyID": 903,
            "inputKeyCode": 266,
            "abilityName": ""
        },
        {
            "keyID": 1,
            "inputKeyCode": 267,
            "abilityName": ""
        }
    ],
    "move": {
        "$type": "ConfigAnimatorMove",
        "velocityForce": {
            "muteAll": true
        },
        "DEBLKNNOLDD": true,
        "positionModifyState": "None",
        "DNAOCNDMCPI": true
    },
    "audio": {},
    "cameraAdjust": {
        "default": {
            "$type": "ConfigSpecialCamera",
            "priority": 1.0,
            "enterRadius": 150.0,
            "exitRadius": 150.0,
            "heightAdjust": 1.5,
            "fov": 42.5,
            "zoom": 11.0,
            "sphericalY": 1.5,
            "lockSphericalY": false,
            "sphericalYUp": 45.0,
            "sphericalYDown": 30.0,
            "autoTurnStartMin": 10.0,
            "autoTurnStartMax": 10.0,
            "autoTurnEndMin": 150.0,
            "autoTurnEndMax": 150.0,
            "HAMIAGIOHHH": "CircleR25",
            "CNLEABGOKFG": "CircleR200",
            "EKKNBLNHNEG": true,
            "GCMCMMEBPJE": true
        }
    }
}