{
    "sceneId": 50095,
    "monsters": [
        {
            "groupId": 250095001,
            "mapInstId": 1003,
            "aiGroupID": 250095001,
            "CBNANHBMMNC": true,
            "DGLJAJDAPNH": 999.0,
            "LGAONPKJDEC": true,
            "clearThreatTargetDistance": 999.0,
            "aiNeuronSetting": "DefaultSetting",
            "aiSensingTemplate": "DefaultTemplate",
            "forceCombatOnSpawn": true,
            "disableWander": true,
            "NCKMKJMDPDH": ""
        },
        {
            "groupId": 250095001,
            "mapInstId": 1005,
            "aiGroupID": 250095001,
            "CBNANHBMMNC": true,
            "DGLJAJDAPNH": 999.0,
            "LGAONPKJDEC": true,
            "clearThreatTargetDistance": 999.0,
            "aiNeuronSetting": "DefaultSetting",
            "aiSensingTemplate": "DefaultTemplate",
            "forceCombatOnSpawn": true,
            "disableWander": true,
            "NCKMKJMDPDH": ""
        },
        {
            "groupId": 250095001,
            "mapInstId": 1006,
            "aiGroupID": 250095001,
            "CBNANHBMMNC": true,
            "DGLJAJDAPNH": 999.0,
            "LGAONPKJDEC": true,
            "clearThreatTargetDistance": 999.0,
            "aiNeuronSetting": "DefaultSetting",
            "aiSensingTemplate": "DefaultTemplate",
            "forceCombatOnSpawn": true,
            "disableWander": true,
            "NCKMKJMDPDH": ""
        }
    ]
}