{
    "JDKPOCLJGPL": {
        "Eff_Gcg_Avatar_Diluc_Spine_Loop": {
            "ODJBOPPKABB": true,
            "KOGELNIBFMB": "Gcg_CardFace_Char_Avatar_Diluc_Spine",
            "GGPHPGIOHIC": "EffectRoot_Bg",
            "DFKMCJPEAGB": true,
            "OPKELPNAEIB": 1.0
        },
        "Eff_Gcg_Avatar_Diluc_Spine_BG": {
            "ODJBOPPKABB": true,
            "KOGELNIBFMB": "Gcg_CardFace_Char_Avatar_Diluc_Spine",
            "GGPHPGIOHIC": "EffectRoot_Bg",
            "GBKBMMGIJKL": true
        }
    }
}