{
    "JDKPOCLJGPL": {
        "Eff_Gcg_Avatar_Chongyun_Spine_Loop": {
            "KOGELNIBFMB": "",
            "GGPHPGIOHIC": "",
            "DFKMCJPEAGB": true,
            "OPKELPNAEIB": 1.0
        }
    }
}