{
    "JDKPOCLJGPL": {
        "Eff_Gcg_Avatar_Cyno_Spine_Loop_01": {
            "ODJBOPPKABB": true,
            "KOGELNIBFMB": "Gcg_CardFace_Char_Avatar_Cyno_Spine",
            "GGPHPGIOHIC": "EffectRoot_Bg",
            "DFKMCJPEAGB": true,
            "OPKELPNAEIB": 0.5
        }
    }
}