{
    "JDKPOCLJGPL": {
        "Eff_Gcg_Avatar_Bennett_Spine_Loop": {
            "KOGELNIBFMB": "",
            "GGPHPGIOHIC": "",
            "DFKMCJPEAGB": true,
            "OPKELPNAEIB": 1.0
        }
    },
    "MMHECPLFPMF": {
        "Eff_Gcg_Avatar_Bennett_Spine_Loop_Star": {
            "KOGELNIBFMB": "",
            "GGPHPGIOHIC": "",
            "JKLCFOBFJKG": "Gcg_CardFace_Char_Avatar_Bennett_Spine",
            "GPPAJAOMFEK": "Base Layer",
            "LFBIELIEMMO": "Bennett_Spine_Idle",
            "normalizedTime": 0.642799973487854
        }
    }
}