{
    "JDKPOCLJGPL": {
        "Eff_Gcg_Avatar_Keqing_Spine_Loop": {
            "ODJBOPPKABB": true,
            "KOGELNIBFMB": "Gcg_CardFace_Char_Avatar_Keqing_Spine",
            "GGPHPGIOHIC": "EffectRoot_Bg"
        }
    }
}