[
    {
        "crowdGroupID": 1,
        "boundCenter": {
            "x": -2017.2921142578125,
            "y": 202.2167510986328,
            "z": 2435.669189453125
        },
        "boundSize": {
            "x": 41.889892578125,
            "y": 3.270904541015625,
            "z": 105.51025390625
        },
        "crowdRestrictionGroups": [
            {
                "questRes": [
                    {
                        "questID": 302515,
                        "questStates": [
                            "QUEST_STATE_FINISHED"
                        ]
                    },
                    {
                        "questID": 302507,
                        "questAccepted": false,
                        "questStates": [
                            "QUEST_STATE_NONE"
                        ]
                    }
                ]
            }
        ],
        "BECPOLEJOAN": [
            {
                "HIOIMLBAKIP": "Bip001_Head_NPC_Item_CrowdVoidAttach_Model",
                "questRes": [
                    {
                        "questID": 302812,
                        "questStates": [
                            "QUEST_STATE_FINISHED"
                        ]
                    }
                ]
            }
        ],
        "DFCCFKEDABJ": true
    },
    {
        "crowdGroupID": 2,
        "boundCenter": {
            "x": -1946.927001953125,
            "y": 201.9971466064453,
            "z": 2556.08984375
        },
        "boundSize": {
            "x": 77.402099609375,
            "y": 2.380706787109375,
            "z": 31.736328125
        },
        "BECPOLEJOAN": [
            {
                "HIOIMLBAKIP": "Bip001_Head_NPC_Item_CrowdVoidAttach_Model",
                "questRes": [
                    {
                        "questID": 302812,
                        "questStates": [
                            "QUEST_STATE_FINISHED"
                        ]
                    }
                ]
            }
        ],
        "DFCCFKEDABJ": true
    },
    {
        "crowdGroupID": 3,
        "boundCenter": {
            "x": -1927.7664794921875,
            "y": 208.43218994140625,
            "z": 2656.119873046875
        },
        "boundSize": {
            "x": 156.928955078125,
            "y": 15.3402099609375,
            "z": 84.02197265625
        },
        "BECPOLEJOAN": [
            {
                "HIOIMLBAKIP": "Bip001_Head_NPC_Item_CrowdVoidAttach_Model",
                "questRes": [
                    {
                        "questID": 302812,
                        "questStates": [
                            "QUEST_STATE_FINISHED"
                        ]
                    }
                ]
            }
        ],
        "DFCCFKEDABJ": true
    },
    {
        "crowdGroupID": 6,
        "boundCenter": {
            "x": -2028.0545654296875,
            "y": 203.12579345703125,
            "z": 2592.138671875
        },
        "boundSize": {
            "x": 57.169189453125,
            "y": 3.5308074951171875,
            "z": 52.291748046875
        },
        "crowdRestrictionGroups": [
            {
                "questRes": [
                    {
                        "questID": 300609,
                        "questStates": [
                            "QUEST_STATE_FINISHED"
                        ]
                    },
                    {
                        "questID": 300612,
                        "questAccepted": false,
                        "questStates": [
                            "QUEST_STATE_NONE"
                        ]
                    }
                ]
            },
            {
                "questRes": [
                    {
                        "questID": 300508,
                        "questStates": [
                            "QUEST_STATE_UNFINISHED"
                        ]
                    }
                ]
            }
        ],
        "BECPOLEJOAN": [
            {
                "HIOIMLBAKIP": "Bip001_Head_NPC_Item_CrowdVoidAttach_Model",
                "questRes": [
                    {
                        "questID": 302812,
                        "questStates": [
                            "QUEST_STATE_FINISHED"
                        ]
                    }
                ]
            }
        ],
        "DFCCFKEDABJ": true
    },
    {
        "crowdGroupID": 7,
        "boundCenter": {
            "x": -1943.238525390625,
            "y": 225.08554077148438,
            "z": 2578.578369140625
        },
        "boundSize": {
            "x": 41.15283203125,
            "y": 11.0675048828125,
            "z": 37.63525390625
        },
        "DFCCFKEDABJ": true
    },
    {
        "crowdGroupID": 8,
        "boundCenter": {
            "x": -1901.112060546875,
            "y": 244.35885620117188,
            "z": 2536.676513671875
        },
        "boundSize": {
            "x": 43.19384765625,
            "y": 2.64471435546875,
            "z": 90.60693359375
        },
        "BECPOLEJOAN": [
            {
                "HIOIMLBAKIP": "Bip001_Head_NPC_Item_CrowdVoidAttach_Model",
                "questRes": [
                    {
                        "questID": 302812,
                        "questStates": [
                            "QUEST_STATE_FINISHED"
                        ]
                    }
                ]
            }
        ],
        "DFCCFKEDABJ": true
    },
    {
        "crowdGroupID": 9,
        "boundCenter": {
            "x": -1820.281494140625,
            "y": 202.7519073486328,
            "z": 2612.59912109375
        },
        "boundSize": {
            "x": 114.40087890625,
            "y": 4.821014404296875,
            "z": 114.309814453125
        },
        "BECPOLEJOAN": [
            {
                "HIOIMLBAKIP": "Bip001_Head_NPC_Item_CrowdVoidAttach_Model",
                "questRes": [
                    {
                        "questID": 302812,
                        "questStates": [
                            "QUEST_STATE_FINISHED"
                        ]
                    }
                ]
            }
        ],
        "DFCCFKEDABJ": true
    },
    {
        "crowdGroupID": 10,
        "boundCenter": {
            "x": -2101.7919921875,
            "y": 201.9718017578125,
            "z": 2612.822509765625
        },
        "boundSize": {
            "x": 91.443603515625,
            "y": 3.240997314453125,
            "z": 53.22119140625
        },
        "crowdRestrictionGroups": [
            {
                "questRes": [
                    {
                        "questID": 300609,
                        "questStates": [
                            "QUEST_STATE_FINISHED"
                        ]
                    },
                    {
                        "questID": 300612,
                        "questAccepted": false,
                        "questStates": [
                            "QUEST_STATE_NONE"
                        ]
                    }
                ]
            }
        ],
        "BECPOLEJOAN": [
            {
                "HIOIMLBAKIP": "Bip001_Head_NPC_Item_CrowdVoidAttach_Model",
                "questRes": [
                    {
                        "questID": 302812,
                        "questStates": [
                            "QUEST_STATE_FINISHED"
                        ]
                    }
                ]
            }
        ],
        "DFCCFKEDABJ": true
    },
    {
        "crowdGroupID": 11,
        "boundCenter": {
            "x": -1891.569091796875,
            "y": 203.11019897460938,
            "z": 2522.8447265625
        },
        "boundSize": {
            "x": 131.52392578125,
            "y": 3.4442138671875,
            "z": 42.9248046875
        },
        "BECPOLEJOAN": [
            {
                "HIOIMLBAKIP": "Bip001_Head_NPC_Item_CrowdVoidAttach_Model",
                "questRes": [
                    {
                        "questID": 302812,
                        "questStates": [
                            "QUEST_STATE_FINISHED"
                        ]
                    }
                ]
            }
        ],
        "DFCCFKEDABJ": true
    },
    {
        "crowdGroupID": 12,
        "boundCenter": {
            "x": -1965.7760009765625,
            "y": 203.33880615234375,
            "z": 2461.56689453125
        },
        "boundSize": {
            "x": 36.592041015625,
            "y": 3.97039794921875,
            "z": 41.017822265625
        },
        "crowdRestrictionGroups": [
            {
                "questRes": [
                    {
                        "questID": 302515,
                        "questStates": [
                            "QUEST_STATE_FINISHED"
                        ]
                    },
                    {
                        "questID": 302507,
                        "questAccepted": false,
                        "questStates": [
                            "QUEST_STATE_NONE"
                        ]
                    }
                ]
            }
        ],
        "BECPOLEJOAN": [
            {
                "HIOIMLBAKIP": "Bip001_Head_NPC_Item_CrowdVoidAttach_Model",
                "questRes": [
                    {
                        "questID": 302812,
                        "questStates": [
                            "QUEST_STATE_FINISHED"
                        ]
                    }
                ]
            }
        ],
        "DFCCFKEDABJ": true
    },
    {
        "crowdGroupID": 13,
        "boundCenter": {
            "x": -2288.0,
            "y": 203.57769775390625,
            "z": 2510.93212890625
        },
        "boundSize": {
            "x": 393.9658203125,
            "y": 4.389404296875,
            "z": 489.3017578125
        },
        "BECPOLEJOAN": [
            {
                "HIOIMLBAKIP": "Bip001_Head_NPC_Item_CrowdVoidAttach_Model",
                "questRes": [
                    {
                        "questID": 302812,
                        "questStates": [
                            "QUEST_STATE_FINISHED"
                        ]
                    }
                ]
            }
        ],
        "DFCCFKEDABJ": true
    },
    {
        "crowdGroupID": 14,
        "boundCenter": {
            "x": -1897.5634765625,
            "y": 202.91940307617188,
            "z": 2678.98046875
        },
        "boundSize": {
            "x": 1.0789794921875,
            "z": 0.68896484375
        },
        "crowdRestrictionGroups": [
            {
                "questRes": [
                    {
                        "questID": 300420,
                        "questStates": [
                            "QUEST_STATE_FINISHED"
                        ]
                    },
                    {
                        "questID": 300505,
                        "questAccepted": false,
                        "questStates": [
                            "QUEST_STATE_NONE"
                        ]
                    }
                ]
            }
        ],
        "DFCCFKEDABJ": true
    },
    {
        "crowdGroupID": 15,
        "boundCenter": {
            "x": -1908.612060546875,
            "y": 203.09970092773438,
            "z": 2507.580078125
        },
        "boundSize": {
            "x": 3.173828125,
            "z": 8.741943359375
        },
        "crowdRestrictionGroups": [
            {
                "sceneTags": [
                    {
                        "sceneTags": [
                            "FungusFighter"
                        ]
                    }
                ]
            }
        ],
        "DFCCFKEDABJ": true
    },
    {
        "crowdGroupID": 16,
        "boundCenter": {
            "x": -1986.9434814453125,
            "y": 201.3905029296875,
            "z": 2422.18310546875
        },
        "boundSize": {
            "x": 0.02294921875,
            "z": 1.776123046875
        },
        "crowdRestrictionGroups": [
            {
                "questRes": [
                    {
                        "questID": 302515,
                        "questStates": [
                            "QUEST_STATE_FINISHED"
                        ]
                    },
                    {
                        "questID": 302507,
                        "questAccepted": false,
                        "questStates": [
                            "QUEST_STATE_NONE"
                        ]
                    }
                ]
            },
            {
                "sceneTags": [
                    {
                        "sceneTags": [
                            "FungusFighter"
                        ]
                    }
                ]
            }
        ],
        "BECPOLEJOAN": [
            {
                "HIOIMLBAKIP": "Bip001_Head_NPC_Item_CrowdVoidAttach_Model",
                "questRes": [
                    {
                        "questID": 302812,
                        "questStates": [
                            "QUEST_STATE_FINISHED"
                        ]
                    }
                ]
            }
        ],
        "DFCCFKEDABJ": true
    }
]