{
    "DAPLEKMCBMB": [
        {
            "name": "Character_Keqing_Q_Normal",
            "IOMFAGOGAAJ": [
                {
                    "PIBJPDLMPKJ": 0.44999998807907104,
                    "actionGroups": [
                        {
                            "actions": [
                                {
                                    "$type": "GcgBehaviourSwitchOnCardLoopEffect",
                                    "KEACJLNKCHK": {
                                        "target": "Actor"
                                    }
                                },
                                {
                                    "$type": "GcgBehaviourFireEffect",
                                    "KEACJLNKCHK": {
                                        "target": "Actor"
                                    },
                                    "effectName": "Eff_Gcg_Common_ElementalBurst_NormalCharge",
                                    "KOGELNIBFMB": "",
                                    "GGPHPGIOHIC": "",
                                    "BFEBMINFJID": {
                                        "$type": "GcgBornRotationFollow"
                                    }
                                }
                            ]
                        }
                    ]
                },
                {
                    "PIBJPDLMPKJ": 0.25,
                    "actionGroups": [
                        {
                            "actions": [
                                {
                                    "$type": "GcgBehaviourFireUnLoopEffectOnTable",
                                    "PABJJLMINLI": "CharacterCenter",
                                    "GEDDOIMAJKE": "ActorOppoCamp",
                                    "effectName": "Eff_Gcg_Avatar_Keqing_ElementalBurst_Hit"
                                }
                            ]
                        }
                    ]
                },
                {
                    "PIBJPDLMPKJ": 1.0499999523162842,
                    "actionGroups": [
                        {
                            "actions": [
                                {
                                    "$type": "GcgBehaviourFireEffect",
                                    "KEACJLNKCHK": {
                                        "target": "Actor"
                                    },
                                    "effectName": "Eff_Gcg_Avatar_Keqing_ElementalBurst_BS",
                                    "KOGELNIBFMB": "",
                                    "GGPHPGIOHIC": "",
                                    "BFEBMINFJID": {
                                        "$type": "GcgBornRotationFollow"
                                    }
                                }
                            ]
                        }
                    ]
                },
                {
                    "actionGroups": [
                        {
                            "actions": [
                                {
                                    "$type": "GcgBehaviourTriggerAttack",
                                    "KEACJLNKCHK": {
                                        "target": "AllTarget"
                                    }
                                }
                            ]
                        }
                    ]
                },
                {
                    "PIBJPDLMPKJ": 0.15000000596046448,
                    "actionGroups": [
                        {
                            "actions": [
                                {
                                    "$type": "GcgBehaviourFireEffect",
                                    "KEACJLNKCHK": {
                                        "target": "MainTarget"
                                    },
                                    "effectName": "Eff_Gcg_Avatar_Keqing_ElementalBurst_Hit_01",
                                    "KOGELNIBFMB": "",
                                    "GGPHPGIOHIC": "",
                                    "BFEBMINFJID": {
                                        "$type": "GcgBornRotationFollow"
                                    }
                                },
                                {
                                    "$type": "GcgBehaviourShakeScreen",
                                    "KEACJLNKCHK": {
                                        "target": "MainTarget"
                                    },
                                    "FONIHNAMJML": "Common_ShakeScreen_Test_Q"
                                },
                                {
                                    "$type": "GcgBehaviourRunMoveScript",
                                    "DPLGBNHILIE": "GcgMotion_Hit04_03",
                                    "IOOMGNCKOAD": "",
                                    "JOLPHOFCPAK": {
                                        "target": "MainTarget"
                                    },
                                    "KEACJLNKCHK": {
                                        "target": "Actor"
                                    },
                                    "GNDGFAABMPL": true
                                }
                            ]
                        }
                    ]
                },
                {
                    "PIBJPDLMPKJ": 0.5,
                    "actionGroups": [
                        {
                            "actions": [
                                {
                                    "$type": "GcgBehaviourFireEffect",
                                    "KEACJLNKCHK": {
                                        "target": "SubTarget"
                                    },
                                    "effectName": "Eff_Gcg_Avatar_Keqing_ElementalBurst_Hit_02",
                                    "KOGELNIBFMB": "",
                                    "GGPHPGIOHIC": "",
                                    "BFEBMINFJID": {
                                        "$type": "GcgBornRotationFollow"
                                    }
                                }
                            ]
                        }
                    ]
                },
                {
                    "actionGroups": [
                        {
                            "actions": [
                                {
                                    "$type": "GcgBehaviourSwitchOnCardLoopEffect",
                                    "KEACJLNKCHK": {
                                        "target": "Actor"
                                    },
                                    "GFKOKIKOMNA": true
                                }
                            ]
                        }
                    ]
                }
            ]
        }
    ]
}