{
    "testBrick1": {
        "GIIIIJCCMIB": {
            "x": 5.0,
            "y": 5.0,
            "z": 5.0
        },
        "ACOECJHECPD": [
            "Ground"
        ]
    },
    "testBrick2": {
        "GIIIIJCCMIB": {
            "x": 5.0,
            "y": 5.0,
            "z": 5.0
        },
        "ACOECJHECPD": [
            "Prop"
        ]
    },
    "testBrick3": {
        "GIIIIJCCMIB": {
            "x": 5.0,
            "y": 1.0,
            "z": 5.0
        },
        "ACOECJHECPD": [
            "Prop"
        ],
        "EFJPLAKGOKD": true
    },
    "GroundBrick_555": {
        "GIIIIJCCMIB": {
            "x": 5.0,
            "y": 5.0,
            "z": 5.0
        },
        "ACOECJHECPD": [
            "Ground"
        ],
        "JJAFMCBMGLH": 12.0
    },
    "BaseCubeBrick_060505": {
        "GIIIIJCCMIB": {
            "x": 6.0,
            "y": 5.0,
            "z": 5.0
        },
        "ACOECJHECPD": [
            "Ground",
            "Prop",
            "Spike",
            "WindCircle",
            "Bubble"
        ],
        "JJAFMCBMGLH": 20.0
    },
    "BaseCubeBrick_050505": {
        "GIIIIJCCMIB": {
            "x": 5.0,
            "y": 5.0,
            "z": 5.0
        },
        "ACOECJHECPD": [
            "Ground",
            "Prop",
            "Spike",
            "WindCircle",
            "Bubble"
        ],
        "JJAFMCBMGLH": 20.0
    },
    "BaseCubeBrick_020202": {
        "GIIIIJCCMIB": {
            "x": 2.0,
            "y": 2.0,
            "z": 2.0
        },
        "ACOECJHECPD": [
            "Ground",
            "Prop",
            "Spike",
            "WindCircle",
            "Bubble"
        ],
        "JJAFMCBMGLH": 20.0
    },
    "BaseCubeBrick_030303": {
        "GIIIIJCCMIB": {
            "x": 3.0,
            "y": 3.0,
            "z": 3.0
        },
        "ACOECJHECPD": [
            "Ground",
            "Prop",
            "Spike",
            "WindCircle",
            "Bubble"
        ],
        "JJAFMCBMGLH": 20.0
    },
    "BaseCubeBrick_050105": {
        "GIIIIJCCMIB": {
            "x": 5.0,
            "y": 1.0,
            "z": 5.0
        },
        "ACOECJHECPD": [
            "Ground",
            "Prop",
            "Spike",
            "WindCircle",
            "Bubble"
        ],
        "JJAFMCBMGLH": 20.0
    },
    "BaseCubeBrick_050501": {
        "GIIIIJCCMIB": {
            "x": 5.0,
            "y": 5.0,
            "z": 1.0
        },
        "ACOECJHECPD": [
            "Ground",
            "Prop",
            "Spike",
            "WindCircle",
            "Bubble"
        ],
        "JJAFMCBMGLH": 20.0
    },
    "BaseCubeBrick_050205": {
        "GIIIIJCCMIB": {
            "x": 5.0,
            "y": 2.0,
            "z": 5.0
        },
        "ACOECJHECPD": [
            "Ground",
            "Prop",
            "Spike",
            "WindCircle",
            "Bubble"
        ],
        "JJAFMCBMGLH": 20.0
    },
    "BaseCubeBrick_200220": {
        "GIIIIJCCMIB": {
            "x": 20.0,
            "y": 2.0,
            "z": 20.0
        },
        "ACOECJHECPD": [
            "Ground",
            "Prop",
            "Spike",
            "WindCircle",
            "Bubble"
        ],
        "JJAFMCBMGLH": 20.0
    },
    "AirFlowBrick_051005": {
        "GIIIIJCCMIB": {
            "x": 5.0,
            "y": 10.0,
            "z": 5.0
        },
        "ACOECJHECPD": [
            "Airflow"
        ],
        "JJAFMCBMGLH": 30.0
    },
    "WindCircleBrick_050505": {
        "GIIIIJCCMIB": {
            "x": 5.0,
            "y": 5.0,
            "z": 5.0
        },
        "ACOECJHECPD": [
            "WindCircle"
        ],
        "JJAFMCBMGLH": 30.0
    },
    "BubbleBrick_020210": {
        "GIIIIJCCMIB": {
            "x": 2.0,
            "y": 2.0,
            "z": 10.0
        },
        "ACOECJHECPD": [
            "Ground",
            "Bubble"
        ],
        "JJAFMCBMGLH": 12.0
    },
    "AirBoostBrick_050205": {
        "GIIIIJCCMIB": {
            "x": 5.0,
            "y": 2.0,
            "z": 5.0
        },
        "ACOECJHECPD": [
            "WindCircle"
        ],
        "JJAFMCBMGLH": 12.0
    },
    "BarrageBrick_050205": {
        "GIIIIJCCMIB": {
            "x": 5.0,
            "y": 2.0,
            "z": 5.0
        },
        "ACOECJHECPD": [
            "Ground",
            "Bubble",
            "Spike"
        ],
        "JJAFMCBMGLH": 12.0,
        "EFJPLAKGOKD": true
    },
    "ThunderCreaterBrick_040204": {
        "GIIIIJCCMIB": {
            "x": 4.0,
            "y": 2.0,
            "z": 4.0
        },
        "ACOECJHECPD": [
            "Ground",
            "Bubble",
            "Spike"
        ],
        "JJAFMCBMGLH": 12.0,
        "EFJPLAKGOKD": true
    },
    "SpikeBrick_050105": {
        "GIIIIJCCMIB": {
            "x": 5.0,
            "y": 1.0,
            "z": 5.0
        },
        "ACOECJHECPD": [
            "Ground",
            "Spike"
        ],
        "JJAFMCBMGLH": 20.0,
        "EFJPLAKGOKD": true
    },
    "SpikeBrick_050103": {
        "GIIIIJCCMIB": {
            "x": 5.0,
            "y": 1.0,
            "z": 2.0
        },
        "ACOECJHECPD": [
            "Ground",
            "Spike"
        ],
        "JJAFMCBMGLH": 20.0,
        "EFJPLAKGOKD": true
    },
    "LightCoreBrick_050505": {
        "GIIIIJCCMIB": {
            "x": 5.0,
            "y": 5.0,
            "z": 5.0
        },
        "ACOECJHECPD": [
            "WindCircle"
        ],
        "JJAFMCBMGLH": 12.0
    },
    "PropBrick_020202": {
        "GIIIIJCCMIB": {
            "x": 2.0,
            "y": 2.0,
            "z": 2.0
        },
        "ACOECJHECPD": [
            "Ground",
            "Prop"
        ],
        "JJAFMCBMGLH": 30.0
    },
    "GroundBrick_551": {
        "GIIIIJCCMIB": {
            "x": 5.0,
            "y": 5.0,
            "z": 1.0
        },
        "ACOECJHECPD": [
            "Ground"
        ],
        "JJAFMCBMGLH": 12.0
    },
    "GroundBrick_515": {
        "GIIIIJCCMIB": {
            "x": 5.0,
            "y": 1.0,
            "z": 5.0
        },
        "ACOECJHECPD": [
            "Ground"
        ],
        "JJAFMCBMGLH": 12.0
    },
    "GroundBrick_525": {
        "GIIIIJCCMIB": {
            "x": 5.0,
            "y": 2.0,
            "z": 5.0
        },
        "ACOECJHECPD": [
            "Ground"
        ],
        "JJAFMCBMGLH": 12.0
    },
    "GroundBrick_345": {
        "GIIIIJCCMIB": {
            "x": 3.0,
            "y": 4.0,
            "z": 5.0
        },
        "ACOECJHECPD": [
            "Ground"
        ],
        "JJAFMCBMGLH": 12.0
    },
    "GroundBrick_10210": {
        "GIIIIJCCMIB": {
            "x": 10.0,
            "y": 2.0,
            "z": 10.0
        },
        "ACOECJHECPD": [
            "Ground"
        ],
        "JJAFMCBMGLH": 12.0
    },
    "GroundBrick_513": {
        "GIIIIJCCMIB": {
            "x": 5.0,
            "y": 1.0,
            "z": 3.0
        },
        "ACOECJHECPD": [
            "Ground"
        ],
        "JJAFMCBMGLH": 12.0
    },
    "GroundBrick_260526": {
        "GIIIIJCCMIB": {
            "x": 26.0,
            "y": 5.0,
            "z": 26.0
        },
        "ACOECJHECPD": [
            "Ground"
        ],
        "JJAFMCBMGLH": 12.0
    },
    "GroundBrick_200220": {
        "GIIIIJCCMIB": {
            "x": 20.0,
            "y": 2.0,
            "z": 20.0
        },
        "ACOECJHECPD": [
            "Ground"
        ],
        "JJAFMCBMGLH": 12.0
    },
    "LightCoreBrick_555": {
        "GIIIIJCCMIB": {
            "x": 5.0,
            "y": 5.0,
            "z": 5.0
        },
        "ACOECJHECPD": [
            "Prop"
        ],
        "JJAFMCBMGLH": 12.0
    },
    "PropBrick_551": {
        "GIIIIJCCMIB": {
            "x": 5.0,
            "y": 5.0,
            "z": 1.0
        },
        "ACOECJHECPD": [
            "Ground"
        ],
        "JJAFMCBMGLH": 12.0
    },
    "PropBrick_555": {
        "GIIIIJCCMIB": {
            "x": 5.0,
            "y": 5.0,
            "z": 5.0
        },
        "ACOECJHECPD": [
            "Prop"
        ],
        "JJAFMCBMGLH": 12.0
    },
    "PropBrick_222": {
        "GIIIIJCCMIB": {
            "x": 2.0,
            "y": 2.0,
            "z": 2.0
        },
        "ACOECJHECPD": [
            "Prop"
        ],
        "JJAFMCBMGLH": 12.0
    },
    "SpikeBrick_515": {
        "GIIIIJCCMIB": {
            "x": 5.0,
            "y": 1.0,
            "z": 5.0
        },
        "ACOECJHECPD": [
            "Ground"
        ],
        "JJAFMCBMGLH": 12.0,
        "EFJPLAKGOKD": true
    },
    "SpikeBrick_513": {
        "GIIIIJCCMIB": {
            "x": 5.0,
            "y": 1.0,
            "z": 3.0
        },
        "ACOECJHECPD": [
            "Ground"
        ],
        "JJAFMCBMGLH": 12.0,
        "EFJPLAKGOKD": true
    },
    "BarrageBrick_525": {
        "GIIIIJCCMIB": {
            "x": 5.0,
            "y": 2.0,
            "z": 5.0
        },
        "ACOECJHECPD": [
            "Ground"
        ],
        "JJAFMCBMGLH": 12.0,
        "EFJPLAKGOKD": true
    },
    "ThunderCreaterBrick_424": {
        "GIIIIJCCMIB": {
            "x": 4.0,
            "y": 2.0,
            "z": 4.0
        },
        "ACOECJHECPD": [
            "Ground"
        ],
        "JJAFMCBMGLH": 12.0,
        "EFJPLAKGOKD": true
    },
    "GroundBrick_020210": {
        "GIIIIJCCMIB": {
            "x": 2.0,
            "y": 2.0,
            "z": 10.0
        },
        "ACOECJHECPD": [
            "Ground"
        ],
        "JJAFMCBMGLH": 12.0
    },
    "GroundBrick_051005": {
        "GIIIIJCCMIB": {
            "x": 5.0,
            "y": 10.0,
            "z": 5.0
        },
        "ACOECJHECPD": [
            "Ground"
        ],
        "JJAFMCBMGLH": 20.0
    },
    "PropBrick_010101": {
        "GIIIIJCCMIB": {
            "x": 1.0,
            "y": 1.0,
            "z": 1.0
        },
        "ACOECJHECPD": [
            "Ground"
        ],
        "JJAFMCBMGLH": 12.0
    }
}