{
    "gadgetId": 0,
    "areaId": 0,
    "pos": {
        "z": -1.584575906227461e+29
    },
    "JIFEKNIMIDP": [
        {
            "x": -2425.965087890625,
            "y": 199.00308227539062,
            "z": 5625.126953125
        },
        {
            "x": -2384.261474609375,
            "y": 131.80381774902344,
            "z": 5625.79541015625
        },
        {
            "x": -2272.745849609375,
            "y": 179.57969665527344,
            "z": 5627.6787109375
        },
        {
            "x": -2257.834228515625,
            "y": 176.94729614257812,
            "z": 5575.4921875
        },
        {
            "x": -2251.673583984375,
            "y": 189.6564483642578,
            "z": 5568.5263671875
        },
        {
            "x": -2259.35546875,
            "y": 178.015869140625,
            "z": 5522.7890625
        },
        {
            "x": -2273.927001953125,
            "y": 188.57516479492188,
            "z": 5473.60595703125
        },
        {
            "x": -2415.086669921875,
            "y": 191.9662322998047,
            "z": 5473.4912109375
        },
        {
            "x": -2435.614013671875,
            "y": 191.74490356445312,
            "z": 5507.42578125
        },
        {
            "x": -2435.5302734375,
            "y": 191.97552490234375,
            "z": 5521.0341796875
        },
        {
            "x": -2428.197265625,
            "y": 192.212646484375,
            "z": 5604.42919921875
        }
    ]
}