{
    "id": 122,
    "stageMatureEvents": [
        "Play_Amb_Dungeon_Prison"
    ],
    "stageExitEvents": [
        "Stop_Amb_Dungeon_Prison",
        "State_Music_NonCombat"
    ],
    "stateValue": "State_Dungeon_OnmyoMaze_part1",
    "EDGKEHCFEFC": {
        "text": "Play_Music_Dungeon"
    },
    "FJBGDAMGLNA": {
        "text": "Stop_Music_Dungeon"
    }
}