{
    "HPNBIFHCIFI": {
        "HPNBIFHCIFI": {
            "GPU": [
                {
                    "JFIGECEACJP": [
                        {
                            "Info": "PS5",
                            "Values": [
                                "Invalid"
                            ]
                        }
                    ]
                },
                {
                    "AKKLJBGKDEB": 1,
                    "JFIGECEACJP": [
                        {
                            "Info": "PS5",
                            "Values": [
                                "Invalid"
                            ]
                        }
                    ]
                },
                {
                    "AKKLJBGKDEB": 2,
                    "JFIGECEACJP": [
                        {
                            "Info": "PS5",
                            "Values": [
                                "Invalid"
                            ]
                        }
                    ]
                },
                {
                    "AKKLJBGKDEB": 3,
                    "JFIGECEACJP": [
                        {
                            "Info": "PS5",
                            "Values": [
                                "Base"
                            ]
                        }
                    ]
                },
                {
                    "AKKLJBGKDEB": 4,
                    "JFIGECEACJP": [
                        {
                            "Info": "PS5",
                            "Values": [
                                "Invalid"
                            ]
                        }
                    ]
                }
            ],
            "DeviceSpecific": [
                {}
            ],
            "BinaryDefault": [
                {
                    "JFIGECEACJP": [
                        {
                            "Info": "Default",
                            "Values": [
                                "True"
                            ]
                        }
                    ]
                },
                {
                    "AKKLJBGKDEB": 1,
                    "JFIGECEACJP": [
                        {
                            "Info": "Default",
                            "Values": [
                                "False"
                            ]
                        }
                    ]
                }
            ],
            "Memory": [
                {}
            ]
        },
        "EGGAOGBEKPO": {
            "General": "GPU",
            "CPU": "GPU",
            "GPUMemory": "GPU"
        },
        "HEBCOAIIPKB": {
            "GPU": 3,
            "CPU": 3,
            "GPUMemory": 3
        }
    },
    "LJKMMDKNGBG": {
        "HEBLDNNDOHM": {
            "targetFrameRate": {
                "IAMJGEMMOJD": {
                    "GPU": [
                        0,
                        0,
                        0,
                        0,
                        0
                    ]
                },
                "DOBINOIFJAI": {},
                "MMAHHAJICGA": {
                    "default": {
                        "NCAPGPCDFEO": [
                            60.0
                        ]
                    }
                }
            },
            "particleDecreaseThresh": {
                "IAMJGEMMOJD": {
                    "GPU": [
                        1,
                        1,
                        0,
                        0,
                        0
                    ]
                },
                "DOBINOIFJAI": {},
                "MMAHHAJICGA": {
                    "default": {
                        "NCAPGPCDFEO": [
                            150.0,
                            200.0
                        ]
                    }
                }
            },
            "fsrScale": {
                "IAMJGEMMOJD": {
                    "GPU": [
                        2,
                        2,
                        2,
                        2,
                        2
                    ]
                },
                "MMAHHAJICGA": {
                    "default": {
                        "NCAPGPCDFEO": [
                            0.800000011920929,
                            0.8999999761581421,
                            1.0
                        ]
                    }
                }
            },
            "avatarMotionVectorStrategy": {
                "IAMJGEMMOJD": {
                    "GPU": [
                        2,
                        2,
                        2,
                        2,
                        2
                    ]
                },
                "MMAHHAJICGA": {
                    "default": {
                        "NCAPGPCDFEO": [
                            0.0,
                            1.0,
                            2.0
                        ]
                    }
                }
            },
            "shadowDistance": {
                "IAMJGEMMOJD": {
                    "GPU": [
                        0,
                        2,
                        2,
                        2,
                        2
                    ]
                },
                "DOBINOIFJAI": {},
                "MMAHHAJICGA": {
                    "default": {
                        "NCAPGPCDFEO": [
                            300.0,
                            800.0,
                            800.0
                        ]
                    }
                }
            },
            "shadowCascadeSplitCount": {
                "IAMJGEMMOJD": {
                    "GPU": [
                        0,
                        2,
                        2,
                        2,
                        2
                    ]
                },
                "DOBINOIFJAI": {},
                "MMAHHAJICGA": {
                    "default": {
                        "NCAPGPCDFEO": [
                            6.0,
                            8.0,
                            8.0
                        ]
                    }
                }
            },
            "perObjShadowQuality": {
                "IAMJGEMMOJD": {
                    "GPU": [
                        0,
                        2,
                        2,
                        2,
                        2
                    ]
                },
                "DOBINOIFJAI": {},
                "MMAHHAJICGA": {
                    "default": {
                        "NCAPGPCDFEO": [
                            0.0,
                            2.0,
                            2.0
                        ]
                    }
                }
            },
            "terrainBlendDistance": {
                "IAMJGEMMOJD": {
                    "GPU": [
                        2,
                        2,
                        2,
                        2,
                        2
                    ]
                },
                "DOBINOIFJAI": {},
                "MMAHHAJICGA": {
                    "default": {
                        "NCAPGPCDFEO": [
                            80.0,
                            180.0,
                            240.0
                        ]
                    }
                }
            },
            "shaderLODDistance": {
                "IAMJGEMMOJD": {
                    "GPU": [
                        2,
                        2,
                        2,
                        2,
                        2
                    ]
                },
                "DOBINOIFJAI": {},
                "MMAHHAJICGA": {
                    "default": {
                        "NCAPGPCDFEO": [
                            60.0,
                            120.0,
                            180.0
                        ]
                    }
                }
            },
            "lightViewDistanceRatio": {
                "IAMJGEMMOJD": {
                    "GPU": [
                        2,
                        2,
                        2,
                        2,
                        2
                    ]
                },
                "DOBINOIFJAI": {},
                "MMAHHAJICGA": {
                    "default": {
                        "NCAPGPCDFEO": [
                            0.800000011920929,
                            1.0,
                            1.0
                        ]
                    }
                }
            },
            "textureStreamingBudget": {
                "IAMJGEMMOJD": {
                    "GPU": [
                        0,
                        0,
                        0,
                        0,
                        0
                    ]
                },
                "DOBINOIFJAI": {},
                "MMAHHAJICGA": {
                    "default": {
                        "NCAPGPCDFEO": [
                            900.0
                        ]
                    }
                }
            },
            "terrainDistance": {
                "IAMJGEMMOJD": {
                    "GPU": [
                        0,
                        0,
                        0,
                        0,
                        0
                    ]
                },
                "DOBINOIFJAI": {},
                "MMAHHAJICGA": {
                    "default": {
                        "NCAPGPCDFEO": [
                            1000.0
                        ]
                    }
                }
            },
            "shellCount": {
                "IAMJGEMMOJD": {
                    "GPU": [
                        0,
                        0,
                        0,
                        0,
                        0
                    ]
                },
                "DOBINOIFJAI": {},
                "MMAHHAJICGA": {
                    "default": {
                        "NCAPGPCDFEO": [
                            20.0
                        ]
                    }
                }
            },
            "shellMaxObjectsCount": {
                "IAMJGEMMOJD": {
                    "GPU": [
                        0,
                        0,
                        0,
                        0,
                        0
                    ]
                },
                "DOBINOIFJAI": {},
                "MMAHHAJICGA": {
                    "default": {
                        "NCAPGPCDFEO": [
                            100.0
                        ]
                    }
                }
            },
            "sharedSliceFrameGameSystemTimeFor30Frame": {
                "IAMJGEMMOJD": {
                    "GPU": [
                        0,
                        0,
                        0,
                        0,
                        0
                    ]
                },
                "MMAHHAJICGA": {
                    "default": {
                        "NCAPGPCDFEO": [
                            4.0
                        ]
                    }
                }
            },
            "sharedSliceFrameGameSystemTimeFor60Frame": {
                "IAMJGEMMOJD": {
                    "GPU": [
                        0,
                        0,
                        0,
                        0,
                        0
                    ]
                },
                "MMAHHAJICGA": {
                    "default": {
                        "NCAPGPCDFEO": [
                            2.0
                        ]
                    }
                }
            },
            "sharedSliceFrameGameSystemTimeFor120Frame": {
                "IAMJGEMMOJD": {
                    "GPU": [
                        0,
                        0,
                        0,
                        0,
                        0
                    ]
                },
                "MMAHHAJICGA": {
                    "default": {
                        "NCAPGPCDFEO": [
                            1.0
                        ]
                    }
                }
            },
            "crowdMaxScreenNum": {
                "IAMJGEMMOJD": {
                    "GPU": [
                        0,
                        0,
                        0,
                        0,
                        0
                    ]
                },
                "DOBINOIFJAI": {},
                "MMAHHAJICGA": {
                    "default": {
                        "NCAPGPCDFEO": [
                            64.0
                        ]
                    }
                }
            },
            "crowdConeViewUpdatePeriod": {
                "IAMJGEMMOJD": {
                    "DeviceSpecific": [
                        0
                    ]
                },
                "DOBINOIFJAI": {},
                "MMAHHAJICGA": {
                    "default": {
                        "NCAPGPCDFEO": [
                            5.0
                        ]
                    }
                }
            },
            "particleSystemDynamicBudgetMemLowRatio": {
                "IAMJGEMMOJD": {
                    "Memory": []
                },
                "MMAHHAJICGA": {
                    "default": {
                        "NCAPGPCDFEO": [
                            0.0
                        ]
                    }
                }
            },
            "particleSystemDynamicBudgetMemHighRatio": {
                "IAMJGEMMOJD": {
                    "Memory": []
                },
                "MMAHHAJICGA": {
                    "default": {
                        "NCAPGPCDFEO": [
                            0.0
                        ]
                    }
                }
            },
            "particleSystemDynamicBudgetMemClearRatio": {
                "IAMJGEMMOJD": {
                    "Memory": []
                },
                "MMAHHAJICGA": {
                    "default": {
                        "NCAPGPCDFEO": [
                            0.0
                        ]
                    }
                }
            },
            "textureStreamingOffset": {
                "IAMJGEMMOJD": {
                    "Memory": []
                },
                "MMAHHAJICGA": {
                    "default": {
                        "NCAPGPCDFEO": [
                            0.0
                        ]
                    }
                }
            },
            "objectPoolSizeMemHighRatio": {
                "IAMJGEMMOJD": {
                    "Memory": []
                },
                "MMAHHAJICGA": {
                    "default": {
                        "NCAPGPCDFEO": [
                            0.0
                        ]
                    }
                }
            },
            "objectPoolSizeMemClearRatio": {
                "IAMJGEMMOJD": {
                    "Memory": []
                },
                "MMAHHAJICGA": {
                    "default": {
                        "NCAPGPCDFEO": [
                            0.0
                        ]
                    }
                }
            },
            "particleSystemBudgetSize": {
                "IAMJGEMMOJD": {
                    "Memory": []
                },
                "MMAHHAJICGA": {
                    "default": {
                        "NCAPGPCDFEO": [
                            4000.0
                        ]
                    }
                }
            },
            "textureStreamingBudgetByMemoryLevel": {
                "IAMJGEMMOJD": {
                    "Memory": []
                },
                "MMAHHAJICGA": {
                    "default": {
                        "NCAPGPCDFEO": [
                            900.0
                        ]
                    }
                }
            },
            "textureStreamingBudgetByLowMemRegion": {
                "IAMJGEMMOJD": {
                    "Memory": []
                },
                "MMAHHAJICGA": {
                    "default": {
                        "NCAPGPCDFEO": [
                            900.0
                        ]
                    }
                }
            },
            "textureStreamingBudgetOnLowMem": {
                "IAMJGEMMOJD": {
                    "Memory": []
                },
                "MMAHHAJICGA": {
                    "default": {
                        "NCAPGPCDFEO": [
                            900.0
                        ]
                    }
                }
            },
            "renderResolutionScaleOnLowMem": {
                "IAMJGEMMOJD": {
                    "Memory": []
                },
                "MMAHHAJICGA": {
                    "default": {
                        "NCAPGPCDFEO": [
                            1.0
                        ]
                    }
                }
            },
            "particleSystemReleaseForBudgetTimeThreshold": {
                "IAMJGEMMOJD": {
                    "Memory": []
                },
                "MMAHHAJICGA": {
                    "default": {
                        "NCAPGPCDFEO": [
                            120.0
                        ]
                    }
                }
            },
            "UILRUCacheNum": {
                "IAMJGEMMOJD": {
                    "Memory": []
                },
                "MMAHHAJICGA": {
                    "default": {
                        "NCAPGPCDFEO": [
                            5.0
                        ]
                    }
                }
            },
            "objectPoolRetireSize": {
                "IAMJGEMMOJD": {
                    "Memory": []
                },
                "MMAHHAJICGA": {
                    "default": {
                        "NCAPGPCDFEO": [
                            50.0
                        ]
                    }
                }
            },
            "bundleUnloadLRUCapcity": {
                "IAMJGEMMOJD": {
                    "Memory": []
                },
                "MMAHHAJICGA": {
                    "default": {
                        "NCAPGPCDFEO": [
                            200.0
                        ]
                    }
                }
            },
            "bundleUnloadLRURetireSize": {
                "IAMJGEMMOJD": {
                    "Memory": []
                },
                "MMAHHAJICGA": {
                    "default": {
                        "NCAPGPCDFEO": [
                            50.0
                        ]
                    }
                }
            },
            "bundleUnloadLRURetireTime": {
                "IAMJGEMMOJD": {
                    "Memory": []
                },
                "MMAHHAJICGA": {
                    "default": {
                        "NCAPGPCDFEO": [
                            5.0
                        ]
                    }
                }
            },
            "gameObjectPoolCount": {
                "IAMJGEMMOJD": {
                    "Memory": []
                },
                "MMAHHAJICGA": {
                    "default": {
                        "NCAPGPCDFEO": [
                            2000.0
                        ]
                    }
                }
            },
            "maxAssetBundleCacheSizeMB": {
                "IAMJGEMMOJD": {
                    "Memory": []
                },
                "MMAHHAJICGA": {
                    "default": {
                        "NCAPGPCDFEO": [
                            12000.0
                        ]
                    }
                }
            },
            "assetBundleUnloadWarnningGPUMemoryRatio": {
                "IAMJGEMMOJD": {
                    "GPU": [
                        0,
                        0,
                        0,
                        0,
                        0
                    ]
                },
                "MMAHHAJICGA": {
                    "default": {
                        "NCAPGPCDFEO": [
                            0.0
                        ]
                    }
                }
            },
            "assetBundleUnloadWarnningMemoryMB": {
                "IAMJGEMMOJD": {
                    "Memory": []
                },
                "MMAHHAJICGA": {
                    "default": {
                        "NCAPGPCDFEO": [
                            11000.0
                        ]
                    }
                }
            },
            "assetBundleSize2MemoryRatio": {
                "IAMJGEMMOJD": {
                    "Memory": []
                },
                "MMAHHAJICGA": {
                    "default": {
                        "NCAPGPCDFEO": [
                            0.699999988079071
                        ]
                    }
                }
            },
            "virtualJoystickRadius": {
                "IAMJGEMMOJD": {
                    "DeviceSpecific": [
                        0
                    ]
                },
                "DOBINOIFJAI": {},
                "MMAHHAJICGA": {
                    "default": {
                        "NCAPGPCDFEO": [
                            0.5
                        ]
                    }
                }
            },
            "avatarOutlineThresh": {
                "IAMJGEMMOJD": {
                    "DeviceSpecific": [
                        0
                    ]
                },
                "DOBINOIFJAI": {},
                "MMAHHAJICGA": {
                    "default": {
                        "NCAPGPCDFEO": [
                            45.0
                        ]
                    }
                }
            },
            "avatarShadowThresh": {
                "IAMJGEMMOJD": {
                    "DeviceSpecific": [
                        0
                    ]
                },
                "DOBINOIFJAI": {},
                "MMAHHAJICGA": {
                    "default": {
                        "NCAPGPCDFEO": [
                            300.0
                        ]
                    }
                }
            },
            "avatarMotionVectorThresh": {
                "IAMJGEMMOJD": {
                    "DeviceSpecific": [
                        0
                    ]
                },
                "DOBINOIFJAI": {},
                "MMAHHAJICGA": {
                    "default": {
                        "NCAPGPCDFEO": [
                            300.0
                        ]
                    }
                }
            },
            "viewDistanceRatio": {
                "IAMJGEMMOJD": {
                    "DeviceSpecific": [
                        0
                    ]
                },
                "DOBINOIFJAI": {},
                "MMAHHAJICGA": {
                    "default": {
                        "NCAPGPCDFEO": [
                            120.0
                        ]
                    }
                }
            },
            "crowdSpawnDistance": {
                "IAMJGEMMOJD": {
                    "DeviceSpecific": [
                        0
                    ]
                },
                "DOBINOIFJAI": {},
                "MMAHHAJICGA": {
                    "default": {
                        "NCAPGPCDFEO": [
                            60.0
                        ]
                    }
                }
            },
            "crowdDespawnDistance": {
                "IAMJGEMMOJD": {
                    "DeviceSpecific": [
                        0
                    ]
                },
                "DOBINOIFJAI": {},
                "MMAHHAJICGA": {
                    "default": {
                        "NCAPGPCDFEO": [
                            70.0
                        ]
                    }
                }
            },
            "meshDepthBlendDistance": {
                "IAMJGEMMOJD": {
                    "DeviceSpecific": [
                        0
                    ]
                },
                "MMAHHAJICGA": {
                    "default": {
                        "NCAPGPCDFEO": [
                            30.0
                        ]
                    }
                }
            }
        },
        "AHHPAFDNLLH": {
            "roomLightFrequency": {
                "IAMJGEMMOJD": {
                    "GPU": [
                        0,
                        0,
                        0,
                        0,
                        0
                    ]
                },
                "MMAHHAJICGA": {
                    "default": {
                        "NCAPGPCDFEO": [
                            [
                                1.0,
                                2.0,
                                4.0,
                                8.0
                            ]
                        ]
                    }
                }
            },
            "roomLightFrequencyDistSqr": {
                "IAMJGEMMOJD": {
                    "GPU": [
                        0,
                        0,
                        0,
                        0,
                        0
                    ]
                },
                "MMAHHAJICGA": {
                    "default": {
                        "NCAPGPCDFEO": [
                            [
                                1.0,
                                400.0,
                                1600.0,
                                6400.0
                            ]
                        ]
                    }
                }
            }
        },
        "HJLCFLNINCO": {
            "antialiasingMethod": {
                "IAMJGEMMOJD": {
                    "GPU": [
                        1,
                        1,
                        1,
                        1,
                        1
                    ]
                },
                "DOBINOIFJAI": {},
                "MMAHHAJICGA": {
                    "default": {
                        "NCAPGPCDFEO": [
                            "None",
                            "FSR2"
                        ]
                    }
                }
            },
            "taaQuality": {
                "IAMJGEMMOJD": {
                    "GPU": [
                        0,
                        0,
                        0,
                        0,
                        0
                    ]
                },
                "DOBINOIFJAI": {},
                "MMAHHAJICGA": {
                    "default": {
                        "NCAPGPCDFEO": [
                            "TAALow",
                            "TAAHigh"
                        ]
                    }
                }
            },
            "smaaQuality": {
                "IAMJGEMMOJD": {
                    "GPU": [
                        2,
                        2,
                        2,
                        2,
                        2
                    ]
                },
                "DOBINOIFJAI": {},
                "MMAHHAJICGA": {
                    "default": {
                        "NCAPGPCDFEO": [
                            "Low",
                            "Middile",
                            "High"
                        ]
                    }
                }
            },
            "checkboardType": {
                "IAMJGEMMOJD": {
                    "GPU": [
                        0,
                        0,
                        0,
                        0,
                        0
                    ]
                },
                "DOBINOIFJAI": {},
                "MMAHHAJICGA": {
                    "default": {
                        "NCAPGPCDFEO": [
                            "None",
                            "MSAA2x",
                            "LineHalf"
                        ]
                    }
                }
            },
            "aoMode": {
                "IAMJGEMMOJD": {
                    "GPU": [
                        2,
                        2,
                        2,
                        2,
                        2
                    ]
                },
                "DOBINOIFJAI": {},
                "MMAHHAJICGA": {
                    "default": {
                        "NCAPGPCDFEO": [
                            "Disable",
                            "SSAO",
                            "HBAO"
                        ]
                    }
                }
            },
            "particleEmitLevel": {
                "IAMJGEMMOJD": {
                    "GPU": [
                        3,
                        3,
                        2,
                        2,
                        2
                    ]
                },
                "DOBINOIFJAI": {},
                "MMAHHAJICGA": {
                    "default": {
                        "NCAPGPCDFEO": [
                            "ExtremeLow",
                            "Low",
                            "Middle",
                            "High"
                        ]
                    }
                }
            },
            "shadowResolution": {
                "IAMJGEMMOJD": {
                    "GPU": [
                        1,
                        2,
                        2,
                        2,
                        2
                    ]
                },
                "DOBINOIFJAI": {},
                "MMAHHAJICGA": {
                    "default": {
                        "NCAPGPCDFEO": [
                            "Low",
                            "Medium",
                            "High",
                            "VeryHigh"
                        ]
                    }
                }
            },
            "levelStreamingConfig": {
                "IAMJGEMMOJD": {
                    "GPU": [
                        0,
                        0,
                        0,
                        0,
                        0
                    ]
                },
                "DOBINOIFJAI": {},
                "MMAHHAJICGA": {
                    "default": {
                        "NCAPGPCDFEO": [
                            "PS5"
                        ]
                    }
                }
            },
            "shaderQualityKeyword": {
                "IAMJGEMMOJD": {
                    "GPU": [
                        2,
                        2,
                        2,
                        2,
                        2
                    ]
                },
                "DOBINOIFJAI": {},
                "MMAHHAJICGA": {
                    "default": {
                        "NCAPGPCDFEO": [
                            "MHY_SHADER_LOW",
                            "MHY_SHADER_MIDDLE",
                            "MHY_SHADER_HIGH"
                        ]
                    }
                }
            },
            "enviroConfig": {
                "IAMJGEMMOJD": {
                    "GPU": [
                        0,
                        0,
                        0,
                        0,
                        0
                    ]
                },
                "DOBINOIFJAI": {},
                "MMAHHAJICGA": {
                    "default": {
                        "NCAPGPCDFEO": [
                            "PS4Default"
                        ]
                    }
                }
            },
            "performanceQuality": {
                "IAMJGEMMOJD": {
                    "DeviceSpecific": [
                        0
                    ]
                },
                "DOBINOIFJAI": {},
                "MMAHHAJICGA": {
                    "default": {
                        "NCAPGPCDFEO": [
                            "High"
                        ]
                    }
                }
            },
            "uiCacheConfig": {
                "IAMJGEMMOJD": {
                    "DeviceSpecific": [
                        0
                    ]
                },
                "DOBINOIFJAI": {},
                "MMAHHAJICGA": {
                    "default": {
                        "NCAPGPCDFEO": [
                            "PS4Default"
                        ]
                    }
                }
            },
            "crowdMaxSpawnGrade": {
                "IAMJGEMMOJD": {
                    "DeviceSpecific": [
                        0
                    ]
                },
                "DOBINOIFJAI": {},
                "MMAHHAJICGA": {
                    "default": {
                        "NCAPGPCDFEO": [
                            "High"
                        ]
                    }
                }
            },
            "qualityLevel": {
                "IAMJGEMMOJD": {
                    "DeviceSpecific": [
                        0
                    ]
                },
                "DOBINOIFJAI": {},
                "MMAHHAJICGA": {
                    "default": {
                        "NCAPGPCDFEO": [
                            "Console"
                        ]
                    }
                }
            },
            "lightOnLevel": {
                "IAMJGEMMOJD": {
                    "GPU": [
                        2,
                        2,
                        2,
                        2,
                        2
                    ]
                },
                "DOBINOIFJAI": {},
                "MMAHHAJICGA": {
                    "default": {
                        "NCAPGPCDFEO": [
                            "Low",
                            "Middle",
                            "High",
                            "Invalid"
                        ]
                    }
                }
            },
            "grassQuality": {
                "IAMJGEMMOJD": {
                    "GPU": [
                        4,
                        4,
                        4,
                        4,
                        4
                    ]
                },
                "DOBINOIFJAI": {},
                "MMAHHAJICGA": {
                    "default": {
                        "NCAPGPCDFEO": [
                            "VeryLow",
                            "Low",
                            "Middle",
                            "High",
                            "VeryHigh",
                            "UltraHigh",
                            "Num"
                        ]
                    }
                }
            },
            "entityLODConfig": {
                "IAMJGEMMOJD": {
                    "GPU": [
                        0,
                        0,
                        0,
                        0,
                        0
                    ]
                },
                "DOBINOIFJAI": {},
                "MMAHHAJICGA": {
                    "default": {
                        "NCAPGPCDFEO": [
                            "PS4Default"
                        ]
                    }
                }
            },
            "globalToken": {
                "IAMJGEMMOJD": {
                    "GPU": [
                        0,
                        0,
                        0,
                        0,
                        0
                    ]
                },
                "DOBINOIFJAI": {},
                "MMAHHAJICGA": {
                    "default": {
                        "NCAPGPCDFEO": [
                            "PS4"
                        ]
                    }
                }
            },
            "entityEffectPoolRemoveStrategy": {
                "IAMJGEMMOJD": {
                    "Memory": [
                        2
                    ]
                },
                "MMAHHAJICGA": {
                    "default": {
                        "NCAPGPCDFEO": [
                            "DelayRemove",
                            "BudgetRemove",
                            "NeverRemove"
                        ]
                    }
                }
            }
        },
        "BNDBMOOICMC": {
            "vSyncGrade": {
                "IAMJGEMMOJD": {
                    "GPU": [
                        1,
                        1,
                        1,
                        1,
                        1
                    ]
                },
                "DOBINOIFJAI": {
                    "settingEntry": "VSync",
                    "MJBNECOAJPE": {
                        "default": {
                            "JGGPCJCDJKC": [
                                "UI_SETTING_CLOSE",
                                "UI_SETTING_OPEN"
                            ]
                        }
                    },
                    "NKKFFNMCEFJ": "TextMap"
                },
                "MMAHHAJICGA": {
                    "default": {
                        "NCAPGPCDFEO": [
                            1,
                            2
                        ]
                    }
                }
            },
            "volumetricFogGrade": {
                "IAMJGEMMOJD": {
                    "GPU": [
                        1,
                        1,
                        1,
                        1,
                        1
                    ]
                },
                "DOBINOIFJAI": {},
                "MMAHHAJICGA": {
                    "default": {
                        "NCAPGPCDFEO": [
                            1,
                            2
                        ]
                    }
                }
            },
            "reflectionGrade": {
                "IAMJGEMMOJD": {
                    "GPU": [
                        1,
                        1,
                        1,
                        1,
                        1
                    ]
                },
                "DOBINOIFJAI": {},
                "MMAHHAJICGA": {
                    "default": {
                        "NCAPGPCDFEO": [
                            1,
                            2
                        ]
                    }
                }
            },
            "motionBlurGrade": {
                "IAMJGEMMOJD": {
                    "GPU": [
                        1,
                        1,
                        1,
                        1,
                        1
                    ]
                },
                "DOBINOIFJAI": {
                    "settingEntry": "MotionBlur",
                    "MJBNECOAJPE": {
                        "default": {
                            "JGGPCJCDJKC": [
                                "UI_SETTING_CLOSE",
                                "UI_SETTING_LOW",
                                "UI_SETTING_HIGH",
                                "UI_SETTING_VERY_HIGH"
                            ]
                        }
                    },
                    "NKKFFNMCEFJ": "TextMap"
                },
                "MMAHHAJICGA": {
                    "default": {
                        "NCAPGPCDFEO": [
                            1,
                            2,
                            3,
                            4
                        ]
                    }
                }
            },
            "bloomGrade": {
                "IAMJGEMMOJD": {
                    "GPU": [
                        1,
                        1,
                        1,
                        1,
                        1
                    ]
                },
                "DOBINOIFJAI": {},
                "MMAHHAJICGA": {
                    "default": {
                        "NCAPGPCDFEO": [
                            1,
                            2,
                            3,
                            4
                        ]
                    }
                }
            },
            "crowdDensityGrade": {
                "IAMJGEMMOJD": {
                    "GPU": [
                        1,
                        1,
                        1,
                        1,
                        1
                    ]
                },
                "DOBINOIFJAI": {},
                "MMAHHAJICGA": {
                    "default": {
                        "NCAPGPCDFEO": [
                            1,
                            2
                        ]
                    }
                }
            },
            "sssGrade": {
                "IAMJGEMMOJD": {
                    "GPU": [
                        1,
                        1,
                        1,
                        1,
                        1
                    ]
                },
                "DOBINOIFJAI": {},
                "MMAHHAJICGA": {
                    "default": {
                        "NCAPGPCDFEO": [
                            1,
                            2
                        ]
                    }
                }
            },
            "anisotropicFilteringGrade": {
                "IAMJGEMMOJD": {
                    "GPU": [
                        0,
                        1,
                        2,
                        3,
                        3
                    ]
                },
                "MMAHHAJICGA": {
                    "default": {
                        "NCAPGPCDFEO": [
                            1,
                            2,
                            3,
                            4,
                            5
                        ]
                    }
                }
            }
        },
        "PHOLNFLACOA": {
            "useHalfShadows": {
                "IAMJGEMMOJD": {
                    "GPU": [
                        0,
                        0,
                        0,
                        0,
                        0
                    ]
                },
                "DOBINOIFJAI": {},
                "MMAHHAJICGA": {
                    "default": {
                        "NCAPGPCDFEO": [
                            false,
                            true
                        ]
                    }
                }
            },
            "useShadowCache": {
                "IAMJGEMMOJD": {
                    "GPU": [
                        1,
                        1,
                        1,
                        1,
                        1
                    ]
                },
                "DOBINOIFJAI": {},
                "MMAHHAJICGA": {
                    "default": {
                        "NCAPGPCDFEO": [
                            false,
                            true
                        ]
                    }
                }
            },
            "halfResolutionParticle": {
                "IAMJGEMMOJD": {
                    "GPU": [
                        0,
                        0,
                        0,
                        0,
                        0
                    ]
                },
                "DOBINOIFJAI": {},
                "MMAHHAJICGA": {
                    "default": {
                        "NCAPGPCDFEO": [
                            false,
                            true
                        ]
                    }
                }
            },
            "PerObjectPCF": {
                "IAMJGEMMOJD": {
                    "GPU": [
                        0,
                        1,
                        1,
                        1,
                        1
                    ]
                },
                "DOBINOIFJAI": {},
                "MMAHHAJICGA": {
                    "default": {
                        "NCAPGPCDFEO": [
                            false,
                            true
                        ]
                    }
                }
            },
            "shadowBlend": {
                "IAMJGEMMOJD": {
                    "GPU": [
                        1,
                        1,
                        1,
                        1,
                        1
                    ]
                },
                "DOBINOIFJAI": {},
                "MMAHHAJICGA": {
                    "default": {
                        "NCAPGPCDFEO": [
                            false,
                            true
                        ]
                    }
                }
            },
            "enableDynamicShadow": {
                "IAMJGEMMOJD": {
                    "GPU": [
                        1,
                        1,
                        1,
                        1,
                        1
                    ]
                },
                "DOBINOIFJAI": {},
                "MMAHHAJICGA": {
                    "default": {
                        "NCAPGPCDFEO": [
                            false,
                            true
                        ]
                    }
                }
            },
            "enablePcss": {
                "IAMJGEMMOJD": {
                    "GPU": [
                        1,
                        1,
                        1,
                        1,
                        1
                    ]
                },
                "DOBINOIFJAI": {},
                "MMAHHAJICGA": {
                    "default": {
                        "NCAPGPCDFEO": [
                            false,
                            true
                        ]
                    }
                }
            },
            "enableDistantShadow": {
                "IAMJGEMMOJD": {
                    "GPU": [
                        1,
                        1,
                        1,
                        1,
                        1
                    ]
                },
                "DOBINOIFJAI": {},
                "MMAHHAJICGA": {
                    "default": {
                        "NCAPGPCDFEO": [
                            false,
                            true
                        ]
                    }
                }
            },
            "enableShadowEdgeColor": {
                "IAMJGEMMOJD": {
                    "GPU": [
                        0,
                        1,
                        1,
                        1,
                        1
                    ]
                },
                "DOBINOIFJAI": {},
                "MMAHHAJICGA": {
                    "default": {
                        "NCAPGPCDFEO": [
                            false,
                            true
                        ]
                    }
                }
            },
            "dynamicRoomLightFrequency": {
                "IAMJGEMMOJD": {
                    "GPU": [
                        1,
                        1,
                        1,
                        1,
                        1
                    ]
                },
                "DOBINOIFJAI": {},
                "MMAHHAJICGA": {
                    "default": {
                        "NCAPGPCDFEO": [
                            false,
                            true
                        ]
                    }
                }
            },
            "localLightingShadow": {
                "IAMJGEMMOJD": {
                    "GPU": [
                        1,
                        1,
                        1,
                        1,
                        1
                    ]
                },
                "DOBINOIFJAI": {},
                "MMAHHAJICGA": {
                    "default": {
                        "NCAPGPCDFEO": [
                            false,
                            true
                        ]
                    }
                }
            },
            "enableDynamicLight": {
                "IAMJGEMMOJD": {
                    "GPU": [
                        1,
                        1,
                        1,
                        1,
                        1
                    ]
                },
                "DOBINOIFJAI": {},
                "MMAHHAJICGA": {
                    "default": {
                        "NCAPGPCDFEO": [
                            false,
                            true
                        ]
                    }
                }
            },
            "textureStreamingEnabled": {
                "IAMJGEMMOJD": {
                    "GPU": [
                        1,
                        1,
                        1,
                        1,
                        1
                    ]
                },
                "DOBINOIFJAI": {},
                "MMAHHAJICGA": {
                    "default": {
                        "NCAPGPCDFEO": [
                            false,
                            true
                        ]
                    }
                }
            },
            "enableSubpass": {
                "IAMJGEMMOJD": {
                    "BinaryDefault": [
                        1
                    ]
                },
                "DOBINOIFJAI": {},
                "MMAHHAJICGA": {
                    "default": {
                        "NCAPGPCDFEO": [
                            true,
                            false
                        ]
                    }
                }
            },
            "usePerObjectLightInForward": {
                "IAMJGEMMOJD": {
                    "BinaryDefault": [
                        1
                    ]
                },
                "DOBINOIFJAI": {},
                "MMAHHAJICGA": {
                    "default": {
                        "NCAPGPCDFEO": [
                            true,
                            false
                        ]
                    }
                }
            },
            "useCrowdConeViewOptim": {
                "IAMJGEMMOJD": {
                    "GPU": [
                        0,
                        0,
                        0,
                        0,
                        0
                    ]
                },
                "DOBINOIFJAI": {},
                "MMAHHAJICGA": {
                    "default": {
                        "NCAPGPCDFEO": [
                            false,
                            true
                        ]
                    }
                }
            },
            "isNeedCheckLowMemoryDismisssDynamicPreload": {
                "IAMJGEMMOJD": {
                    "Memory": [
                        0
                    ]
                },
                "MMAHHAJICGA": {
                    "default": {
                        "NCAPGPCDFEO": [
                            false,
                            true
                        ]
                    }
                }
            },
            "useAllOnCreatePreloadMapping": {
                "IAMJGEMMOJD": {
                    "Memory": [
                        1
                    ]
                },
                "MMAHHAJICGA": {
                    "default": {
                        "NCAPGPCDFEO": [
                            false,
                            true
                        ]
                    }
                }
            },
            "useObjectPool": {
                "IAMJGEMMOJD": {
                    "Memory": [
                        1
                    ]
                },
                "MMAHHAJICGA": {
                    "default": {
                        "NCAPGPCDFEO": [
                            false,
                            true
                        ]
                    }
                }
            },
            "disableCommonPreloadOnLowMem": {
                "IAMJGEMMOJD": {
                    "Memory": [
                        0
                    ]
                },
                "MMAHHAJICGA": {
                    "default": {
                        "NCAPGPCDFEO": [
                            false,
                            true
                        ]
                    }
                }
            },
            "disableEntityPreloadEffect": {
                "IAMJGEMMOJD": {
                    "Memory": [
                        0
                    ]
                },
                "MMAHHAJICGA": {
                    "default": {
                        "NCAPGPCDFEO": [
                            false,
                            true
                        ]
                    }
                }
            },
            "enableCutsceneTextureStreaming": {
                "IAMJGEMMOJD": {
                    "BinaryDefault": [
                        0
                    ]
                },
                "DOBINOIFJAI": {},
                "MMAHHAJICGA": {
                    "default": {
                        "NCAPGPCDFEO": [
                            true,
                            false
                        ]
                    }
                }
            },
            "enableUICameraFullResolution": {
                "IAMJGEMMOJD": {
                    "BinaryDefault": [
                        1
                    ]
                },
                "DOBINOIFJAI": {},
                "MMAHHAJICGA": {
                    "default": {
                        "NCAPGPCDFEO": [
                            true,
                            false
                        ]
                    }
                }
            },
            "preloadUIScene": {
                "IAMJGEMMOJD": {
                    "BinaryDefault": [
                        0
                    ]
                },
                "DOBINOIFJAI": {},
                "MMAHHAJICGA": {
                    "default": {
                        "NCAPGPCDFEO": [
                            true,
                            false
                        ]
                    }
                }
            },
            "disableDoF": {
                "IAMJGEMMOJD": {
                    "GPU": [
                        0,
                        0,
                        0
                    ]
                },
                "DOBINOIFJAI": {},
                "MMAHHAJICGA": {
                    "default": {
                        "NCAPGPCDFEO": [
                            false,
                            true
                        ]
                    }
                }
            },
            "forcePreloadUIContexts": {
                "IAMJGEMMOJD": {
                    "Memory": [
                        1
                    ]
                },
                "MMAHHAJICGA": {
                    "default": {
                        "NCAPGPCDFEO": [
                            false,
                            true
                        ]
                    }
                }
            },
            "useMoreCache": {
                "IAMJGEMMOJD": {
                    "Memory": [
                        1
                    ]
                },
                "MMAHHAJICGA": {
                    "default": {
                        "NCAPGPCDFEO": [
                            false,
                            true
                        ]
                    }
                }
            },
            "configUseLRUCache": {
                "IAMJGEMMOJD": {
                    "Memory": [
                        0
                    ]
                },
                "MMAHHAJICGA": {
                    "default": {
                        "NCAPGPCDFEO": [
                            false,
                            true
                        ]
                    }
                }
            },
            "configBinaryWarmup": {
                "IAMJGEMMOJD": {
                    "Memory": [
                        0
                    ]
                },
                "MMAHHAJICGA": {
                    "default": {
                        "NCAPGPCDFEO": [
                            false,
                            true
                        ]
                    }
                }
            },
            "isSetUnloadCPUVertexDataForSkinnedMesh": {
                "IAMJGEMMOJD": {
                    "Memory": [
                        0
                    ]
                },
                "MMAHHAJICGA": {
                    "default": {
                        "NCAPGPCDFEO": [
                            false,
                            true
                        ]
                    }
                }
            },
            "teamSceneUIMemoryOptimize": {
                "IAMJGEMMOJD": {
                    "Memory": [
                        0
                    ]
                },
                "MMAHHAJICGA": {
                    "default": {
                        "NCAPGPCDFEO": [
                            false,
                            true
                        ]
                    }
                }
            }
        },
        "AAGHAJENJNF": {
            "shadowQualityOptions": {
                "IAMJGEMMOJD": {
                    "GPU": [
                        0,
                        0,
                        2,
                        2,
                        2
                    ]
                },
                "DOBINOIFJAI": {
                    "settingEntry": "ShadowQuality",
                    "MJBNECOAJPE": {
                        "default": {
                            "JGGPCJCDJKC": [
                                "Low",
                                "Medium",
                                "High"
                            ]
                        }
                    }
                },
                "MMAHHAJICGA": {
                    "default": {
                        "CHGHAALDKGG": [
                            "shadowDistance",
                            "shadowResolution",
                            "shadowCascadeSplitCount",
                            "perObjShadowQuality",
                            "shadowBlend",
                            "PerObjectPCF",
                            "enableDynamicShadow",
                            "enablePcss",
                            "enableDistantShadow",
                            "enableShadowEdgeColor"
                        ],
                        "NCAPGPCDFEO": [
                            [
                                0,
                                1,
                                0,
                                0,
                                1,
                                0,
                                1,
                                1,
                                1,
                                0
                            ],
                            [
                                1,
                                2,
                                1,
                                1,
                                1,
                                1,
                                1,
                                1,
                                1,
                                1
                            ],
                            [
                                2,
                                2,
                                2,
                                2,
                                1,
                                1,
                                1,
                                1,
                                1,
                                1
                            ]
                        ]
                    }
                }
            },
            "postprocessEffectOptions": {
                "IAMJGEMMOJD": {
                    "GPU": [
                        2,
                        2,
                        2,
                        2,
                        2
                    ]
                },
                "DOBINOIFJAI": {},
                "MMAHHAJICGA": {
                    "default": {
                        "CHGHAALDKGG": [
                            "useHalfShadows",
                            "useShadowCache",
                            "checkboardType",
                            "aoMode",
                            "fsrScale",
                            "avatarMotionVectorStrategy"
                        ],
                        "NCAPGPCDFEO": [
                            [
                                0,
                                1,
                                0,
                                2,
                                2,
                                2
                            ],
                            [
                                0,
                                1,
                                0,
                                2,
                                2,
                                2
                            ],
                            [
                                0,
                                1,
                                0,
                                2,
                                2,
                                2
                            ]
                        ]
                    }
                }
            },
            "particleEffectOptions": {
                "IAMJGEMMOJD": {
                    "GPU": [
                        1,
                        1,
                        1,
                        0,
                        0
                    ]
                },
                "DOBINOIFJAI": {},
                "MMAHHAJICGA": {
                    "default": {
                        "CHGHAALDKGG": [
                            "halfResolutionParticle",
                            "particleEmitLevel",
                            "particleDecreaseThresh"
                        ],
                        "NCAPGPCDFEO": [
                            [
                                0,
                                2,
                                0
                            ],
                            [
                                0,
                                3,
                                1
                            ]
                        ]
                    }
                }
            },
            "comprehensiveSettingOptions": {
                "IAMJGEMMOJD": {
                    "GPU": [
                        1,
                        1,
                        1,
                        2,
                        2
                    ]
                },
                "DOBINOIFJAI": {},
                "MMAHHAJICGA": {
                    "default": {
                        "CHGHAALDKGG": [
                            "localLightingShadow",
                            "terrainBlendDistance",
                            "shaderLODDistance",
                            "shaderQualityKeyword",
                            "levelStreamingConfig",
                            "enviroConfig",
                            "lightViewDistanceRatio",
                            "grassQuality",
                            "lightOnLevel",
                            "entityLODConfig",
                            "enableDynamicLight",
                            "textureStreamingBudget",
                            "terrainDistance",
                            "shellCount",
                            "shellMaxObjectsCount",
                            "meshDepthBlendDistance"
                        ],
                        "NCAPGPCDFEO": [
                            [
                                0,
                                0,
                                0,
                                1,
                                0,
                                0,
                                0,
                                3,
                                1,
                                0,
                                1,
                                0,
                                0,
                                0,
                                0,
                                0
                            ],
                            [
                                1,
                                1,
                                1,
                                1,
                                0,
                                0,
                                1,
                                4,
                                2,
                                0,
                                1,
                                1,
                                1,
                                1,
                                1,
                                1
                            ],
                            [
                                1,
                                2,
                                2,
                                2,
                                0,
                                0,
                                2,
                                4,
                                2,
                                0,
                                1,
                                2,
                                2,
                                2,
                                2,
                                2
                            ]
                        ]
                    }
                }
            },
            "volatileSettingOptions": {
                "IAMJGEMMOJD": {
                    "GPU": [
                        0,
                        0,
                        1,
                        2,
                        2
                    ]
                },
                "DOBINOIFJAI": {
                    "settingEntry": "VolatileSetting",
                    "MJBNECOAJPE": {
                        "default": {
                            "JGGPCJCDJKC": [
                                "Low",
                                "Medium",
                                "High"
                            ]
                        }
                    }
                },
                "MMAHHAJICGA": {
                    "default": {
                        "CHGHAALDKGG": [
                            "targetFrameRate",
                            "vSyncGrade",
                            "shadowQualityOptions",
                            "postprocessEffectOptions",
                            "particleEffectOptions",
                            "comprehensiveSettingOptions",
                            "antialiasingMethod",
                            "volumetricFogGrade",
                            "reflectionGrade",
                            "motionBlurGrade",
                            "bloomGrade",
                            "crowdDensityGrade",
                            "onlineEffect",
                            "sssGrade",
                            "anisotropicFilteringGrade"
                        ],
                        "NCAPGPCDFEO": [
                            [
                                1,
                                1,
                                0,
                                2,
                                1,
                                1,
                                1,
                                1,
                                1,
                                1,
                                1,
                                1,
                                2,
                                1,
                                1
                            ],
                            [
                                1,
                                1,
                                2,
                                2,
                                1,
                                1,
                                1,
                                1,
                                1,
                                1,
                                1,
                                1,
                                2,
                                1,
                                1
                            ],
                            [
                                1,
                                1,
                                2,
                                2,
                                1,
                                2,
                                1,
                                1,
                                1,
                                1,
                                1,
                                1,
                                2,
                                1,
                                2
                            ]
                        ]
                    }
                }
            }
        }
    },
    "KCJOKIFAJMI": [
        "vSyncGrade",
        "motionBlurGrade"
    ],
    "INLJGMJOIHL": true,
    "BHMJFJFGIAE": [
        "Default"
    ]
}