{
    "name": "Char_Skill_36021_Ex_1",
    "LCAAFCBKGHI": {
        "-1131128448": {
            "$type": "GCGDeclaredValueIndirectDamage",
            "type": "IndirectDamage",
            "value": 1
        },
        "476224977": {
            "$type": "GCGDeclaredValueElement",
            "type": "Element"
        },
        "-1197212178": {
            "$type": "GCGDeclaredValueEffectAmount",
            "type": "EffectNum",
            "value": 1
        }
    }
}