{
    "ConfigEffigyIce": {
        "CDNPPOGNDBH": {
            "shouldTrackLeadingQuest": {
                "$type": "ContextConditionAnd",
                "MOGMJHOLKGE": [
                    {
                        "$type": "ContextConditionMainQuestVisible",
                        "AGGACFLCIPN": 70143,
                        "visible": true
                    },
                    {
                        "$type": "ContextConditionMainQuestVisible",
                        "AGGACFLCIPN": 70141
                    },
                    {
                        "$type": "ContextConditionNot",
                        "condition": {
                            "$type": "ContextConditionMainQuestState",
                            "AGGACFLCIPN": 70141,
                            "state": "QUEST_STATE_FINISHED"
                        }
                    }
                ]
            },
            "shouldTrackMainQuest": {
                "$type": "ContextConditionMainQuestVisible",
                "AGGACFLCIPN": 70141,
                "visible": true
            },
            "shouldTrackMonster": {
                "$type": "ContextConditionMainQuestState",
                "AGGACFLCIPN": 70141,
                "state": "QUEST_STATE_FINISHED"
            }
        },
        "IGFEMBCOLDG": {
            "trackLeadingQuestUpdate": {
                "$type": "ContextActionExecuteAll",
                "actions": [
                    {
                        "$type": "ContextActionSetText",
                        "PEGIOKIJOEB": "ButtonGoto",
                        "textMap": "UI_ACTIVITY_EVEN_MOUNTAINS_TREMBLE_INVESTIGATE_BUTTON"
                    },
                    {
                        "$type": "ContextActionSetActive",
                        "PEGIOKIJOEB": "UnlockTips",
                        "EILKDDLAKBL": true
                    }
                ]
            },
            "trackLeadingQuestClick": {
                "$type": "ContextActionExecuteAll",
                "actions": [
                    {
                        "$type": "ContextActionSetAnimatorTrigger",
                        "PEGIOKIJOEB": "Animator",
                        "ODCJHDNCLII": "FadeOut",
                        "NAFAKICKJGL": true
                    },
                    {
                        "$type": "ContextActionSelectMainQuest",
                        "AGGACFLCIPN": 70143
                    },
                    {
                        "$type": "ContextActionReportActivityBuriedPoint",
                        "PIINBKBEGJO": 5026,
                        "AKNMDILOODL": 2,
                        "KJNPBCGDOJD": ""
                    }
                ]
            },
            "trackMainQuestUpdate": {
                "$type": "ContextActionExecuteAll",
                "actions": [
                    {
                        "$type": "ContextActionSetText",
                        "PEGIOKIJOEB": "ButtonGoto",
                        "textMap": "UI_ACTIVITY_EVEN_MOUNTAINS_TREMBLE_INVESTIGATE_BUTTON"
                    },
                    {
                        "$type": "ContextActionSetActive",
                        "PEGIOKIJOEB": "UnlockTips",
                        "EILKDDLAKBL": true
                    }
                ]
            },
            "trackMainQuestClick": {
                "$type": "ContextActionExecuteAll",
                "actions": [
                    {
                        "$type": "ContextActionSetAnimatorTrigger",
                        "PEGIOKIJOEB": "Animator",
                        "ODCJHDNCLII": "FadeOut",
                        "NAFAKICKJGL": true
                    },
                    {
                        "$type": "ContextActionSelectMainQuest",
                        "AGGACFLCIPN": 70141
                    },
                    {
                        "$type": "ContextActionReportActivityBuriedPoint",
                        "PIINBKBEGJO": 5026,
                        "AKNMDILOODL": 2,
                        "KJNPBCGDOJD": ""
                    }
                ]
            },
            "trackMonsterUpdate": {
                "$type": "ContextActionExecuteAll",
                "actions": [
                    {
                        "$type": "ContextActionSetText",
                        "PEGIOKIJOEB": "ButtonGoto",
                        "textMap": "UI_ACTIVITY_EVEN_MOUNTAINS_TREMBLE_CHALLENGE_BUTTON"
                    },
                    {
                        "$type": "ContextActionSetActive",
                        "PEGIOKIJOEB": "UnlockTips"
                    }
                ]
            },
            "trackMonsterClick": {
                "$type": "ContextActionExecuteAll",
                "actions": [
                    {
                        "$type": "ContextActionSetAnimatorTrigger",
                        "PEGIOKIJOEB": "Animator",
                        "ODCJHDNCLII": "FadeOut",
                        "NAFAKICKJGL": true
                    },
                    {
                        "$type": "ContextActionSelectMonsterMark",
                        "ICJLCDBFIFE": 25
                    },
                    {
                        "$type": "ContextActionReportActivityBuriedPoint",
                        "PIINBKBEGJO": 5026,
                        "AKNMDILOODL": 3,
                        "KJNPBCGDOJD": ""
                    }
                ]
            }
        },
        "HALLDDEHFMA": [
            {
                "conditionName": "shouldTrackLeadingQuest",
                "actionName": "trackLeadingQuestUpdate"
            },
            {
                "conditionName": "shouldTrackMainQuest",
                "actionName": "trackMainQuestUpdate"
            },
            {
                "conditionName": "shouldTrackMonster",
                "actionName": "trackMonsterUpdate"
            }
        ],
        "DIADKKABKMN": [
            {
                "conditionName": "shouldTrackLeadingQuest",
                "actionName": "trackLeadingQuestClick"
            },
            {
                "conditionName": "shouldTrackMainQuest",
                "actionName": "trackMainQuestClick"
            },
            {
                "conditionName": "shouldTrackMonster",
                "actionName": "trackMonsterClick"
            }
        ]
    }
}