{
    "gadgetId": 0,
    "areaId": 0,
    "pos": {
        "z": 3.051781823160127e-05
    },
    "JIFEKNIMIDP": [
        {
            "x": -2287.826171875,
            "y": 50.245731353759766,
            "z": 5584.5732421875
        },
        {
            "x": -2297.37255859375,
            "y": 51.08527374267578,
            "z": 5595.22265625
        },
        {
            "x": -2298.3115234375,
            "y": 50.80174255371094,
            "z": 5601.142578125
        },
        {
            "x": -2283.927978515625,
            "y": 51.962913513183594,
            "z": 5600.2998046875
        },
        {
            "x": -2280.151611328125,
            "y": 50.2031135559082,
            "z": 5585.443359375
        },
        {
            "x": -2279.866455078125,
            "y": 50.616146087646484,
            "z": 5551.69482421875
        },
        {
            "x": -2281.350830078125,
            "y": 50.808624267578125,
            "z": 5534.65771484375
        },
        {
            "x": -2297.43994140625,
            "y": 52.24085235595703,
            "z": 5537.22998046875
        },
        {
            "x": -2297.7744140625,
            "y": 52.03883361816406,
            "z": 5542.53466796875
        },
        {
            "x": -2283.799072265625,
            "y": 50.89047622680664,
            "z": 5551.81787109375
        },
        {
            "x": -2280.68701171875,
            "y": 51.76405715942383,
            "z": 5551.818359375
        },
        {
            "x": -2281.258544921875,
            "y": 52.86833953857422,
            "z": 5584.1591796875
        },
        {
            "x": -2277.22265625,
            "y": 88.31318664550781,
            "z": 5571.45361328125
        }
    ]
}