{
    "id": 126,
    "stageMatureEvents": [
        "Play_Amb_Dungeon_Baal"
    ],
    "stageExitEvents": [
        "Stop_Amb_Dungeon_Baal",
        "State_Music_NonCombat"
    ],
    "stateValue": "State_Silence",
    "EDGKEHCFEFC": {
        "text": "Play_Music_Dungeon"
    },
    "FJBGDAMGLNA": {
        "text": "Stop_Music_Dungeon"
    }
}