{
    "FPMPLDBNECG": [
        {
            "MCCOFAELJPA": 204300,
            "NIMIAKBEEBO": {
                "x": 60.5,
                "y": 56.70000076293945,
                "z": 127.4000015258789
            }
        },
        {
            "MCCOFAELJPA": 204301,
            "NIMIAKBEEBO": {
                "x": 60.5,
                "y": 56.70000076293945,
                "z": 127.4000015258789
            },
            "KPEAGLJFJEP": {
                "y": 90.0
            }
        },
        {
            "MCCOFAELJPA": 204302,
            "NIMIAKBEEBO": {
                "x": 60.5,
                "y": 56.70000076293945,
                "z": 127.4000015258789
            },
            "KPEAGLJFJEP": {
                "y": 180.0
            }
        },
        {
            "MCCOFAELJPA": 204303,
            "NIMIAKBEEBO": {
                "x": 60.5,
                "y": 56.70000076293945,
                "z": 127.4000015258789
            },
            "KPEAGLJFJEP": {
                "y": 270.0
            }
        },
        {
            "MCCOFAELJPA": 204310,
            "NIMIAKBEEBO": {
                "x": 60.5,
                "y": 56.70000076293945,
                "z": 127.4000015258789
            },
            "KPEAGLJFJEP": {
                "x": 179.99989318847656
            }
        },
        {
            "MCCOFAELJPA": 204311,
            "NIMIAKBEEBO": {
                "x": 60.5,
                "y": 56.70000076293945,
                "z": 127.4000015258789
            },
            "KPEAGLJFJEP": {
                "x": 179.99989318847656,
                "y": 90.0
            }
        },
        {
            "MCCOFAELJPA": 204312,
            "NIMIAKBEEBO": {
                "x": 60.5,
                "y": 56.70000076293945,
                "z": 127.4000015258789
            },
            "KPEAGLJFJEP": {
                "x": 179.99989318847656,
                "y": 180.0
            }
        },
        {
            "MCCOFAELJPA": 204313,
            "NIMIAKBEEBO": {
                "x": 60.5,
                "y": 56.70000076293945,
                "z": 127.4000015258789
            },
            "KPEAGLJFJEP": {
                "x": 179.99989318847656,
                "y": 270.0
            }
        }
    ]
}