[
    {},
    {},
    {
        "ILOAFDPNDLL": {
            "x": 220.0,
            "y": -6.959112612459802e+35
        },
        "FOAIFIPECBN": {
            "z": 5.844259581324165e+17
        },
        "rot": {
            "x": 3873.13916015625,
            "y": 2.962647741281262e-25
        }
    },
    {
        "ILOAFDPNDLL": {
            "y": 4.05601479148415e+36
        },
        "pos": {
            "x": 1.6673465778843104e-30,
            "y": 2.0379309563178405e-23
        }
    },
    {
        "pos": {
            "y": 3.7576594987448887e+28,
            "z": 3552.454345703125
        }
    },
    {
        "ILOAFDPNDLL": {
            "x": 218.9119415283203,
            "z": 3818.9990234375
        },
        "FOAIFIPECBN": {
            "x": -2518.764892578125,
            "y": 216.25253295898438,
            "z": 3852.583740234375
        },
        "rot": {
            "x": -2513.660400390625,
            "y": 232.05758666992188,
            "z": 3894.763671875
        }
    },
    {
        "ILOAFDPNDLL": {
            "x": 8.753306917188078e-14,
            "z": -6.047343042090851e+28
        },
        "FOAIFIPECBN": {
            "x": -580986011648.0,
            "z": -2.2407527222600976e-11
        },
        "pos": {
            "y": -3.7876553577329905e+20,
            "z": -2.436831952599253e+18
        }
    },
    {
        "ILOAFDPNDLL": {},
        "FOAIFIPECBN": {
            "x": 258.92108154296875,
            "z": 3966.6064453125
        },
        "pos": {
            "x": -2434.99951171875,
            "y": 258.971923828125,
            "z": 3966.6484375
        },
        "rot": {
            "x": -2437.409423828125,
            "y": 274.6866455078125,
            "z": 3979.618896484375
        }
    },
    {
        "ILOAFDPNDLL": {},
        "FOAIFIPECBN": {
            "x": 5.130132564784928e-25,
            "y": -249837904.0
        },
        "pos": {
            "x": -1.9374154192064452e-07
        }
    },
    {
        "rot": {
            "x": 297.623291015625,
            "z": 4012.13720703125
        }
    },
    {
        "ILOAFDPNDLL": {
            "y": -6613273088.0,
            "z": -9.416204927081807e-33
        },
        "FOAIFIPECBN": {
            "y": -1.6353307943806994e+26,
            "z": -8.547248666832064e-17
        },
        "pos": {
            "x": -153.2637176513672,
            "z": -1.7903019772099666e-21
        }
    },
    {
        "ILOAFDPNDLL": {
            "y": -1.0341312720580982e-36,
            "z": 6.470130134556199e+33
        },
        "pos": {
            "x": 9.167830210199586e-26,
            "z": -2.0239059994718867e-36
        }
    },
    {
        "ILOAFDPNDLL": {
            "x": 1.4855457943254213e-34
        },
        "FOAIFIPECBN": {}
    },
    {
        "FOAIFIPECBN": {
            "z": 3.327614833799123e+28
        },
        "pos": {
            "x": 3912.24072265625,
            "y": 6.084585465884739e-27
        },
        "rot": {
            "x": 250.7365264892578,
            "z": 3908.80712890625
        }
    }
]