{
    "id": 154,
    "stageMatureEvents": [
        "Play_Amb_Dungeon_XuMi_Cycle01"
    ],
    "stageExitEvents": [
        "Stop_Amb_Dungeon_XuMi_Cycle01",
        "State_Music_NonCombat"
    ],
    "stateValue": "State_Dungeon_XM",
    "EDGKEHCFEFC": {
        "text": "Play_Music_Dungeon"
    },
    "FJBGDAMGLNA": {
        "text": "Stop_Music_Dungeon"
    }
}