{
    "id": 114,
    "stageMatureEvents": [
        "Play_Amb_Scene_Homeworld_Interior"
    ],
    "stageExitEvents": [
        "Stop_Amb_Scene_Homeworld_Interior",
        "State_Music_NonCombat"
    ],
    "stateValue": "State_DQ_Donjon",
    "EDGKEHCFEFC": {
        "text": "Play_Music_Scene"
    },
    "FJBGDAMGLNA": {
        "text": "Stop_Music_Scene"
    }
}