{
    "1669322832": {},
    "0": {
        "NOPPLMMMPJJ": 579942481920.0,
        "ICLFBMOMKOA": -1.44386045816445e+22
    },
    "14408": {
        "NOPPLMMMPJJ": 548.5804443359375
    },
    "7": {},
    "91": {
        "MNOIAILKKCH": -3.4635531618374124e+18,
        "ICLFBMOMKOA": 4.2625307660669e-18
    },
    "35": {
        "MNOIAILKKCH": 1.9576295928185348e-16
    },
    "68": {
        "MNOIAILKKCH": 8.759011992561254e+17
    },
    "1112202": {
        "MDAAJHIONED": 550.8325805664062,
        "NOPPLMMMPJJ": 61.94395446777344,
        "MNOIAILKKCH": 369.453857421875
    },
    "110": {
        "MDAAJHIONED": 1.1285352548178543e+25,
        "NOPPLMMMPJJ": -2.7174988740394715e-14
    },
    "67": {
        "MDAAJHIONED": 349.428955078125,
        "NOPPLMMMPJJ": 59.01847839355469,
        "MNOIAILKKCH": 433.040283203125
    }
}