{
    "id": 176,
    "stageMatureEvents": [
        "Play_Amb_Dungeon_BrickBreaker01"
    ],
    "stageExitEvents": [
        "Stop_Amb_Dungeon_BrickBreaker01",
        "State_Music_NonCombat"
    ],
    "stateValue": "State_Dungeon_Electric",
    "EDGKEHCFEFC": {
        "text": "Play_Music_Dungeon"
    },
    "FJBGDAMGLNA": {
        "text": "Stop_Music_Dungeon"
    }
}