{
    "FGNGCABDDAG": [
        {
            "parentIndex": -1,
            "IECFOCEFMPG": 10003,
            "OENADKFEOOC": "FrontScene"
        },
        {
            "parentIndex": -1,
            "IECFOCEFMPG": 10007,
            "OENADKFEOOC": "BehindScene"
        },
        {
            "IECFOCEFMPG": 10032,
            "OENADKFEOOC": "VitalFlower1"
        },
        {
            "IECFOCEFMPG": 10028,
            "OENADKFEOOC": "VitalFlower2"
        },
        {
            "IECFOCEFMPG": 10032,
            "OENADKFEOOC": "VitalFlower3"
        },
        {
            "IECFOCEFMPG": 10034,
            "OENADKFEOOC": "VitalFlower4"
        },
        {
            "IECFOCEFMPG": 10027,
            "OENADKFEOOC": "VitalFlower5"
        },
        {
            "IECFOCEFMPG": 10031,
            "OENADKFEOOC": "VitalFlower6"
        }
    ]
}