{
    "name": "Char_Skill_32043",
    "LCAAFCBKGHI": {
        "-1197212178": {
            "$type": "GCGDeclaredValueEffectAmount",
            "type": "EffectNum",
            "value": 1
        },
        "476224977": {
            "$type": "GCGDeclaredValueElement",
            "type": "Element",
            "ratio": "GCG_ELEMENT_HYDRO"
        }
    }
}