{
    "IJCDGPIGLOL": {
        "Bartender": {
            "BEPHLIGPAAP": {
                "Ani_Avatar_Bartender_MixingStandby_0": 7684761278858164083,
                "Ani_Avatar_Sword_Bartender_MixingStandby_Sync_0": 14289953955264374866,
                "Ani_Avatar_Bartender_MixingStart_0": 402797750958845806,
                "Ani_Avatar_Sword_Bartender_MixingStart_Sync_0": 13528195699582719260,
                "Ani_Avatar_Bartender_MixingToPour_0": 16446739222171450953,
                "Ani_Avatar_Sword_Bartender_MixingToPour_Sync_0": 16297815263030299212,
                "Ani_Avatar_Bartender_Pour_0": 4607638312650705284,
                "Ani_Avatar_Sword_Bartender_Pour_Sync_0": 11660958591541824730,
                "Ani_Avatar_Bartender_PourFinish_0": 17187846081137518829,
                "Ani_Avatar_Sword_Bartender_PourFinish_Sync_0": 18403777966719025750,
                "Ani_Avatar_Bartender_PourStandby_0": 15180536169903050804,
                "Ani_Avatar_Sword_Bartender_PourStandby_Sync_0": 2506067438861635872,
                "Ani_Avatar_Bartender_PrepareLoop_0": 5797118739465917104,
                "Ani_Avatar_Sword_Bartender_PrepareLoop_Sync_0": 2314932151149104919,
                "Ani_Avatar_Bartender_PrepareStart_0": 16333368770925949167,
                "Ani_Avatar_Sword_Bartender_PrepareStart_Sync_0": 7268546197669112771,
                "Ani_Avatar_Bartender_PrepareStandby_0": 3837010273276198772,
                "Ani_Avatar_Sword_Bartender_PrepareStandby_Sync_0": 16005487366673804339,
                "Ani_Avatar_Bartender_PrepareToStandby_0": 9929087022421790378,
                "Ani_Avatar_Sword_Bartender_PrepareToStandby_Sync_0": 15653288944181251687
            }
        }
    }
}