{
    "name": "Char_Skill_11013",
    "LCAAFCBKGHI": {
        "-2060930438": {
            "$type": "GCGDeclaredValueDamage",
            "value": 2
        },
        "476224977": {
            "$type": "GCGDeclaredValueElement",
            "type": "Element",
            "ratio": "GCG_ELEMENT_CRYO"
        },
        "-1131128448": {
            "$type": "GCGDeclaredValueIndirectDamage",
            "type": "IndirectDamage",
            "value": 2
        },
        "1921885736": {
            "$type": "GCGDeclaredValueElement",
            "type": "Element"
        },
        "-253958709": {
            "$type": "GCGDeclaredValueDamage",
            "value": 3
        },
        "1631563645": {
            "$type": "GCGDeclaredValueIndirectDamage",
            "type": "IndirectDamage",
            "value": 3
        },
        "-1197212178": {
            "$type": "GCGDeclaredValueEffectAmount",
            "type": "EffectNum",
            "value": 1
        }
    }
}