{
    "name": "Char_Skill_15023",
    "LCAAFCBKGHI": {
        "25457495": {
            "$type": "GCGDeclaredValueHealAmount",
            "type": "Heal",
            "value": 2
        }
    }
}