[
    {
        "ILOAFDPNDLL": {
            "z": 1.3624586747891261e-39
        },
        "FOAIFIPECBN": {}
    },
    {
        "ILOAFDPNDLL": {
            "z": 1.678901158722046e-13
        },
        "FIHNEIKKEAI": 4288
    },
    {
        "GOHAIPPNPCI": 120,
        "FOAIFIPECBN": {},
        "FIHNEIKKEAI": -34
    },
    {
        "GOHAIPPNPCI": 2800,
        "ILOAFDPNDLL": {
            "y": -470.3517761230469
        },
        "FOAIFIPECBN": {
            "x": 209.7544403076172,
            "y": 85.55320739746094
        }
    },
    {
        "GOHAIPPNPCI": 2754,
        "ILOAFDPNDLL": {
            "z": -4.3748695413401186e-23
        },
        "FOAIFIPECBN": {
            "x": 274.2218017578125,
            "y": -25.48048210144043
        }
    },
    {
        "GOHAIPPNPCI": 140730296,
        "ILOAFDPNDLL": {
            "z": 1.473484809026252e-34
        }
    },
    {
        "FOAIFIPECBN": {},
        "FIHNEIKKEAI": 44
    },
    {
        "GOHAIPPNPCI": 4748,
        "ILOAFDPNDLL": {}
    },
    {
        "GOHAIPPNPCI": 14,
        "ILOAFDPNDLL": {
            "y": -4.0705032155598596e-34,
            "z": 3.819642992850073e-29
        }
    },
    {
        "GOHAIPPNPCI": 0,
        "ILOAFDPNDLL": {
            "x": 411.279296875,
            "y": -1.2001738578119269e+29
        },
        "FOAIFIPECBN": {
            "x": 223.2516632080078
        },
        "FIHNEIKKEAI": 40
    },
    {
        "GOHAIPPNPCI": 8590,
        "FOAIFIPECBN": {
            "x": 63.53624725341797,
            "y": 242.6056671142578,
            "z": 146.5641632080078
        }
    }
]