{
    "ConfigAQTheWanderer": {
        "CDNPPOGNDBH": {
            "locked1": {
                "$type": "ContextConditionAnd",
                "MOGMJHOLKGE": [
                    {
                        "$type": "ContextConditionNot",
                        "condition": {
                            "$type": "ContextConditionMainQuestState",
                            "AGGACFLCIPN": 3026,
                            "state": "QUEST_STATE_FINISHED"
                        }
                    }
                ]
            },
            "locked2": {
                "$type": "ContextConditionAnd",
                "MOGMJHOLKGE": [
                    {
                        "$type": "ContextConditionNot",
                        "condition": {
                            "$type": "ContextConditionMainQuestState",
                            "AGGACFLCIPN": 12039,
                            "state": "QUEST_STATE_FINISHED"
                        }
                    }
                ]
            },
            "trackChapter1": {
                "$type": "ContextConditionChapterQuestVisible",
                "PNEGHOOGMIJ": 1307,
                "visible": true
            },
            "finish": {
                "$type": "ContextConditionMainQuestState",
                "AGGACFLCIPN": 3032,
                "state": "QUEST_STATE_FINISHED"
            }
        },
        "IGFEMBCOLDG": {
            "updateLocked1": {
                "$type": "ContextActionExecuteAll",
                "actions": [
                    {
                        "$type": "ContextActionSetActive",
                        "PEGIOKIJOEB": "UnlockTips",
                        "EILKDDLAKBL": true
                    },
                    {
                        "$type": "ContextActionSetActive",
                        "PEGIOKIJOEB": "ButtonGoto"
                    },
                    {
                        "$type": "ContextActionSetText",
                        "PEGIOKIJOEB": "UnlockTips",
                        "textMap": "UI_ACTIVITY_WANDERER_AQ_UNLOCK1"
                    },
                    {
                        "$type": "ContextActionSetActive",
                        "PEGIOKIJOEB": "FinishTips"
                    }
                ]
            },
            "updateLocked2": {
                "$type": "ContextActionExecuteAll",
                "actions": [
                    {
                        "$type": "ContextActionSetActive",
                        "PEGIOKIJOEB": "UnlockTips",
                        "EILKDDLAKBL": true
                    },
                    {
                        "$type": "ContextActionSetActive",
                        "PEGIOKIJOEB": "ButtonGoto"
                    },
                    {
                        "$type": "ContextActionSetText",
                        "PEGIOKIJOEB": "UnlockTips",
                        "textMap": "UI_ACTIVITY_WANDERER_AQ_UNLOCK2"
                    },
                    {
                        "$type": "ContextActionSetActive",
                        "PEGIOKIJOEB": "FinishTips"
                    }
                ]
            },
            "updateTrackChapter1": {
                "$type": "ContextActionExecuteAll",
                "actions": [
                    {
                        "$type": "ContextActionSetActive",
                        "PEGIOKIJOEB": "UnlockTips"
                    },
                    {
                        "$type": "ContextActionSetActive",
                        "PEGIOKIJOEB": "ButtonGoto",
                        "EILKDDLAKBL": true
                    },
                    {
                        "$type": "ContextActionSetText",
                        "PEGIOKIJOEB": "ButtonGoto",
                        "textMap": "UI_ACTIVITY_QUEST_GOTO_BUTTON"
                    },
                    {
                        "$type": "ContextActionSetActive",
                        "PEGIOKIJOEB": "FinishTips"
                    }
                ]
            },
            "updateFinished": {
                "$type": "ContextActionExecuteAll",
                "actions": [
                    {
                        "$type": "ContextActionSetActive",
                        "PEGIOKIJOEB": "UnlockTips"
                    },
                    {
                        "$type": "ContextActionSetActive",
                        "PEGIOKIJOEB": "ButtonGoto"
                    },
                    {
                        "$type": "ContextActionSetActive",
                        "PEGIOKIJOEB": "FinishTips",
                        "EILKDDLAKBL": true
                    }
                ]
            },
            "clickTrackChapter1": {
                "$type": "ContextActionExecuteAll",
                "actions": [
                    {
                        "$type": "ContextActionSelectChapterOngoingMainQuest",
                        "PNEGHOOGMIJ": 1307
                    },
                    {
                        "$type": "ContextActionReportActivityBuriedPoint",
                        "PIINBKBEGJO": 5115,
                        "AKNMDILOODL": 2,
                        "NHJIDKBDGAJ": 5115001,
                        "KJNPBCGDOJD": ""
                    },
                    {
                        "$type": "ContextActionSetAnimatorTrigger",
                        "PEGIOKIJOEB": "Animator",
                        "ODCJHDNCLII": "FadeOut",
                        "NAFAKICKJGL": true
                    }
                ]
            }
        },
        "HALLDDEHFMA": [
            {
                "conditionName": "locked1",
                "actionName": "updateLocked1"
            },
            {
                "conditionName": "locked2",
                "actionName": "updateLocked2"
            },
            {
                "conditionName": "trackChapter1",
                "actionName": "updateTrackChapter1"
            },
            {
                "conditionName": "finish",
                "actionName": "updateFinished"
            }
        ],
        "DIADKKABKMN": [
            {
                "conditionName": "trackChapter1",
                "actionName": "clickTrackChapter1"
            }
        ]
    }
}