{
    "name": "Effect_Damage_Physic_4",
    "LCAAFCBKGHI": {
        "-2060930438": {
            "$type": "GCGDeclaredValueDamage",
            "value": 4
        },
        "476224977": {
            "$type": "GCGDeclaredValueElement",
            "type": "Element"
        }
    }
}