{
    "ConfigTheChasm": {
        "CDNPPOGNDBH": {
            "trackArea": {
                "$type": "ContextConditionAnd"
            }
        },
        "IGFEMBCOLDG": {
            "updateArea": {
                "$type": "ContextActionExecuteAll",
                "actions": [
                    {
                        "$type": "ContextActionSetActive",
                        "PEGIOKIJOEB": "ButtonGoto",
                        "EILKDDLAKBL": true
                    },
                    {
                        "$type": "ContextActionSetText",
                        "PEGIOKIJOEB": "ButtonGoto",
                        "textMap": "UI_ACTIVITY_THECHASM_GOTO"
                    }
                ]
            },
            "clickTrackArea": {
                "$type": "ContextActionExecuteAll",
                "actions": [
                    {
                        "$type": "ContextActionSelectTransPoint",
                        "IBMGGNAHDMO": 442,
                        "sceneId": 3
                    },
                    {
                        "$type": "ContextActionReportActivityBuriedPoint",
                        "PIINBKBEGJO": 5075,
                        "AKNMDILOODL": 2,
                        "NHJIDKBDGAJ": 5075001,
                        "KJNPBCGDOJD": ""
                    },
                    {
                        "$type": "ContextActionSetAnimatorTrigger",
                        "PEGIOKIJOEB": "Animator",
                        "ODCJHDNCLII": "FadeOut",
                        "NAFAKICKJGL": true
                    }
                ]
            }
        },
        "HALLDDEHFMA": [
            {
                "conditionName": "trackArea",
                "actionName": "updateArea"
            }
        ],
        "DIADKKABKMN": [
            {
                "conditionName": "trackArea",
                "actionName": "clickTrackArea"
            }
        ]
    }
}