{
    "name": "Char_Skill_13012",
    "LCAAFCBKGHI": {
        "-2060930438": {
            "$type": "GCGDeclaredValueDamage",
            "value": 3
        },
        "476224977": {
            "$type": "GCGDeclaredValueElement",
            "type": "Element",
            "ratio": "GCG_ELEMENT_PYRO"
        },
        "-253958709": {
            "$type": "GCGDeclaredValueDamage",
            "value": 5
        }
    }
}