{
    "freeStyleStateMap": {
        "10100": [],
        "10101": [],
        "10201": [],
        "10301": [],
        "10401": [],
        "10501": [],
        "10601": [],
        "10701": [],
        "10801": [],
        "1231": [
            "Ani_Avatar_NPC_AkimboHand01BS_0",
            "Ani_Avatar_NPC_AkimboHand01BS_Sync_0",
            "Ani_Avatar_NPC_AkimboHand01Loop_0",
            "Ani_Avatar_NPC_AkimboHand01Loop_Sync_0",
            "Ani_Avatar_NPC_AkimboHand01AS_0",
            "Ani_Avatar_NPC_AkimboHand01AS_Sync_0",
            "Ani_Avatar_NPC_Akimbo01Loop_0",
            "Ani_Avatar_NPC_Akimbo01Loop_Sync_0",
            "Ani_Avatar_NPC_Akimbo01AS_0",
            "Ani_Avatar_NPC_Akimbo01AS_Sync_0"
        ],
        "1121": [
            "Ani_Avatar_NPC_HoldArmHand01BS_0",
            "Ani_Avatar_NPC_HoldArmHand01BS_Sync_0",
            "Ani_Avatar_NPC_HoldArmHand01Loop_0",
            "Ani_Avatar_NPC_HoldArmHand01Loop_Sync_0",
            "Ani_Avatar_NPC_HoldArmHand01AS_0",
            "Ani_Avatar_NPC_HoldArmHand01AS_Sync_0",
            "Ani_Avatar_NPC_HoldArm01Loop_0",
            "Ani_Avatar_NPC_HoldArm01Loop_Sync_0",
            "Ani_Avatar_NPC_HoldArm01AS_0",
            "Ani_Avatar_NPC_HoldArm01AS_Sync_0"
        ],
        "1191": [
            "Ani_Avatar_NPC_ThinkHand01BS_0",
            "Ani_Avatar_NPC_ThinkHand01BS_Sync_0",
            "Ani_Avatar_NPC_ThinkHand01Loop_0",
            "Ani_Avatar_NPC_ThinkHand01Loop_Sync_0",
            "Ani_Avatar_NPC_ThinkHand01AS_0",
            "Ani_Avatar_NPC_ThinkHand01AS_Sync_0",
            "Ani_Avatar_NPC_Think01Loop_0",
            "Ani_Avatar_NPC_Think01Loop_Sync_0",
            "Ani_Avatar_NPC_Think01AS_0",
            "Ani_Avatar_NPC_Think01AS_Sync_0"
        ],
        "1221": [
            "Ani_Avatar_NPC_AkimboHand02BS_0",
            "Ani_Avatar_NPC_AkimboHand02BS_Sync_0",
            "Ani_Avatar_NPC_AkimboHand02Loop_0",
            "Ani_Avatar_NPC_AkimboHand02Loop_Sync_0",
            "Ani_Avatar_NPC_AkimboHand02AS_0",
            "Ani_Avatar_NPC_AkimboHand02AS_Sync_0",
            "Ani_Avatar_NPC_Akimbo02Loop_0",
            "Ani_Avatar_NPC_Akimbo02Loop_Sync_0",
            "Ani_Avatar_NPC_Akimbo02AS_0",
            "Ani_Avatar_NPC_Akimbo02AS_Sync_0"
        ],
        "8040": [
            "Ani_Avatar_NPC_SitHoldArm01BS_0",
            "Ani_Avatar_NPC_SitHoldArm01Loop_0",
            "Ani_Avatar_NPC_SitHoldArm01AS_0"
        ],
        "8012": [
            "Ani_Avatar_NPC_SitShrug01BS_0",
            "Ani_Avatar_NPC_SitShrug01Loop_0",
            "Ani_Avatar_NPC_SitShrug01AS_0"
        ],
        "8013": [
            "Ani_Avatar_NPC_SitThink01BS_0",
            "Ani_Avatar_NPC_SitThink01Loop_0",
            "Ani_Avatar_NPC_SitThink01AS_0"
        ],
        "8011": [
            "Ani_Avatar_NPC_SitChat01BS_0",
            "Ani_Avatar_NPC_SitChat01BS_Sync_0",
            "Ani_Avatar_NPC_SitChat01Loop_0",
            "Ani_Avatar_NPC_SitChat01Loop_Sync_0",
            "Ani_Avatar_NPC_SitChat01AS_0",
            "Ani_Avatar_NPC_SitChat01AS_Sync_0"
        ],
        "8060": [
            "Ani_Avatar_NPC_SitPutArm01BS_0",
            "Ani_Avatar_NPC_SitPutArm01Loop_0",
            "Ani_Avatar_NPC_SitPutArm01AS_0"
        ],
        "8041": [
            "Ani_Avatar_NPC_SitHoldArmHand01BS_0",
            "Ani_Avatar_NPC_SitHoldArmHand01Loop_0",
            "Ani_Avatar_NPC_SitHoldArmHand01AS_0",
            "Ani_Avatar_NPC_SitHoldArm01Loop_0",
            "Ani_Avatar_NPC_SitHoldArm01AS_0"
        ],
        "8065": [
            "Ani_Avatar_NPC_SitHoldHead01BS_0",
            "Ani_Avatar_NPC_SitHoldHead01Loop_0",
            "Ani_Avatar_NPC_SitHoldHead01AS_0",
            "Ani_Avatar_NPC_SitPutArm01Loop_0",
            "Ani_Avatar_NPC_SitPutArm01AS_0"
        ],
        "1230": [
            "Ani_Avatar_NPC_Akimbo01BS_0",
            "Ani_Avatar_NPC_Akimbo01BS_Sync_0",
            "Ani_Avatar_NPC_Akimbo01Loop_0",
            "Ani_Avatar_NPC_Akimbo01Loop_Sync_0",
            "Ani_Avatar_NPC_Akimbo01AS_0",
            "Ani_Avatar_NPC_Akimbo01AS_Sync_0"
        ],
        "1040": [
            "Ani_Avatar_NPC_Backrake01BS_0",
            "Ani_Avatar_NPC_Backrake01BS_Sync_0",
            "Ani_Avatar_NPC_Backrake01Loop_0",
            "Ani_Avatar_NPC_Backrake01Loop_Sync_0",
            "Ani_Avatar_NPC_Backrake01AS_0",
            "Ani_Avatar_NPC_Backrake01AS_Sync_0"
        ],
        "1050": [
            "Ani_Avatar_NPC_Confuse01BS_0",
            "Ani_Avatar_NPC_Confuse01BS_Sync_0",
            "Ani_Avatar_NPC_Confuse01Loop_0",
            "Ani_Avatar_NPC_Confuse01Loop_Sync_0",
            "Ani_Avatar_NPC_Confuse01AS_0",
            "Ani_Avatar_NPC_Confuse01AS_Sync_0"
        ],
        "1060": [
            "Ani_Avatar_NPC_Forerake01BS_0",
            "Ani_Avatar_NPC_Forerake01BS_Sync_0",
            "Ani_Avatar_NPC_Forerake01Loop_0",
            "Ani_Avatar_NPC_Forerake01Loop_Sync_0",
            "Ani_Avatar_NPC_Forerake01AS_0",
            "Ani_Avatar_NPC_Forerake01AS_Sync_0"
        ],
        "1070": [
            "Ani_Avatar_NPC_Afraid01BS_0",
            "Ani_Avatar_NPC_Afraid01BS_Sync_0",
            "Ani_Avatar_NPC_Afraid01Loop_0",
            "Ani_Avatar_NPC_Afraid01Loop_Sync_0",
            "Ani_Avatar_NPC_Afraid01AS_0",
            "Ani_Avatar_NPC_Afraid01AS_Sync_0"
        ],
        "1080": [
            "Ani_Avatar_NPC_Alert01BS_0",
            "Ani_Avatar_NPC_Alert01BS_Sync_0",
            "Ani_Avatar_NPC_Alert01Loop_0",
            "Ani_Avatar_NPC_Alert01Loop_Sync_0",
            "Ani_Avatar_NPC_Alert01AS_0",
            "Ani_Avatar_NPC_Alert01AS_Sync_0"
        ],
        "1090": [
            "Ani_Avatar_NPC_Shy01BS_0",
            "Ani_Avatar_NPC_Shy01BS_Sync_0",
            "Ani_Avatar_NPC_Shy01Loop_0",
            "Ani_Avatar_NPC_Shy01Loop_Sync_0",
            "Ani_Avatar_NPC_Shy01AS_0",
            "Ani_Avatar_NPC_Shy01AS_Sync_0"
        ],
        "1110": [
            "Ani_Avatar_NPC_Shrug01BS_0",
            "Ani_Avatar_NPC_Shrug01BS_Sync_0",
            "Ani_Avatar_NPC_Shrug01Loop_0",
            "Ani_Avatar_NPC_Shrug01Loop_Sync_0",
            "Ani_Avatar_NPC_Shrug01AS_0",
            "Ani_Avatar_NPC_Shrug01AS_Sync_0"
        ],
        "1120": [
            "Ani_Avatar_NPC_HoldArm01BS_0",
            "Ani_Avatar_NPC_HoldArm01BS_Sync_0",
            "Ani_Avatar_NPC_HoldArm01Loop_0",
            "Ani_Avatar_NPC_HoldArm01Loop_Sync_0",
            "Ani_Avatar_NPC_HoldArm01AS_0",
            "Ani_Avatar_NPC_HoldArm01AS_Sync_0"
        ],
        "1130": [
            "Ani_Avatar_NPC_StrikeChest01BS_0",
            "Ani_Avatar_NPC_StrikeChest01BS_Sync_0",
            "Ani_Avatar_NPC_StrikeChest01Loop_0",
            "Ani_Avatar_NPC_StrikeChest01Loop_Sync_0",
            "Ani_Avatar_NPC_StrikeChest01AS_0",
            "Ani_Avatar_NPC_StrikeChest01AS_Sync_0"
        ],
        "1150": [
            "Ani_Avatar_NPC_Refuse01_0",
            "Ani_Avatar_NPC_Refuse01_Sync_0"
        ],
        "1160": [
            "Ani_Avatar_NPC_Downcast01BS_0",
            "Ani_Avatar_NPC_Downcast01BS_Sync_0",
            "Ani_Avatar_NPC_Downcast01Loop_0",
            "Ani_Avatar_NPC_Downcast01Loop_Sync_0",
            "Ani_Avatar_NPC_Downcast01AS_0",
            "Ani_Avatar_NPC_Downcast01AS_Sync_0"
        ],
        "1170": [
            "Ani_Avatar_NPC_Chat01BS_0",
            "Ani_Avatar_NPC_Chat01Loop_0",
            "Ani_Avatar_NPC_Chat01AS_0"
        ],
        "1180": [
            "Ani_Avatar_NPC_Chat02BS_0",
            "Ani_Avatar_NPC_Chat02Loop_0",
            "Ani_Avatar_NPC_Chat02AS_0"
        ],
        "1190": [
            "Ani_Avatar_NPC_Think01BS_0",
            "Ani_Avatar_NPC_Think01BS_Sync_0",
            "Ani_Avatar_NPC_Think01Loop_0",
            "Ani_Avatar_NPC_Think01Loop_Sync_0",
            "Ani_Avatar_NPC_Think01AS_0",
            "Ani_Avatar_NPC_Think01AS_Sync_0"
        ],
        "9030": [],
        "9040": [],
        "1140": [
            "Ani_Avatar_NPC_PointR01BS_0",
            "Ani_Avatar_NPC_PointR01Loop_0",
            "Ani_Avatar_NPC_PointR01AS_0"
        ],
        "1210": [
            "Ani_Avatar_NPC_SaluteMengde01BS_0",
            "Ani_Avatar_NPC_SaluteMengde01Loop_0",
            "Ani_Avatar_NPC_SaluteMengde01AS_0"
        ],
        "1200": [
            "Ani_Avatar_NPC_Greet01_0",
            "Ani_Avatar_NPC_Greet01_Sync_0"
        ],
        "1240": [
            "Ani_Avatar_NPC_HoldHead01BS_0",
            "Ani_Avatar_NPC_HoldHead01BS_Sync_0",
            "Ani_Avatar_NPC_HoldHead01Loop_0",
            "Ani_Avatar_NPC_HoldHead01Loop_Sync_0",
            "Ani_Avatar_NPC_HoldHead01AS_0",
            "Ani_Avatar_NPC_HoldHead01AS_Sync_0"
        ],
        "1030": [
            "Ani_Avatar_NPC_PutHand01BS_0",
            "Ani_Avatar_NPC_PutHand01BS_Sync_0",
            "Ani_Avatar_NPC_PutHand01Loop_0",
            "Ani_Avatar_NPC_PutHand01Loop_Sync_0",
            "Ani_Avatar_NPC_PutHand01AS_0",
            "Ani_Avatar_NPC_PutHand01AS_Sync_0"
        ],
        "1220": [
            "Ani_Avatar_NPC_Akimbo02BS_0",
            "Ani_Avatar_NPC_Akimbo02BS_Sync_0",
            "Ani_Avatar_NPC_Akimbo02Loop_0",
            "Ani_Avatar_NPC_Akimbo02Loop_Sync_0",
            "Ani_Avatar_NPC_Akimbo02AS_0",
            "Ani_Avatar_NPC_Akimbo02AS_Sync_0"
        ],
        "8010": [],
        "8020": [],
        "1142": [
            "Ani_Avatar_NPC_PointL01BS_0",
            "Ani_Avatar_NPC_PointL01Loop_0",
            "Ani_Avatar_NPC_PointL01AS_0"
        ],
        "1141": [
            "Ani_Avatar_NPC_PointF01BS_0",
            "Ani_Avatar_NPC_PointF01Loop_0",
            "Ani_Avatar_NPC_PointF01AS_0"
        ],
        "1171": [
            "Ani_Avatar_NPC_Talk01_0",
            "Ani_Avatar_NPC_Talk01_Sync_0"
        ],
        "1172": [
            "Ani_Avatar_NPC_Talk02_0",
            "Ani_Avatar_NPC_Talk02_Sync_0"
        ],
        "1173": [
            "Ani_Avatar_NPC_Talk03_0",
            "Ani_Avatar_NPC_Talk03_Sync_0"
        ],
        "1250": [
            "Ani_Avatar_NPC_Request01BS_0",
            "Ani_Avatar_NPC_Request01Loop_0",
            "Ani_Avatar_NPC_Request01AS_0"
        ],
        "1260": [
            "Ani_Avatar_NPC_Clap01_0"
        ],
        "1270": [
            "Ani_Avatar_NPC_Cheer01BS_0",
            "Ani_Avatar_NPC_Cheer01BS_Sync_0",
            "Ani_Avatar_NPC_Cheer01Loop_0",
            "Ani_Avatar_NPC_Cheer01Loop_Sync_0",
            "Ani_Avatar_NPC_Cheer01AS_0",
            "Ani_Avatar_NPC_Cheer01AS_Sync_0"
        ],
        "1280": [
            "Ani_Avatar_NPC_Investigate01BS_0",
            "Ani_Avatar_NPC_Investigate01BS_Sync_0",
            "Ani_Avatar_NPC_Investigate01Loop_0",
            "Ani_Avatar_NPC_Investigate01Loop_Sync_0",
            "Ani_Avatar_NPC_Investigate01AS_0",
            "Ani_Avatar_NPC_Investigate01AS_Sync_0"
        ],
        "1290": [
            "Ani_Avatar_NPC_Laugh01_0",
            "Ani_Avatar_NPC_Laugh01_Sync_0"
        ],
        "1300": [
            "Ani_Avatar_NPC_Encourage01_0",
            "Ani_Avatar_NPC_Encourage01_Sync_0"
        ],
        "1310": [
            "Ani_Avatar_NPC_Dusting01_0"
        ],
        "4091": [
            "Ani_Avatar_PlayQin01BS_0",
            "Ani_Avatar_Sword_PlayQin01BS_Sync_0",
            "Ani_Avatar_PlayQin01Loop_0",
            "Ani_Avatar_Sword_PlayQin01Loop_Sync_0",
            "Ani_Avatar_PlayQin01AS_0",
            "Ani_Avatar_Sword_PlayQin01AS_Sync_0"
        ],
        "4090": [
            "Ani_Avatar_PlayLyre01BS_0",
            "Ani_Avatar_Sword_PlayLyre01BS_Sync_0",
            "Ani_Avatar_PlayLyre01Loop_0",
            "Ani_Avatar_Sword_PlayLyre01Loop_Sync_0",
            "Ani_Avatar_PlayLyre01AS_0",
            "Ani_Avatar_Sword_PlayLyre01AS_Sync_0"
        ],
        "1342": [
            "Ani_Avatar_Channel01BS_0",
            "Ani_Avatar_Sword_Channel01BS_Sync_0",
            "Ani_Avatar_Channel01Loop_0",
            "Ani_Avatar_Sword_Channel01Loop_Sync_0",
            "Ani_Avatar_Channel01AS_0",
            "Ani_Avatar_Sword_Channel01AS_Sync_0"
        ],
        "4503": [
            "Ani_Avatar_Sword_WeaponStandby_0",
            "Ani_Avatar_Sword_WeaponStandby_Sync_0"
        ],
        "1340": [
            "Ani_Avatar_Sword_Show_01_0",
            "Ani_Avatar_Sword_Show_01_Sync_0"
        ],
        "1343": [
            "Ani_Avatar_Sword_Show_02_0",
            "Ani_Avatar_Sword_Show_02_Sync_0"
        ],
        "4100": [
            "Ani_Avatar_NPC_SitOnFloor01Cycle_0",
            "Ani_Avatar_NPC_SitOnFloor01Cycle_Sync_0"
        ],
        "1440": [
            "Ani_Avatar_NPC_Whisper01BS_0",
            "Ani_Avatar_NPC_Whisper01Loop_0",
            "Ani_Avatar_NPC_Whisper01AS_0"
        ]
    },
    "stateAnimeMap": {
        "Ani_Avatar_NPC_Akimbo01BS_0": 12002732006589543497,
        "Ani_Avatar_NPC_Akimbo01BS_Sync_0": 13002230969378989286,
        "Ani_Avatar_NPC_Backrake01BS_0": 12304312941631364880,
        "Ani_Avatar_NPC_Backrake01BS_Sync_0": 13404734264654188833,
        "Ani_Avatar_NPC_Confuse01BS_0": 3139081683793024625,
        "Ani_Avatar_NPC_Confuse01BS_Sync_0": 9199716405838806887,
        "Ani_Avatar_NPC_Forerake01BS_0": 15489957333636784756,
        "Ani_Avatar_NPC_Forerake01BS_Sync_0": 15700194197595883623,
        "Ani_Avatar_NPC_Afraid01BS_0": 12118280073056191585,
        "Ani_Avatar_NPC_Afraid01BS_Sync_0": 10395976527869344475,
        "Ani_Avatar_NPC_Alert01BS_0": 6218644576028995025,
        "Ani_Avatar_NPC_Alert01BS_Sync_0": 6501371014726712064,
        "Ani_Avatar_NPC_Shy01BS_0": 10475580930823327634,
        "Ani_Avatar_NPC_Shy01BS_Sync_0": 18233006918307103726,
        "Ani_Avatar_NPC_Shrug01BS_0": 2344160388602314054,
        "Ani_Avatar_NPC_Shrug01BS_Sync_0": 4806866447008347178,
        "Ani_Avatar_NPC_HoldArm01BS_0": 14454480652233980313,
        "Ani_Avatar_NPC_HoldArm01BS_Sync_0": 17382346602442699667,
        "Ani_Avatar_NPC_StrikeChest01BS_0": 2199181609597335826,
        "Ani_Avatar_NPC_StrikeChest01BS_Sync_0": 8402348960282603337,
        "Ani_Avatar_NPC_Refuse01_0": 13212186097833847035,
        "Ani_Avatar_NPC_Refuse01_Sync_0": 5377092654402600830,
        "Ani_Avatar_NPC_Akimbo01Loop_0": 5876594105244376747,
        "Ani_Avatar_NPC_Akimbo01Loop_Sync_0": 5817339832606813312,
        "Ani_Avatar_NPC_Akimbo01AS_0": 17515976922844950932,
        "Ani_Avatar_NPC_Akimbo01AS_Sync_0": 829678099019858453,
        "Ani_Avatar_NPC_Backrake01Loop_0": 6937731160617886434,
        "Ani_Avatar_NPC_Backrake01Loop_Sync_0": 16083693510109132070,
        "Ani_Avatar_NPC_Backrake01AS_0": 6062109248297129891,
        "Ani_Avatar_NPC_Backrake01AS_Sync_0": 3289465070723580426,
        "Ani_Avatar_NPC_Confuse01Loop_0": 15757847635688408548,
        "Ani_Avatar_NPC_Confuse01Loop_Sync_0": 3139042969762688410,
        "Ani_Avatar_NPC_Confuse01AS_0": 10125542119570611131,
        "Ani_Avatar_NPC_Confuse01AS_Sync_0": 13536904549251862537,
        "Ani_Avatar_NPC_Forerake01Loop_0": 8170168353111961343,
        "Ani_Avatar_NPC_Forerake01Loop_Sync_0": 9423263202787059558,
        "Ani_Avatar_NPC_Forerake01AS_0": 8527096408826045181,
        "Ani_Avatar_NPC_Forerake01AS_Sync_0": 18382517204817886480,
        "Ani_Avatar_NPC_Afraid01Loop_0": 15632757109642416464,
        "Ani_Avatar_NPC_Afraid01Loop_Sync_0": 3966615908182093647,
        "Ani_Avatar_NPC_Afraid01AS_0": 16878525226519596410,
        "Ani_Avatar_NPC_Afraid01AS_Sync_0": 12934745585000428469,
        "Ani_Avatar_NPC_Alert01Loop_0": 16238299689047756731,
        "Ani_Avatar_NPC_Alert01Loop_Sync_0": 11113064716699899949,
        "Ani_Avatar_NPC_Alert01AS_0": 7006777614685145405,
        "Ani_Avatar_NPC_Alert01AS_Sync_0": 18116922607359027898,
        "Ani_Avatar_NPC_Shy01Loop_0": 13293611592878795963,
        "Ani_Avatar_NPC_Shy01Loop_Sync_0": 6746469356055985592,
        "Ani_Avatar_NPC_Shy01AS_0": 3140275080341386018,
        "Ani_Avatar_NPC_Shy01AS_Sync_0": 14154071369231867336,
        "Ani_Avatar_NPC_Shrug01Loop_0": 12914892828708297928,
        "Ani_Avatar_NPC_Shrug01Loop_Sync_0": 3287894483946979959,
        "Ani_Avatar_NPC_Shrug01AS_0": 5795392761848685567,
        "Ani_Avatar_NPC_Shrug01AS_Sync_0": 5721647083586712009,
        "Ani_Avatar_NPC_HoldArm01Loop_0": 2712784722907725023,
        "Ani_Avatar_NPC_HoldArm01Loop_Sync_0": 7398508043977596704,
        "Ani_Avatar_NPC_HoldArm01AS_0": 14956858484718116242,
        "Ani_Avatar_NPC_HoldArm01AS_Sync_0": 9255074906150482874,
        "Ani_Avatar_NPC_StrikeChest01Loop_0": 12289133401867920319,
        "Ani_Avatar_NPC_StrikeChest01Loop_Sync_0": 11076391112700501103,
        "Ani_Avatar_NPC_StrikeChest01AS_0": 15082139529621809394,
        "Ani_Avatar_NPC_StrikeChest01AS_Sync_0": 10055556310234230695,
        "Ani_Avatar_NPC_Downcast01BS_0": 16972052261006187983,
        "Ani_Avatar_NPC_Downcast01BS_Sync_0": 18308656567368117541,
        "Ani_Avatar_NPC_Chat01BS_0": 12334278457379334854,
        "Ani_Avatar_NPC_Chat02BS_0": 5822508329159035797,
        "Ani_Avatar_NPC_Think01BS_0": 13723847955209670272,
        "Ani_Avatar_NPC_Think01BS_Sync_0": 13087359761873955232,
        "Ani_Avatar_NPC_Downcast01AS_0": 2318526436723880692,
        "Ani_Avatar_NPC_Downcast01AS_Sync_0": 10679834075480958242,
        "Ani_Avatar_NPC_Downcast01Loop_0": 13654891879356656175,
        "Ani_Avatar_NPC_Downcast01Loop_Sync_0": 9192287964038301867,
        "Ani_Avatar_NPC_Chat01Loop_0": 13955028106685023541,
        "Ani_Avatar_NPC_Chat01AS_0": 8373659355821280247,
        "Ani_Avatar_NPC_Chat02AS_0": 10289732853286531923,
        "Ani_Avatar_NPC_Chat02Loop_0": 13499657539522866334,
        "Ani_Avatar_NPC_Think01Loop_0": 5147551597555091732,
        "Ani_Avatar_NPC_Think01Loop_Sync_0": 10840632078563020808,
        "Ani_Avatar_NPC_Think01AS_0": 1840744184921628751,
        "Ani_Avatar_NPC_Think01AS_Sync_0": 14452973951902021935,
        "Ani_Avatar_NPC_PointR01BS_0": 10887847079340830859,
        "Ani_Avatar_NPC_PointR01Loop_0": 9395754805933613668,
        "Ani_Avatar_NPC_PointR01AS_0": 8726068157042884252,
        "Ani_Avatar_NPC_AkimboHand01Loop_0": 1231815773482736845,
        "Ani_Avatar_NPC_AkimboHand01Loop_Sync_0": 7098610229320210055,
        "Ani_Avatar_NPC_HoldArmHand01Loop_0": 18218276883247647089,
        "Ani_Avatar_NPC_HoldArmHand01Loop_Sync_0": 1235874965794747704,
        "Ani_Avatar_NPC_ThinkHand01Loop_0": 13535106672637416471,
        "Ani_Avatar_NPC_ThinkHand01Loop_Sync_0": 5743106675898120394,
        "Ani_Avatar_NPC_AkimboHand01BS_0": 16610762320734700397,
        "Ani_Avatar_NPC_AkimboHand01BS_Sync_0": 2706737746267607802,
        "Ani_Avatar_NPC_AkimboHand01AS_0": 13056383738308938672,
        "Ani_Avatar_NPC_AkimboHand01AS_Sync_0": 5424933547481488084,
        "Ani_Avatar_NPC_HoldArmHand01BS_0": 6817790876420330362,
        "Ani_Avatar_NPC_HoldArmHand01BS_Sync_0": 8291541776251779235,
        "Ani_Avatar_NPC_HoldArmHand01AS_0": 3377678925020103837,
        "Ani_Avatar_NPC_HoldArmHand01AS_Sync_0": 2730721486436466518,
        "Ani_Avatar_NPC_ThinkHand01BS_0": 3924216980230896905,
        "Ani_Avatar_NPC_ThinkHand01BS_Sync_0": 13191086861658520332,
        "Ani_Avatar_NPC_ThinkHand01AS_0": 9966080335549816475,
        "Ani_Avatar_NPC_ThinkHand01AS_Sync_0": 11171189756462369155,
        "Ani_Avatar_NPC_SaluteMengde01BS_0": 6948710577134158709,
        "Ani_Avatar_NPC_Greet01_0": 4807574160995883665,
        "Ani_Avatar_NPC_Greet01_Sync_0": 4362325332933725386,
        "Ani_Avatar_NPC_HoldHead01BS_0": 3172197871657557207,
        "Ani_Avatar_NPC_HoldHead01BS_Sync_0": 2594142419754786434,
        "Ani_Avatar_NPC_HoldHead01Loop_0": 15134216858968829851,
        "Ani_Avatar_NPC_HoldHead01Loop_Sync_0": 6603234814870241672,
        "Ani_Avatar_NPC_HoldHead01AS_0": 511842456851281478,
        "Ani_Avatar_NPC_HoldHead01AS_Sync_0": 12769626737064534521,
        "Ani_Avatar_NPC_PutHand01BS_0": 15504407369039152460,
        "Ani_Avatar_NPC_PutHand01BS_Sync_0": 10989830535268199253,
        "Ani_Avatar_NPC_PutHand01Loop_0": 4643790343390901058,
        "Ani_Avatar_NPC_PutHand01Loop_Sync_0": 13468368136278655727,
        "Ani_Avatar_NPC_PutHand01AS_0": 13645449391005338112,
        "Ani_Avatar_NPC_PutHand01AS_Sync_0": 1348683791729750173,
        "Ani_Avatar_NPC_Akimbo02BS_0": 13596782976026310736,
        "Ani_Avatar_NPC_Akimbo02BS_Sync_0": 17428290400479725655,
        "Ani_Avatar_NPC_Akimbo02Loop_0": 5337688734592544898,
        "Ani_Avatar_NPC_Akimbo02Loop_Sync_0": 12011070633648663745,
        "Ani_Avatar_NPC_Akimbo02AS_0": 7851888299767128152,
        "Ani_Avatar_NPC_Akimbo02AS_Sync_0": 4882442242052646716,
        "Ani_Avatar_NPC_AkimboHand02Loop_0": 605139762964384541,
        "Ani_Avatar_NPC_AkimboHand02Loop_Sync_0": 13778763327115641933,
        "Ani_Avatar_NPC_AkimboHand02BS_0": 8526227671876100202,
        "Ani_Avatar_NPC_AkimboHand02BS_Sync_0": 8100472625707235643,
        "Ani_Avatar_NPC_AkimboHand02AS_0": 16924208477815429150,
        "Ani_Avatar_NPC_AkimboHand02AS_Sync_0": 3036916693363136679,
        "Ani_Avatar_NPC_SaluteMengde01Loop_0": 15575800236833985210,
        "Ani_Avatar_NPC_SaluteMengde01AS_0": 572634571619495982,
        "Ani_Avatar_NPC_PointF01BS_0": 2402652337658281069,
        "Ani_Avatar_NPC_PointF01Loop_0": 15383296661743566963,
        "Ani_Avatar_NPC_PointF01AS_0": 17534256406230126150,
        "Ani_Avatar_NPC_PointL01BS_0": 10973455785460576960,
        "Ani_Avatar_NPC_PointL01Loop_0": 13955063712576629916,
        "Ani_Avatar_NPC_PointL01AS_0": 830780926405855241,
        "Ani_Avatar_NPC_Talk01_0": 2607898709680240281,
        "Ani_Avatar_NPC_Talk01_Sync_0": 14940374696257314045,
        "Ani_Avatar_NPC_Talk02_0": 12203867269152116789,
        "Ani_Avatar_NPC_Talk02_Sync_0": 14273075609805729165,
        "Ani_Avatar_NPC_Talk03_0": 9549065577555540971,
        "Ani_Avatar_NPC_Talk03_Sync_0": 1202447450122168731,
        "Ani_Avatar_NPC_Request01BS_0": 1631481629563757939,
        "Ani_Avatar_NPC_Request01Loop_0": 17913889959995538269,
        "Ani_Avatar_NPC_Request01AS_0": 170203550946877348,
        "Ani_Avatar_NPC_Clap01_0": 2229706450100451062,
        "Ani_Avatar_NPC_Cheer01BS_0": 470026575450229787,
        "Ani_Avatar_NPC_Cheer01BS_Sync_0": 15296153450704629904,
        "Ani_Avatar_NPC_Cheer01Loop_0": 6876549708323835596,
        "Ani_Avatar_NPC_Cheer01Loop_Sync_0": 8018821307984374745,
        "Ani_Avatar_NPC_Cheer01AS_0": 4092214044762322594,
        "Ani_Avatar_NPC_Cheer01AS_Sync_0": 13701370051411359855,
        "Ani_Avatar_NPC_Investigate01BS_0": 7994758252379745588,
        "Ani_Avatar_NPC_Investigate01BS_Sync_0": 3665886532094158002,
        "Ani_Avatar_NPC_Investigate01Loop_0": 593214587457204204,
        "Ani_Avatar_NPC_Investigate01Loop_Sync_0": 6742522091678153697,
        "Ani_Avatar_NPC_Investigate01AS_0": 1846078816518724261,
        "Ani_Avatar_NPC_Investigate01AS_Sync_0": 13978038860742734756,
        "Ani_Avatar_NPC_Laugh01_0": 10620210162053771310,
        "Ani_Avatar_NPC_Laugh01_Sync_0": 17398335642081390810,
        "Ani_Avatar_NPC_Encourage01_0": 5904239476224598071,
        "Ani_Avatar_NPC_Encourage01_Sync_0": 1597751231023435599,
        "Ani_Avatar_NPC_Dusting01_0": 3548156315016490228,
        "Ani_Avatar_NPC_SitHoldArm01AS_0": 10417777817592031813,
        "Ani_Avatar_NPC_SitHoldArm01Loop_0": 16052087864423792567,
        "Ani_Avatar_NPC_SitHoldArm01BS_0": 1334257093933679047,
        "Ani_Avatar_NPC_SitHoldArmHand01BS_0": 9952101636424799802,
        "Ani_Avatar_NPC_SitHoldArmHand01Loop_0": 8806178906359010329,
        "Ani_Avatar_NPC_SitHoldArmHand01AS_0": 12153681914280866653,
        "Ani_Avatar_NPC_SitShrug01BS_0": 5357990700278847010,
        "Ani_Avatar_NPC_SitShrug01AS_0": 925101602883132821,
        "Ani_Avatar_NPC_SitShrug01Loop_0": 17945728910104799859,
        "Ani_Avatar_NPC_SitThink01BS_0": 15035801160016268432,
        "Ani_Avatar_NPC_SitThink01AS_0": 16283003816497108250,
        "Ani_Avatar_NPC_SitThink01Loop_0": 14435457960484611169,
        "Ani_Avatar_NPC_SitChat01BS_0": 16311306459120472037,
        "Ani_Avatar_NPC_SitChat01BS_Sync_0": 12445405340691286562,
        "Ani_Avatar_NPC_SitChat01AS_0": 10240025634800466028,
        "Ani_Avatar_NPC_SitChat01AS_Sync_0": 2858039822799531349,
        "Ani_Avatar_NPC_SitChat01Loop_0": 18143174498540232073,
        "Ani_Avatar_NPC_SitChat01Loop_Sync_0": 3903121666873897003,
        "Ani_Avatar_NPC_SitPutArm01BS_0": 2326250563327410541,
        "Ani_Avatar_NPC_SitPutArm01Loop_0": 1121145294203526288,
        "Ani_Avatar_NPC_SitPutArm01AS_0": 8168970659030489108,
        "Ani_Avatar_NPC_SitHoldHead01BS_0": 4008010287998997599,
        "Ani_Avatar_NPC_SitHoldHead01AS_0": 18102088711552131520,
        "Ani_Avatar_NPC_SitHoldHead01Loop_0": 10427567228858813500,
        "Ani_Avatar_PlayQin01BS_0": 16551969031138959036,
        "Ani_Avatar_Sword_PlayQin01BS_Sync_0": 1743309533783219196,
        "Ani_Avatar_PlayQin01Loop_0": 17418587647401392116,
        "Ani_Avatar_Sword_PlayQin01Loop_Sync_0": 16060777993752466417,
        "Ani_Avatar_PlayQin01AS_0": 5250994942578466823,
        "Ani_Avatar_Sword_PlayQin01AS_Sync_0": 15874719362871825895,
        "Ani_Avatar_PlayLyre01AS_0": 6745461515084530887,
        "Ani_Avatar_Sword_PlayLyre01AS_Sync_0": 6165737464650203868,
        "Ani_Avatar_PlayLyre01Loop_0": 14460331048294565800,
        "Ani_Avatar_Sword_PlayLyre01Loop_Sync_0": 5200759850497842310,
        "Ani_Avatar_PlayLyre01BS_0": 13474228108707133881,
        "Ani_Avatar_Sword_PlayLyre01BS_Sync_0": 4329263694530838597,
        "Ani_Avatar_Channel01BS_0": 12207238744912418961,
        "Ani_Avatar_Sword_Channel01BS_Sync_0": 1362187593568176277,
        "Ani_Avatar_Channel01Loop_0": 7012739679889598705,
        "Ani_Avatar_Sword_Channel01Loop_Sync_0": 16766401722804412209,
        "Ani_Avatar_Channel01AS_0": 827808658857509166,
        "Ani_Avatar_Sword_Channel01AS_Sync_0": 5314072835251782872,
        "Ani_Avatar_Sword_WeaponStandby_0": 4095625851660491225,
        "Ani_Avatar_Sword_WeaponStandby_Sync_0": 6766253872160025061,
        "Ani_Avatar_NPC_SitOnFloor01Cycle_0": 17649435608231827287,
        "Ani_Avatar_NPC_SitOnFloor01Cycle_Sync_0": 17859977805097598868,
        "Ani_Avatar_Sword_Show_02_0": 7968940599066920692,
        "Ani_Avatar_Sword_Show_02_Sync_0": 7968940599066920692,
        "Ani_Avatar_Sword_Show_01_0": 661930100814572411,
        "Ani_Avatar_Sword_Show_01_Sync_0": 661930100814572411,
        "Ani_Avatar_NPC_Whisper01Loop_0": 17321999616253127346,
        "Ani_Avatar_NPC_Whisper01AS_0": 3145536589792762411,
        "Ani_Avatar_NPC_Whisper01BS_0": 15865300951556923629
    }
}