[
    {},
    {},
    {
        "ILOAFDPNDLL": {
            "z": -200.0
        },
        "FIHNEIKKEAI": -4,
        "LJMFCALHGHN": 7
    },
    {
        "GOHAIPPNPCI": 101,
        "ILOAFDPNDLL": {
            "y": 4.543371233012294e-06,
            "z": -7.498843324071913e-09
        },
        "FOAIFIPECBN": {
            "x": 7.111827856187811e-16,
            "y": 3.167792556268978e-06
        },
        "FIHNEIKKEAI": -34
    },
    {
        "FOAIFIPECBN": {
            "z": 3.2249205105472356e-05
        },
        "LJMFCALHGHN": 111
    },
    {
        "GOHAIPPNPCI": 66,
        "ILOAFDPNDLL": {
            "x": -209565892608.0,
            "y": 1.4694117899772748e-34,
            "z": -41.75061798095703
        }
    },
    {},
    {
        "ILOAFDPNDLL": {
            "x": -1.2411477791857697e-30
        },
        "FIHNEIKKEAI": -34,
        "LJMFCALHGHN": 7
    },
    {
        "ILOAFDPNDLL": {
            "x": 11518454.0,
            "y": 9.34046693749956e-15,
            "z": -1.6281847558346354e-33
        }
    },
    {
        "FOAIFIPECBN": {
            "x": 373672000.0
        }
    },
    {
        "GOHAIPPNPCI": 38,
        "ILOAFDPNDLL": {}
    },
    {
        "ILOAFDPNDLL": {
            "x": 2.569211195265975e-18,
            "y": 1564.2269287109375
        },
        "FIHNEIKKEAI": -34
    },
    {
        "GOHAIPPNPCI": 78
    },
    {
        "GOHAIPPNPCI": 67
    }
]