{
    "name": "Card_Event_3032151",
    "LCAAFCBKGHI": {
        "-2060930438": {
            "$type": "GCGDeclaredValueDamage",
            "value": 1
        },
        "476224977": {
            "$type": "GCGDeclaredValueElement",
            "type": "Element"
        },
        "-1197212178": {
            "$type": "GCGDeclaredValueEffectAmount",
            "type": "EffectNum",
            "value": 1
        }
    }
}