{
    "FPMPLDBNECG": [
        {
            "MCCOFAELJPA": 204200,
            "NIMIAKBEEBO": {
                "x": 60.5,
                "y": 42.0,
                "z": 31.600000381469727
            }
        },
        {
            "MCCOFAELJPA": 204201,
            "NIMIAKBEEBO": {
                "x": 60.5,
                "y": 42.0,
                "z": 31.600000381469727
            },
            "KPEAGLJFJEP": {
                "y": 90.0
            }
        },
        {
            "MCCOFAELJPA": 204202,
            "NIMIAKBEEBO": {
                "x": 60.5,
                "y": 42.0,
                "z": 31.600000381469727
            },
            "KPEAGLJFJEP": {
                "y": 180.0
            }
        },
        {
            "MCCOFAELJPA": 204203,
            "NIMIAKBEEBO": {
                "x": 60.5,
                "y": 42.0,
                "z": 31.600000381469727
            },
            "KPEAGLJFJEP": {
                "y": 270.0
            }
        },
        {
            "MCCOFAELJPA": 204210,
            "NIMIAKBEEBO": {
                "x": 60.5,
                "y": 42.0,
                "z": 31.600000381469727
            },
            "KPEAGLJFJEP": {
                "x": 179.99989318847656
            }
        },
        {
            "MCCOFAELJPA": 204211,
            "NIMIAKBEEBO": {
                "x": 60.5,
                "y": 42.0,
                "z": 31.600000381469727
            },
            "KPEAGLJFJEP": {
                "x": 179.99989318847656,
                "y": 90.0
            }
        },
        {
            "MCCOFAELJPA": 204212,
            "NIMIAKBEEBO": {
                "x": 60.5,
                "y": 42.0,
                "z": 31.600000381469727
            },
            "KPEAGLJFJEP": {
                "x": 179.99989318847656,
                "y": 180.0
            }
        },
        {
            "MCCOFAELJPA": 204213,
            "NIMIAKBEEBO": {
                "x": 60.5,
                "y": 42.0,
                "z": 31.600000381469727
            },
            "KPEAGLJFJEP": {
                "x": 179.99989318847656,
                "y": 270.0
            }
        }
    ]
}