{
    "DAPLEKMCBMB": [
        {
            "name": "Character_Sucrose_Q_Normal",
            "ELDLPPHHOBM": 0.550000011920929,
            "IOMFAGOGAAJ": [
                {
                    "PIBJPDLMPKJ": 0.44999998807907104,
                    "actionGroups": [
                        {
                            "actions": [
                                {
                                    "$type": "GcgBehaviourSwitchOnCardLoopEffect",
                                    "KEACJLNKCHK": {
                                        "target": "Actor"
                                    }
                                },
                                {
                                    "$type": "GcgBehaviourFireEffect",
                                    "KEACJLNKCHK": {
                                        "target": "Actor"
                                    },
                                    "effectName": "Eff_Gcg_Common_ElementalBurst_NormalCharge",
                                    "KOGELNIBFMB": "",
                                    "GGPHPGIOHIC": "",
                                    "BFEBMINFJID": {
                                        "$type": "GcgBornRotationFollow"
                                    }
                                },
                                {
                                    "$type": "GcgBehaviourTriggerAudioEvent",
                                    "KEACJLNKCHK": {
                                        "target": "Actor"
                                    },
                                    "eventName": {
                                        "text": "Play_vfx_GCG_Avatar_Sucrose_elementalBurst_BS_Normal"
                                    }
                                }
                            ]
                        }
                    ]
                },
                {
                    "PIBJPDLMPKJ": 0.550000011920929,
                    "actionGroups": [
                        {
                            "actions": [
                                {
                                    "$type": "GcgBehaviourFireEffectBullet",
                                    "effectName": "Eff_Gcg_Avatar_Sucrose_ElementalBurst",
                                    "IKMFOLAIPCF": true,
                                    "EIEMNAJKNCJ": true,
                                    "GBFHLLMDNDM": {
                                        "target": "Actor"
                                    },
                                    "IFEOMJOIGAL": {
                                        "target": "MainTarget"
                                    },
                                    "BFEBMINFJID": {
                                        "$type": "GcgBornRotationLookAtTarget",
                                        "KEACJLNKCHK": {
                                            "target": "MainTarget"
                                        }
                                    },
                                    "DPLGBNHILIE": "Eff_Gcg_Motion_Avatar_Sucrose_ElementBurst",
                                    "IOOMGNCKOAD": "",
                                    "JDGHDEKLCPG": [
                                        {
                                            "$type": "GcgBehaviourEventDestroy",
                                            "LPDGLAMNADD": "OnHit"
                                        }
                                    ]
                                }
                            ]
                        }
                    ]
                }
            ],
            "DELOACENBLE": [
                {
                    "PIBJPDLMPKJ": 0.550000011920929,
                    "actionGroups": [
                        {
                            "actions": [
                                {
                                    "$type": "GcgBehaviourFireEffect",
                                    "KEACJLNKCHK": {
                                        "target": "MainTarget"
                                    },
                                    "effectName": "Eff_Gcg_Avatar_Sucrose_ElementalBurst_Hit",
                                    "KOGELNIBFMB": "",
                                    "GGPHPGIOHIC": "",
                                    "BFEBMINFJID": {
                                        "$type": "GcgBornRotationFollow"
                                    }
                                }
                            ]
                        }
                    ]
                },
                {
                    "PIBJPDLMPKJ": 0.5,
                    "actionGroups": [
                        {
                            "actions": [
                                {
                                    "$type": "GcgBehaviourShakeScreen",
                                    "KEACJLNKCHK": {
                                        "target": "MainTarget"
                                    },
                                    "FONIHNAMJML": "Common_ShakeScreen_Test_E"
                                }
                            ]
                        }
                    ]
                },
                {
                    "actionGroups": [
                        {
                            "actions": [
                                {
                                    "$type": "GcgBehaviourSwitchOnCardLoopEffect",
                                    "KEACJLNKCHK": {
                                        "target": "Actor"
                                    },
                                    "GFKOKIKOMNA": true
                                }
                            ]
                        }
                    ]
                }
            ]
        },
        {
            "name": "Character_Sucrose_Fengling",
            "IOMFAGOGAAJ": [
                {
                    "actionGroups": [
                        {
                            "BMEPDFGOOCP": {
                                "$type": "GcgPredictByAttackElement",
                                "elementType": "GCG_ELEMENT_PYRO"
                            },
                            "actions": [
                                {
                                    "$type": "GcgBehaviourFireEffectBullet",
                                    "effectName": "Eff_Gcg_Common_Gadget_Fire_Bullet",
                                    "IKMFOLAIPCF": true,
                                    "EIEMNAJKNCJ": true,
                                    "GBFHLLMDNDM": {
                                        "target": "Actor",
                                        "BPJDFFOHAEA": true
                                    },
                                    "IFEOMJOIGAL": {
                                        "target": "MainTarget"
                                    },
                                    "BFEBMINFJID": {
                                        "$type": "GcgBornRotationLookAtTarget",
                                        "KEACJLNKCHK": {
                                            "target": "MainTarget"
                                        }
                                    },
                                    "HNJEJJMBDHO": {
                                        "y": 0.5
                                    },
                                    "DPLGBNHILIE": "Eff_Gcg_Motion_Common_Gadget_Bullet",
                                    "IOOMGNCKOAD": "",
                                    "JDGHDEKLCPG": [
                                        {
                                            "$type": "GcgBehaviourEventDestroy",
                                            "LPDGLAMNADD": "OnHit"
                                        }
                                    ]
                                }
                            ]
                        },
                        {
                            "BMEPDFGOOCP": {
                                "$type": "GcgPredictByAttackElement",
                                "elementType": "GCG_ELEMENT_HYDRO"
                            },
                            "actions": [
                                {
                                    "$type": "GcgBehaviourFireEffectBullet",
                                    "effectName": "Eff_Gcg_Common_Gadget_Water_Bullet",
                                    "IKMFOLAIPCF": true,
                                    "EIEMNAJKNCJ": true,
                                    "GBFHLLMDNDM": {
                                        "target": "Actor",
                                        "BPJDFFOHAEA": true
                                    },
                                    "IFEOMJOIGAL": {
                                        "target": "MainTarget"
                                    },
                                    "BFEBMINFJID": {
                                        "$type": "GcgBornRotationLookAtTarget",
                                        "KEACJLNKCHK": {
                                            "target": "MainTarget"
                                        }
                                    },
                                    "HNJEJJMBDHO": {
                                        "y": 0.5
                                    },
                                    "DPLGBNHILIE": "Eff_Gcg_Motion_Common_Gadget_Bullet",
                                    "IOOMGNCKOAD": "",
                                    "JDGHDEKLCPG": [
                                        {
                                            "$type": "GcgBehaviourEventDestroy",
                                            "LPDGLAMNADD": "OnHit"
                                        }
                                    ]
                                }
                            ]
                        },
                        {
                            "BMEPDFGOOCP": {
                                "$type": "GcgPredictByAttackElement",
                                "elementType": "GCG_ELEMENT_ELECTRO"
                            },
                            "actions": [
                                {
                                    "$type": "GcgBehaviourFireEffectBullet",
                                    "effectName": "Eff_Gcg_Common_Gadget_Electric_Bullet",
                                    "IKMFOLAIPCF": true,
                                    "EIEMNAJKNCJ": true,
                                    "GBFHLLMDNDM": {
                                        "target": "Actor",
                                        "BPJDFFOHAEA": true
                                    },
                                    "IFEOMJOIGAL": {
                                        "target": "MainTarget"
                                    },
                                    "BFEBMINFJID": {
                                        "$type": "GcgBornRotationLookAtTarget",
                                        "KEACJLNKCHK": {
                                            "target": "MainTarget"
                                        }
                                    },
                                    "HNJEJJMBDHO": {
                                        "y": 0.5
                                    },
                                    "DPLGBNHILIE": "Eff_Gcg_Motion_Common_Gadget_Bullet",
                                    "IOOMGNCKOAD": "",
                                    "JDGHDEKLCPG": [
                                        {
                                            "$type": "GcgBehaviourEventDestroy",
                                            "LPDGLAMNADD": "OnHit"
                                        }
                                    ]
                                }
                            ]
                        },
                        {
                            "BMEPDFGOOCP": {
                                "$type": "GcgPredictByAttackElement",
                                "elementType": "GCG_ELEMENT_CRYO"
                            },
                            "actions": [
                                {
                                    "$type": "GcgBehaviourFireEffectBullet",
                                    "effectName": "Eff_Gcg_Common_Gadget_Ice_Bullet",
                                    "IKMFOLAIPCF": true,
                                    "EIEMNAJKNCJ": true,
                                    "GBFHLLMDNDM": {
                                        "target": "Actor",
                                        "BPJDFFOHAEA": true
                                    },
                                    "IFEOMJOIGAL": {
                                        "target": "MainTarget"
                                    },
                                    "BFEBMINFJID": {
                                        "$type": "GcgBornRotationLookAtTarget",
                                        "KEACJLNKCHK": {
                                            "target": "MainTarget"
                                        }
                                    },
                                    "HNJEJJMBDHO": {
                                        "y": 0.5
                                    },
                                    "DPLGBNHILIE": "Eff_Gcg_Motion_Common_Gadget_Bullet",
                                    "IOOMGNCKOAD": "",
                                    "JDGHDEKLCPG": [
                                        {
                                            "$type": "GcgBehaviourEventDestroy",
                                            "LPDGLAMNADD": "OnHit"
                                        }
                                    ]
                                }
                            ]
                        },
                        {
                            "BMEPDFGOOCP": {
                                "$type": "GcgPredictByAttackElement",
                                "elementType": "GCG_ELEMENT_GEO"
                            },
                            "actions": [
                                {
                                    "$type": "GcgBehaviourFireEffectBullet",
                                    "effectName": "Eff_Gcg_Common_Gadget_Rock_Bullet",
                                    "IKMFOLAIPCF": true,
                                    "EIEMNAJKNCJ": true,
                                    "GBFHLLMDNDM": {
                                        "target": "Actor",
                                        "BPJDFFOHAEA": true
                                    },
                                    "IFEOMJOIGAL": {
                                        "target": "MainTarget"
                                    },
                                    "BFEBMINFJID": {
                                        "$type": "GcgBornRotationLookAtTarget",
                                        "KEACJLNKCHK": {
                                            "target": "MainTarget"
                                        }
                                    },
                                    "HNJEJJMBDHO": {
                                        "y": 0.5
                                    },
                                    "DPLGBNHILIE": "Eff_Gcg_Motion_Common_Gadget_Bullet",
                                    "IOOMGNCKOAD": "",
                                    "JDGHDEKLCPG": [
                                        {
                                            "$type": "GcgBehaviourEventDestroy",
                                            "LPDGLAMNADD": "OnHit"
                                        }
                                    ]
                                }
                            ]
                        },
                        {
                            "BMEPDFGOOCP": {
                                "$type": "GcgPredictByAttackElement",
                                "elementType": "GCG_ELEMENT_DENDRO"
                            },
                            "actions": [
                                {
                                    "$type": "GcgBehaviourFireEffectBullet",
                                    "effectName": "Eff_Gcg_Common_Gadget_Grass_Bullet",
                                    "IKMFOLAIPCF": true,
                                    "EIEMNAJKNCJ": true,
                                    "GBFHLLMDNDM": {
                                        "target": "Actor",
                                        "BPJDFFOHAEA": true
                                    },
                                    "IFEOMJOIGAL": {
                                        "target": "MainTarget"
                                    },
                                    "BFEBMINFJID": {
                                        "$type": "GcgBornRotationLookAtTarget",
                                        "KEACJLNKCHK": {
                                            "target": "MainTarget"
                                        }
                                    },
                                    "HNJEJJMBDHO": {
                                        "y": 0.5
                                    },
                                    "DPLGBNHILIE": "Eff_Gcg_Motion_Common_Gadget_Bullet",
                                    "IOOMGNCKOAD": "",
                                    "JDGHDEKLCPG": [
                                        {
                                            "$type": "GcgBehaviourEventDestroy",
                                            "LPDGLAMNADD": "OnHit"
                                        }
                                    ]
                                }
                            ]
                        },
                        {
                            "BMEPDFGOOCP": {
                                "$type": "GcgPredictByAttackElement",
                                "elementType": "GCG_ELEMENT_ANEMO"
                            },
                            "actions": [
                                {
                                    "$type": "GcgBehaviourFireEffectBullet",
                                    "effectName": "Eff_Gcg_Common_Gadget_Wind_Bullet",
                                    "IKMFOLAIPCF": true,
                                    "EIEMNAJKNCJ": true,
                                    "GBFHLLMDNDM": {
                                        "target": "Actor",
                                        "BPJDFFOHAEA": true
                                    },
                                    "IFEOMJOIGAL": {
                                        "target": "MainTarget"
                                    },
                                    "BFEBMINFJID": {
                                        "$type": "GcgBornRotationLookAtTarget",
                                        "KEACJLNKCHK": {
                                            "target": "MainTarget"
                                        }
                                    },
                                    "HNJEJJMBDHO": {
                                        "y": 0.5
                                    },
                                    "DPLGBNHILIE": "Eff_Gcg_Motion_Common_Gadget_Bullet",
                                    "IOOMGNCKOAD": "",
                                    "JDGHDEKLCPG": [
                                        {
                                            "$type": "GcgBehaviourEventDestroy",
                                            "LPDGLAMNADD": "OnHit"
                                        }
                                    ]
                                }
                            ]
                        }
                    ]
                }
            ],
            "DELOACENBLE": [
                {
                    "BMEPDFGOOCP": {
                        "$type": "GcgPredictByAttackSkill",
                        "JILDLKOLCID": [
                            101,
                            102,
                            103,
                            104,
                            105,
                            1061,
                            107,
                            108,
                            109,
                            110,
                            111,
                            112,
                            113,
                            114,
                            115,
                            116,
                            117
                        ]
                    },
                    "actionGroups": [
                        {
                            "BMEPDFGOOCP": {
                                "$type": "GcgPredictByAttackSkill",
                                "JILDLKOLCID": [
                                    101
                                ]
                            },
                            "actions": [
                                {
                                    "$type": "GcgBehaviourFireEffect",
                                    "KEACJLNKCHK": {
                                        "target": "ContextTarget"
                                    },
                                    "effectName": "Eff_Gcg_Common_Reaction_Melt",
                                    "KOGELNIBFMB": "",
                                    "GGPHPGIOHIC": "",
                                    "BFEBMINFJID": {
                                        "$type": "GcgBornRotationFollow"
                                    }
                                }
                            ]
                        },
                        {
                            "BMEPDFGOOCP": {
                                "$type": "GcgPredictByAttackSkill",
                                "JILDLKOLCID": [
                                    102
                                ]
                            },
                            "actions": [
                                {
                                    "$type": "GcgBehaviourFireEffect",
                                    "KEACJLNKCHK": {
                                        "target": "ContextTarget"
                                    },
                                    "effectName": "Eff_Gcg_Common_Reaction_Steam",
                                    "KOGELNIBFMB": "",
                                    "GGPHPGIOHIC": "",
                                    "BFEBMINFJID": {
                                        "$type": "GcgBornRotationFollow"
                                    }
                                }
                            ]
                        },
                        {
                            "BMEPDFGOOCP": {
                                "$type": "GcgPredictByAttackSkill",
                                "JILDLKOLCID": [
                                    103
                                ]
                            },
                            "actions": [
                                {
                                    "$type": "GcgBehaviourFireEffect",
                                    "KEACJLNKCHK": {
                                        "target": "ContextTarget"
                                    },
                                    "effectName": "Eff_Gcg_Common_Reaction_Overload",
                                    "KOGELNIBFMB": "",
                                    "GGPHPGIOHIC": "",
                                    "BFEBMINFJID": {
                                        "$type": "GcgBornRotationFollow"
                                    }
                                }
                            ]
                        },
                        {
                            "BMEPDFGOOCP": {
                                "$type": "GcgPredictByAttackSkill",
                                "JILDLKOLCID": [
                                    104
                                ]
                            },
                            "actions": [
                                {
                                    "$type": "GcgBehaviourFireEffect",
                                    "KEACJLNKCHK": {
                                        "target": "ContextTarget"
                                    },
                                    "effectName": "Eff_Gcg_Common_Reaction_Superconductor",
                                    "KOGELNIBFMB": "",
                                    "GGPHPGIOHIC": "",
                                    "BFEBMINFJID": {
                                        "$type": "GcgBornRotationFollow"
                                    }
                                }
                            ]
                        },
                        {
                            "BMEPDFGOOCP": {
                                "$type": "GcgPredictByAttackSkill",
                                "JILDLKOLCID": [
                                    105
                                ]
                            },
                            "actions": [
                                {
                                    "$type": "GcgBehaviourFireEffect",
                                    "KEACJLNKCHK": {
                                        "target": "ContextTarget"
                                    },
                                    "effectName": "Eff_Gcg_Common_Reaction_StickElectric",
                                    "KOGELNIBFMB": "",
                                    "GGPHPGIOHIC": "",
                                    "BFEBMINFJID": {
                                        "$type": "GcgBornRotationFollow"
                                    }
                                }
                            ]
                        },
                        {
                            "BMEPDFGOOCP": {
                                "$type": "GcgPredictByAttackSkill",
                                "JILDLKOLCID": [
                                    1061
                                ]
                            },
                            "actions": [
                                {
                                    "$type": "GcgBehaviourFireEffect",
                                    "KEACJLNKCHK": {
                                        "target": "ContextTarget"
                                    },
                                    "effectName": "Eff_Gcg_Common_Reaction_BreakIce",
                                    "KOGELNIBFMB": "",
                                    "GGPHPGIOHIC": "",
                                    "BFEBMINFJID": {
                                        "$type": "GcgBornRotationFollow"
                                    }
                                }
                            ]
                        },
                        {
                            "BMEPDFGOOCP": {
                                "$type": "GcgPredictByAttackSkill",
                                "JILDLKOLCID": [
                                    108
                                ]
                            },
                            "actions": [
                                {
                                    "$type": "GcgBehaviourFireEffect",
                                    "KEACJLNKCHK": {
                                        "target": "ContextTarget"
                                    },
                                    "effectName": "Eff_Gcg_Common_Reaction_Swirl_Water",
                                    "KOGELNIBFMB": "",
                                    "GGPHPGIOHIC": "",
                                    "BFEBMINFJID": {
                                        "$type": "GcgBornRotationFollow"
                                    }
                                }
                            ]
                        },
                        {
                            "BMEPDFGOOCP": {
                                "$type": "GcgPredictByAttackSkill",
                                "JILDLKOLCID": [
                                    107
                                ]
                            },
                            "actions": [
                                {
                                    "$type": "GcgBehaviourFireEffect",
                                    "KEACJLNKCHK": {
                                        "target": "ContextTarget"
                                    },
                                    "effectName": "Eff_Gcg_Common_Reaction_Swirl_Ice",
                                    "KOGELNIBFMB": "",
                                    "GGPHPGIOHIC": "",
                                    "BFEBMINFJID": {
                                        "$type": "GcgBornRotationFollow"
                                    }
                                }
                            ]
                        },
                        {
                            "BMEPDFGOOCP": {
                                "$type": "GcgPredictByAttackSkill",
                                "JILDLKOLCID": [
                                    109
                                ]
                            },
                            "actions": [
                                {
                                    "$type": "GcgBehaviourFireEffect",
                                    "KEACJLNKCHK": {
                                        "target": "ContextTarget"
                                    },
                                    "effectName": "Eff_Gcg_Common_Reaction_Swirl_Fire",
                                    "KOGELNIBFMB": "",
                                    "GGPHPGIOHIC": "",
                                    "BFEBMINFJID": {
                                        "$type": "GcgBornRotationFollow"
                                    }
                                }
                            ]
                        },
                        {
                            "BMEPDFGOOCP": {
                                "$type": "GcgPredictByAttackSkill",
                                "JILDLKOLCID": [
                                    110
                                ]
                            },
                            "actions": [
                                {
                                    "$type": "GcgBehaviourFireEffect",
                                    "KEACJLNKCHK": {
                                        "target": "ContextTarget"
                                    },
                                    "effectName": "Eff_Gcg_Common_Reaction_Swirl_Electric",
                                    "KOGELNIBFMB": "",
                                    "GGPHPGIOHIC": "",
                                    "BFEBMINFJID": {
                                        "$type": "GcgBornRotationFollow"
                                    }
                                }
                            ]
                        },
                        {
                            "BMEPDFGOOCP": {
                                "$type": "GcgPredictByAttackSkill",
                                "JILDLKOLCID": [
                                    111,
                                    112,
                                    113,
                                    114
                                ]
                            },
                            "actions": [
                                {
                                    "$type": "GcgBehaviourFireEffect",
                                    "KEACJLNKCHK": {
                                        "target": "ContextTarget"
                                    },
                                    "effectName": "Eff_Gcg_Common_Reaction_Crystal",
                                    "KOGELNIBFMB": "",
                                    "GGPHPGIOHIC": "",
                                    "BFEBMINFJID": {
                                        "$type": "GcgBornRotationFollow"
                                    }
                                }
                            ]
                        },
                        {
                            "BMEPDFGOOCP": {
                                "$type": "GcgPredictByAttackSkill",
                                "JILDLKOLCID": [
                                    115
                                ]
                            },
                            "actions": [
                                {
                                    "$type": "GcgBehaviourFireEffect",
                                    "KEACJLNKCHK": {
                                        "target": "ContextTarget"
                                    },
                                    "effectName": "Eff_Gcg_Common_Reaction_Burning_Grass",
                                    "KOGELNIBFMB": "",
                                    "GGPHPGIOHIC": "",
                                    "BFEBMINFJID": {
                                        "$type": "GcgBornRotationFollow"
                                    }
                                }
                            ]
                        },
                        {
                            "BMEPDFGOOCP": {
                                "$type": "GcgPredictByAttackSkill",
                                "JILDLKOLCID": [
                                    116
                                ]
                            },
                            "actions": [
                                {
                                    "$type": "GcgBehaviourFireEffect",
                                    "KEACJLNKCHK": {
                                        "target": "ContextTarget"
                                    },
                                    "effectName": "Eff_Gcg_Common_Reaction_Overgrow",
                                    "KOGELNIBFMB": "",
                                    "GGPHPGIOHIC": "",
                                    "BFEBMINFJID": {
                                        "$type": "GcgBornRotationFollow"
                                    }
                                }
                            ]
                        },
                        {
                            "BMEPDFGOOCP": {
                                "$type": "GcgPredictByAttackSkill",
                                "JILDLKOLCID": [
                                    117
                                ]
                            },
                            "actions": [
                                {
                                    "$type": "GcgBehaviourFireEffect",
                                    "KEACJLNKCHK": {
                                        "target": "ContextTarget"
                                    },
                                    "effectName": "Eff_Gcg_Common_Reaction_Overdose",
                                    "KOGELNIBFMB": "",
                                    "GGPHPGIOHIC": "",
                                    "BFEBMINFJID": {
                                        "$type": "GcgBornRotationFollow"
                                    }
                                }
                            ]
                        }
                    ]
                },
                {
                    "actionGroups": [
                        {
                            "BMEPDFGOOCP": {
                                "$type": "GcgPredictByAttackElement",
                                "elementType": "GCG_ELEMENT_PYRO"
                            },
                            "actions": [
                                {
                                    "$type": "GcgBehaviourFireEffect",
                                    "KEACJLNKCHK": {
                                        "target": "ContextTarget"
                                    },
                                    "effectName": "Eff_Gcg_Common_Gadget_Fire_Hit",
                                    "KOGELNIBFMB": "",
                                    "GGPHPGIOHIC": "",
                                    "BFEBMINFJID": {
                                        "$type": "GcgBornRotationLookAtTarget",
                                        "KEACJLNKCHK": {
                                            "target": "Actor",
                                            "BPJDFFOHAEA": true
                                        }
                                    }
                                },
                                {
                                    "$type": "GcgBehaviourTriggerAudioEvent",
                                    "KEACJLNKCHK": {
                                        "target": "ContextTarget"
                                    },
                                    "ICFDNHIPHDB": true,
                                    "eventName": {
                                        "text": "Play_vfx_GCG_common_gadget_fire_hit"
                                    }
                                }
                            ]
                        },
                        {
                            "BMEPDFGOOCP": {
                                "$type": "GcgPredictByAttackElement",
                                "elementType": "GCG_ELEMENT_HYDRO"
                            },
                            "actions": [
                                {
                                    "$type": "GcgBehaviourFireEffect",
                                    "KEACJLNKCHK": {
                                        "target": "ContextTarget"
                                    },
                                    "effectName": "Eff_Gcg_Common_Gadget_Water_Hit",
                                    "KOGELNIBFMB": "",
                                    "GGPHPGIOHIC": "",
                                    "BFEBMINFJID": {
                                        "$type": "GcgBornRotationLookAtTarget",
                                        "KEACJLNKCHK": {
                                            "target": "Actor",
                                            "BPJDFFOHAEA": true
                                        }
                                    }
                                },
                                {
                                    "$type": "GcgBehaviourTriggerAudioEvent",
                                    "KEACJLNKCHK": {
                                        "target": "ContextTarget"
                                    },
                                    "ICFDNHIPHDB": true,
                                    "eventName": {
                                        "text": "Play_vfx_GCG_common_gadget_water_hit"
                                    }
                                }
                            ]
                        },
                        {
                            "BMEPDFGOOCP": {
                                "$type": "GcgPredictByAttackElement",
                                "elementType": "GCG_ELEMENT_ELECTRO"
                            },
                            "actions": [
                                {
                                    "$type": "GcgBehaviourFireEffect",
                                    "KEACJLNKCHK": {
                                        "target": "ContextTarget"
                                    },
                                    "effectName": "Eff_Gcg_Common_Gadget_Electric_Hit",
                                    "KOGELNIBFMB": "",
                                    "GGPHPGIOHIC": "",
                                    "BFEBMINFJID": {
                                        "$type": "GcgBornRotationLookAtTarget",
                                        "KEACJLNKCHK": {
                                            "target": "Actor",
                                            "BPJDFFOHAEA": true
                                        }
                                    }
                                },
                                {
                                    "$type": "GcgBehaviourTriggerAudioEvent",
                                    "KEACJLNKCHK": {
                                        "target": "ContextTarget"
                                    },
                                    "ICFDNHIPHDB": true,
                                    "eventName": {
                                        "text": "Play_vfx_GCG_common_gadget_electric_hit"
                                    }
                                }
                            ]
                        },
                        {
                            "BMEPDFGOOCP": {
                                "$type": "GcgPredictByAttackElement",
                                "elementType": "GCG_ELEMENT_CRYO"
                            },
                            "actions": [
                                {
                                    "$type": "GcgBehaviourFireEffect",
                                    "KEACJLNKCHK": {
                                        "target": "ContextTarget"
                                    },
                                    "effectName": "Eff_Gcg_Common_Gadget_Ice_Hit",
                                    "KOGELNIBFMB": "",
                                    "GGPHPGIOHIC": "",
                                    "BFEBMINFJID": {
                                        "$type": "GcgBornRotationLookAtTarget",
                                        "KEACJLNKCHK": {
                                            "target": "Actor",
                                            "BPJDFFOHAEA": true
                                        }
                                    }
                                },
                                {
                                    "$type": "GcgBehaviourTriggerAudioEvent",
                                    "KEACJLNKCHK": {
                                        "target": "ContextTarget"
                                    },
                                    "ICFDNHIPHDB": true,
                                    "eventName": {
                                        "text": "Play_vfx_GCG_common_gadget_ice_hit"
                                    }
                                }
                            ]
                        },
                        {
                            "BMEPDFGOOCP": {
                                "$type": "GcgPredictByAttackElement",
                                "elementType": "GCG_ELEMENT_GEO"
                            },
                            "actions": [
                                {
                                    "$type": "GcgBehaviourFireEffect",
                                    "KEACJLNKCHK": {
                                        "target": "ContextTarget"
                                    },
                                    "effectName": "Eff_Gcg_Common_Gadget_Rock_Hit",
                                    "KOGELNIBFMB": "",
                                    "GGPHPGIOHIC": "",
                                    "BFEBMINFJID": {
                                        "$type": "GcgBornRotationLookAtTarget",
                                        "KEACJLNKCHK": {
                                            "target": "Actor",
                                            "BPJDFFOHAEA": true
                                        }
                                    }
                                },
                                {
                                    "$type": "GcgBehaviourTriggerAudioEvent",
                                    "KEACJLNKCHK": {
                                        "target": "ContextTarget"
                                    },
                                    "ICFDNHIPHDB": true,
                                    "eventName": {
                                        "text": "Play_vfx_GCG_common_gadget_rock_hit"
                                    }
                                }
                            ]
                        },
                        {
                            "BMEPDFGOOCP": {
                                "$type": "GcgPredictByAttackElement",
                                "elementType": "GCG_ELEMENT_DENDRO"
                            },
                            "actions": [
                                {
                                    "$type": "GcgBehaviourFireEffect",
                                    "KEACJLNKCHK": {
                                        "target": "ContextTarget"
                                    },
                                    "effectName": "Eff_Gcg_Common_Gadget_Grass_Hit",
                                    "KOGELNIBFMB": "",
                                    "GGPHPGIOHIC": "",
                                    "BFEBMINFJID": {
                                        "$type": "GcgBornRotationLookAtTarget",
                                        "KEACJLNKCHK": {
                                            "target": "Actor",
                                            "BPJDFFOHAEA": true
                                        }
                                    }
                                },
                                {
                                    "$type": "GcgBehaviourTriggerAudioEvent",
                                    "KEACJLNKCHK": {
                                        "target": "ContextTarget"
                                    },
                                    "ICFDNHIPHDB": true,
                                    "eventName": {
                                        "text": "Play_vfx_GCG_common_gadget_grass_hit"
                                    }
                                }
                            ]
                        },
                        {
                            "BMEPDFGOOCP": {
                                "$type": "GcgPredictByAttackElement",
                                "elementType": "GCG_ELEMENT_ANEMO"
                            },
                            "actions": [
                                {
                                    "$type": "GcgBehaviourFireEffect",
                                    "KEACJLNKCHK": {
                                        "target": "ContextTarget"
                                    },
                                    "effectName": "Eff_Gcg_Common_Gadget_Wind_Hit",
                                    "KOGELNIBFMB": "",
                                    "GGPHPGIOHIC": "",
                                    "BFEBMINFJID": {
                                        "$type": "GcgBornRotationLookAtTarget",
                                        "KEACJLNKCHK": {
                                            "target": "Actor",
                                            "BPJDFFOHAEA": true
                                        }
                                    }
                                },
                                {
                                    "$type": "GcgBehaviourTriggerAudioEvent",
                                    "KEACJLNKCHK": {
                                        "target": "ContextTarget"
                                    },
                                    "ICFDNHIPHDB": true,
                                    "eventName": {
                                        "text": "Play_vfx_GCG_common_gadget_wind_hit"
                                    }
                                }
                            ]
                        }
                    ]
                }
            ]
        }
    ]
}