{
    "FIADJNGCHDA": {
        "50011422": {
            "APJHDOBMBHO": {
                "1": {
                    "z": -20.0
                },
                "2": {
                    "z": 180.0
                },
                "3": {
                    "z": -40.0
                },
                "4": {
                    "z": 210.0
                }
            }
        },
        "50014511": {
            "APJHDOBMBHO": {
                "1": {
                    "x": 75.0
                },
                "2": {
                    "x": 70.0
                },
                "3": {
                    "x": 75.0
                }
            }
        }
    }
}