{
    "Level_SmrDungeon_BigTree_BigTree_01_Inside_Ve": {
        "$type": "ConfigShapePolygon",
        "polygonConfigPath": "Level_SmrDungeon_BigTree_BigTree_01_Inside_Ve"
    },
    "Level_SmrDungeon_BigTree_Flower_02_Inside_Ve": {
        "$type": "ConfigShapePolygon",
        "polygonConfigPath": "Level_SmrDungeon_BigTree_Flower_02_Inside_Ve"
    },
    "Level_SmrDungeon_BigTree_Flower_01_Inside_Ve": {
        "$type": "ConfigShapePolygon",
        "polygonConfigPath": "Level_SmrDungeon_BigTree_Flower_01_Inside_Ve"
    },
    "Level_SmrDungeon_BigTree_XMBigTree_Inside_Vd": {
        "$type": "ConfigShapePolygon",
        "polygonConfigPath": "Level_SmrDungeon_BigTree_XMBigTree_Inside_Vd"
    },
    "Level_SmrDungeon_BigTree_XMBigTree_Outside_Vd": {
        "$type": "ConfigShapePolygon",
        "polygonConfigPath": "Level_SmrDungeon_BigTree_XMBigTree_Outside_Vd"
    }
}