{
    "ACOAKHNFECL": [
        {
            "MCCOFAELJPA": 1,
            "OAGKFLJPGKD": [
                {
                    "GOHAIPPNPCI": 360101,
                    "FIHNEIKKEAI": 1
                },
                {
                    "GOHAIPPNPCI": 360201,
                    "FIHNEIKKEAI": 1
                },
                {
                    "GOHAIPPNPCI": 360301,
                    "FIHNEIKKEAI": 1
                }
            ]
        },
        {
            "MCCOFAELJPA": 2,
            "OAGKFLJPGKD": [
                {
                    "GOHAIPPNPCI": 360101,
                    "FIHNEIKKEAI": 1
                },
                {
                    "GOHAIPPNPCI": 360201,
                    "FIHNEIKKEAI": 1
                },
                {
                    "GOHAIPPNPCI": 360301,
                    "FIHNEIKKEAI": 1
                },
                {
                    "GOHAIPPNPCI": 360402,
                    "FIHNEIKKEAI": 1
                }
            ]
        },
        {
            "MCCOFAELJPA": 3,
            "OAGKFLJPGKD": [
                {
                    "GOHAIPPNPCI": 360101,
                    "FIHNEIKKEAI": 1
                },
                {
                    "GOHAIPPNPCI": 360201,
                    "FIHNEIKKEAI": 1
                },
                {
                    "GOHAIPPNPCI": 360301,
                    "FIHNEIKKEAI": 1
                },
                {
                    "GOHAIPPNPCI": 360402,
                    "FIHNEIKKEAI": 1
                }
            ]
        },
        {
            "MCCOFAELJPA": 4,
            "OAGKFLJPGKD": [
                {
                    "GOHAIPPNPCI": 360101,
                    "FIHNEIKKEAI": 1
                },
                {
                    "GOHAIPPNPCI": 360201,
                    "FIHNEIKKEAI": 1
                },
                {
                    "GOHAIPPNPCI": 360301,
                    "FIHNEIKKEAI": 1
                },
                {
                    "GOHAIPPNPCI": 360402,
                    "FIHNEIKKEAI": 1
                }
            ]
        },
        {
            "MCCOFAELJPA": 5,
            "OAGKFLJPGKD": [
                {
                    "GOHAIPPNPCI": 360101,
                    "FIHNEIKKEAI": 1
                },
                {
                    "GOHAIPPNPCI": 360201,
                    "FIHNEIKKEAI": 1
                },
                {
                    "GOHAIPPNPCI": 360301,
                    "FIHNEIKKEAI": 1
                },
                {
                    "GOHAIPPNPCI": 360402,
                    "FIHNEIKKEAI": 1
                }
            ]
        },
        {
            "MCCOFAELJPA": 6,
            "OAGKFLJPGKD": [
                {
                    "GOHAIPPNPCI": 360101,
                    "FIHNEIKKEAI": 1
                },
                {
                    "GOHAIPPNPCI": 360201,
                    "FIHNEIKKEAI": 1
                },
                {
                    "GOHAIPPNPCI": 360301,
                    "FIHNEIKKEAI": 1
                },
                {
                    "GOHAIPPNPCI": 360401,
                    "FIHNEIKKEAI": 1
                }
            ]
        },
        {
            "MCCOFAELJPA": 7,
            "OAGKFLJPGKD": [
                {
                    "GOHAIPPNPCI": 360101,
                    "FIHNEIKKEAI": 1
                },
                {
                    "GOHAIPPNPCI": 360201,
                    "FIHNEIKKEAI": 1
                },
                {
                    "GOHAIPPNPCI": 360301,
                    "FIHNEIKKEAI": 1
                },
                {
                    "GOHAIPPNPCI": 360401,
                    "FIHNEIKKEAI": 1
                }
            ]
        }
    ],
    "IMKDGJEHBKJ": true,
    "FJGGOFLFMJP": {
        "x": -12.0,
        "z": 11.0
    },
    "JKNGAANCIAP": [
        {
            "GOHAIPPNPCI": 364301,
            "ILOAFDPNDLL": {
                "x": 10.0
            },
            "FOAIFIPECBN": {
                "y": 180.0
            },
            "FIHNEIKKEAI": 1
        },
        {
            "GOHAIPPNPCI": 364301,
            "ILOAFDPNDLL": {
                "x": -10.0,
                "z": -5.0
            },
            "FIHNEIKKEAI": 1
        },
        {
            "GOHAIPPNPCI": 364301,
            "ILOAFDPNDLL": {
                "x": -15.0
            },
            "FOAIFIPECBN": {
                "y": 180.0
            },
            "FIHNEIKKEAI": 1
        },
        {
            "GOHAIPPNPCI": 364301,
            "ILOAFDPNDLL": {
                "x": -12.5,
                "y": 5.300000190734863,
                "z": -2.5
            },
            "FOAIFIPECBN": {
                "y": 90.0
            },
            "FIHNEIKKEAI": 1
        },
        {
            "GOHAIPPNPCI": 364301,
            "ILOAFDPNDLL": {
                "x": 12.5,
                "y": 5.300000190734863,
                "z": -2.5
            },
            "FOAIFIPECBN": {
                "y": 270.0
            },
            "FIHNEIKKEAI": 1
        }
    ],
    "MOMDJLMEAAK": [
        {
            "GOHAIPPNPCI": 364401,
            "ILOAFDPNDLL": {
                "y": 5.300000190734863,
                "z": 12.5
            },
            "FIHNEIKKEAI": 1
        }
    ],
    "LKPHOAGHNKM": {},
    "IGMMJNONBHG": {
        "x": -11.0,
        "y": 1.0,
        "z": 12.0
    },
    "GMBEEGJDMMN": 1
}