{
    "DAPLEKMCBMB": [
        {
            "name": "Reaction_ElectroCharged",
            "IOMFAGOGAAJ": [
                {
                    "PIBJPDLMPKJ": 0.10000000149011612
                },
                {
                    "actionGroups": [
                        {
                            "actions": [
                                {
                                    "$type": "GcgBehaviourTriggerAttack",
                                    "KEACJLNKCHK": {
                                        "target": "AllTarget"
                                    }
                                }
                            ]
                        }
                    ]
                }
            ],
            "DELOACENBLE": [
                {
                    "actionGroups": [
                        {
                            "actions": [
                                {
                                    "$type": "GcgBehaviourFireEffect",
                                    "KEACJLNKCHK": {
                                        "target": "ContextTarget"
                                    },
                                    "effectName": "Eff_Gcg_Avatar_Fischl_ElementalBurst_Buff",
                                    "KOGELNIBFMB": "",
                                    "GGPHPGIOHIC": "",
                                    "BFEBMINFJID": {
                                        "$type": "GcgBornRotationLookAtTarget",
                                        "KEACJLNKCHK": {
                                            "target": "Actor"
                                        }
                                    }
                                },
                                {
                                    "$type": "GcgBehaviourFireEffect",
                                    "KEACJLNKCHK": {
                                        "target": "ContextTarget"
                                    },
                                    "effectName": "Eff_Gcg_Common_Reaction_StickElectric_Hit",
                                    "KOGELNIBFMB": "",
                                    "GGPHPGIOHIC": "",
                                    "BFEBMINFJID": {
                                        "$type": "GcgBornRotationFollow"
                                    }
                                }
                            ]
                        }
                    ]
                }
            ]
        },
        {
            "name": "Reaction_Swirlfire",
            "IOMFAGOGAAJ": [
                {
                    "PIBJPDLMPKJ": 0.10000000149011612
                },
                {
                    "actionGroups": [
                        {
                            "actions": [
                                {
                                    "$type": "GcgBehaviourTriggerAttack",
                                    "KEACJLNKCHK": {
                                        "target": "AllTarget"
                                    }
                                }
                            ]
                        }
                    ]
                }
            ]
        },
        {
            "name": "Reaction_Frozen",
            "IOMFAGOGAAJ": [
                {
                    "actionGroups": [
                        {
                            "actions": [
                                {
                                    "$type": "GcgBehaviourTriggerAttack",
                                    "KEACJLNKCHK": {
                                        "target": "AllTarget"
                                    }
                                }
                            ]
                        }
                    ]
                }
            ],
            "DELOACENBLE": [
                {
                    "BMEPDFGOOCP": {
                        "$type": "GcgPredictByAttackSkill",
                        "JILDLKOLCID": [
                            1061
                        ]
                    },
                    "actionGroups": [
                        {}
                    ]
                }
            ]
        },
        {
            "name": "Reaction_Swirlwater",
            "IOMFAGOGAAJ": [
                {
                    "PIBJPDLMPKJ": 0.10000000149011612
                },
                {
                    "actionGroups": [
                        {
                            "actions": [
                                {
                                    "$type": "GcgBehaviourTriggerAttack",
                                    "KEACJLNKCHK": {
                                        "target": "AllTarget"
                                    }
                                }
                            ]
                        }
                    ]
                }
            ]
        },
        {
            "name": "Reaction_Swirlelectric",
            "IOMFAGOGAAJ": [
                {
                    "PIBJPDLMPKJ": 0.10000000149011612
                },
                {
                    "actionGroups": [
                        {
                            "actions": [
                                {
                                    "$type": "GcgBehaviourTriggerAttack",
                                    "KEACJLNKCHK": {
                                        "target": "AllTarget"
                                    }
                                }
                            ]
                        }
                    ]
                }
            ]
        },
        {
            "name": "Reaction_Swirlice",
            "IOMFAGOGAAJ": [
                {
                    "PIBJPDLMPKJ": 0.10000000149011612
                },
                {
                    "actionGroups": [
                        {
                            "actions": [
                                {
                                    "$type": "GcgBehaviourTriggerAttack",
                                    "KEACJLNKCHK": {
                                        "target": "AllTarget"
                                    }
                                }
                            ]
                        }
                    ]
                }
            ]
        }
    ]
}