{
    "id": 138,
    "stageMatureEvents": [
        "Play_Amb_Dungeon_DreamIsland_Fischl01"
    ],
    "stageExitEvents": [
        "Stop_Amb_Dungeon_DreamIsland_Fischl01",
        "State_Music_NonCombat"
    ],
    "stateValue": "State_Dungeon_DreamIsland_Fischl01",
    "EDGKEHCFEFC": {
        "text": "Play_Music_Dungeon"
    },
    "FJBGDAMGLNA": {
        "text": "Stop_Music_Dungeon"
    }
}