{
    "name": "Card_Event_3330091",
    "LCAAFCBKGHI": {
        "25457495": {
            "$type": "GCGDeclaredValueHealAmount",
            "type": "Heal",
            "value": 1
        }
    }
}