{
    "Level_SmrDungeon_Cyno_Room_01_Inside_Ve": {
        "$type": "ConfigShapePolygon",
        "polygonConfigPath": "Level_SmrDungeon_Cyno_Room_01_Inside_Ve"
    },
    "Level_SmrDungeon_Cyno_Level_SmrDungeon_Cyno_Inside_Vsp": {
        "$type": "ConfigShapeRect",
        "useHeight": true,
        "height": 403.4378662109375,
        "centerType": "Center",
        "width": 866.0013427734375,
        "length": 317.74810791015625
    }
}