{
    "name": "Char_Skill_26014",
    "LCAAFCBKGHI": {
        "-1197212178": {
            "$type": "GCGDeclaredValueEffectAmount",
            "type": "EffectNum",
            "value": 1
        }
    }
}