{
    "coopNodeType": "COOP_NODE_TALK",
    "nextNodeArray": [
        7,
        32,
        2,
        2,
        5,
        1,
        1,
        6
    ],
    "selectList": [
        {
            "dialogId": 2
        }
    ]
}