{
    "gadgetId": 0,
    "areaId": 0,
    "pos": {
        "z": -9.860838897889802e-32
    },
    "JIFEKNIMIDP": [
        {
            "x": -2432.6689453125,
            "y": -8.35373306274414,
            "z": 5853.29443359375
        },
        {
            "x": -2439.697998046875,
            "y": -1.2149038314819336,
            "z": 5850.169921875
        },
        {
            "x": -2439.661865234375,
            "y": -1.0788198709487915,
            "z": 5839.9453125
        },
        {
            "x": -2449.77294921875,
            "y": 3.62646484375,
            "z": 5805.79541015625
        },
        {
            "x": -2478.26220703125,
            "y": 6.551401138305664,
            "z": 5766.6865234375
        },
        {
            "x": -2486.027099609375,
            "y": 36.56494140625,
            "z": 5657.3662109375
        },
        {
            "x": -2480.138427734375,
            "y": 41.0299186706543,
            "z": 5642.712890625
        },
        {
            "x": -2461.7275390625,
            "y": 43.702857971191406,
            "z": 5639.50732421875
        },
        {
            "x": -2327.50146484375,
            "y": 27.32955551147461,
            "z": 5664.83349609375
        },
        {
            "x": -2252.80810546875,
            "y": 16.05596160888672,
            "z": 5706.76708984375
        },
        {
            "x": -2248.41845703125,
            "y": 20.87423324584961,
            "z": 5741.66845703125
        },
        {
            "x": -2261.446533203125,
            "y": 15.60470962524414,
            "z": 5769.40380859375
        },
        {
            "x": -2307.104736328125,
            "y": -53.657936096191406,
            "z": 5769.02392578125
        },
        {
            "x": -2334.159912109375,
            "y": -51.66938781738281,
            "z": 5788.333984375
        },
        {
            "x": -2331.2158203125,
            "y": -41.559932708740234,
            "z": 5796.49462890625
        },
        {
            "x": -2340.84521484375,
            "y": -28.839954376220703,
            "z": 5814.17236328125
        },
        {
            "x": -2362.962158203125,
            "y": -1.3621397018432617,
            "z": 5843.51416015625
        },
        {
            "x": -2399.42822265625,
            "y": 0.43821096420288086,
            "z": 5854.34130859375
        },
        {
            "x": -2419.56494140625,
            "y": -10.48325252532959,
            "z": 5846.8896484375
        }
    ]
}