{
    "freeStyleStateMap": {
        "1121": [
            "Ani_NPC_Male_HoldArmHand01BS_0",
            "Ani_NPC_Male_HoldArmHand01Loop_0",
            "Ani_NPC_Male_HoldArmHand01AS_0",
            "Ani_NPC_Male_HoldArm01Loop_0",
            "Ani_NPC_Male_HoldArm01AS_0"
        ],
        "1231": [
            "Ani_NPC_Male_AkimboHand01BS_0",
            "Ani_NPC_Male_AkimboHand01Loop_0",
            "Ani_NPC_Male_AkimboHand01AS_0",
            "Ani_NPC_Male_Akimbo01Loop_0",
            "Ani_NPC_Male_Akimbo01AS_0"
        ],
        "8040": [
            "Ani_NPC_Male_SitHoldArm01BS_0",
            "Ani_NPC_Male_SitHoldArm01Loop_0",
            "Ani_NPC_Male_SitHoldArm01AS_0"
        ],
        "8060": [
            "Ani_NPC_Male_SitPutArm01BS_0",
            "Ani_NPC_Male_SitPutArm01Loop_0",
            "Ani_NPC_Male_SitPutArm01AS_0"
        ],
        "8066": [
            "Ani_NPC_Male_SitRead01BS_0",
            "Ani_NPC_Male_SitRead01Loop_0",
            "Ani_NPC_Male_SitRead01AS_0"
        ],
        "8067": [
            "Ani_NPC_Male_Chess01_0"
        ],
        "8068": [
            "Ani_NPC_Male_SitRaiseHand01BS_0",
            "Ani_NPC_Male_SitRaiseHand01Loop_0",
            "Ani_NPC_Male_SitRaiseHand01AS_0"
        ],
        "8011": [
            "Ani_NPC_Male_SitChat01BS_0",
            "Ani_NPC_Male_SitChat01Loop_0",
            "Ani_NPC_Male_SitChat01AS_0"
        ],
        "8041": [
            "Ani_NPC_Male_SitHoldArmHand01BS_0",
            "Ani_NPC_Male_SitHoldArmHand01Loop_0",
            "Ani_NPC_Male_SitHoldArmHand01AS_0",
            "Ani_NPC_Male_SitHoldArm01Loop_0",
            "Ani_NPC_Male_SitHoldArm01AS_0"
        ],
        "8061": [
            "Ani_NPC_Male_SitCrouch01BS_0",
            "Ani_NPC_Male_SitCrouch01Loop_0",
            "Ani_NPC_Male_SitCrouch01AS_0",
            "Ani_NPC_Male_SitPutArm01Loop_0",
            "Ani_NPC_Male_SitPutArm01AS_0"
        ],
        "8062": [
            "Ani_NPC_Male_SitWrite01Cycle_0",
            "Ani_NPC_Male_SitPutArm01Loop_0",
            "Ani_NPC_Male_SitPutArm01AS_0"
        ],
        "8063": [
            "Ani_NPC_Male_SitEat01_0",
            "Ani_NPC_Male_SitPutArm01Loop_0",
            "Ani_NPC_Male_SitPutArm01AS_0"
        ],
        "8064": [
            "Ani_NPC_Male_SitDrink01_0",
            "Ani_NPC_Male_SitPutArm01Loop_0",
            "Ani_NPC_Male_SitPutArm01AS_0"
        ],
        "8065": [
            "Ani_NPC_Male_SitHoldHead01BS_0",
            "Ani_NPC_Male_SitHoldHead01Loop_0",
            "Ani_NPC_Male_SitHoldHead01AS_0",
            "Ani_NPC_Male_SitPutArm01Loop_0",
            "Ani_NPC_Male_SitPutArm01AS_0"
        ],
        "806401": [
            "Ani_NPC_Male_SitDrink01_0",
            "Ani_NPC_Male_SitPutArm01Loop_0",
            "Ani_NPC_Male_SitPutArm01AS_0"
        ],
        "4251": [
            "Ani_NPC_Male_Sweep01BS_0",
            "Ani_NPC_Male_Sweep01Loop_0",
            "Ani_NPC_Male_Sweep01AS_0",
            "Ani_NPC_Male_SweepIdle01_0"
        ],
        "1130": [
            "Ani_NPC_Male_StrikeChest01BS_0",
            "Ani_NPC_Male_StrikeChest01Loop_0",
            "Ani_NPC_Male_StrikeChest01AS_0"
        ],
        "1030": [
            "Ani_NPC_Male_PutHand01BS_0",
            "Ani_NPC_Male_PutHand01Loop_0",
            "Ani_NPC_Male_PutHand01AS_0"
        ],
        "1070": [
            "Ani_NPC_Male_Afraid01BS_0",
            "Ani_NPC_Male_Afraid01Loop_0",
            "Ani_NPC_Male_Afraid01AS_0"
        ],
        "1090": [
            "Ani_NPC_Male_Shy01BS_0",
            "Ani_NPC_Male_Shy01Loop_0",
            "Ani_NPC_Male_Shy01AS_0"
        ],
        "1110": [
            "Ani_NPC_Male_Shrug01BS_0",
            "Ani_NPC_Male_Shrug01Loop_0",
            "Ani_NPC_Male_Shrug01AS_0"
        ],
        "1120": [
            "Ani_NPC_Male_HoldArm01BS_0",
            "Ani_NPC_Male_HoldArm01Loop_0",
            "Ani_NPC_Male_HoldArm01AS_0"
        ],
        "1150": [
            "Ani_NPC_Male_Refuse01_0"
        ],
        "1170": [
            "Ani_NPC_Male_Chat01BS_0",
            "Ani_NPC_Male_Chat01Loop_0",
            "Ani_NPC_Male_Chat01AS_0"
        ],
        "1180": [
            "Ani_NPC_Male_Chat02BS_0",
            "Ani_NPC_Male_Chat02Loop_0",
            "Ani_NPC_Male_Chat02AS_0"
        ],
        "1190": [
            "Ani_NPC_Male_Think01BS_0",
            "Ani_NPC_Male_Think01Loop_0",
            "Ani_NPC_Male_Think01AS_0"
        ],
        "1200": [
            "Ani_NPC_Male_Greet01_0"
        ],
        "1230": [
            "Ani_NPC_Male_Akimbo01BS_0",
            "Ani_NPC_Male_Akimbo01Loop_0",
            "Ani_NPC_Male_Akimbo01AS_0"
        ],
        "1240": [
            "Ani_NPC_Male_HoldHead01BS_0",
            "Ani_NPC_Male_HoldHead01Loop_0",
            "Ani_NPC_Male_HoldHead01AS_0"
        ],
        "1040": [
            "Ani_NPC_Male_Backrake01BS_0",
            "Ani_NPC_Male_Backrake01Loop_0",
            "Ani_NPC_Male_Backrake01AS_0"
        ],
        "1060": [
            "Ani_NPC_Male_Forerake01BS_0",
            "Ani_NPC_Male_Forerake01Loop_0",
            "Ani_NPC_Male_Forerake01AS_0"
        ],
        "1160": [
            "Ani_NPC_Male_Downcast01BS_0",
            "Ani_NPC_Male_Downcast01Loop_0",
            "Ani_NPC_Male_Downcast01AS_0"
        ],
        "1250": [
            "Ani_NPC_Male_Request01BS_0",
            "Ani_NPC_Male_Request01Loop_0",
            "Ani_NPC_Male_Request01AS_0"
        ],
        "1260": [
            "Ani_NPC_Male_Clap01_0"
        ],
        "1270": [
            "Ani_NPC_Male_Cheer01BS_0",
            "Ani_NPC_Male_Cheer01Loop_0",
            "Ani_NPC_Male_Cheer01AS_0"
        ],
        "1280": [
            "Ani_NPC_Male_Investigate01BS_0",
            "Ani_NPC_Male_Investigate01Loop_0",
            "Ani_NPC_Male_Investigate01AS_0"
        ],
        "1140": [
            "Ani_NPC_Male_PointR01BS_0",
            "Ani_NPC_Male_PointR01Loop_0",
            "Ani_NPC_Male_PointR01AS_0"
        ],
        "4010": [
            "Ani_NPC_Male_Shout01BS_0",
            "Ani_NPC_Male_Shout01Loop_0",
            "Ani_NPC_Male_Shout01AS_0"
        ],
        "4120": [
            "Ani_NPC_Male_LieSide01Cycle_0"
        ],
        "4100": [
            "Ani_NPC_Male_SitOnFloor01Cycle_0"
        ],
        "4110": [
            "Ani_NPC_Male_SitOnFloor02Cycle_0"
        ],
        "1290": [
            "Ani_NPC_Male_Laugh01_0"
        ],
        "1300": [
            "Ani_NPC_Male_Encourage01_0"
        ],
        "4020": [
            "Ani_NPC_Male_Eat01_0"
        ],
        "1171": [
            "Ani_NPC_Male_Talk01_0"
        ],
        "1172": [
            "Ani_NPC_Male_Talk02_0"
        ],
        "1173": [
            "Ani_NPC_Male_Talk03_0"
        ],
        "4130": [
            "Ani_NPC_Male_Drunk01BS_0",
            "Ani_NPC_Male_Drunk01Loop_0",
            "Ani_NPC_Male_Drunk01AS_0"
        ],
        "8073": [
            "Ani_NPC_Male_DrinkToComplain_0"
        ],
        "4160": [
            "Ani_NPC_Male_Escape01_0"
        ],
        "4170": [
            "Ani_NPC_Male_Escape02_0"
        ],
        "4180": [
            "Ani_NPC_Male_Frightened01_0"
        ],
        "4190": [
            "Ani_NPC_Male_Frightened02_0"
        ],
        "4151": [
            "Ani_NPC_Male_FountainSneak_0"
        ],
        "1210": [
            "Ani_NPC_Male_SaluteMengde01BS_0",
            "Ani_NPC_Male_SaluteMengde01Loop_0",
            "Ani_NPC_Male_SaluteMengde01AS_0"
        ],
        "4000": [
            "Ani_NPC_Male_Pray01BS_0",
            "Ani_NPC_Male_Pray01Loop_0",
            "Ani_NPC_Male_Pray01AS_0"
        ],
        "4060": [
            "Ani_NPC_Male_StandbyBow01BS_0",
            "Ani_NPC_Male_StandbyBow01Loop_0",
            "Ani_NPC_Male_StandbyBow01AS_0"
        ],
        "4050": [
            "Ani_NPC_Male_StandbySword01BS_0",
            "Ani_NPC_Male_StandbySword01Loop_0",
            "Ani_NPC_Male_StandbySword01AS_0"
        ],
        "4080": [
            "Ani_NPC_Male_Pour01_0"
        ],
        "4090": [
            "Ani_NPC_Male_PlayAndSing01BS_0",
            "Ani_NPC_Male_PlayAndSing01Loop_0",
            "Ani_NPC_Male_PlayAndSing01AS_0"
        ],
        "1050": [
            "Ani_NPC_Male_Confuse01BS_0",
            "Ani_NPC_Male_Confuse01Loop_0",
            "Ani_NPC_Male_Confuse01AS_0"
        ],
        "8010": [],
        "8020": [],
        "4200": [
            "Ani_NPC_Male_Cold01BS_0",
            "Ani_NPC_Male_Cold01Loop_0",
            "Ani_NPC_Male_Cold01AS_0"
        ],
        "4230": [
            "Ani_NPC_Male_SaluteLiyue01BS_0",
            "Ani_NPC_Male_SaluteLiyue01Loop_0",
            "Ani_NPC_Male_SaluteLiyue01AS_0"
        ],
        "4240": [
            "Ani_NPC_Male_SaluteLiyue02BS_0",
            "Ani_NPC_Male_SaluteLiyue02Loop_0",
            "Ani_NPC_Male_SaluteLiyue02AS_0"
        ],
        "4220": [
            "Ani_NPC_Male_Fishing01Cycle_0"
        ],
        "4210": [
            "Ani_NPC_Male_Greet02_0"
        ],
        "1141": [
            "Ani_NPC_Male_PointF01BS_0",
            "Ani_NPC_Male_PointF01Loop_0",
            "Ani_NPC_Male_PointF01AS_0"
        ],
        "1320": [
            "Ani_NPC_Male_Handle01BS_0",
            "Ani_NPC_Male_Handle01Loop_0",
            "Ani_NPC_Male_Handle01AS_0"
        ],
        "1020": [
            "Ani_NPC_Male_Solider_Idle01_0"
        ],
        "4250": [
            "Ani_NPC_Male_SweepIdle01_0"
        ],
        "4260": [
            "Ani_NPC_Male_Arrange01BS_0",
            "Ani_NPC_Male_Arrange01Loop_0",
            "Ani_NPC_Male_Arrange01AS_0"
        ],
        "4270": [
            "Ani_NPC_Male_Splash01BS_0",
            "Ani_NPC_Male_Splash01Loop_0",
            "Ani_NPC_Male_Splash01AS_0"
        ],
        "4280": [
            "Ani_NPC_Male_Repair01BS_0",
            "Ani_NPC_Male_Repair01Loop_0",
            "Ani_NPC_Male_Repair01AS_0"
        ],
        "4290": [
            "Ani_NPC_Male_Beg01BS_0",
            "Ani_NPC_Male_Beg01Loop_0",
            "Ani_NPC_Male_Beg01AS_0"
        ],
        "4121": [
            "Ani_NPC_Male_LieOnGround01Cycle_0"
        ],
        "4286": [
            "Ani_NPC_Male_DiggingFat01Cycle_0",
            "Ani_NPC_Male_DiggingFat01Cycle_0"
        ],
        "4285": [
            "Ani_NPC_Male_DiggingFat01CycleLoop_0"
        ],
        "4281": [
            "Ani_NPC_Male_DiggingNormal01CycleLoop_0"
        ],
        "4282": [
            "Ani_NPC_Male_DiggingNormal01Cycle_0",
            "Ani_NPC_Male_DiggingNormal01Cycle_0"
        ],
        "4284": [
            "Ani_NPC_Male_DiggingNormal02Cycle_0",
            "Ani_NPC_Male_DiggingNormal02Cycle_0"
        ],
        "4283": [
            "Ani_NPC_Male_DiggingNormal02CycleLoop_0"
        ],
        "1080": [
            "Ani_NPC_Male_Alert01BS_0",
            "Ani_NPC_Male_Alert01Loop_0",
            "Ani_NPC_Male_Alert01AS_0"
        ],
        "1281": [
            "Ani_NPC_Male_Investigate01AS_0"
        ],
        "4400": [
            "Ani_NPC_Male_SumeruGreet01_0"
        ],
        "4410": [
            "Ani_NPC_Male_CrossLegPlayDaff01_0"
        ],
        "4411": [
            "Ani_NPC_Male_CrossLegPlayOud01_0"
        ],
        "807301": [
            "Ani_NPC_Male_DrinkToComplain_0"
        ]
    },
    "stateAnimeMap": {
        "Ani_NPC_Male_StrikeChest01BS_0": 2358723272726608228,
        "Ani_NPC_Male_StrikeChest01Loop_0": 12289017773381769288,
        "Ani_NPC_Male_StrikeChest01AS_0": 7653217265278411679,
        "Ani_NPC_Male_PutHand01BS_0": 14914592794716492339,
        "Ani_NPC_Male_PutHand01Loop_0": 4479794465007335714,
        "Ani_NPC_Male_PutHand01AS_0": 15867709599106134880,
        "Ani_NPC_Male_Afraid01BS_0": 8627955591008011677,
        "Ani_NPC_Male_Afraid01Loop_0": 12289659838241510330,
        "Ani_NPC_Male_Afraid01AS_0": 4178594720912421160,
        "Ani_NPC_Male_Shy01BS_0": 14083024939055470623,
        "Ani_NPC_Male_Shy01Loop_0": 12411593555809032932,
        "Ani_NPC_Male_Shy01AS_0": 3422837393588957330,
        "Ani_NPC_Male_Shrug01BS_0": 632859169938260781,
        "Ani_NPC_Male_Shrug01Loop_0": 17271392967715469544,
        "Ani_NPC_Male_Shrug01AS_0": 17288898585975159391,
        "Ani_NPC_Male_HoldArm01BS_0": 3341287104734075968,
        "Ani_NPC_Male_HoldArm01Loop_0": 15788061440738119269,
        "Ani_NPC_Male_HoldArm01AS_0": 358402670494848164,
        "Ani_NPC_Male_Refuse01_0": 5326484650273761856,
        "Ani_NPC_Male_Chat01BS_0": 6140005573721853972,
        "Ani_NPC_Male_Chat01Loop_0": 12682050336772030531,
        "Ani_NPC_Male_Chat01AS_0": 14315080632931434036,
        "Ani_NPC_Male_Chat02BS_0": 8380845575287300272,
        "Ani_NPC_Male_Chat02Loop_0": 7984183979523950145,
        "Ani_NPC_Male_Chat02AS_0": 9662610112320933582,
        "Ani_NPC_Male_Think01BS_0": 8545896753967605965,
        "Ani_NPC_Male_Think01Loop_0": 7724307237775946653,
        "Ani_NPC_Male_Think01AS_0": 14307472024426727496,
        "Ani_NPC_Male_Greet01_0": 13138246175818772398,
        "Ani_NPC_Male_Akimbo01BS_0": 9277884475381413447,
        "Ani_NPC_Male_Akimbo01Loop_0": 4148761960603422448,
        "Ani_NPC_Male_Akimbo01AS_0": 2425705635886224115,
        "Ani_NPC_Male_HoldHead01BS_0": 18227938426437975601,
        "Ani_NPC_Male_HoldHead01Loop_0": 15340433250168337456,
        "Ani_NPC_Male_HoldHead01AS_0": 17100769063637707733,
        "Ani_NPC_Male_Backrake01BS_0": 11218979020358494460,
        "Ani_NPC_Male_Backrake01Loop_0": 16967199218417486136,
        "Ani_NPC_Male_Backrake01AS_0": 15099368585258432716,
        "Ani_NPC_Male_Forerake01BS_0": 11164602449750073262,
        "Ani_NPC_Male_Forerake01Loop_0": 8587337171800443374,
        "Ani_NPC_Male_Forerake01AS_0": 6554269062268816613,
        "Ani_NPC_Male_Downcast01BS_0": 14427587398911046274,
        "Ani_NPC_Male_Downcast01Loop_0": 842064238743597568,
        "Ani_NPC_Male_Downcast01AS_0": 2330293453468232188,
        "Ani_NPC_Male_Request01BS_0": 12687636366242402972,
        "Ani_NPC_Male_Request01Loop_0": 5964018170449639599,
        "Ani_NPC_Male_Request01AS_0": 13533066495916048686,
        "Ani_NPC_Male_Clap01_0": 7425724759783625745,
        "Ani_NPC_Male_Cheer01BS_0": 14165983431543011075,
        "Ani_NPC_Male_Cheer01Loop_0": 9904167683750701848,
        "Ani_NPC_Male_Cheer01AS_0": 15300694400077009632,
        "Ani_NPC_Male_Investigate01BS_0": 7533373618053699825,
        "Ani_NPC_Male_Investigate01Loop_0": 12592226583300670908,
        "Ani_NPC_Male_Investigate01AS_0": 13162360077838804101,
        "Ani_NPC_Male_AkimboHand01BS_0": 16322222460522574791,
        "Ani_NPC_Male_AkimboHand01Loop_0": 8976048814398373678,
        "Ani_NPC_Male_AkimboHand01AS_0": 5408342820764453594,
        "Ani_NPC_Male_HoldArmHand01BS_0": 10948014860035689280,
        "Ani_NPC_Male_HoldArmHand01Loop_0": 16488710535292518100,
        "Ani_NPC_Male_HoldArmHand01AS_0": 10218958637945595739,
        "Ani_NPC_Male_PointR01BS_0": 15877612359022943609,
        "Ani_NPC_Male_PointR01Loop_0": 16186473633744916451,
        "Ani_NPC_Male_PointR01AS_0": 16257762796101467855,
        "Ani_NPC_Male_Shout01BS_0": 7934487482243929534,
        "Ani_NPC_Male_Shout01Loop_0": 4276984938343625621,
        "Ani_NPC_Male_Shout01AS_0": 5609543736310406221,
        "Ani_NPC_Male_LieSide01Cycle_0": 5110408284252257883,
        "Ani_NPC_Male_SitOnFloor01Cycle_0": 11346696332442309693,
        "Ani_NPC_Male_SitOnFloor02Cycle_0": 17135026952214747578,
        "Ani_NPC_Male_Laugh01_0": 98324113208313694,
        "Ani_NPC_Male_Encourage01_0": 16103110543097535357,
        "Ani_NPC_Male_Eat01_0": 12037174962761651246,
        "Ani_NPC_Male_Talk01_0": 8270168210483817438,
        "Ani_NPC_Male_Talk02_0": 2109110319830499865,
        "Ani_NPC_Male_Talk03_0": 9681041958741065278,
        "Ani_NPC_Male_DrinkToComplain_0": 14986330606374920179,
        "Ani_NPC_Male_Drunk01BS_0": 686323132849235257,
        "Ani_NPC_Male_Frightened01_0": 3565870233022151026,
        "Ani_NPC_Male_Frightened02_0": 2961385783540880785,
        "Ani_NPC_Male_FountainSneak_0": 17535508640723610240,
        "Ani_NPC_Male_Escape01_0": 17287145422370788513,
        "Ani_NPC_Male_Escape02_0": 16914183739790487998,
        "Ani_NPC_Male_SitHoldArm01BS_0": 16629960214801202447,
        "Ani_NPC_Male_SitHoldArm01Loop_0": 15594589573432928175,
        "Ani_NPC_Male_SitHoldArm01AS_0": 3100126456378190507,
        "Ani_NPC_Male_SaluteMengde01BS_0": 4736686519604664801,
        "Ani_NPC_Male_SaluteMengde01Loop_0": 15338891081806461083,
        "Ani_NPC_Male_SaluteMengde01AS_0": 17976175608306126259,
        "Ani_NPC_Male_Pray01BS_0": 17199871291929607699,
        "Ani_NPC_Male_Pray01Loop_0": 17463248021539009579,
        "Ani_NPC_Male_Pray01AS_0": 1439888318647691413,
        "Ani_NPC_Male_StandbyBow01BS_0": 13276584530250041254,
        "Ani_NPC_Male_StandbyBow01Loop_0": 16736954958443480333,
        "Ani_NPC_Male_StandbyBow01AS_0": 17044095362848268461,
        "Ani_NPC_Male_StandbySword01BS_0": 5131778201883056104,
        "Ani_NPC_Male_StandbySword01Loop_0": 13788270974278301885,
        "Ani_NPC_Male_StandbySword01AS_0": 14336321248145590985,
        "Ani_NPC_Male_Pour01_0": 3416628585272328818,
        "Ani_NPC_Male_PlayAndSing01BS_0": 8525424097183925171,
        "Ani_NPC_Male_PlayAndSing01Loop_0": 6880865489643243830,
        "Ani_NPC_Male_PlayAndSing01AS_0": 10451755321245492688,
        "Ani_NPC_Male_Confuse01BS_0": 6418043475119621224,
        "Ani_NPC_Male_Confuse01Loop_0": 3161731530288907806,
        "Ani_NPC_Male_Confuse01AS_0": 11111707474080473998,
        "Ani_NPC_Male_SitPutArm01BS_0": 16072223395569063772,
        "Ani_NPC_Male_SitCrouch01BS_0": 13913031909021056972,
        "Ani_NPC_Male_SitCrouch01Loop_0": 13482457380085858046,
        "Ani_NPC_Male_SitCrouch01AS_0": 8691075814120023411,
        "Ani_NPC_Male_Cold01BS_0": 5769540774656027285,
        "Ani_NPC_Male_SitPutArm01Loop_0": 4119915944259463754,
        "Ani_NPC_Male_SitPutArm01AS_0": 14583391068969440896,
        "Ani_NPC_Male_SitWrite01Cycle_0": 9209710776432375416,
        "Ani_NPC_Male_SitEat01_0": 14817289364871041455,
        "Ani_NPC_Male_Greet02_0": 7221102838512675956,
        "Ani_NPC_Male_Fishing01Cycle_0": 2495568026510809523,
        "Ani_NPC_Male_SaluteLiyue01BS_0": 8773195836745319304,
        "Ani_NPC_Male_SaluteLiyue01Loop_0": 16334782330675882152,
        "Ani_NPC_Male_SaluteLiyue01AS_0": 1511246660493887489,
        "Ani_NPC_Male_SaluteLiyue02BS_0": 4346545526452014589,
        "Ani_NPC_Male_SaluteLiyue02Loop_0": 8081920547785136637,
        "Ani_NPC_Male_SaluteLiyue02AS_0": 10308814969532413849,
        "Ani_NPC_Male_PointF01BS_0": 11382476144587043215,
        "Ani_NPC_Male_PointF01Loop_0": 7122538024536317304,
        "Ani_NPC_Male_PointF01AS_0": 7628692959659172143,
        "Ani_NPC_Male_Handle01BS_0": 3231747095535287314,
        "Ani_NPC_Male_Handle01Loop_0": 8735321525969808312,
        "Ani_NPC_Male_Handle01AS_0": 10248413323165909446,
        "Ani_NPC_Male_Cold01Loop_0": 6512135213255593494,
        "Ani_NPC_Male_Cold01AS_0": 16381252662781128483,
        "Ani_NPC_Male_Solider_Idle01_0": 46100177359541315,
        "Ani_NPC_Male_Drunk01Loop_0": 9875911296797205592,
        "Ani_NPC_Male_Drunk01AS_0": 11484951965690316414,
        "Ani_NPC_Male_SitDrink01_0": 14854368652782543648,
        "Ani_NPC_Male_SweepIdle01_0": 13688548698155336432,
        "Ani_NPC_Male_Sweep01BS_0": 7234245528681119297,
        "Ani_NPC_Male_Arrange01BS_0": 13756732916590138949,
        "Ani_NPC_Male_Splash01BS_0": 10591100223641167116,
        "Ani_NPC_Male_Repair01BS_0": 5081612250860611008,
        "Ani_NPC_Male_Sweep01Loop_0": 13464541084734758796,
        "Ani_NPC_Male_Sweep01AS_0": 5446617250173456492,
        "Ani_NPC_Male_Arrange01Loop_0": 5785134346902515554,
        "Ani_NPC_Male_Arrange01AS_0": 17832853000563368422,
        "Ani_NPC_Male_Splash01Loop_0": 11994030598401206818,
        "Ani_NPC_Male_Splash01AS_0": 14312178389376073240,
        "Ani_NPC_Male_Repair01Loop_0": 5022664716204846673,
        "Ani_NPC_Male_Repair01AS_0": 13778988579872918338,
        "Ani_NPC_Male_Beg01BS_0": 15099133950839803680,
        "Ani_NPC_Male_Beg01AS_0": 6691754238823357767,
        "Ani_NPC_Male_Beg01Loop_0": 16493875057654221050,
        "Ani_NPC_Male_SitHoldHead01BS_0": 4829693129628157033,
        "Ani_NPC_Male_SitHoldHead01Loop_0": 7475341639768712033,
        "Ani_NPC_Male_SitHoldHead01AS_0": 2506337304409262505,
        "Ani_NPC_Male_SitRead01BS_0": 11152776019445515544,
        "Ani_NPC_Male_SitRead01Loop_0": 9007459839899034305,
        "Ani_NPC_Male_SitRead01AS_0": 12174195064047869281,
        "Ani_NPC_Male_Chess01_0": 14980206581535872429,
        "Ani_NPC_Male_LieOnGround01Cycle_0": 2438302152602269379,
        "Ani_NPC_Male_SitRaiseHand01BS_0": 11830524680301022177,
        "Ani_NPC_Male_SitRaiseHand01Loop_0": 3114318558683703807,
        "Ani_NPC_Male_SitRaiseHand01AS_0": 17367531733533715227,
        "Ani_NPC_Male_DiggingFat01CycleLoop_0": 3876112224829391161,
        "Ani_NPC_Male_DiggingFat01Cycle_0": 137407949216904874,
        "Ani_NPC_Male_DiggingNormal01Cycle_0": 15576372985762635487,
        "Ani_NPC_Male_DiggingNormal01CycleLoop_0": 15579400943871573454,
        "Ani_NPC_Male_DiggingNormal02CycleLoop_0": 7571450506038478434,
        "Ani_NPC_Male_DiggingNormal02Cycle_0": 15919214110331252956,
        "Ani_NPC_Male_Alert01BS_0": 8570591398288361154,
        "Ani_NPC_Male_Alert01Loop_0": 6244021971355697481,
        "Ani_NPC_Male_Alert01AS_0": 13575635701363183883,
        "Ani_NPC_Male_SitHoldArmHand01BS_0": 11764021424001378202,
        "Ani_NPC_Male_SitHoldArmHand01AS_0": 11099311330934551543,
        "Ani_NPC_Male_SitHoldArmHand01Loop_0": 13477121666383652181,
        "Ani_NPC_Male_SumeruGreet01_0": 1481099378082656632,
        "Ani_NPC_Male_CrossLegPlayDaff01_0": 9473423121826115398,
        "Ani_NPC_Male_CrossLegPlayOud01_0": 6164418308605520187,
        "Ani_NPC_Male_SitChat01BS_0": 18094149817823505183,
        "Ani_NPC_Male_SitChat01Loop_0": 590016978276156666,
        "Ani_NPC_Male_SitChat01AS_0": 10525446114361651021
    }
}