{
    "coopNodeType": "COOP_NODE_NONE",
    "nextNodeArray": [],
    "talkConfig": {
        "id": 0,
        "beginWay": "TALK_BEGIN_NONE",
        "nextTalks": [
            67,
            4,
            7,
            3362,
            21,
            370373,
            56,
            67,
            3821,
            8873,
            7,
            13155,
            21,
            109099461,
            67,
            145354440,
            7,
            263537,
            5701,
            3,
            53,
            67,
            124,
            1135577,
            7,
            85,
            2132,
            9797,
            110,
            56,
            67,
            145367406
        ]
    }
}