{
    "ConfigEffigyGrass": {
        "CDNPPOGNDBH": {
            "BeforeAreaUnlocked": {
                "$type": "ContextConditionAreaUnlocked",
                "areaId": 26,
                "sceneId": 3
            },
            "AfterAreaUnlocked": {
                "$type": "ContextConditionAreaUnlocked",
                "areaId": 26,
                "sceneId": 3,
                "OJBJOLLLOCO": true
            }
        },
        "IGFEMBCOLDG": {
            "ShowGotoAera": {
                "$type": "ContextActionExecuteAll",
                "actions": [
                    {
                        "$type": "ContextActionSetActive",
                        "PEGIOKIJOEB": "ButtonGoto",
                        "EILKDDLAKBL": true
                    },
                    {
                        "$type": "ContextActionSetText",
                        "PEGIOKIJOEB": "ButtonGoto",
                        "textMap": "UI_ACTIVITY_NEW_REGION_UNLOCK_BUTTON"
                    }
                ]
            },
            "ShowGotoBoss": {
                "$type": "ContextActionExecuteAll",
                "actions": [
                    {
                        "$type": "ContextActionSetActive",
                        "PEGIOKIJOEB": "ButtonGoto",
                        "EILKDDLAKBL": true
                    },
                    {
                        "$type": "ContextActionSetText",
                        "PEGIOKIJOEB": "ButtonGoto",
                        "textMap": "UI_ACTIVITY_CHALLENGE_GOTO_BUTTON"
                    }
                ]
            },
            "GotoAreaMark": {
                "$type": "ContextActionExecuteAll",
                "actions": [
                    {
                        "$type": "ContextActionSelectTransPoint",
                        "IBMGGNAHDMO": 534,
                        "sceneId": 3
                    },
                    {
                        "$type": "ContextActionReportActivityBuriedPoint",
                        "PIINBKBEGJO": 5106,
                        "AKNMDILOODL": 2,
                        "NHJIDKBDGAJ": 5106001,
                        "KJNPBCGDOJD": ""
                    },
                    {
                        "$type": "ContextActionSetAnimatorTrigger",
                        "PEGIOKIJOEB": "Animator",
                        "ODCJHDNCLII": "FadeOut",
                        "NAFAKICKJGL": true
                    }
                ]
            },
            "GotoBossMark": {
                "$type": "ContextActionExecuteAll",
                "actions": [
                    {
                        "$type": "ContextActionSelectMonsterMark",
                        "ICJLCDBFIFE": 49
                    },
                    {
                        "$type": "ContextActionReportActivityBuriedPoint",
                        "PIINBKBEGJO": 5106,
                        "AKNMDILOODL": 3,
                        "NHJIDKBDGAJ": 5106001,
                        "KJNPBCGDOJD": ""
                    },
                    {
                        "$type": "ContextActionSetAnimatorTrigger",
                        "PEGIOKIJOEB": "Animator",
                        "ODCJHDNCLII": "FadeOut",
                        "NAFAKICKJGL": true
                    }
                ]
            }
        },
        "HALLDDEHFMA": [
            {
                "conditionName": "BeforeAreaUnlocked",
                "actionName": "ShowGotoAera"
            },
            {
                "conditionName": "AfterAreaUnlocked",
                "actionName": "ShowGotoBoss"
            }
        ],
        "DIADKKABKMN": [
            {
                "conditionName": "BeforeAreaUnlocked",
                "actionName": "GotoAreaMark"
            },
            {
                "conditionName": "AfterAreaUnlocked",
                "actionName": "GotoBossMark"
            }
        ]
    }
}