{
    "DAPLEKMCBMB": [
        {
            "name": "Character_Ayaka_Q_Golden",
            "IOMFAGOGAAJ": [
                {
                    "PIBJPDLMPKJ": 1.7999999523162842,
                    "actionGroups": [
                        {
                            "actions": [
                                {
                                    "$type": "GcgBehaviourSwitchGoldenLoopEffect",
                                    "KEACJLNKCHK": {
                                        "target": "Actor"
                                    }
                                },
                                {
                                    "$type": "GcgBehaviourSwitchOnCardLoopEffect",
                                    "KEACJLNKCHK": {
                                        "target": "Actor"
                                    }
                                },
                                {
                                    "$type": "GcgBehaviourTriggerSpineAttack",
                                    "KEACJLNKCHK": {
                                        "target": "Actor"
                                    }
                                },
                                {
                                    "$type": "GcgBehaviourFireEffect",
                                    "KEACJLNKCHK": {
                                        "target": "Actor"
                                    },
                                    "effectName": "Eff_Gcg_Avatar_Ayaka_ElementalBurst_Spine",
                                    "ODHIEKLBPFL": true,
                                    "KOGELNIBFMB": "",
                                    "GGPHPGIOHIC": "",
                                    "BFEBMINFJID": {
                                        "$type": "GcgBornRotationFollow"
                                    }
                                }
                            ]
                        }
                    ]
                },
                {
                    "PIBJPDLMPKJ": 3.1700000762939453,
                    "actionGroups": [
                        {
                            "actions": [
                                {
                                    "$type": "GcgBehaviourFireEffect",
                                    "KEACJLNKCHK": {
                                        "target": "Actor"
                                    },
                                    "effectName": "Eff_Gcg_Avatar_Ayaka_ElementalBurst_BS",
                                    "KOGELNIBFMB": "",
                                    "GGPHPGIOHIC": "",
                                    "BFEBMINFJID": {
                                        "$type": "GcgBornRotationFollow"
                                    }
                                },
                                {
                                    "$type": "GcgBehaviourFireEffectBullet",
                                    "effectName": "Eff_Gcg_Avatar_Ayaka_ElementalBurst",
                                    "IKMFOLAIPCF": true,
                                    "EIEMNAJKNCJ": true,
                                    "GBFHLLMDNDM": {
                                        "target": "Actor"
                                    },
                                    "IFEOMJOIGAL": {
                                        "target": "MainTarget"
                                    },
                                    "BFEBMINFJID": {
                                        "$type": "GcgBornRotationLookAtTarget",
                                        "KEACJLNKCHK": {
                                            "target": "MainTarget"
                                        }
                                    },
                                    "DPLGBNHILIE": "Eff_Gcg_Motion_Avatar_Ayaka_ElementBurst",
                                    "IOOMGNCKOAD": "",
                                    "JDGHDEKLCPG": [
                                        {
                                            "$type": "GcgBehaviourEventDestroy",
                                            "LPDGLAMNADD": "OnHit"
                                        }
                                    ]
                                }
                            ]
                        }
                    ]
                },
                {
                    "PIBJPDLMPKJ": 0.029999999329447746,
                    "actionGroups": [
                        {
                            "actions": [
                                {
                                    "$type": "GcgBehaviourFireEffect",
                                    "KEACJLNKCHK": {
                                        "target": "Actor"
                                    },
                                    "effectName": "Eff_Gcg_Common_Spine_ReturnToLoop",
                                    "ODHIEKLBPFL": true,
                                    "KOGELNIBFMB": "",
                                    "GGPHPGIOHIC": "",
                                    "BFEBMINFJID": {
                                        "$type": "GcgBornRotationFollow"
                                    }
                                }
                            ]
                        }
                    ]
                },
                {
                    "actionGroups": [
                        {
                            "actions": [
                                {
                                    "$type": "GcgBehaviourSwitchGoldenLoopEffect",
                                    "KEACJLNKCHK": {
                                        "target": "Actor"
                                    },
                                    "GFKOKIKOMNA": true
                                },
                                {
                                    "$type": "GcgBehaviourSwitchOnCardLoopEffect",
                                    "KEACJLNKCHK": {
                                        "target": "Actor"
                                    },
                                    "GFKOKIKOMNA": true
                                }
                            ]
                        }
                    ]
                }
            ],
            "DELOACENBLE": [
                {
                    "actionGroups": [
                        {
                            "actions": [
                                {
                                    "$type": "GcgBehaviourFireEffect",
                                    "KEACJLNKCHK": {
                                        "target": "MainTarget"
                                    },
                                    "effectName": "Eff_Gcg_Avatar_Ayaka_ElementalBurst_Hit",
                                    "KOGELNIBFMB": "",
                                    "GGPHPGIOHIC": "",
                                    "BFEBMINFJID": {
                                        "$type": "GcgBornRotationLookAtTarget",
                                        "KEACJLNKCHK": {
                                            "target": "Actor"
                                        }
                                    }
                                },
                                {
                                    "$type": "GcgBehaviourShakeScreen",
                                    "KEACJLNKCHK": {
                                        "target": "ContextTarget"
                                    },
                                    "FONIHNAMJML": "Common_ShakeScreen_Test_Q"
                                },
                                {
                                    "$type": "GcgBehaviourRunMoveScript",
                                    "DPLGBNHILIE": "GcgMotion_Hit04_02",
                                    "IOOMGNCKOAD": "",
                                    "JOLPHOFCPAK": {
                                        "target": "ContextTarget"
                                    },
                                    "KEACJLNKCHK": {
                                        "target": "Actor"
                                    },
                                    "GNDGFAABMPL": true
                                }
                            ]
                        }
                    ]
                }
            ]
        }
    ]
}