{
    "name": "Char_Skill_24014_Talent_1",
    "LCAAFCBKGHI": {
        "25457495": {
            "$type": "GCGDeclaredValueHealAmount",
            "type": "Heal",
            "value": 4
        }
    }
}