{
    "ConfigAQTheChasm": {
        "CDNPPOGNDBH": {
            "locked": {
                "$type": "ContextConditionAnd",
                "MOGMJHOLKGE": [
                    {
                        "$type": "ContextConditionNot",
                        "condition": {
                            "$type": "ContextConditionMainQuestState",
                            "AGGACFLCIPN": 2021,
                            "state": "QUEST_STATE_FINISHED"
                        }
                    }
                ]
            },
            "trackQuest1": {
                "$type": "ContextConditionMainQuestVisible",
                "AGGACFLCIPN": 8004,
                "visible": true
            },
            "trackQuest2": {
                "$type": "ContextConditionMainQuestVisible",
                "AGGACFLCIPN": 8005,
                "visible": true
            },
            "trackQuest3": {
                "$type": "ContextConditionMainQuestVisible",
                "AGGACFLCIPN": 8006,
                "visible": true
            },
            "trackQuest4": {
                "$type": "ContextConditionMainQuestVisible",
                "AGGACFLCIPN": 8007,
                "visible": true
            },
            "finished": {
                "$type": "ContextConditionMainQuestState",
                "AGGACFLCIPN": 8007,
                "state": "QUEST_STATE_FINISHED"
            }
        },
        "IGFEMBCOLDG": {
            "updateLocked": {
                "$type": "ContextActionExecuteAll",
                "actions": [
                    {
                        "$type": "ContextActionSetActive",
                        "PEGIOKIJOEB": "UnlockTips",
                        "EILKDDLAKBL": true
                    },
                    {
                        "$type": "ContextActionSetText",
                        "PEGIOKIJOEB": "UnlockTips",
                        "textMap": "UI_ACTIVITY_THECHASM_AQ_UNLOCK"
                    },
                    {
                        "$type": "ContextActionSetActive",
                        "PEGIOKIJOEB": "ButtonGoto"
                    },
                    {
                        "$type": "ContextActionSetActive",
                        "PEGIOKIJOEB": "FinishTips"
                    }
                ]
            },
            "updateTrackQuest1": {
                "$type": "ContextActionExecuteAll",
                "actions": [
                    {
                        "$type": "ContextActionSetActive",
                        "PEGIOKIJOEB": "UnlockTips"
                    },
                    {
                        "$type": "ContextActionSetActive",
                        "PEGIOKIJOEB": "ButtonGoto",
                        "EILKDDLAKBL": true
                    },
                    {
                        "$type": "ContextActionSetText",
                        "PEGIOKIJOEB": "ButtonGoto",
                        "textMap": "UI_ACTIVITY_QUEST_GOTO_BUTTON"
                    },
                    {
                        "$type": "ContextActionSetActive",
                        "PEGIOKIJOEB": "FinishTips"
                    }
                ]
            },
            "updateTrackQuest2": {
                "$type": "ContextActionExecuteAll",
                "actions": [
                    {
                        "$type": "ContextActionSetActive",
                        "PEGIOKIJOEB": "UnlockTips"
                    },
                    {
                        "$type": "ContextActionSetActive",
                        "PEGIOKIJOEB": "ButtonGoto",
                        "EILKDDLAKBL": true
                    },
                    {
                        "$type": "ContextActionSetText",
                        "PEGIOKIJOEB": "ButtonGoto",
                        "textMap": "UI_ACTIVITY_QUEST_GOTO_BUTTON"
                    },
                    {
                        "$type": "ContextActionSetActive",
                        "PEGIOKIJOEB": "FinishTips"
                    }
                ]
            },
            "updateTrackQuest3": {
                "$type": "ContextActionExecuteAll",
                "actions": [
                    {
                        "$type": "ContextActionSetActive",
                        "PEGIOKIJOEB": "UnlockTips"
                    },
                    {
                        "$type": "ContextActionSetActive",
                        "PEGIOKIJOEB": "ButtonGoto",
                        "EILKDDLAKBL": true
                    },
                    {
                        "$type": "ContextActionSetText",
                        "PEGIOKIJOEB": "ButtonGoto",
                        "textMap": "UI_ACTIVITY_QUEST_GOTO_BUTTON"
                    },
                    {
                        "$type": "ContextActionSetActive",
                        "PEGIOKIJOEB": "FinishTips"
                    }
                ]
            },
            "updateTrackQuest4": {
                "$type": "ContextActionExecuteAll",
                "actions": [
                    {
                        "$type": "ContextActionSetActive",
                        "PEGIOKIJOEB": "UnlockTips"
                    },
                    {
                        "$type": "ContextActionSetActive",
                        "PEGIOKIJOEB": "ButtonGoto",
                        "EILKDDLAKBL": true
                    },
                    {
                        "$type": "ContextActionSetText",
                        "PEGIOKIJOEB": "ButtonGoto",
                        "textMap": "UI_ACTIVITY_QUEST_GOTO_BUTTON"
                    },
                    {
                        "$type": "ContextActionSetActive",
                        "PEGIOKIJOEB": "FinishTips"
                    }
                ]
            },
            "updateFinished": {
                "$type": "ContextActionExecuteAll",
                "actions": [
                    {
                        "$type": "ContextActionSetActive",
                        "PEGIOKIJOEB": "UnlockTips"
                    },
                    {
                        "$type": "ContextActionSetActive",
                        "PEGIOKIJOEB": "ButtonGoto"
                    },
                    {
                        "$type": "ContextActionSetActive",
                        "PEGIOKIJOEB": "FinishTips",
                        "EILKDDLAKBL": true
                    }
                ]
            },
            "clickTrackQuest1": {
                "$type": "ContextActionExecuteAll",
                "actions": [
                    {
                        "$type": "ContextActionSelectMainQuest",
                        "AGGACFLCIPN": 8004
                    },
                    {
                        "$type": "ContextActionReportActivityBuriedPoint",
                        "PIINBKBEGJO": 5077,
                        "AKNMDILOODL": 2,
                        "NHJIDKBDGAJ": 5077001,
                        "KJNPBCGDOJD": ""
                    },
                    {
                        "$type": "ContextActionSetAnimatorTrigger",
                        "PEGIOKIJOEB": "Animator",
                        "ODCJHDNCLII": "FadeOut",
                        "NAFAKICKJGL": true
                    }
                ]
            },
            "clickTrackQuest2": {
                "$type": "ContextActionExecuteAll",
                "actions": [
                    {
                        "$type": "ContextActionSelectMainQuest",
                        "AGGACFLCIPN": 8005
                    },
                    {
                        "$type": "ContextActionReportActivityBuriedPoint",
                        "PIINBKBEGJO": 5077,
                        "AKNMDILOODL": 2,
                        "NHJIDKBDGAJ": 5077001,
                        "KJNPBCGDOJD": ""
                    },
                    {
                        "$type": "ContextActionSetAnimatorTrigger",
                        "PEGIOKIJOEB": "Animator",
                        "ODCJHDNCLII": "FadeOut",
                        "NAFAKICKJGL": true
                    }
                ]
            },
            "clickTrackQuest3": {
                "$type": "ContextActionExecuteAll",
                "actions": [
                    {
                        "$type": "ContextActionSelectMainQuest",
                        "AGGACFLCIPN": 8006
                    },
                    {
                        "$type": "ContextActionReportActivityBuriedPoint",
                        "PIINBKBEGJO": 5077,
                        "AKNMDILOODL": 2,
                        "NHJIDKBDGAJ": 5077001,
                        "KJNPBCGDOJD": ""
                    },
                    {
                        "$type": "ContextActionSetAnimatorTrigger",
                        "PEGIOKIJOEB": "Animator",
                        "ODCJHDNCLII": "FadeOut",
                        "NAFAKICKJGL": true
                    }
                ]
            },
            "clickTrackQuest4": {
                "$type": "ContextActionExecuteAll",
                "actions": [
                    {
                        "$type": "ContextActionSelectMainQuest",
                        "AGGACFLCIPN": 8007
                    },
                    {
                        "$type": "ContextActionReportActivityBuriedPoint",
                        "PIINBKBEGJO": 5077,
                        "AKNMDILOODL": 2,
                        "NHJIDKBDGAJ": 5077001,
                        "KJNPBCGDOJD": ""
                    },
                    {
                        "$type": "ContextActionSetAnimatorTrigger",
                        "PEGIOKIJOEB": "Animator",
                        "ODCJHDNCLII": "FadeOut",
                        "NAFAKICKJGL": true
                    }
                ]
            }
        },
        "HALLDDEHFMA": [
            {
                "conditionName": "locked",
                "actionName": "updateLocked"
            },
            {
                "conditionName": "trackQuest1",
                "actionName": "updateTrackQuest1"
            },
            {
                "conditionName": "trackQuest2",
                "actionName": "updateTrackQuest2"
            },
            {
                "conditionName": "trackQuest3",
                "actionName": "updateTrackQuest3"
            },
            {
                "conditionName": "trackQuest4",
                "actionName": "updateTrackQuest4"
            },
            {
                "conditionName": "finished",
                "actionName": "updateFinished"
            }
        ],
        "DIADKKABKMN": [
            {
                "conditionName": "trackQuest1",
                "actionName": "clickTrackQuest1"
            },
            {
                "conditionName": "trackQuest2",
                "actionName": "clickTrackQuest2"
            },
            {
                "conditionName": "trackQuest3",
                "actionName": "clickTrackQuest3"
            },
            {
                "conditionName": "trackQuest4",
                "actionName": "clickTrackQuest4"
            }
        ]
    }
}