{
    "sceneId": 3148554595,
    "FPMPLDBNECG": [
        {
            "MCCOFAELJPA": 100000
        },
        {
            "MCCOFAELJPA": 100001,
            "KPEAGLJFJEP": {
                "z": 90.0
            }
        },
        {
            "MCCOFAELJPA": 100002,
            "KPEAGLJFJEP": {
                "z": 180.0
            }
        },
        {
            "MCCOFAELJPA": 100003,
            "KPEAGLJFJEP": {
                "z": 270.0
            }
        },
        {
            "MCCOFAELJPA": 100010,
            "KPEAGLJFJEP": {
                "y": 90.0
            }
        },
        {
            "MCCOFAELJPA": 100011,
            "KPEAGLJFJEP": {
                "y": 90.0,
                "z": 90.0
            }
        },
        {
            "MCCOFAELJPA": 100012,
            "KPEAGLJFJEP": {
                "y": 90.0,
                "z": 180.0
            }
        },
        {
            "MCCOFAELJPA": 100013,
            "KPEAGLJFJEP": {
                "y": 90.0,
                "z": 270.0
            }
        },
        {
            "MCCOFAELJPA": 100020,
            "KPEAGLJFJEP": {
                "y": 180.0
            }
        },
        {
            "MCCOFAELJPA": 100021,
            "KPEAGLJFJEP": {
                "y": 180.0,
                "z": 90.0
            }
        },
        {
            "MCCOFAELJPA": 100022,
            "KPEAGLJFJEP": {
                "y": 180.0,
                "z": 180.0
            }
        },
        {
            "MCCOFAELJPA": 100023,
            "KPEAGLJFJEP": {
                "y": 180.0,
                "z": 270.0
            }
        },
        {
            "MCCOFAELJPA": 100030,
            "KPEAGLJFJEP": {
                "y": 270.0
            }
        },
        {
            "MCCOFAELJPA": 100031,
            "KPEAGLJFJEP": {
                "y": 270.0,
                "z": 90.0
            }
        },
        {
            "MCCOFAELJPA": 100032,
            "KPEAGLJFJEP": {
                "y": 270.0,
                "z": 180.0
            }
        },
        {
            "MCCOFAELJPA": 100033,
            "KPEAGLJFJEP": {
                "y": 270.0,
                "z": 270.0
            }
        },
        {
            "MCCOFAELJPA": 100100,
            "KPEAGLJFJEP": {
                "x": 90.0
            }
        },
        {
            "MCCOFAELJPA": 100101,
            "KPEAGLJFJEP": {
                "x": 90.0,
                "y": 270.0
            }
        },
        {
            "MCCOFAELJPA": 100102,
            "KPEAGLJFJEP": {
                "x": 90.0,
                "y": 180.0
            }
        },
        {
            "MCCOFAELJPA": 100103,
            "KPEAGLJFJEP": {
                "x": 90.0,
                "y": 90.0
            }
        },
        {
            "MCCOFAELJPA": 100110,
            "KPEAGLJFJEP": {
                "y": 90.0,
                "z": 90.0
            }
        },
        {
            "MCCOFAELJPA": 100111,
            "KPEAGLJFJEP": {
                "y": 90.0,
                "z": 180.0
            }
        },
        {
            "MCCOFAELJPA": 100112,
            "KPEAGLJFJEP": {
                "y": 90.0,
                "z": 270.0
            }
        },
        {
            "MCCOFAELJPA": 100113,
            "KPEAGLJFJEP": {
                "y": 90.0
            }
        },
        {
            "MCCOFAELJPA": 100120,
            "KPEAGLJFJEP": {
                "x": 270.0,
                "y": 180.0
            }
        },
        {
            "MCCOFAELJPA": 100121,
            "KPEAGLJFJEP": {
                "x": 270.0,
                "y": 270.0
            }
        },
        {
            "MCCOFAELJPA": 100122,
            "KPEAGLJFJEP": {
                "x": 270.0
            }
        },
        {
            "MCCOFAELJPA": 100123,
            "KPEAGLJFJEP": {
                "x": 270.0,
                "y": 90.0
            }
        },
        {
            "MCCOFAELJPA": 100130,
            "KPEAGLJFJEP": {
                "y": 270.0,
                "z": 270.0
            }
        },
        {
            "MCCOFAELJPA": 100131,
            "KPEAGLJFJEP": {
                "y": 270.0
            }
        },
        {
            "MCCOFAELJPA": 100132,
            "KPEAGLJFJEP": {
                "y": 270.0,
                "z": 90.0
            }
        },
        {
            "MCCOFAELJPA": 100133,
            "KPEAGLJFJEP": {
                "y": 270.0,
                "z": 180.0
            }
        },
        {
            "MCCOFAELJPA": 100200,
            "KPEAGLJFJEP": {
                "y": 180.0,
                "z": 180.0
            }
        },
        {
            "MCCOFAELJPA": 100201,
            "KPEAGLJFJEP": {
                "y": 180.0,
                "z": 270.0
            }
        },
        {
            "MCCOFAELJPA": 100202,
            "KPEAGLJFJEP": {
                "y": 180.0
            }
        },
        {
            "MCCOFAELJPA": 100203,
            "KPEAGLJFJEP": {
                "y": 180.0,
                "z": 90.0
            }
        },
        {
            "MCCOFAELJPA": 100210,
            "KPEAGLJFJEP": {
                "y": 90.0,
                "z": 180.0
            }
        },
        {
            "MCCOFAELJPA": 100211,
            "KPEAGLJFJEP": {
                "y": 90.0,
                "z": 270.0
            }
        },
        {
            "MCCOFAELJPA": 100212,
            "KPEAGLJFJEP": {
                "y": 90.0
            }
        },
        {
            "MCCOFAELJPA": 100213,
            "KPEAGLJFJEP": {
                "y": 90.0,
                "z": 90.0
            }
        },
        {
            "MCCOFAELJPA": 100220,
            "KPEAGLJFJEP": {
                "z": 180.0
            }
        },
        {
            "MCCOFAELJPA": 100221,
            "KPEAGLJFJEP": {
                "z": 270.0
            }
        },
        {
            "MCCOFAELJPA": 100222
        },
        {
            "MCCOFAELJPA": 100223,
            "KPEAGLJFJEP": {
                "z": 90.0
            }
        },
        {
            "MCCOFAELJPA": 100230,
            "KPEAGLJFJEP": {
                "y": 270.0,
                "z": 180.0
            }
        },
        {
            "MCCOFAELJPA": 100231,
            "KPEAGLJFJEP": {
                "y": 270.0,
                "z": 270.0
            }
        },
        {
            "MCCOFAELJPA": 100232,
            "KPEAGLJFJEP": {
                "y": 270.0
            }
        },
        {
            "MCCOFAELJPA": 100233,
            "KPEAGLJFJEP": {
                "y": 270.0,
                "z": 90.0
            }
        },
        {
            "MCCOFAELJPA": 100300,
            "KPEAGLJFJEP": {
                "x": 270.0
            }
        },
        {
            "MCCOFAELJPA": 100301,
            "KPEAGLJFJEP": {
                "x": 270.0,
                "y": 90.0
            }
        },
        {
            "MCCOFAELJPA": 100302,
            "KPEAGLJFJEP": {
                "x": 270.0,
                "y": 180.0
            }
        },
        {
            "MCCOFAELJPA": 100303,
            "KPEAGLJFJEP": {
                "x": 270.0,
                "y": 270.0
            }
        },
        {
            "MCCOFAELJPA": 100310,
            "KPEAGLJFJEP": {
                "y": 90.0,
                "z": 270.0
            }
        },
        {
            "MCCOFAELJPA": 100311,
            "KPEAGLJFJEP": {
                "y": 90.0
            }
        },
        {
            "MCCOFAELJPA": 100312,
            "KPEAGLJFJEP": {
                "y": 90.0,
                "z": 90.0
            }
        },
        {
            "MCCOFAELJPA": 100313,
            "KPEAGLJFJEP": {
                "y": 90.0,
                "z": 180.0
            }
        },
        {
            "MCCOFAELJPA": 100320,
            "KPEAGLJFJEP": {
                "x": 90.0,
                "y": 180.0
            }
        },
        {
            "MCCOFAELJPA": 100321,
            "KPEAGLJFJEP": {
                "x": 90.0,
                "y": 90.0
            }
        },
        {
            "MCCOFAELJPA": 100322,
            "KPEAGLJFJEP": {
                "x": 90.0
            }
        },
        {
            "MCCOFAELJPA": 100323,
            "KPEAGLJFJEP": {
                "x": 90.0,
                "y": 270.0
            }
        },
        {
            "MCCOFAELJPA": 100330,
            "KPEAGLJFJEP": {
                "y": 270.0,
                "z": 90.0
            }
        },
        {
            "MCCOFAELJPA": 100331,
            "KPEAGLJFJEP": {
                "y": 270.0,
                "z": 180.0
            }
        },
        {
            "MCCOFAELJPA": 100332,
            "KPEAGLJFJEP": {
                "y": 270.0,
                "z": 270.0
            }
        },
        {
            "MCCOFAELJPA": 100333,
            "KPEAGLJFJEP": {
                "y": 270.0
            }
        }
    ]
}