{
    "id": 150,
    "stageMatureEvents": [
        "Play_amb_scene_xumi_csd"
    ],
    "stageExitEvents": [
        "Stop_amb_scene_xumi_csd",
        "State_Music_NonCombat"
    ],
    "stateValue": "State_XM_CSD",
    "EDGKEHCFEFC": {
        "text": "Play_Music_Scene"
    },
    "FJBGDAMGLNA": {
        "text": "Stop_Music_Scene"
    }
}