{
    "id": 170,
    "stageMatureEvents": [
        "Play_amb_CustomLevel_base"
    ],
    "stageExitEvents": [
        "Stop_amb_CustomLevel_base",
        "State_Music_NonCombat"
    ],
    "stateValue": "State_Dungeon_XM",
    "EDGKEHCFEFC": {
        "text": "Play_Music_Dungeon"
    },
    "FJBGDAMGLNA": {
        "text": "Stop_Music_Dungeon"
    }
}