{
    "name": "Effect_Damage_Water_5",
    "LCAAFCBKGHI": {
        "-2060930438": {
            "$type": "GCGDeclaredValueDamage",
            "value": 5
        },
        "476224977": {
            "$type": "GCGDeclaredValueElement",
            "type": "Element",
            "ratio": "GCG_ELEMENT_HYDRO"
        }
    }
}