{
    "buttonSequence": [
        {
            "button": "Left_Down",
            "time": 12000,
            "MCCFCKMLOCC": true,
            "DBJOIPMGCLJ": 600
        },
        {
            "button": "Left_Down",
            "time": 13000
        },
        {
            "button": "Left_Down",
            "time": 14200
        },
        {
            "button": "Left_Down",
            "time": 16400
        },
        {
            "button": "Left_Down",
            "time": 17200
        },
        {
            "button": "Left_Down",
            "time": 18000
        },
        {
            "button": "Left_Down",
            "time": 18800
        },
        {
            "button": "Left_Down",
            "time": 45600
        },
        {
            "button": "Left_Down",
            "time": 47200
        },
        {
            "button": "Left_Down",
            "time": 48800
        },
        {
            "button": "Left_Down",
            "time": 50400
        },
        {
            "button": "Left_Down",
            "time": 53600
        },
        {
            "button": "Left_Down",
            "time": 63200
        },
        {
            "button": "Left_Down",
            "time": 63600
        },
        {
            "button": "Left_Down",
            "time": 64000,
            "MCCFCKMLOCC": true,
            "DBJOIPMGCLJ": 400
        },
        {
            "button": "Left_Down",
            "time": 65600,
            "MCCFCKMLOCC": true,
            "DBJOIPMGCLJ": 400
        },
        {
            "button": "Left_Down",
            "time": 68800
        },
        {
            "button": "Left_Down",
            "time": 69600
        },
        {
            "button": "Left_Down",
            "time": 70000
        },
        {
            "button": "Left_Down",
            "time": 70400,
            "MCCFCKMLOCC": true,
            "DBJOIPMGCLJ": 400
        },
        {
            "button": "Left_Down",
            "time": 72000,
            "MCCFCKMLOCC": true,
            "DBJOIPMGCLJ": 400
        },
        {
            "button": "Left_Right",
            "time": 6600
        },
        {
            "button": "Left_Right",
            "time": 7800
        },
        {
            "button": "Left_Right",
            "time": 8800,
            "MCCFCKMLOCC": true,
            "DBJOIPMGCLJ": 600
        },
        {
            "button": "Left_Right",
            "time": 9800
        },
        {
            "button": "Left_Right",
            "time": 11000
        },
        {
            "button": "Left_Right",
            "time": 15400
        },
        {
            "button": "Left_Right",
            "time": 15800
        },
        {
            "button": "Left_Right",
            "time": 20800,
            "MCCFCKMLOCC": true,
            "DBJOIPMGCLJ": 800
        },
        {
            "button": "Left_Right",
            "time": 22000
        },
        {
            "button": "Left_Right",
            "time": 23800,
            "MCCFCKMLOCC": true,
            "DBJOIPMGCLJ": 600
        },
        {
            "button": "Left_Right",
            "time": 24800
        },
        {
            "button": "Left_Right",
            "time": 27200,
            "MCCFCKMLOCC": true,
            "DBJOIPMGCLJ": 800
        },
        {
            "button": "Left_Right",
            "time": 28400
        },
        {
            "button": "Left_Right",
            "time": 29600,
            "MCCFCKMLOCC": true,
            "DBJOIPMGCLJ": 400
        },
        {
            "button": "Left_Right",
            "time": 31200,
            "MCCFCKMLOCC": true,
            "DBJOIPMGCLJ": 400
        },
        {
            "button": "Left_Right",
            "time": 33600,
            "MCCFCKMLOCC": true,
            "DBJOIPMGCLJ": 800
        },
        {
            "button": "Left_Right",
            "time": 34800
        },
        {
            "button": "Left_Right",
            "time": 36800,
            "MCCFCKMLOCC": true,
            "DBJOIPMGCLJ": 400
        },
        {
            "button": "Left_Right",
            "time": 38400,
            "MCCFCKMLOCC": true,
            "DBJOIPMGCLJ": 800
        },
        {
            "button": "Left_Right",
            "time": 39600
        },
        {
            "button": "Left_Right",
            "time": 41600,
            "MCCFCKMLOCC": true,
            "DBJOIPMGCLJ": 400
        },
        {
            "button": "Left_Right",
            "time": 44000
        },
        {
            "button": "Left_Right",
            "time": 44266
        },
        {
            "button": "Left_Right",
            "time": 44533
        },
        {
            "button": "Left_Right",
            "time": 44800
        },
        {
            "button": "Left_Right",
            "time": 55200
        },
        {
            "button": "Left_Right",
            "time": 55600
        },
        {
            "button": "Left_Right",
            "time": 56800,
            "MCCFCKMLOCC": true,
            "DBJOIPMGCLJ": 600
        },
        {
            "button": "Left_Right",
            "time": 58200,
            "MCCFCKMLOCC": true,
            "DBJOIPMGCLJ": 400
        },
        {
            "button": "Left_Right",
            "time": 59800,
            "MCCFCKMLOCC": true,
            "DBJOIPMGCLJ": 400
        },
        {
            "button": "Left_Right",
            "time": 60800
        },
        {
            "button": "Left_Right",
            "time": 61200
        },
        {
            "button": "Left_Right",
            "time": 62400
        },
        {
            "button": "Left_Right",
            "time": 67200,
            "MCCFCKMLOCC": true,
            "DBJOIPMGCLJ": 1200
        },
        {
            "button": "Left_Right",
            "time": 73600,
            "MCCFCKMLOCC": true,
            "DBJOIPMGCLJ": 1200
        },
        {
            "button": "Left_Right",
            "time": 75333
        },
        {
            "button": "Left_Right",
            "time": 75600
        },
        {
            "button": "Left_Right",
            "time": 75866
        },
        {
            "button": "Left_Right",
            "time": 76800,
            "MCCFCKMLOCC": true,
            "DBJOIPMGCLJ": 2400
        },
        {
            "button": "Left_Right",
            "time": 81600
        },
        {
            "button": "Left_Right",
            "time": 82000
        },
        {
            "button": "Right_Left",
            "time": 6400
        },
        {
            "button": "Right_Left",
            "time": 7600
        },
        {
            "button": "Right_Left",
            "time": 9600
        },
        {
            "button": "Right_Left",
            "time": 10800
        },
        {
            "button": "Right_Left",
            "time": 15200
        },
        {
            "button": "Right_Left",
            "time": 15600
        },
        {
            "button": "Right_Left",
            "time": 19200,
            "MCCFCKMLOCC": true,
            "DBJOIPMGCLJ": 800
        },
        {
            "button": "Right_Left",
            "time": 20400
        },
        {
            "button": "Right_Left",
            "time": 22400,
            "MCCFCKMLOCC": true,
            "DBJOIPMGCLJ": 800
        },
        {
            "button": "Right_Left",
            "time": 23500
        },
        {
            "button": "Right_Left",
            "time": 25200
        },
        {
            "button": "Right_Left",
            "time": 25600,
            "MCCFCKMLOCC": true,
            "DBJOIPMGCLJ": 800
        },
        {
            "button": "Right_Left",
            "time": 26800
        },
        {
            "button": "Right_Left",
            "time": 28800,
            "MCCFCKMLOCC": true,
            "DBJOIPMGCLJ": 400
        },
        {
            "button": "Right_Left",
            "time": 30400,
            "MCCFCKMLOCC": true,
            "DBJOIPMGCLJ": 400
        },
        {
            "button": "Right_Left",
            "time": 32000,
            "MCCFCKMLOCC": true,
            "DBJOIPMGCLJ": 800
        },
        {
            "button": "Right_Left",
            "time": 33200
        },
        {
            "button": "Right_Left",
            "time": 35200,
            "MCCFCKMLOCC": true,
            "DBJOIPMGCLJ": 800
        },
        {
            "button": "Right_Left",
            "time": 36400
        },
        {
            "button": "Right_Left",
            "time": 37600,
            "MCCFCKMLOCC": true,
            "DBJOIPMGCLJ": 400
        },
        {
            "button": "Right_Left",
            "time": 40000,
            "MCCFCKMLOCC": true,
            "DBJOIPMGCLJ": 800
        },
        {
            "button": "Right_Left",
            "time": 41200
        },
        {
            "button": "Right_Left",
            "time": 42400,
            "MCCFCKMLOCC": true,
            "DBJOIPMGCLJ": 400
        },
        {
            "button": "Right_Left",
            "time": 43200,
            "MCCFCKMLOCC": true,
            "DBJOIPMGCLJ": 400
        },
        {
            "button": "Right_Left",
            "time": 54400
        },
        {
            "button": "Right_Left",
            "time": 54800
        },
        {
            "button": "Right_Left",
            "time": 56000,
            "MCCFCKMLOCC": true,
            "DBJOIPMGCLJ": 600
        },
        {
            "button": "Right_Left",
            "time": 57600,
            "MCCFCKMLOCC": true,
            "DBJOIPMGCLJ": 400
        },
        {
            "button": "Right_Left",
            "time": 59200,
            "MCCFCKMLOCC": true,
            "DBJOIPMGCLJ": 400
        },
        {
            "button": "Right_Left",
            "time": 61600
        },
        {
            "button": "Right_Left",
            "time": 62000
        },
        {
            "button": "Right_Left",
            "time": 62800
        },
        {
            "button": "Right_Left",
            "time": 75200
        },
        {
            "button": "Right_Left",
            "time": 75466
        },
        {
            "button": "Right_Left",
            "time": 75733
        },
        {
            "button": "Right_Left",
            "time": 76000
        },
        {
            "button": "Right_Left",
            "time": 80000
        },
        {
            "button": "Right_Left",
            "time": 80800
        },
        {
            "button": "Right_Left",
            "time": 82800,
            "MCCFCKMLOCC": true,
            "DBJOIPMGCLJ": 2000
        },
        {
            "button": "Right_Down",
            "time": 12800
        },
        {
            "button": "Right_Down",
            "time": 14000
        },
        {
            "button": "Right_Down",
            "time": 16000
        },
        {
            "button": "Right_Down",
            "time": 16800
        },
        {
            "button": "Right_Down",
            "time": 17600
        },
        {
            "button": "Right_Down",
            "time": 18400
        },
        {
            "button": "Right_Down",
            "time": 48000
        },
        {
            "button": "Right_Down",
            "time": 48200
        },
        {
            "button": "Right_Down",
            "time": 51200
        },
        {
            "button": "Right_Down",
            "time": 51400
        },
        {
            "button": "Right_Down",
            "time": 52400
        },
        {
            "button": "Right_Down",
            "time": 63400
        },
        {
            "button": "Right_Down",
            "time": 63800
        },
        {
            "button": "Right_Down",
            "time": 64600,
            "MCCFCKMLOCC": true,
            "DBJOIPMGCLJ": 400
        },
        {
            "button": "Right_Down",
            "time": 66200,
            "MCCFCKMLOCC": true,
            "DBJOIPMGCLJ": 400
        },
        {
            "button": "Right_Down",
            "time": 69200
        },
        {
            "button": "Right_Down",
            "time": 69800
        },
        {
            "button": "Right_Down",
            "time": 70200
        },
        {
            "button": "Right_Down",
            "time": 71000,
            "MCCFCKMLOCC": true,
            "DBJOIPMGCLJ": 400
        },
        {
            "button": "Right_Down",
            "time": 72600,
            "MCCFCKMLOCC": true,
            "DBJOIPMGCLJ": 400
        }
    ],
    "instrument": 762885265,
    "playMusicEvent": {
        "text": "Play_ui_feedback_musicgame_char_yidou"
    },
    "stopMusicEvent": {
        "text": "Stop_ui_feedback_musicgame_char_yidou"
    },
    "pauseMusicEvent": {
        "text": "Pause_ui_feedback_musicgame_char_yidou"
    },
    "resumeMusicEvent": {
        "text": "Resume_ui_feedback_musicgame_char_yidou"
    }
}