{
    "buttonSequence": [
        {
            "button": "Left_Left",
            "time": 2493,
            "note": 64
        },
        {
            "button": "Left_Down",
            "time": 2909,
            "note": 67
        },
        {
            "button": "Left_Right",
            "time": 3324,
            "note": 69
        },
        {
            "button": "Left_Left",
            "time": 4571,
            "note": 71
        },
        {
            "button": "Left_Down",
            "time": 4986,
            "note": 69
        },
        {
            "time": 5609,
            "note": 69
        },
        {
            "button": "Left_Right",
            "time": 5817,
            "note": 64
        },
        {
            "button": "Left_Down",
            "time": 6233,
            "note": 67
        },
        {
            "button": "Left_Left",
            "time": 6648,
            "note": 69
        },
        {
            "button": "Right_Left",
            "time": 8726,
            "note": 69
        },
        {
            "button": "Right_Down",
            "time": 9141,
            "note": 71
        },
        {
            "button": "Right_Right",
            "time": 9557,
            "note": 74
        },
        {
            "button": "Right_Up",
            "time": 9972,
            "note": 66,
            "MCCFCKMLOCC": true,
            "DBJOIPMGCLJ": 1455
        },
        {
            "button": "Left_Left",
            "time": 12050,
            "note": 64
        },
        {
            "button": "Left_Down",
            "time": 12465,
            "note": 66
        },
        {
            "button": "Left_Right",
            "time": 12881,
            "note": 67
        },
        {
            "time": 13296,
            "note": 66,
            "MCCFCKMLOCC": true,
            "DBJOIPMGCLJ": 1247
        },
        {
            "button": "Right_Right",
            "time": 15789,
            "note": 64
        },
        {
            "button": "Right_Down",
            "time": 16205,
            "note": 67
        },
        {
            "button": "Right_Left",
            "time": 16620,
            "note": 69
        },
        {
            "button": "Right_Right",
            "time": 17867,
            "note": 71
        },
        {
            "button": "Right_Down",
            "time": 18283,
            "note": 69
        },
        {
            "button": "Right_Up",
            "time": 18906,
            "note": 69
        },
        {
            "button": "Right_Left",
            "time": 19114,
            "note": 64
        },
        {
            "button": "Right_Down",
            "time": 19529,
            "note": 67
        },
        {
            "button": "Right_Right",
            "time": 19945,
            "note": 69
        },
        {
            "button": "Left_Right",
            "time": 22022,
            "note": 69
        },
        {
            "button": "Left_Down",
            "time": 22438,
            "note": 71
        },
        {
            "button": "Left_Left",
            "time": 22853,
            "note": 74
        },
        {
            "time": 23269,
            "note": 66,
            "MCCFCKMLOCC": true,
            "DBJOIPMGCLJ": 1247
        },
        {
            "button": "Right_Right",
            "time": 25346,
            "note": 64
        },
        {
            "button": "Right_Down",
            "time": 25762,
            "note": 66
        },
        {
            "button": "Right_Left",
            "time": 26177,
            "note": 67
        },
        {
            "button": "Right_Up",
            "time": 26593,
            "note": 66,
            "MCCFCKMLOCC": true,
            "DBJOIPMGCLJ": 1455
        },
        {
            "button": "Right_Down",
            "time": 44455,
            "note": 71
        },
        {
            "button": "Right_Right",
            "time": 44870,
            "note": 69
        },
        {
            "button": "Right_Up",
            "time": 45493,
            "note": 69
        },
        {
            "button": "Right_Left",
            "time": 45701,
            "note": 64
        },
        {
            "button": "Right_Down",
            "time": 46117,
            "note": 67
        },
        {
            "button": "Right_Right",
            "time": 46532,
            "note": 69
        },
        {
            "button": "Left_Right",
            "time": 46532,
            "note": 69
        },
        {
            "button": "Left_Right",
            "time": 48610,
            "note": 69
        },
        {
            "button": "Left_Down",
            "time": 49025,
            "note": 71
        },
        {
            "button": "Left_Left",
            "time": 49441,
            "note": 74
        },
        {
            "time": 49856,
            "note": 66,
            "MCCFCKMLOCC": true,
            "DBJOIPMGCLJ": 1247
        },
        {
            "button": "Right_Right",
            "time": 51934,
            "note": 64
        },
        {
            "button": "Right_Down",
            "time": 52349,
            "note": 66
        },
        {
            "button": "Right_Left",
            "time": 52765,
            "note": 67
        },
        {
            "button": "Right_Up",
            "time": 53180,
            "note": 66,
            "MCCFCKMLOCC": true,
            "DBJOIPMGCLJ": 1455
        },
        {
            "button": "Left_Left",
            "time": 55675,
            "note": 64
        },
        {
            "button": "Left_Down",
            "time": 56091,
            "note": 67
        },
        {
            "button": "Left_Right",
            "time": 56506,
            "note": 69
        },
        {
            "button": "Left_Left",
            "time": 57753,
            "note": 71
        },
        {
            "button": "Left_Down",
            "time": 58168,
            "note": 69
        },
        {
            "time": 58791,
            "note": 69
        },
        {
            "button": "Left_Right",
            "time": 58999,
            "note": 64
        },
        {
            "button": "Left_Down",
            "time": 59415,
            "note": 67
        },
        {
            "button": "Left_Left",
            "time": 59830,
            "note": 69,
            "MCCFCKMLOCC": true,
            "DBJOIPMGCLJ": 1247
        },
        {
            "button": "Right_Left",
            "time": 61908,
            "note": 69
        },
        {
            "button": "Right_Down",
            "time": 62323,
            "note": 71
        },
        {
            "button": "Right_Up",
            "time": 62739,
            "note": 74
        },
        {
            "button": "Right_Right",
            "time": 63154,
            "note": 66,
            "MCCFCKMLOCC": true,
            "DBJOIPMGCLJ": 1455
        },
        {
            "button": "Left_Left",
            "time": 65232,
            "note": 64
        },
        {
            "button": "Left_Down",
            "time": 65647,
            "note": 66
        },
        {
            "time": 66063,
            "note": 67
        },
        {
            "button": "Left_Right",
            "time": 66478,
            "note": 66
        },
        {
            "button": "Right_Left",
            "time": 66478,
            "note": 66
        },
        {
            "button": "Right_Right",
            "time": 68972,
            "note": 64
        },
        {
            "button": "Right_Down",
            "time": 69387,
            "note": 67
        },
        {
            "button": "Right_Left",
            "time": 69803,
            "note": 69
        },
        {
            "button": "Right_Right",
            "time": 71049,
            "note": 71
        },
        {
            "button": "Right_Down",
            "time": 71465,
            "note": 69
        },
        {
            "button": "Right_Up",
            "time": 72088,
            "note": 69
        },
        {
            "button": "Right_Left",
            "time": 72296,
            "note": 64
        },
        {
            "button": "Right_Down",
            "time": 72711,
            "note": 67
        },
        {
            "button": "Right_Right",
            "time": 73127,
            "note": 69,
            "MCCFCKMLOCC": true,
            "DBJOIPMGCLJ": 1247
        },
        {
            "button": "Left_Right",
            "time": 75204,
            "note": 69
        },
        {
            "button": "Left_Down",
            "time": 75620,
            "note": 71
        },
        {
            "time": 76035,
            "note": 74
        },
        {
            "button": "Left_Left",
            "time": 76451,
            "note": 66,
            "MCCFCKMLOCC": true,
            "DBJOIPMGCLJ": 1455
        },
        {
            "button": "Right_Right",
            "time": 78532,
            "note": 64
        },
        {
            "button": "Right_Down",
            "time": 78947,
            "note": 66
        },
        {
            "button": "Right_Up",
            "time": 79363,
            "note": 67
        },
        {
            "button": "Right_Left",
            "time": 79778,
            "note": 66
        },
        {
            "button": "Left_Right",
            "time": 79778,
            "note": 66
        },
        {
            "button": "Left_Left",
            "time": 82266,
            "note": 64
        },
        {
            "button": "Left_Down",
            "time": 82682,
            "note": 67
        },
        {
            "button": "Left_Right",
            "time": 83097,
            "note": 69
        },
        {
            "button": "Left_Left",
            "time": 84344,
            "note": 71
        },
        {
            "button": "Left_Down",
            "time": 84759,
            "note": 69
        },
        {
            "time": 85383,
            "note": 69
        },
        {
            "button": "Left_Right",
            "time": 85590,
            "note": 64
        },
        {
            "button": "Left_Down",
            "time": 86006,
            "note": 67
        },
        {
            "button": "Left_Left",
            "time": 86421,
            "note": 69
        },
        {
            "button": "Right_Left",
            "time": 88499,
            "note": 69
        },
        {
            "button": "Right_Down",
            "time": 88914,
            "note": 71
        },
        {
            "button": "Right_Right",
            "time": 89330,
            "note": 74
        },
        {
            "button": "Right_Up",
            "time": 89745,
            "note": 66,
            "MCCFCKMLOCC": true,
            "DBJOIPMGCLJ": 1455
        },
        {
            "button": "Left_Left",
            "time": 91828,
            "note": 64
        },
        {
            "button": "Left_Down",
            "time": 92244,
            "note": 71
        },
        {
            "button": "Left_Right",
            "time": 92659,
            "note": 69
        },
        {
            "time": 93075,
            "note": 76,
            "MCCFCKMLOCC": true,
            "DBJOIPMGCLJ": 1455
        },
        {
            "button": "Right_Up",
            "time": 94737,
            "note": 74
        },
        {
            "button": "Right_Left",
            "time": 95568,
            "note": 64
        },
        {
            "button": "Right_Down",
            "time": 95983,
            "note": 67
        },
        {
            "button": "Right_Right",
            "time": 96399,
            "note": 69
        },
        {
            "button": "Right_Left",
            "time": 97645,
            "note": 71
        },
        {
            "button": "Right_Down",
            "time": 98061,
            "note": 69
        },
        {
            "button": "Right_Up",
            "time": 98753,
            "note": 69
        },
        {
            "button": "Right_Right",
            "time": 98892,
            "note": 64
        },
        {
            "button": "Right_Down",
            "time": 99307,
            "note": 67
        },
        {
            "button": "Right_Left",
            "time": 99723,
            "note": 69
        },
        {
            "button": "Left_Left",
            "time": 99723,
            "note": 69
        },
        {
            "button": "Left_Right",
            "time": 101800,
            "note": 69
        },
        {
            "button": "Left_Down",
            "time": 102216,
            "note": 71
        },
        {
            "time": 102631,
            "note": 74
        },
        {
            "button": "Left_Left",
            "time": 103047,
            "note": 66,
            "MCCFCKMLOCC": true,
            "DBJOIPMGCLJ": 1247
        },
        {
            "button": "Right_Left",
            "time": 105125,
            "note": 64
        },
        {
            "button": "Right_Up",
            "time": 105540,
            "note": 69
        },
        {
            "button": "Right_Down",
            "time": 105956,
            "note": 67
        },
        {
            "button": "Right_Right",
            "time": 106371,
            "note": 66,
            "MCCFCKMLOCC": true,
            "DBJOIPMGCLJ": 3000
        }
    ],
    "instrument": 1,
    "playMusicEvent": {
        "text": "Play_ui_musicgame_DaoQi_B1"
    },
    "stopMusicEvent": {
        "text": "Stop_ui_musicgame_DaoQi_B1"
    },
    "pauseMusicEvent": {
        "text": "Pause_ui_musicgame_DaoQi_B1"
    },
    "resumeMusicEvent": {
        "text": "Resume_ui_musicgame_DaoQi_B1"
    }
}