{
    "111734271": {},
    "0": {
        "IOCCHLHBBKA": 1.661548265448366e+35,
        "APMGGHOMMOI": 1476,
        "CCDFEINBDKD": -8.72066687526013e-13
    },
    "10563": {
        "DICFKDJCHFC": 7.827638819242477e-14,
        "APMGGHOMMOI": 79
    },
    "69": {
        "DICFKDJCHFC": -251.0914764404297,
        "IOCCHLHBBKA": 201.809814453125,
        "JOIHHFAKIBC": 3271.12939453125
    },
    "7": {
        "DICFKDJCHFC": 4.403364024213832e+17
    },
    "10273": {
        "DICFKDJCHFC": -1.6220730059901064e-35,
        "JOIHHFAKIBC": 463795748864.0
    },
    "67": {
        "DICFKDJCHFC": 1.4844340108500586e-34,
        "IOCCHLHBBKA": -259.3718566894531,
        "JOIHHFAKIBC": 211.14817810058594
    },
    "10205": {
        "CCDFEINBDKD": -1185654898688.0
    },
    "116": {
        "DICFKDJCHFC": 202.6414031982422,
        "IOCCHLHBBKA": 3334.626953125
    },
    "24": {
        "DICFKDJCHFC": 51372300.0,
        "IOCCHLHBBKA": 210037943304192.0
    },
    "270754": {
        "IOCCHLHBBKA": 929.0515747070312,
        "JOIHHFAKIBC": 3.898912652363458e+19
    },
    "72": {
        "IOCCHLHBBKA": 14304.9404296875,
        "JOIHHFAKIBC": 918294720.0,
        "APMGGHOMMOI": 69
    }
}