{
    "name": "Char_Skill_16032_Ex_1",
    "LCAAFCBKGHI": {
        "-2060930438": {
            "$type": "GCGDeclaredValueDamage",
            "value": 1
        },
        "476224977": {
            "$type": "GCGDeclaredValueElement",
            "type": "Element",
            "ratio": "GCG_ELEMENT_GEO"
        },
        "-1197212178": {
            "$type": "GCGDeclaredValueEffectAmount",
            "type": "EffectNum",
            "value": 1
        }
    }
}