{
    "ConfigAQTheSumeru1": {
        "CDNPPOGNDBH": {
            "locked": {
                "$type": "ContextConditionAnd",
                "MOGMJHOLKGE": [
                    {
                        "$type": "ContextConditionNot",
                        "condition": {
                            "$type": "ContextConditionMainQuestState",
                            "AGGACFLCIPN": 3013,
                            "state": "QUEST_STATE_FINISHED"
                        }
                    }
                ]
            },
            "trackChapter1": {
                "$type": "ContextConditionChapterQuestVisible",
                "PNEGHOOGMIJ": 1303,
                "visible": true
            },
            "trackChapter2": {
                "$type": "ContextConditionChapterQuestVisible",
                "PNEGHOOGMIJ": 1304,
                "visible": true
            },
            "finish": {
                "$type": "ContextConditionMainQuestState",
                "AGGACFLCIPN": 3021,
                "state": "QUEST_STATE_FINISHED"
            }
        },
        "IGFEMBCOLDG": {
            "updateLocked": {
                "$type": "ContextActionExecuteAll",
                "actions": [
                    {
                        "$type": "ContextActionSetActive",
                        "PEGIOKIJOEB": "UnlockTips",
                        "EILKDDLAKBL": true
                    },
                    {
                        "$type": "ContextActionSetActive",
                        "PEGIOKIJOEB": "ButtonGoto"
                    },
                    {
                        "$type": "ContextActionSetText",
                        "PEGIOKIJOEB": "UnlockTips",
                        "textMap": "UI_ACTIVITY_SUMERU1_AQ_UNLOCK"
                    },
                    {
                        "$type": "ContextActionSetActive",
                        "PEGIOKIJOEB": "FinishTips"
                    }
                ]
            },
            "updateTrackQuest": {
                "$type": "ContextActionExecuteAll",
                "actions": [
                    {
                        "$type": "ContextActionSetActive",
                        "PEGIOKIJOEB": "UnlockTips"
                    },
                    {
                        "$type": "ContextActionSetActive",
                        "PEGIOKIJOEB": "ButtonGoto",
                        "EILKDDLAKBL": true
                    },
                    {
                        "$type": "ContextActionSetText",
                        "PEGIOKIJOEB": "ButtonGoto",
                        "textMap": "UI_ACTIVITY_QUEST_GOTO_BUTTON"
                    },
                    {
                        "$type": "ContextActionSetActive",
                        "PEGIOKIJOEB": "FinishTips"
                    }
                ]
            },
            "updateFinished": {
                "$type": "ContextActionExecuteAll",
                "actions": [
                    {
                        "$type": "ContextActionSetActive",
                        "PEGIOKIJOEB": "UnlockTips"
                    },
                    {
                        "$type": "ContextActionSetActive",
                        "PEGIOKIJOEB": "ButtonGoto"
                    },
                    {
                        "$type": "ContextActionSetActive",
                        "PEGIOKIJOEB": "FinishTips",
                        "EILKDDLAKBL": true
                    }
                ]
            },
            "clickTrackChapter1": {
                "$type": "ContextActionExecuteAll",
                "actions": [
                    {
                        "$type": "ContextActionSelectChapterOngoingMainQuest",
                        "PNEGHOOGMIJ": 1303
                    },
                    {
                        "$type": "ContextActionReportActivityBuriedPoint",
                        "PIINBKBEGJO": 5105,
                        "AKNMDILOODL": 2,
                        "NHJIDKBDGAJ": 5105001,
                        "KJNPBCGDOJD": ""
                    },
                    {
                        "$type": "ContextActionSetAnimatorTrigger",
                        "PEGIOKIJOEB": "Animator",
                        "ODCJHDNCLII": "FadeOut",
                        "NAFAKICKJGL": true
                    }
                ]
            },
            "clickTrackChapter2": {
                "$type": "ContextActionExecuteAll",
                "actions": [
                    {
                        "$type": "ContextActionSelectChapterOngoingMainQuest",
                        "PNEGHOOGMIJ": 1304
                    },
                    {
                        "$type": "ContextActionReportActivityBuriedPoint",
                        "PIINBKBEGJO": 5105,
                        "AKNMDILOODL": 2,
                        "NHJIDKBDGAJ": 5105001,
                        "KJNPBCGDOJD": ""
                    },
                    {
                        "$type": "ContextActionSetAnimatorTrigger",
                        "PEGIOKIJOEB": "Animator",
                        "ODCJHDNCLII": "FadeOut",
                        "NAFAKICKJGL": true
                    }
                ]
            }
        },
        "HALLDDEHFMA": [
            {
                "conditionName": "locked",
                "actionName": "updateLocked"
            },
            {
                "conditionName": "trackChapter1",
                "actionName": "updateTrackQuest"
            },
            {
                "conditionName": "trackChapter2",
                "actionName": "updateTrackQuest"
            },
            {
                "conditionName": "finish",
                "actionName": "updateFinished"
            }
        ],
        "DIADKKABKMN": [
            {
                "conditionName": "trackChapter1",
                "actionName": "clickTrackChapter1"
            },
            {
                "conditionName": "trackChapter2",
                "actionName": "clickTrackChapter2"
            }
        ]
    }
}