{
    "BigWorld_-2_5_BNS01_Inside_Ve": {
        "$type": "ConfigShapeRect",
        "useHeight": true,
        "height": 10.970458984375,
        "centerType": "Center",
        "width": 19.766193389892578,
        "length": 14.355406761169434
    },
    "BigWorld_-2_5_BNS02_Inside_Ve": {
        "$type": "ConfigShapeRect",
        "useHeight": true,
        "height": 11.055538177490234,
        "centerType": "Center",
        "width": 14.203934669494629,
        "length": 19.259902954101562
    },
    "BigWorld_-2_5_BNS03_Inside_Ve": {
        "$type": "ConfigShapeRect",
        "useHeight": true,
        "height": 10.705488204956055,
        "centerType": "Center",
        "width": 18.02891731262207,
        "length": 19.72373390197754
    },
    "BigWorld_-2_5_BNS04_Inside_Ve": {
        "$type": "ConfigShapeRect",
        "useHeight": true,
        "height": 10.813915252685547,
        "centerType": "Center",
        "width": 19.02356719970703,
        "length": 16.27777099609375
    },
    "BigWorld_-2_5_BNS05_Inside_Ve": {
        "$type": "ConfigShapeRect",
        "useHeight": true,
        "height": 10.641727447509766,
        "centerType": "Center",
        "width": 14.227540969848633,
        "length": 20.005083084106445
    },
    "BigWorld_-2_5_BNS06_Inside_Ve": {
        "$type": "ConfigShapeRect",
        "useHeight": true,
        "height": 10.040611267089844,
        "centerType": "Center",
        "width": 7.089498996734619,
        "length": 10.0
    },
    "BigWorld_-2_5_CWQZ03_01_Inside_Vgm": {
        "$type": "ConfigShapeRect",
        "useHeight": true,
        "height": 53.84160614013672,
        "centerType": "Center",
        "width": 199.364501953125,
        "length": 101.421875
    },
    "BigWorld_-2_5_DJCamp_02_SmallFissure_Inside_Ve": {
        "$type": "ConfigShapePolygon",
        "polygonConfigPath": "BigWorld_-2_5_DJCamp_02_SmallFissure_Inside_Ve"
    },
    "BigWorld_-2_5_DJCamp_01_Inside_Ve": {
        "$type": "ConfigShapePolygon",
        "polygonConfigPath": "BigWorld_-2_5_DJCamp_01_Inside_Ve"
    },
    "BigWorld_-2_5_DJCamp_02_Inside_Ve": {
        "$type": "ConfigShapePolygon",
        "polygonConfigPath": "BigWorld_-2_5_DJCamp_02_Inside_Ve"
    },
    "BigWorld_-2_5_DJCamp_03_Inside_Ve": {
        "$type": "ConfigShapePolygon",
        "polygonConfigPath": "BigWorld_-2_5_DJCamp_03_Inside_Ve"
    },
    "BigWorld_-2_5_Entrance_Inside_Ve": {
        "$type": "ConfigShapePolygon",
        "polygonConfigPath": "BigWorld_-2_5_Entrance_Inside_Ve"
    },
    "BigWorld_-2_5_HugeFissure_Inside_Ve": {
        "$type": "ConfigShapePolygon",
        "polygonConfigPath": "BigWorld_-2_5_HugeFissure_Inside_Ve"
    },
    "BigWorld_-2_5_HugeFissure_02_Inside_Ve": {
        "$type": "ConfigShapePolygon",
        "polygonConfigPath": "BigWorld_-2_5_HugeFissure_02_Inside_Ve"
    },
    "BigWorld_-2_5_HugeFissure_03_Inside_Ve": {
        "$type": "ConfigShapePolygon",
        "polygonConfigPath": "BigWorld_-2_5_HugeFissure_03_Inside_Ve"
    },
    "BigWorld_-2_5_JLYJ_01_Inside_Vs": {
        "$type": "ConfigShapeRect",
        "useHeight": true,
        "height": 94.81562805175781,
        "centerType": "Center",
        "width": 101.22332000732422,
        "length": 81.65482330322266
    },
    "BigWorld_-2_5_JLYJ_02_Inside_Vs": {
        "$type": "ConfigShapeRect",
        "useHeight": true,
        "height": 95.02674865722656,
        "centerType": "Center",
        "width": 129.794189453125,
        "length": 133.02597045898438
    },
    "BigWorld_-2_5_JLYJ_01_Outside_Vs": {
        "$type": "ConfigShapeRect",
        "useHeight": true,
        "height": 115.95732879638672,
        "centerType": "Center",
        "width": 240.155517578125,
        "length": 179.31967163085938
    },
    "BigWorld_-2_5_JLYJ_02_Outside_Vs": {
        "$type": "ConfigShapeRect",
        "useHeight": true,
        "height": 117.44522094726562,
        "centerType": "Center",
        "width": 149.31729125976562,
        "length": 143.0113067626953
    },
    "BigWorld_-2_5_JLYJ_03_Outside_Vs": {
        "$type": "ConfigShapeRect",
        "useHeight": true,
        "height": 203.3851776123047,
        "centerType": "Center",
        "width": 100.0,
        "length": 100.0
    },
    "BigWorld_-2_5_JLYJ_04_Outside_Vs": {
        "$type": "ConfigShapeRect",
        "useHeight": true,
        "height": 165.52993774414062,
        "centerType": "Center",
        "width": 152.8808135986328,
        "length": 117.59508514404297
    },
    "BigWorld_-2_5_LSYJL_01_Inside_Vs": {
        "$type": "ConfigShapeRect",
        "useHeight": true,
        "height": 169.20025634765625,
        "centerType": "Center",
        "width": 258.4859924316406,
        "length": 185.46981811523438
    },
    "BigWorld_-2_5_LSYJL_03_Inside_Vs": {
        "$type": "ConfigShapeRect",
        "useHeight": true,
        "height": 66.52757263183594,
        "centerType": "Center",
        "width": 93.42957305908203,
        "length": 88.21713256835938
    },
    "BigWorld_-2_5_LSYJL_01_Outside_Vs": {
        "$type": "ConfigShapeRect",
        "useHeight": true,
        "height": 185.5846405029297,
        "centerType": "Center",
        "width": 271.74871826171875,
        "length": 201.22482299804688
    },
    "BigWorld_-2_5_LSYJL_02_Outside_Vs": {
        "$type": "ConfigShapeRect",
        "useHeight": true,
        "height": 77.47859191894531,
        "centerType": "Center",
        "width": 112.1310043334961,
        "length": 100.0
    },
    "BigWorld_-2_5_LSYJL_03_Outside_Vs": {
        "$type": "ConfigShapeRect",
        "useHeight": true,
        "height": 35.54814529418945,
        "centerType": "Center",
        "width": 30.768529891967773,
        "length": 56.2386360168457
    },
    "BigWorld_-2_5_LSYJL_04_Outside_Vs": {
        "$type": "ConfigShapeRect",
        "useHeight": true,
        "height": 19.121944427490234,
        "centerType": "Center",
        "width": 21.013240814208984,
        "length": 57.13652420043945
    },
    "BigWorld_-2_5_LSYJMT_01_Outside_Vs": {
        "$type": "ConfigShapeRect",
        "useHeight": true,
        "height": 150.3807373046875,
        "centerType": "Center",
        "width": 246.6802978515625,
        "length": 154.0791015625
    },
    "BigWorld_-2_5_LSYJM_01_Inside_Vs": {
        "$type": "ConfigShapeRect",
        "useHeight": true,
        "height": 115.30810546875,
        "centerType": "Center",
        "width": 237.14976501464844,
        "length": 169.30941772460938
    },
    "BigWorld_-2_5_LSYJM_01_Outside_Vs": {
        "$type": "ConfigShapeRect",
        "useHeight": true,
        "height": 128.8683624267578,
        "centerType": "Center",
        "width": 320.072509765625,
        "length": 192.5271453857422
    },
    "BigWorld_-2_5_LSYJM_02_Outside_Vs": {
        "$type": "ConfigShapeRect",
        "useHeight": true,
        "height": 105.26908874511719,
        "centerType": "Center",
        "width": 143.022705078125,
        "length": 44.41051483154297
    },
    "BigWorld_-2_5_LSYJM_03_Outside_Vs": {
        "$type": "ConfigShapeRect",
        "useHeight": true,
        "height": 49.596527099609375,
        "centerType": "Center",
        "width": 86.94019317626953,
        "length": 51.02796173095703
    },
    "BigWorld_-2_5_LSYJM_04_Outside_Vs": {
        "$type": "ConfigShapeRect",
        "useHeight": true,
        "height": 24.129608154296875,
        "centerType": "Center",
        "width": 83.51818084716797,
        "length": 53.23884201049805
    },
    "BigWorld_-2_5_LSYJM_05_Outside_Vs": {
        "$type": "ConfigShapeRect",
        "useHeight": true,
        "height": 23.867839813232422,
        "centerType": "Center",
        "width": 15.434173583984375,
        "length": 50.815067291259766
    },
    "BigWorld_-2_5_LSYJM_06_Outside_Vs": {
        "$type": "ConfigShapeRect",
        "useHeight": true,
        "height": 40.214599609375,
        "centerType": "Center",
        "width": 55.469486236572266,
        "length": 43.52339553833008
    },
    "BigWorld_-2_5_LSYJM_07_Outside_Vs": {
        "$type": "ConfigShapeRect",
        "useHeight": true,
        "height": 29.700796127319336,
        "centerType": "Center",
        "width": 16.317983627319336,
        "length": 33.81452560424805
    },
    "BigWorld_-2_5_LSYJR_01_Inside_Vs": {
        "$type": "ConfigShapeRect",
        "useHeight": true,
        "height": 154.03109741210938,
        "centerType": "Center",
        "width": 285.34295654296875,
        "length": 167.6924285888672
    },
    "BigWorld_-2_5_LSYJR_01_Outside_Vs": {
        "$type": "ConfigShapeRect",
        "useHeight": true,
        "height": 215.08090209960938,
        "centerType": "Center",
        "width": 300.04595947265625,
        "length": 155.99008178710938
    },
    "BigWorld_-2_5_LSYJR_02_Outside_Vs": {
        "$type": "ConfigShapeRect",
        "useHeight": true,
        "height": 172.3153076171875,
        "centerType": "Center",
        "width": 257.29638671875,
        "length": 102.76130676269531
    },
    "BigWorld_-2_5_LSYJR_03_Outside_Vs": {
        "$type": "ConfigShapeRect",
        "useHeight": true,
        "height": 46.58601379394531,
        "centerType": "Center",
        "width": 55.86716842651367,
        "length": 29.4294490814209
    },
    "BigWorld_-2_5_LXQZ_01_Outside_Vs": {
        "$type": "ConfigShapeRect",
        "useHeight": true,
        "height": 84.6585693359375,
        "centerType": "Center",
        "width": 100.0,
        "length": 108.01001739501953
    },
    "BigWorld_-2_5_LXQZ_02_Outside_Vs": {
        "$type": "ConfigShapeRect",
        "useHeight": true,
        "height": 222.05743408203125,
        "centerType": "Center",
        "width": 57.80851745605469,
        "length": 97.4356918334961
    },
    "BigWorld_-2_5_LXQZ_03_Outside_Vs": {
        "$type": "ConfigShapeRect",
        "useHeight": true,
        "height": 223.88372802734375,
        "centerType": "Center",
        "width": 57.80851745605469,
        "length": 97.4356918334961
    },
    "BigWorld_-2_5_LXRW_02_Outside_Vs": {
        "$type": "ConfigShapeRect",
        "useHeight": true,
        "height": 298.377197265625,
        "centerType": "Center",
        "width": 128.9147491455078,
        "length": 203.6559600830078
    },
    "BigWorld_-2_5_LXRW_03_Outside_Vs": {
        "$type": "ConfigShapeRect",
        "useHeight": true,
        "height": 302.8834228515625,
        "centerType": "Center",
        "width": 81.69499206542969,
        "length": 200.29769897460938
    },
    "BigWorld_-2_5_LXRW_04_Outside_Vs": {
        "$type": "ConfigShapeRect",
        "useHeight": true,
        "height": 271.39410400390625,
        "centerType": "Center",
        "width": 57.07843780517578,
        "length": 122.09685516357422
    },
    "BigWorld_-2_5_LXRW_05_Outside_Vs": {
        "$type": "ConfigShapeRect",
        "useHeight": true,
        "height": 142.23524475097656,
        "centerType": "Center",
        "width": 147.8485870361328,
        "length": 178.53614807128906
    },
    "BigWorld_-2_5_LXRW_06_Outside_Vs": {
        "$type": "ConfigShapeRect",
        "useHeight": true,
        "height": 125.29730224609375,
        "centerType": "Center",
        "width": 81.69499206542969,
        "length": 134.2186279296875
    },
    "BigWorld_-2_5_LXRW_07_Outside_Vs": {
        "$type": "ConfigShapeRect",
        "useHeight": true,
        "height": 290.93621826171875,
        "centerType": "Center",
        "width": 167.0132598876953,
        "length": 192.53561401367188
    },
    "BigWorld_-2_5_LXRW_08_Outside_Vs": {
        "$type": "ConfigShapeRect",
        "useHeight": true,
        "height": 125.29730224609375,
        "centerType": "Center",
        "width": 114.11250305175781,
        "length": 104.21788024902344
    },
    "BigWorld_-2_5_LXRW_09_Outside_Vs": {
        "$type": "ConfigShapeRect",
        "useHeight": true,
        "height": 302.9327392578125,
        "centerType": "Center",
        "width": 162.66238403320312,
        "length": 184.41275024414062
    },
    "BigWorld_-2_5_LXYJ_Inside_Vd": {
        "$type": "ConfigShapePolygon",
        "polygonConfigPath": "BigWorld_-2_5_LXYJ_Inside_Vd"
    },
    "BigWorld_-2_5_LXYJ_Outside_Vd": {
        "$type": "ConfigShapePolygon",
        "polygonConfigPath": "BigWorld_-2_5_LXYJ_Outside_Vd"
    },
    "BigWorld_-2_5_QZ_A_001_Inside_Ve": {
        "$type": "ConfigShapeRect",
        "useHeight": true,
        "height": 28.544906616210938,
        "centerType": "Center",
        "width": 13.619531631469727,
        "length": 51.19059371948242
    },
    "BigWorld_-2_5_QZ_A_002_Inside_Ve": {
        "$type": "ConfigShapeRect",
        "useHeight": true,
        "height": 17.08930778503418,
        "centerType": "Center",
        "width": 53.79704284667969,
        "length": 39.17313766479492
    },
    "BigWorld_-2_5_QZ_A_003_Inside_Ve": {
        "$type": "ConfigShapeRect",
        "useHeight": true,
        "height": 10.915023803710938,
        "centerType": "Center",
        "width": 19.508787155151367,
        "length": 18.736942291259766
    },
    "BigWorld_-2_5_QZ_A_004_Inside_Ve": {
        "$type": "ConfigShapeRect",
        "useHeight": true,
        "height": 17.122203826904297,
        "centerType": "Center",
        "width": 14.343993186950684,
        "length": 14.435473442077637
    },
    "BigWorld_-2_5_QZ_A_005_Inside_Ve": {
        "$type": "ConfigShapeRect",
        "useHeight": true,
        "height": 19.685714721679688,
        "centerType": "Center",
        "width": 25.98295021057129,
        "length": 3.982381820678711
    },
    "BigWorld_-2_5_QZ_A_010_Inside_Ve": {
        "$type": "ConfigShapeRect",
        "useHeight": true,
        "height": 59.034603118896484,
        "centerType": "Center",
        "width": 74.7196044921875,
        "length": 83.943359375
    },
    "BigWorld_-2_5_QZ_B_001_Inside_Ve": {
        "$type": "ConfigShapeRect",
        "useHeight": true,
        "height": 32.561283111572266,
        "centerType": "Center",
        "width": 36.030277252197266,
        "length": 45.53628158569336
    },
    "BigWorld_-2_5_QZ_B_002_Inside_Ve": {
        "$type": "ConfigShapeRect",
        "useHeight": true,
        "height": 15.829500198364258,
        "centerType": "Center",
        "width": 13.961129188537598,
        "length": 15.435239791870117
    },
    "BigWorld_-2_5_QZ_B_013_Inside_Ve": {
        "$type": "ConfigShapeRect",
        "useHeight": true,
        "height": 40.34132385253906,
        "centerType": "Center",
        "width": 66.9173583984375,
        "length": 95.2412109375
    },
    "BigWorld_-2_5_QZ_B_014_Inside_Ve": {
        "$type": "ConfigShapeRect",
        "useHeight": true,
        "height": 33.90883255004883,
        "centerType": "Center",
        "width": 18.084781646728516,
        "length": 10.031766891479492
    },
    "BigWorld_-2_5_QZ03_D_Entrance_Inside_Ve": {
        "$type": "ConfigShapeRect",
        "useHeight": true,
        "height": 12.605644226074219,
        "centerType": "Center",
        "width": 100.9034423828125,
        "length": 35.2939453125
    },
    "BigWorld_-2_5_QZ03_D_Inside_Ve": {
        "$type": "ConfigShapeRect",
        "useHeight": true,
        "height": 43.84617614746094,
        "centerType": "Center",
        "width": 101.86480712890625,
        "length": 89.15422058105469
    },
    "BigWorld_-2_5_QZ03_U_Inside_Ve": {
        "$type": "ConfigShapePolygon",
        "polygonConfigPath": "BigWorld_-2_5_QZ03_U_Inside_Ve"
    },
    "BigWorld_-2_5_QZ03_U_02_Inside_Ve": {
        "$type": "ConfigShapePolygon",
        "polygonConfigPath": "BigWorld_-2_5_QZ03_U_02_Inside_Ve"
    },
    "BigWorld_-2_5_QZ03_U_03_Inside_Ve": {
        "$type": "ConfigShapePolygon",
        "polygonConfigPath": "BigWorld_-2_5_QZ03_U_03_Inside_Ve"
    },
    "BigWorld_-2_5_SMQSZ_01_Outside_Vs": {
        "$type": "ConfigShapeRect",
        "useHeight": true,
        "height": 232.29412841796875,
        "centerType": "Center",
        "width": 141.0645751953125,
        "length": 158.1162109375
    },
    "BigWorld_-2_5_SMQSZ_02_Outside_Vs": {
        "$type": "ConfigShapeRect",
        "useHeight": true,
        "height": 100.58220672607422,
        "centerType": "Center",
        "width": 203.580078125,
        "length": 128.25537109375
    },
    "BigWorld_-2_5_SZQP_Inside_Vd": {
        "$type": "ConfigShapePolygon",
        "polygonConfigPath": "BigWorld_-2_5_SZQP_Inside_Vd"
    },
    "BigWorld_-2_5_SZQP_Outside_Vd": {
        "$type": "ConfigShapePolygon",
        "polygonConfigPath": "BigWorld_-2_5_SZQP_Outside_Vd"
    },
    "BigWorld_-2_5_XJZT02_D_Inside_Ve": {
        "$type": "ConfigShapeRect",
        "useHeight": true,
        "height": 27.442415237426758,
        "centerType": "Center",
        "width": 55.353515625,
        "length": 96.0185546875
    },
    "BigWorld_-2_5_XJZT02_U_Inside_Ve": {
        "$type": "ConfigShapeRect",
        "useHeight": true,
        "height": 27.585037231445312,
        "centerType": "Center",
        "width": 56.424072265625,
        "length": 59.765625
    },
    "BigWorld_-2_5_XJZT02_Entrance_Inside_Ve": {
        "$type": "ConfigShapeRect",
        "useHeight": true,
        "height": 15.961631774902344,
        "centerType": "Center",
        "width": 34.4739990234375,
        "length": 33.1357421875
    },
    "BigWorld_-2_5_XJZT03_01_Inside_Vgm": {
        "$type": "ConfigShapeRect",
        "useHeight": true,
        "height": 32.75358581542969,
        "centerType": "Center",
        "width": 52.6246337890625,
        "length": 137.82177734375
    },
    "BigWorld_-2_5_XJZT03_02_Inside_Vgm": {
        "$type": "ConfigShapeRect",
        "useHeight": true,
        "height": 32.2030029296875,
        "centerType": "Center",
        "width": 35.121337890625,
        "length": 47.33642578125
    },
    "BigWorld_-2_5_SandRuins_Hall_Inside_Ve": {
        "$type": "ConfigShapeRect",
        "useHeight": true,
        "height": 86.8460464477539,
        "centerType": "Center",
        "width": 146.33462524414062,
        "length": 143.49728393554688
    },
    "BigWorld_-2_5_Xm_SandRuins_01_Inside_Ve": {
        "$type": "ConfigShapeRect",
        "useHeight": true,
        "height": 45.655574798583984,
        "centerType": "Center",
        "width": 128.19163513183594,
        "length": 73.86366271972656
    },
    "BigWorld_-2_5_Xm_SandRuins_02_Inside_Ve": {
        "$type": "ConfigShapeRect",
        "useHeight": true,
        "height": 34.724647521972656,
        "centerType": "Center",
        "width": 15.742598533630371,
        "length": 39.55494689941406
    },
    "BigWorld_-2_5_Xm_SandRuins_03_Inside_Ve": {
        "$type": "ConfigShapeRect",
        "useHeight": true,
        "height": 33.427268981933594,
        "centerType": "Center",
        "width": 66.5090560913086,
        "length": 67.65508270263672
    },
    "BigWorld_-2_5_SandRuins_Ruin01_Inside_Ve": {
        "$type": "ConfigShapeRect",
        "useHeight": true,
        "height": 50.854759216308594,
        "centerType": "Center",
        "width": 174.296142578125,
        "length": 114.19140625
    },
    "BigWorld_-2_5_SandRuins_Ruin02_Inside_Ve": {
        "$type": "ConfigShapeRect",
        "useHeight": true,
        "height": 28.714736938476562,
        "centerType": "Center",
        "width": 110.97505950927734,
        "length": 84.7203140258789
    },
    "BigWorld_-2_5_SandRuins_Ruin03_Inside_Ve": {
        "$type": "ConfigShapeRect",
        "useHeight": true,
        "height": 8.711959838867188,
        "centerType": "Center",
        "width": 67.82758331298828,
        "length": 108.3327865600586
    },
    "BigWorld_-2_5_SandRuins_Ruin04_Inside_Ve": {
        "$type": "ConfigShapeRect",
        "useHeight": true,
        "height": 42.762062072753906,
        "centerType": "Center",
        "width": 26.816417694091797,
        "length": 36.174537658691406
    },
    "BigWorld_-2_5_SandRuins_Water01_Inside_Ve": {
        "$type": "ConfigShapeRect",
        "useHeight": true,
        "height": 49.918983459472656,
        "centerType": "Center",
        "width": 175.4706268310547,
        "length": 67.10921478271484
    },
    "BigWorld_-2_5_SandRuins_Water02_Inside_Ve": {
        "$type": "ConfigShapeRect",
        "useHeight": true,
        "height": 24.129802703857422,
        "centerType": "Center",
        "width": 22.50141716003418,
        "length": 16.60205078125
    },
    "BigWorld_-2_5_SandRuins_Water03_Inside_Ve": {
        "$type": "ConfigShapeRect",
        "useHeight": true,
        "height": 20.399927139282227,
        "centerType": "Center",
        "width": 30.82271385192871,
        "length": 26.018739700317383
    },
    "BigWorld_-2_5_SandRuins_Water04_Inside_Ve": {
        "$type": "ConfigShapeRect",
        "useHeight": true,
        "height": 32.779632568359375,
        "centerType": "Center",
        "width": 64.09288024902344,
        "length": 20.725448608398438
    },
    "BigWorld_-2_5_Yiji01_Inside_Ve": {
        "$type": "ConfigShapeRect",
        "useHeight": true,
        "height": 11.656932830810547,
        "centerType": "Center",
        "width": 28.695964813232422,
        "length": 18.809139251708984
    },
    "BigWorld_-2_5_Yiji02_Inside_Ve": {
        "$type": "ConfigShapeRect",
        "useHeight": true,
        "height": 9.673072814941406,
        "centerType": "Center",
        "width": 8.85057258605957,
        "length": 10.0
    }
}