{
    "DAPLEKMCBMB": [
        {
            "name": "Character_Ningguang_Q_Golden",
            "IOMFAGOGAAJ": [
                {
                    "PIBJPDLMPKJ": 1.7999999523162842,
                    "actionGroups": [
                        {
                            "actions": [
                                {
                                    "$type": "GcgBehaviourSwitchGoldenLoopEffect",
                                    "KEACJLNKCHK": {
                                        "target": "Actor"
                                    }
                                },
                                {
                                    "$type": "GcgBehaviourSwitchOnCardLoopEffect",
                                    "KEACJLNKCHK": {
                                        "target": "Actor"
                                    }
                                },
                                {
                                    "$type": "GcgBehaviourTriggerSpineAttack",
                                    "KEACJLNKCHK": {
                                        "target": "Actor"
                                    }
                                },
                                {
                                    "$type": "GcgBehaviourFireEffect",
                                    "KEACJLNKCHK": {
                                        "target": "Actor"
                                    },
                                    "effectName": "Eff_Gcg_Avatar_Ningguang_ElementalBurst_Spine",
                                    "ODHIEKLBPFL": true,
                                    "KOGELNIBFMB": "",
                                    "GGPHPGIOHIC": "",
                                    "BFEBMINFJID": {
                                        "$type": "GcgBornRotationFollow"
                                    }
                                }
                            ]
                        }
                    ]
                },
                {
                    "PIBJPDLMPKJ": 1.0,
                    "actionGroups": [
                        {
                            "actions": [
                                {
                                    "$type": "GcgBehaviourFireEffect",
                                    "KEACJLNKCHK": {
                                        "target": "Actor"
                                    },
                                    "effectName": "Eff_Gcg_Avatar_Ningguang_ElementalBurst_BS",
                                    "KOGELNIBFMB": "",
                                    "GGPHPGIOHIC": "",
                                    "BFEBMINFJID": {
                                        "$type": "GcgBornRotationFollow"
                                    }
                                }
                            ]
                        }
                    ]
                },
                {
                    "PIBJPDLMPKJ": 0.10000000149011612,
                    "actionGroups": [
                        {
                            "actions": [
                                {
                                    "$type": "GcgBehaviourFireEffectBullet",
                                    "effectName": "Eff_Gcg_Avatar_Ningguang_ElementalBurst_Yellow",
                                    "IKMFOLAIPCF": true,
                                    "GBFHLLMDNDM": {
                                        "target": "Actor"
                                    },
                                    "IFEOMJOIGAL": {
                                        "target": "MainTarget"
                                    },
                                    "BFEBMINFJID": {
                                        "$type": "GcgBornRotationLookAtTarget",
                                        "KEACJLNKCHK": {
                                            "target": "MainTarget"
                                        }
                                    },
                                    "HNJEJJMBDHO": {
                                        "x": 1.0,
                                        "y": 0.6000000238418579,
                                        "z": 0.4000000059604645
                                    },
                                    "DPLGBNHILIE": "Eff_Gcg_Motion_Avatar_Ningguang_ElementBurst_01",
                                    "IOOMGNCKOAD": "Eff_Gcg_Motion_Avatar_Ningguang_ElementBurst_04",
                                    "JDGHDEKLCPG": [
                                        {
                                            "$type": "GcgBehaviourEventDestroy",
                                            "LPDGLAMNADD": "OnHit"
                                        }
                                    ]
                                }
                            ]
                        }
                    ]
                },
                {
                    "PIBJPDLMPKJ": 0.10000000149011612,
                    "actionGroups": [
                        {
                            "actions": [
                                {
                                    "$type": "GcgBehaviourFireEffectBullet",
                                    "effectName": "Eff_Gcg_Avatar_Ningguang_ElementalBurst_Orange",
                                    "IKMFOLAIPCF": true,
                                    "GBFHLLMDNDM": {
                                        "target": "Actor"
                                    },
                                    "IFEOMJOIGAL": {
                                        "target": "MainTarget"
                                    },
                                    "BFEBMINFJID": {
                                        "$type": "GcgBornRotationLookAtTarget",
                                        "KEACJLNKCHK": {
                                            "target": "MainTarget"
                                        }
                                    },
                                    "HNJEJJMBDHO": {
                                        "y": 0.4000000059604645,
                                        "z": 1.0
                                    },
                                    "DPLGBNHILIE": "Eff_Gcg_Motion_Avatar_Ningguang_ElementBurst_02",
                                    "IOOMGNCKOAD": "Eff_Gcg_Motion_Avatar_Ningguang_ElementBurst_05",
                                    "JDGHDEKLCPG": [
                                        {
                                            "$type": "GcgBehaviourEventDestroy",
                                            "LPDGLAMNADD": "OnHit"
                                        }
                                    ]
                                }
                            ]
                        }
                    ]
                },
                {
                    "PIBJPDLMPKJ": 0.5,
                    "actionGroups": [
                        {
                            "actions": [
                                {
                                    "$type": "GcgBehaviourFireEffectBullet",
                                    "effectName": "Eff_Gcg_Avatar_Ningguang_ElementalBurst_Red",
                                    "IKMFOLAIPCF": true,
                                    "GBFHLLMDNDM": {
                                        "target": "Actor"
                                    },
                                    "IFEOMJOIGAL": {
                                        "target": "MainTarget"
                                    },
                                    "BFEBMINFJID": {
                                        "$type": "GcgBornRotationLookAtTarget",
                                        "KEACJLNKCHK": {
                                            "target": "MainTarget"
                                        }
                                    },
                                    "HNJEJJMBDHO": {
                                        "x": -1.0,
                                        "y": 0.4000000059604645,
                                        "z": 0.30000001192092896
                                    },
                                    "DPLGBNHILIE": "Eff_Gcg_Motion_Avatar_Ningguang_ElementBurst_03",
                                    "IOOMGNCKOAD": "Eff_Gcg_Motion_Avatar_Ningguang_ElementBurst_06",
                                    "JDGHDEKLCPG": [
                                        {
                                            "$type": "GcgBehaviourEventDestroy",
                                            "LPDGLAMNADD": "OnHit"
                                        }
                                    ]
                                }
                            ]
                        }
                    ]
                },
                {
                    "PIBJPDLMPKJ": 0.800000011920929,
                    "actionGroups": [
                        {
                            "actions": [
                                {
                                    "$type": "GcgBehaviourFireEffect",
                                    "KEACJLNKCHK": {
                                        "target": "MainTarget"
                                    },
                                    "effectName": "Eff_Gcg_Avatar_Ningguang_ElementalBurst_Hit",
                                    "HNJEJJMBDHO": {
                                        "y": 1.0
                                    },
                                    "KOGELNIBFMB": "",
                                    "GGPHPGIOHIC": "",
                                    "BFEBMINFJID": {
                                        "$type": "GcgBornRotationFollow"
                                    }
                                },
                                {
                                    "$type": "GcgBehaviourTriggerAttack",
                                    "KEACJLNKCHK": {
                                        "target": "MainTarget"
                                    }
                                },
                                {
                                    "$type": "GcgBehaviourShakeScreen",
                                    "KEACJLNKCHK": {
                                        "target": "MainTarget"
                                    },
                                    "FONIHNAMJML": "Common_ShakeScreen_Test_Q"
                                },
                                {
                                    "$type": "GcgBehaviourRunMoveScript",
                                    "DPLGBNHILIE": "GcgMotion_Hit04_02",
                                    "IOOMGNCKOAD": "",
                                    "JOLPHOFCPAK": {
                                        "target": "MainTarget"
                                    },
                                    "KEACJLNKCHK": {
                                        "target": "Actor"
                                    },
                                    "GNDGFAABMPL": true
                                }
                            ]
                        }
                    ]
                },
                {
                    "PIBJPDLMPKJ": 0.029999999329447746,
                    "actionGroups": [
                        {
                            "actions": [
                                {
                                    "$type": "GcgBehaviourFireEffect",
                                    "KEACJLNKCHK": {
                                        "target": "Actor"
                                    },
                                    "effectName": "Eff_Gcg_Common_Spine_ReturnToLoop",
                                    "ODHIEKLBPFL": true,
                                    "KOGELNIBFMB": "",
                                    "GGPHPGIOHIC": "",
                                    "BFEBMINFJID": {
                                        "$type": "GcgBornRotationFollow"
                                    }
                                }
                            ]
                        }
                    ]
                },
                {
                    "actionGroups": [
                        {
                            "actions": [
                                {
                                    "$type": "GcgBehaviourSwitchGoldenLoopEffect",
                                    "KEACJLNKCHK": {
                                        "target": "Actor"
                                    },
                                    "GFKOKIKOMNA": true
                                },
                                {
                                    "$type": "GcgBehaviourSwitchOnCardLoopEffect",
                                    "KEACJLNKCHK": {
                                        "target": "Actor"
                                    },
                                    "GFKOKIKOMNA": true
                                }
                            ]
                        }
                    ]
                }
            ]
        }
    ]
}