{
    "BigWorld_-1_5_BNS01_Inside_Ve": {
        "$type": "ConfigShapeRect",
        "useHeight": true,
        "height": 11.26739501953125,
        "centerType": "Center",
        "width": 15.239200592041016,
        "length": 20.81006622314453
    },
    "BigWorld_-1_5_BNS02_Inside_Ve": {
        "$type": "ConfigShapeRect",
        "useHeight": true,
        "height": 11.177734375,
        "centerType": "Center",
        "width": 20.680566787719727,
        "length": 20.014785766601562
    },
    "BigWorld_-1_5_BNS03_Inside_Ve": {
        "$type": "ConfigShapeRect",
        "useHeight": true,
        "height": 15.480865478515625,
        "centerType": "Center",
        "width": 12.179224967956543,
        "length": 10.891979217529297
    },
    "BigWorld_-1_5_BNS04_Inside_Ve": {
        "$type": "ConfigShapeRect",
        "useHeight": true,
        "height": 11.155410766601562,
        "centerType": "Center",
        "width": 14.687761306762695,
        "length": 18.90481948852539
    },
    "BigWorld_-1_5_BNS05_Inside_Ve": {
        "$type": "ConfigShapeRect",
        "useHeight": true,
        "height": 15.136451721191406,
        "centerType": "Center",
        "width": 19.30670738220215,
        "length": 12.600434303283691
    },
    "BigWorld_-1_5_ChiWangCave02_In_Inside_Ve": {
        "$type": "ConfigShapeRect",
        "useHeight": true,
        "height": 82.10240173339844,
        "centerType": "Center",
        "width": 117.47666931152344,
        "length": 65.91259002685547
    },
    "BigWorld_-1_5_Cup01_Inside_Ve": {
        "$type": "ConfigShapeRect",
        "useHeight": true,
        "height": 23.597929000854492,
        "centerType": "Center",
        "width": 43.12861251831055,
        "length": 22.286598205566406
    },
    "BigWorld_-1_5_cup02_Inside_Ve": {
        "$type": "ConfigShapeRect",
        "useHeight": true,
        "height": 27.92724609375,
        "centerType": "Center",
        "width": 20.532852172851562,
        "length": 28.829349517822266
    },
    "BigWorld_-1_5_cup03_Inside_Ve": {
        "$type": "ConfigShapeRect",
        "useHeight": true,
        "height": 23.40216636657715,
        "centerType": "Center",
        "width": 20.39830780029297,
        "length": 21.118276596069336
    },
    "BigWorld_-1_5_CLD_01_Inside_Vs": {
        "$type": "ConfigShapeRect",
        "useHeight": true,
        "height": 149.3533935546875,
        "centerType": "Center",
        "width": 285.6378173828125,
        "length": 135.81100463867188
    },
    "BigWorld_-1_5_CLD_02_Inside_Vs": {
        "$type": "ConfigShapeRect",
        "useHeight": true,
        "height": 162.31918334960938,
        "centerType": "Center",
        "width": 181.5129852294922,
        "length": 175.09210205078125
    },
    "BigWorld_-1_5_CLD_01_Outside_Vs": {
        "$type": "ConfigShapeRect",
        "useHeight": true,
        "height": 73.206298828125,
        "centerType": "Center",
        "width": 421.658203125,
        "length": 423.8023376464844
    },
    "BigWorld_-1_5_CLD_02_Outside_Vs": {
        "$type": "ConfigShapeRect",
        "useHeight": true,
        "height": 218.5386199951172,
        "centerType": "Center",
        "width": 178.48570251464844,
        "length": 178.48570251464844
    },
    "BigWorld_-1_5_CLD_03_Outside_Vs": {
        "$type": "ConfigShapeRect",
        "useHeight": true,
        "height": 143.6255340576172,
        "centerType": "Center",
        "width": 186.1336212158203,
        "length": 392.499267578125
    },
    "BigWorld_-1_5_CLD_04_Outside_Vs": {
        "$type": "ConfigShapeRect",
        "useHeight": true,
        "height": 143.6255340576172,
        "centerType": "Center",
        "width": 217.73362731933594,
        "length": 392.499267578125
    },
    "BigWorld_-1_5_CLD_05_Outside_Vs": {
        "$type": "ConfigShapeRect",
        "useHeight": true,
        "height": 162.9964599609375,
        "centerType": "Center",
        "width": 113.91830444335938,
        "length": 100.0
    },
    "BigWorld_-1_5_CSD_01_Inside_Vs": {
        "$type": "ConfigShapeRect",
        "useHeight": true,
        "height": 178.60223388671875,
        "centerType": "Center",
        "width": 423.57659912109375,
        "length": 482.6728515625
    },
    "BigWorld_-1_5_CSD_02_Inside_Vs": {
        "$type": "ConfigShapeRect",
        "useHeight": true,
        "height": 97.67530059814453,
        "centerType": "Center",
        "width": 131.73651123046875,
        "length": 231.5234375
    },
    "BigWorld_-1_5_CSD_01_Outside_Vs": {
        "$type": "ConfigShapeRect",
        "useHeight": true,
        "height": 279.3537902832031,
        "centerType": "Center",
        "width": 445.02716064453125,
        "length": 521.031982421875
    },
    "BigWorld_-1_5_CSD_02_Outside_Vs": {
        "$type": "ConfigShapeRect",
        "useHeight": true,
        "height": 115.378662109375,
        "centerType": "Center",
        "width": 120.1815185546875,
        "length": 256.716796875
    },
    "BigWorld_-1_5_CWD_01_Inside_Vs": {
        "$type": "ConfigShapeCircle",
        "useHeight": true,
        "height": 283.3277893066406,
        "radius": 232.88905334472656
    },
    "BigWorld_-1_5_CWD_01_Outside_Vs": {
        "$type": "ConfigShapeRect",
        "useHeight": true,
        "height": 435.96917724609375,
        "centerType": "Center",
        "width": 818.5406494140625,
        "length": 751.2349243164062
    },
    "BigWorld_-1_5_CWD_02_Outside_Vs": {
        "$type": "ConfigShapeRect",
        "useHeight": true,
        "height": 66.16775512695312,
        "centerType": "Center",
        "width": 70.92578125,
        "length": 100.0
    },
    "BigWorld_-1_5_CWD_03_Outside_Vs": {
        "$type": "ConfigShapeRect",
        "useHeight": true,
        "height": 132.072021484375,
        "centerType": "Center",
        "width": 111.91845703125,
        "length": 141.73876953125
    },
    "BigWorld_-1_5_CWD_04_Outside_Vs": {
        "$type": "ConfigShapeRect",
        "useHeight": true,
        "height": 43.98390197753906,
        "centerType": "Center",
        "width": 87.16583251953125,
        "length": 40.41162109375
    },
    "BigWorld_-1_5_CWD_05_Outside_Vs": {
        "$type": "ConfigShapeRect",
        "useHeight": true,
        "height": 145.6234130859375,
        "centerType": "Center",
        "width": 152.01480102539062,
        "length": 169.591796875
    },
    "BigWorld_-1_5_GrsssDragon_gd02_01_Inside_Ve": {
        "$type": "ConfigShapeRect",
        "useHeight": true,
        "height": 80.95614624023438,
        "centerType": "Center",
        "width": 83.87442016601562,
        "length": 66.87158203125
    },
    "BigWorld_-1_5_GrassDrasgon_gd_01_Inside_Ve": {
        "$type": "ConfigShapeRect",
        "useHeight": true,
        "height": 47.086456298828125,
        "centerType": "Center",
        "width": 78.98968505859375,
        "length": 63.63818359375
    },
    "BigWorld_-1_5_NSD_01_Inside_Vs": {
        "$type": "ConfigShapeRect",
        "useHeight": true,
        "height": 282.81854248046875,
        "centerType": "Center",
        "width": 350.18603515625,
        "length": 301.09417724609375
    },
    "BigWorld_-1_5_NSD_02_Inside_Vs": {
        "$type": "ConfigShapeRect",
        "useHeight": true,
        "height": 146.30877685546875,
        "centerType": "Center",
        "width": 128.73696899414062,
        "length": 290.25091552734375
    },
    "BigWorld_-1_5_NSD_03_Inside_Vs": {
        "$type": "ConfigShapeRect",
        "useHeight": true,
        "height": 130.2715301513672,
        "centerType": "Center",
        "width": 151.33633422851562,
        "length": 109.06097412109375
    },
    "BigWorld_-1_5_NSD_04_Inside_Vs": {
        "$type": "ConfigShapeRect",
        "useHeight": true,
        "height": 133.37567138671875,
        "centerType": "Center",
        "width": 260.2579345703125,
        "length": 260.33392333984375
    },
    "BigWorld_-1_5_NSD_01_Outside_Vs": {
        "$type": "ConfigShapeRect",
        "useHeight": true,
        "height": 311.19696044921875,
        "centerType": "Center",
        "width": 411.175537109375,
        "length": 594.1229858398438
    },
    "BigWorld_-1_5_NSD_02_Outside_Vs": {
        "$type": "ConfigShapeRect",
        "useHeight": true,
        "height": 294.8429260253906,
        "centerType": "Center",
        "width": 261.4867858886719,
        "length": 272.34716796875
    },
    "BigWorld_-1_5_NSD_03_Outside_Vs": {
        "$type": "ConfigShapeRect",
        "useHeight": true,
        "height": 164.63845825195312,
        "centerType": "Center",
        "width": 275.5295715332031,
        "length": 534.7454833984375
    },
    "BigWorld_-1_5_Oasis_01_Inside_Vs": {
        "$type": "ConfigShapeRect",
        "useHeight": true,
        "height": 398.28692626953125,
        "centerType": "Center",
        "width": 710.3045654296875,
        "length": 855.2752075195312
    },
    "BigWorld_-1_5_Oasis_01_Outside_Vs": {
        "$type": "ConfigShapeRect",
        "useHeight": true,
        "height": 482.0220947265625,
        "centerType": "Center",
        "width": 1082.21826171875,
        "length": 1450.5048828125
    },
    "BigWorld_-1_5_Oasis_02_Outside_Vs": {
        "$type": "ConfigShapeRect",
        "useHeight": true,
        "height": 443.119873046875,
        "centerType": "Center",
        "width": 540.7882690429688,
        "length": 507.55377197265625
    },
    "BigWorld_-1_5_ArmB_01_Inside_Ve": {
        "$type": "ConfigShapeCylinder",
        "useHeight": true,
        "height": 45.82630920410156,
        "radius": 6.870853900909424
    },
    "BigWorld_-1_5_ArmB_02_Inside_Ve": {
        "$type": "ConfigShapeCylinder",
        "useHeight": true,
        "height": 77.01689147949219,
        "radius": 9.29393482208252
    },
    "BigWorld_-1_5_ArmB_03_Inside_Ve": {
        "$type": "ConfigShapeSphere",
        "radius": 12.116521835327148
    },
    "BigWorld_-1_5_ArmB_04_Inside_Ve": {
        "$type": "ConfigShapeCylinder",
        "useHeight": true,
        "height": 1.9714813232421875,
        "radius": 10.969940185546875
    },
    "BigWorld_-1_5_ArmB_05_Inside_Ve": {
        "$type": "ConfigShapeSphere",
        "radius": 10.15005874633789
    },
    "BigWorld_-1_5_ArmB_07_Inside_Ve": {
        "$type": "ConfigShapeCylinder",
        "useHeight": true,
        "height": 41.86399459838867,
        "radius": 8.833222389221191
    },
    "BigWorld_-1_5_ArmB_08_Inside_Ve": {
        "$type": "ConfigShapeCylinder",
        "useHeight": true,
        "height": 16.358890533447266,
        "radius": 6.263021945953369
    },
    "BigWorld_-1_5_RobotB_01_Inside_Ve": {
        "$type": "ConfigShapeSphere",
        "radius": 41.7650032043457
    },
    "BigWorld_-1_5_RobotB_02_Inside_Ve": {
        "$type": "ConfigShapeSphere",
        "radius": 43.99999237060547
    },
    "BigWorld_-1_5_RobotB_03_Inside_Ve": {
        "$type": "ConfigShapeSphere",
        "radius": 43.25
    },
    "BigWorld_-1_5_RobotB_04_Inside_Ve": {
        "$type": "ConfigShapeCylinder",
        "useHeight": true,
        "height": 10.763172149658203,
        "radius": 7.246704578399658
    },
    "BigWorld_-1_5_RobotB_05_Inside_Ve": {
        "$type": "ConfigShapeCylinder",
        "useHeight": true,
        "height": 10.889328002929688,
        "radius": 7.932555198669434
    },
    "BigWorld_-1_5_RobotB_06_Inside_Ve": {
        "$type": "ConfigShapeSphere",
        "radius": 27.851072311401367
    },
    "BigWorld_-1_5_RobotB_07_Inside_Ve": {
        "$type": "ConfigShapeSphere",
        "radius": 8.532357215881348
    },
    "BigWorld_-1_5_RobotB_08_Inside_Ve": {
        "$type": "ConfigShapeSphere",
        "radius": 10.300002098083496
    },
    "BigWorld_-1_5_armC_01_Inside_Ve": {
        "$type": "ConfigShapeCylinder",
        "useHeight": true,
        "height": 45.82630920410156,
        "radius": 6.870853900909424
    },
    "BigWorld_-1_5_armC_02_Inside_Ve": {
        "$type": "ConfigShapeCylinder",
        "useHeight": true,
        "height": 77.01689147949219,
        "radius": 9.29393482208252
    },
    "BigWorld_-1_5_armC_03_Inside_Ve": {
        "$type": "ConfigShapeSphere",
        "radius": 12.116521835327148
    },
    "BigWorld_-1_5_armC_04_Inside_Ve": {
        "$type": "ConfigShapeCylinder",
        "useHeight": true,
        "height": 2.541433095932007,
        "radius": 10.969940185546875
    },
    "BigWorld_-1_5_armC_05_Inside_Ve": {
        "$type": "ConfigShapeSphere",
        "radius": 10.15005874633789
    },
    "BigWorld_-1_5_armC_07_Inside_Ve": {
        "$type": "ConfigShapeCylinder",
        "useHeight": true,
        "height": 41.17037582397461,
        "radius": 8.833222389221191
    },
    "BigWorld_-1_5_armC_08_Inside_Ve": {
        "$type": "ConfigShapeCylinder",
        "useHeight": true,
        "height": 16.358890533447266,
        "radius": 6.263021945953369
    },
    "BigWorld_-1_5_RobotC_01_Inside_Ve": {
        "$type": "ConfigShapeSphere",
        "radius": 41.76499938964844
    },
    "BigWorld_-1_5_RobotC_02_Inside_Ve": {
        "$type": "ConfigShapeSphere",
        "radius": 44.0
    },
    "BigWorld_-1_5_RobotC_03_Inside_Ve": {
        "$type": "ConfigShapeSphere",
        "radius": 43.250003814697266
    },
    "BigWorld_-1_5_RobotC_04_Inside_Ve": {
        "$type": "ConfigShapeCylinder",
        "useHeight": true,
        "height": 10.76317024230957,
        "radius": 7.246701717376709
    },
    "BigWorld_-1_5_RobotC_05_Inside_Ve": {
        "$type": "ConfigShapeCylinder",
        "useHeight": true,
        "height": 10.889322280883789,
        "radius": 7.93255090713501
    },
    "BigWorld_-1_5_RobotC_In_Inside_Ve": {
        "$type": "ConfigShapeSphere",
        "radius": 27.851072311401367
    },
    "BigWorld_-1_5_RobotC_Room01_Inside_Ve": {
        "$type": "ConfigShapeSphere",
        "radius": 8.532357215881348
    },
    "BigWorld_-1_5_RobotC_Room02_Inside_Ve": {
        "$type": "ConfigShapeSphere",
        "radius": 10.30000114440918
    },
    "BigWorld_-1_5_RobotC_In02_Inside_Ve": {
        "$type": "ConfigShapeSphere",
        "radius": 27.851072311401367
    },
    "BigWorld_-1_5_armD_01_Inside_Ve": {
        "$type": "ConfigShapeCylinder",
        "useHeight": true,
        "height": 42.61322021484375,
        "radius": 6.755059242248535
    },
    "BigWorld_-1_5_armD_02_Inside_Ve": {
        "$type": "ConfigShapeCylinder",
        "useHeight": true,
        "height": 82.05094146728516,
        "radius": 9.293935775756836
    },
    "BigWorld_-1_5_armD_03_Inside_Ve": {
        "$type": "ConfigShapeSphere",
        "radius": 11.781464576721191
    },
    "BigWorld_-1_5_armD_04_Inside_Ve": {
        "$type": "ConfigShapeCylinder",
        "useHeight": true,
        "height": 1.9714841842651367,
        "radius": 10.969949722290039
    },
    "BigWorld_-1_5_armD_05_Inside_Ve": {
        "$type": "ConfigShapeSphere",
        "radius": 10.150056838989258
    },
    "BigWorld_-1_5_armD_06_Inside_Ve": {
        "$type": "ConfigShapeCylinder",
        "useHeight": true,
        "height": 13.13076114654541,
        "radius": 7.225323677062988
    },
    "BigWorld_-1_5_armD_07_Inside_Ve": {
        "$type": "ConfigShapeCylinder",
        "useHeight": true,
        "height": 31.525663375854492,
        "radius": 8.833220481872559
    },
    "BigWorld_-1_5_RobotD_01_Inside_Ve": {
        "$type": "ConfigShapeSphere",
        "radius": 41.76500701904297
    },
    "BigWorld_-1_5_RobotD_02_Inside_Ve": {
        "$type": "ConfigShapeSphere",
        "radius": 44.00001525878906
    },
    "BigWorld_-1_5_RobotD_03_Inside_Ve": {
        "$type": "ConfigShapeSphere",
        "radius": 43.25001525878906
    },
    "BigWorld_-1_5_RobotD_04_Inside_Ve": {
        "$type": "ConfigShapeSphere",
        "radius": 25.682209014892578
    },
    "BigWorld_-1_5_RobotD_05_Inside_Ve": {
        "$type": "ConfigShapeCylinder",
        "useHeight": true,
        "height": 10.763176918029785,
        "radius": 7.246706962585449
    },
    "BigWorld_-1_5_RobotD_06_Inside_Ve": {
        "$type": "ConfigShapeCylinder",
        "useHeight": true,
        "height": 10.84748649597168,
        "radius": 7.932551383972168
    },
    "BigWorld_-1_5_RobotD_In01_Inside_Ve": {
        "$type": "ConfigShapeSphere",
        "radius": 27.851078033447266
    },
    "BigWorld_-1_5_RobotD_In01a_Inside_Ve": {
        "$type": "ConfigShapeCube",
        "useHeight": true,
        "height": 10.649553298950195,
        "width": 10.0,
        "length": 15.082864761352539
    },
    "BigWorld_-1_5_RobotD_In01b_Inside_Ve": {
        "$type": "ConfigShapeCube",
        "useHeight": true,
        "height": 8.916524887084961,
        "width": 10.0,
        "length": 5.517445087432861
    },
    "BigWorld_-1_5_RobotD_room01_Inside_Ve": {
        "$type": "ConfigShapeSphere",
        "radius": 8.786032676696777
    },
    "BigWorld_-1_5_RobotD_room02_Inside_Ve": {
        "$type": "ConfigShapeSphere",
        "radius": 10.300004005432129
    },
    "BigWorld_-1_5_RobotD_bu01_Inside_Ve": {
        "$type": "ConfigShapeCube",
        "useHeight": true,
        "height": 10.0,
        "width": 10.0,
        "length": 10.0
    },
    "BigWorld_-1_5_RobotD_bu02_Inside_Ve": {
        "$type": "ConfigShapeCube",
        "useHeight": true,
        "height": 24.005882263183594,
        "width": 17.87636375427246,
        "length": 21.11020851135254
    },
    "BigWorld_-1_5_ChiWangCave02_Boss_Inside_Ve": {
        "$type": "ConfigShapeRect",
        "useHeight": true,
        "height": 134.87850952148438,
        "centerType": "Center",
        "width": 151.52110290527344,
        "length": 158.2655029296875
    },
    "BigWorld_-1_5_High_Inside_Ve": {
        "$type": "ConfigShapeRect",
        "useHeight": true,
        "height": 65.56015014648438,
        "centerType": "Center",
        "width": 101.343017578125,
        "length": 152.28797912597656
    },
    "BigWorld_-1_5_RoomA_Inside_Ve": {
        "$type": "ConfigShapeRect",
        "useHeight": true,
        "height": 122.0620346069336,
        "centerType": "Center",
        "width": 73.02760314941406,
        "length": 96.80138397216797
    },
    "BigWorld_-1_5_RoomB_Inside_Ve": {
        "$type": "ConfigShapeRect",
        "useHeight": true,
        "height": 41.741641998291016,
        "centerType": "Center",
        "width": 79.46895599365234,
        "length": 61.75135040283203
    },
    "BigWorld_-1_5_RoomB_02_Inside_Ve": {
        "$type": "ConfigShapeRect",
        "useHeight": true,
        "height": 6.779746055603027,
        "centerType": "Center",
        "width": 6.113754749298096,
        "length": 6.953324794769287
    },
    "BigWorld_-1_5_RoomC_Inside_Ve": {
        "$type": "ConfigShapeRect",
        "useHeight": true,
        "height": 48.888755798339844,
        "centerType": "Center",
        "width": 63.71044921875,
        "length": 68.72802734375
    },
    "BigWorld_-1_5_RoomD_Inside_Ve": {
        "$type": "ConfigShapeRect",
        "useHeight": true,
        "height": 13.554443359375,
        "centerType": "Center",
        "width": 50.995323181152344,
        "length": 72.79810333251953
    },
    "BigWorld_-1_5_RoomE_01_Inside_Ve": {
        "$type": "ConfigShapeRect",
        "useHeight": true,
        "height": 34.33475875854492,
        "centerType": "Center",
        "width": 44.48253631591797,
        "length": 81.09363555908203
    },
    "BigWorld_-1_5_RoomE_02_Inside_Ve": {
        "$type": "ConfigShapeRect",
        "useHeight": true,
        "height": 12.68447494506836,
        "centerType": "Center",
        "width": 34.47197341918945,
        "length": 16.83629035949707
    },
    "BigWorld_-1_5_ChiWangCave02_01_Inside_Ve": {
        "$type": "ConfigShapeRect",
        "useHeight": true,
        "height": 99.42568969726562,
        "centerType": "Center",
        "width": 123.57667541503906,
        "length": 153.868896484375
    },
    "BigWorld_-1_5_ChiWangCave02_02_Inside_Ve": {
        "$type": "ConfigShapeRect",
        "useHeight": true,
        "height": 33.54928207397461,
        "centerType": "Center",
        "width": 105.63233947753906,
        "length": 43.82053756713867
    },
    "BigWorld_-1_5_ChiWangCave02_03_Inside_Ve": {
        "$type": "ConfigShapeRect",
        "useHeight": true,
        "height": 20.045391082763672,
        "centerType": "Center",
        "width": 12.965545654296875,
        "length": 24.08642578125
    },
    "BigWorld_-1_5_ChiWangCave02_04_Inside_Ve": {
        "$type": "ConfigShapeRect",
        "useHeight": true,
        "height": 21.506755828857422,
        "centerType": "Center",
        "width": 19.3886661529541,
        "length": 29.48358154296875
    },
    "BigWorld_-1_5_Xm33_ChiWangCave03_Boss_color_Inside_Ve": {
        "$type": "ConfigShapePolygon",
        "polygonConfigPath": "BigWorld_-1_5_Xm33_ChiWangCave03_Boss_color_Inside_Ve"
    },
    "BigWorld_-1_5_Xm33_ChiWangCave03_Boss_color_02_Inside_Ve": {
        "$type": "ConfigShapePolygon",
        "polygonConfigPath": "BigWorld_-1_5_Xm33_ChiWangCave03_Boss_color_02_Inside_Ve"
    },
    "BigWorld_-1_5_ChiWangCave03_Boss_Inside_Ve": {
        "$type": "ConfigShapePolygon",
        "polygonConfigPath": "BigWorld_-1_5_ChiWangCave03_Boss_Inside_Ve"
    },
    "BigWorld_-1_5_ChiWangCave03_Robot01_Inside_Ve": {
        "$type": "ConfigShapePolygon",
        "polygonConfigPath": "BigWorld_-1_5_ChiWangCave03_Robot01_Inside_Ve"
    },
    "BigWorld_-1_5_ChiWangCave03_Robot02_Inside_Ve": {
        "$type": "ConfigShapePolygon",
        "polygonConfigPath": "BigWorld_-1_5_ChiWangCave03_Robot02_Inside_Ve"
    },
    "BigWorld_-1_5_ChiWangCave03_01_Inside_Ve": {
        "$type": "ConfigShapePolygon",
        "polygonConfigPath": "BigWorld_-1_5_ChiWangCave03_01_Inside_Ve"
    },
    "BigWorld_-1_5_Xm33_EternalOasis_Entrance_Out_Inside_Ve": {
        "$type": "ConfigShapePolygon",
        "polygonConfigPath": "BigWorld_-1_5_Xm33_EternalOasis_Entrance_Out_Inside_Ve"
    },
    "BigWorld_-1_5_Xm33_EternalOasis_Entrance_01_Inside_Ve": {
        "$type": "ConfigShapePolygon",
        "polygonConfigPath": "BigWorld_-1_5_Xm33_EternalOasis_Entrance_01_Inside_Ve"
    }
}