[
    {},
    {},
    {},
    {},
    {},
    {},
    {},
    {
        "GOHAIPPNPCI": 6
    },
    {
        "GOHAIPPNPCI": 10280,
        "ILOAFDPNDLL": {},
        "FOAIFIPECBN": {
            "x": -15.90433120727539,
            "z": 5498.68994140625
        }
    },
    {
        "GOHAIPPNPCI": 67,
        "ILOAFDPNDLL": {
            "x": 13026584.0,
            "y": 1.7017850041156635e-05
        },
        "FOAIFIPECBN": {
            "y": -1.5463913839598397e-28
        }
    },
    {
        "GOHAIPPNPCI": 9029,
        "ILOAFDPNDLL": {
            "x": 0.00013709647464565933,
            "y": -2164.35400390625
        },
        "FIHNEIKKEAI": -17
    },
    {
        "FOAIFIPECBN": {
            "x": -13.870994567871094,
            "z": 5468.95751953125
        },
        "FIHNEIKKEAI": -4
    },
    {
        "GOHAIPPNPCI": 28,
        "ILOAFDPNDLL": {
            "z": 1.785211746516992e+18
        },
        "FOAIFIPECBN": {
            "x": 5477.04248046875
        },
        "FIHNEIKKEAI": -4
    },
    {
        "GOHAIPPNPCI": 3468,
        "ILOAFDPNDLL": {
            "x": -17.786754608154297,
            "z": 5498.99267578125
        }
    }
]