{
    "name": "Char_Skill_11014",
    "LCAAFCBKGHI": {
        "-2060930438": {
            "$type": "GCGDeclaredValueDamage",
            "value": 1
        },
        "476224977": {
            "$type": "GCGDeclaredValueElement",
            "type": "Element",
            "ratio": "GCG_ELEMENT_CRYO"
        },
        "-1131128448": {
            "$type": "GCGDeclaredValueIndirectDamage",
            "type": "IndirectDamage",
            "value": 1
        },
        "1921885736": {
            "$type": "GCGDeclaredValueElement",
            "type": "Element"
        }
    }
}