{
    "sceneId": 40044,
    "monsters": [
        {
            "groupId": 240044001,
            "mapInstId": 1001,
            "aiGroupID": 240044001,
            "aiNeuronSetting": "DefaultSetting",
            "aiSensingTemplate": "DefaultTemplate",
            "NCKMKJMDPDH": ""
        },
        {
            "groupId": 240044001,
            "mapInstId": 1002,
            "aiGroupID": 240044001,
            "aiNeuronSetting": "DefaultSetting",
            "aiSensingTemplate": "DefaultTemplate",
            "forceCombatOnSpawn": true,
            "NCKMKJMDPDH": ""
        }
    ]
}