{
    "sceneId": 9,
    "monsters": [
        {
            "groupId": 199001001,
            "mapInstId": 1010,
            "aiGroupID": 199001001,
            "aiNeuronSetting": "DefaultSetting",
            "aiSensingTemplate": "DefaultTemplate",
            "forceCombatOnSpawn": true,
            "disableWander": true,
            "NCKMKJMDPDH": ""
        },
        {
            "groupId": 199001001,
            "mapInstId": 1012,
            "aiGroupID": 199001001,
            "aiNeuronSetting": "DefaultSetting",
            "aiSensingTemplate": "DefaultTemplate",
            "disableWander": true,
            "NCKMKJMDPDH": ""
        },
        {
            "groupId": 199001001,
            "mapInstId": 1018,
            "aiGroupID": 199001001,
            "aiNeuronSetting": "DefaultSetting",
            "aiSensingTemplate": "DefaultTemplate",
            "forceCombatOnSpawn": true,
            "disableWander": true,
            "NCKMKJMDPDH": ""
        },
        {
            "groupId": 199001001,
            "mapInstId": 1020,
            "aiGroupID": 199001001,
            "aiNeuronSetting": "DefaultSetting",
            "aiSensingTemplate": "DefaultTemplate",
            "forceCombatOnSpawn": true,
            "disableWander": true,
            "NCKMKJMDPDH": ""
        },
        {
            "groupId": 199001001,
            "mapInstId": 1021,
            "aiGroupID": 199001001,
            "aiNeuronSetting": "DefaultSetting",
            "aiSensingTemplate": "DefaultTemplate",
            "forceCombatOnSpawn": true,
            "disableWander": true,
            "NCKMKJMDPDH": ""
        },
        {
            "groupId": 199001001,
            "mapInstId": 1022,
            "aiGroupID": 199001001,
            "aiNeuronSetting": "DefaultSetting",
            "aiSensingTemplate": "DefaultTemplate",
            "disableWander": true,
            "NCKMKJMDPDH": ""
        },
        {
            "groupId": 199001001,
            "mapInstId": 1028,
            "aiGroupID": 199001001,
            "aiNeuronSetting": "DefaultSetting",
            "aiSensingTemplate": "DefaultTemplate",
            "forceCombatOnSpawn": true,
            "disableWander": true,
            "NCKMKJMDPDH": ""
        },
        {
            "groupId": 199001001,
            "mapInstId": 1046,
            "aiGroupID": 199001001,
            "aiNeuronSetting": "DefaultSetting",
            "aiSensingTemplate": "DefaultTemplate",
            "disableWander": true,
            "NCKMKJMDPDH": ""
        },
        {
            "groupId": 199001001,
            "mapInstId": 1047,
            "aiGroupID": 199001001,
            "aiNeuronSetting": "DefaultSetting",
            "aiSensingTemplate": "DefaultTemplate",
            "disableWander": true,
            "NCKMKJMDPDH": ""
        },
        {
            "groupId": 199001001,
            "mapInstId": 1055,
            "aiGroupID": 199001001,
            "aiNeuronSetting": "DefaultSetting",
            "aiSensingTemplate": "DefaultTemplate",
            "forceCombatOnSpawn": true,
            "disableWander": true,
            "NCKMKJMDPDH": ""
        },
        {
            "groupId": 199001001,
            "mapInstId": 1072,
            "aiGroupID": 199001001,
            "aiNeuronSetting": "DefaultSetting",
            "aiSensingTemplate": "DefaultTemplate",
            "forceCombatOnSpawn": true,
            "disableWander": true,
            "NCKMKJMDPDH": ""
        },
        {
            "groupId": 199001001,
            "mapInstId": 1073,
            "aiGroupID": 199001001,
            "aiNeuronSetting": "DefaultSetting",
            "aiSensingTemplate": "DefaultTemplate",
            "forceCombatOnSpawn": true,
            "disableWander": true,
            "NCKMKJMDPDH": ""
        },
        {
            "groupId": 199001001,
            "mapInstId": 1074,
            "aiGroupID": 199001001,
            "aiNeuronSetting": "DefaultSetting",
            "aiSensingTemplate": "DefaultTemplate",
            "forceCombatOnSpawn": true,
            "disableWander": true,
            "NCKMKJMDPDH": ""
        },
        {
            "groupId": 199001001,
            "mapInstId": 1075,
            "aiGroupID": 199001001,
            "aiNeuronSetting": "DefaultSetting",
            "aiSensingTemplate": "DefaultTemplate",
            "forceCombatOnSpawn": true,
            "disableWander": true,
            "NCKMKJMDPDH": ""
        },
        {
            "groupId": 199001001,
            "mapInstId": 1076,
            "aiGroupID": 199001001,
            "aiNeuronSetting": "DefaultSetting",
            "aiSensingTemplate": "DefaultTemplate",
            "forceCombatOnSpawn": true,
            "disableWander": true,
            "NCKMKJMDPDH": ""
        },
        {
            "groupId": 199001001,
            "mapInstId": 1089,
            "aiGroupID": 199001001,
            "aiNeuronSetting": "DefaultSetting",
            "aiSensingTemplate": "DefaultTemplate",
            "disableWander": true,
            "NCKMKJMDPDH": ""
        },
        {
            "groupId": 199001001,
            "mapInstId": 1090,
            "aiGroupID": 199001001,
            "aiNeuronSetting": "DefaultSetting",
            "aiSensingTemplate": "DefaultTemplate",
            "disableWander": true,
            "NCKMKJMDPDH": ""
        },
        {
            "groupId": 199001001,
            "mapInstId": 1098,
            "aiGroupID": 199001001,
            "aiNeuronSetting": "DefaultSetting",
            "aiSensingTemplate": "DefaultTemplate",
            "disableWander": true,
            "NCKMKJMDPDH": ""
        },
        {
            "groupId": 199001001,
            "mapInstId": 1101,
            "aiGroupID": 199001001,
            "aiNeuronSetting": "DefaultSetting",
            "aiSensingTemplate": "DefaultTemplate",
            "forceCombatOnSpawn": true,
            "disableWander": true,
            "NCKMKJMDPDH": ""
        },
        {
            "groupId": 199001001,
            "mapInstId": 1102,
            "aiGroupID": 199001001,
            "aiNeuronSetting": "DefaultSetting",
            "aiSensingTemplate": "DefaultTemplate",
            "forceCombatOnSpawn": true,
            "disableWander": true,
            "NCKMKJMDPDH": ""
        },
        {
            "groupId": 199001001,
            "mapInstId": 1107,
            "aiGroupID": 199001001,
            "aiNeuronSetting": "DefaultSetting",
            "aiSensingTemplate": "DefaultTemplate",
            "forceCombatOnSpawn": true,
            "disableWander": true,
            "NCKMKJMDPDH": ""
        },
        {
            "groupId": 199001001,
            "mapInstId": 1109,
            "aiGroupID": 199001001,
            "aiNeuronSetting": "DefaultSetting",
            "aiSensingTemplate": "DefaultTemplate",
            "forceCombatOnSpawn": true,
            "disableWander": true,
            "NCKMKJMDPDH": ""
        },
        {
            "groupId": 199001001,
            "mapInstId": 1111,
            "aiGroupID": 199001001,
            "aiNeuronSetting": "DefaultSetting",
            "aiSensingTemplate": "DefaultTemplate",
            "forceCombatOnSpawn": true,
            "disableWander": true,
            "NCKMKJMDPDH": ""
        },
        {
            "groupId": 199001001,
            "mapInstId": 1134,
            "aiGroupID": 199001001,
            "aiNeuronSetting": "DefaultSetting",
            "aiSensingTemplate": "DefaultTemplate",
            "forceCombatOnSpawn": true,
            "disableWander": true,
            "NCKMKJMDPDH": ""
        },
        {
            "groupId": 199001001,
            "mapInstId": 1141,
            "aiGroupID": 199001001,
            "aiNeuronSetting": "DefaultSetting",
            "aiSensingTemplate": "DefaultTemplate",
            "forceCombatOnSpawn": true,
            "disableWander": true,
            "NCKMKJMDPDH": ""
        },
        {
            "groupId": 199001001,
            "mapInstId": 1142,
            "aiGroupID": 199001001,
            "aiNeuronSetting": "DefaultSetting",
            "aiSensingTemplate": "DefaultTemplate",
            "forceCombatOnSpawn": true,
            "disableWander": true,
            "NCKMKJMDPDH": ""
        },
        {
            "groupId": 199001001,
            "mapInstId": 1143,
            "aiGroupID": 199001001,
            "aiNeuronSetting": "DefaultSetting",
            "aiSensingTemplate": "DefaultTemplate",
            "forceCombatOnSpawn": true,
            "disableWander": true,
            "NCKMKJMDPDH": ""
        },
        {
            "groupId": 199001001,
            "mapInstId": 1144,
            "aiGroupID": 199001001,
            "aiNeuronSetting": "DefaultSetting",
            "aiSensingTemplate": "DefaultTemplate",
            "forceCombatOnSpawn": true,
            "disableWander": true,
            "NCKMKJMDPDH": ""
        },
        {
            "groupId": 199001001,
            "mapInstId": 1201,
            "aiGroupID": 199001001,
            "aiNeuronSetting": "DefaultSetting",
            "aiSensingTemplate": "DefaultTemplate",
            "forceCombatOnSpawn": true,
            "disableWander": true,
            "NCKMKJMDPDH": ""
        },
        {
            "groupId": 199001001,
            "mapInstId": 1202,
            "aiGroupID": 199001001,
            "aiNeuronSetting": "DefaultSetting",
            "aiSensingTemplate": "DefaultTemplate",
            "forceCombatOnSpawn": true,
            "disableWander": true,
            "NCKMKJMDPDH": ""
        },
        {
            "groupId": 199001001,
            "mapInstId": 1203,
            "aiGroupID": 199001001,
            "aiNeuronSetting": "DefaultSetting",
            "aiSensingTemplate": "DefaultTemplate",
            "forceCombatOnSpawn": true,
            "disableWander": true,
            "NCKMKJMDPDH": ""
        },
        {
            "groupId": 199001001,
            "mapInstId": 1204,
            "aiGroupID": 199001001,
            "aiNeuronSetting": "DefaultSetting",
            "aiSensingTemplate": "DefaultTemplate",
            "forceCombatOnSpawn": true,
            "disableWander": true,
            "NCKMKJMDPDH": ""
        },
        {
            "groupId": 199001001,
            "mapInstId": 1205,
            "aiGroupID": 199001001,
            "aiNeuronSetting": "DefaultSetting",
            "aiSensingTemplate": "DefaultTemplate",
            "forceCombatOnSpawn": true,
            "disableWander": true,
            "NCKMKJMDPDH": ""
        },
        {
            "groupId": 199001001,
            "mapInstId": 1206,
            "aiGroupID": 199001001,
            "aiNeuronSetting": "DefaultSetting",
            "aiSensingTemplate": "DefaultTemplate",
            "forceCombatOnSpawn": true,
            "disableWander": true,
            "NCKMKJMDPDH": ""
        },
        {
            "groupId": 199001001,
            "mapInstId": 1210,
            "aiGroupID": 199001001,
            "aiNeuronSetting": "DefaultSetting",
            "aiSensingTemplate": "DefaultTemplate",
            "forceCombatOnSpawn": true,
            "disableWander": true,
            "NCKMKJMDPDH": ""
        },
        {
            "groupId": 199001001,
            "mapInstId": 1211,
            "aiGroupID": 199001001,
            "aiNeuronSetting": "DefaultSetting",
            "aiSensingTemplate": "DefaultTemplate",
            "forceCombatOnSpawn": true,
            "disableWander": true,
            "NCKMKJMDPDH": ""
        },
        {
            "groupId": 199001001,
            "mapInstId": 1251,
            "aiGroupID": 199001001,
            "aiNeuronSetting": "DefaultSetting",
            "aiSensingTemplate": "DefaultTemplate",
            "disableWander": true,
            "NCKMKJMDPDH": ""
        },
        {
            "groupId": 199001009,
            "mapInstId": 9001,
            "aiGroupID": 199001009,
            "aiNeuronSetting": "DefaultSetting",
            "aiSensingTemplate": "LowAlertTemplate",
            "NCKMKJMDPDH": ""
        },
        {
            "groupId": 199001017,
            "mapInstId": 17001,
            "aiGroupID": 199001017,
            "aiNeuronSetting": "DefaultSetting",
            "aiSensingTemplate": "LowAlertTemplate",
            "NCKMKJMDPDH": ""
        },
        {
            "groupId": 199001017,
            "mapInstId": 17002,
            "aiGroupID": 199001017,
            "aiNeuronSetting": "DefaultSetting",
            "aiSensingTemplate": "LowAlertTemplate",
            "NCKMKJMDPDH": ""
        },
        {
            "groupId": 199001024,
            "mapInstId": 24001,
            "aiGroupID": 199001024,
            "aiNeuronSetting": "DefaultSetting",
            "aiSensingTemplate": "DefaultTemplate",
            "NCKMKJMDPDH": ""
        },
        {
            "groupId": 199001029,
            "mapInstId": 29003,
            "aiGroupID": 199001029,
            "aiNeuronSetting": "DefaultSetting",
            "aiSensingTemplate": "DefaultTemplate",
            "disableWander": true,
            "NCKMKJMDPDH": ""
        },
        {
            "groupId": 199001029,
            "mapInstId": 29022,
            "aiGroupID": 199001029,
            "aiNeuronSetting": "DefaultSetting",
            "aiSensingTemplate": "DefaultTemplate",
            "disableWander": true,
            "NCKMKJMDPDH": ""
        },
        {
            "groupId": 199001030,
            "mapInstId": 30001,
            "aiGroupID": 199001030,
            "aiNeuronSetting": "DefaultSetting",
            "aiSensingTemplate": "LowAlertForMimiTomoTemplate",
            "NCKMKJMDPDH": ""
        },
        {
            "groupId": 199001030,
            "mapInstId": 30002,
            "aiGroupID": 199001030,
            "aiNeuronSetting": "DefaultSetting",
            "aiSensingTemplate": "LowAlertForMimiTomoTemplate",
            "NCKMKJMDPDH": ""
        },
        {
            "groupId": 199001030,
            "mapInstId": 30003,
            "aiGroupID": 199001030,
            "aiNeuronSetting": "DefaultSetting",
            "aiSensingTemplate": "LowAlertForMimiTomoTemplate",
            "NCKMKJMDPDH": ""
        },
        {
            "groupId": 199001030,
            "mapInstId": 30004,
            "aiGroupID": 199001030,
            "aiNeuronSetting": "DefaultSetting",
            "aiSensingTemplate": "LowAlertForMimiTomoTemplate",
            "NCKMKJMDPDH": ""
        },
        {
            "groupId": 199001030,
            "mapInstId": 30005,
            "aiGroupID": 199001030,
            "aiNeuronSetting": "DefaultSetting",
            "aiSensingTemplate": "LowAlertForMimiTomoTemplate",
            "NCKMKJMDPDH": ""
        },
        {
            "groupId": 199001030,
            "mapInstId": 30006,
            "aiGroupID": 199001030,
            "aiNeuronSetting": "DefaultSetting",
            "aiSensingTemplate": "LowAlertForMimiTomoTemplate",
            "NCKMKJMDPDH": ""
        },
        {
            "groupId": 199001031,
            "mapInstId": 31001,
            "routeId": 900100109,
            "aiGroupID": 199001031,
            "aiNeuronSetting": "DefaultSetting",
            "aiSensingTemplate": "DefaultTemplate",
            "NCKMKJMDPDH": ""
        },
        {
            "groupId": 199001031,
            "mapInstId": 31002,
            "routeId": 900100108,
            "aiGroupID": 199001031,
            "aiNeuronSetting": "DefaultSetting",
            "aiSensingTemplate": "DefaultTemplate",
            "NCKMKJMDPDH": ""
        },
        {
            "groupId": 199001031,
            "mapInstId": 31005,
            "routeId": 900100110,
            "aiGroupID": 199001031,
            "aiNeuronSetting": "DefaultSetting",
            "aiSensingTemplate": "DefaultTemplate",
            "NCKMKJMDPDH": ""
        },
        {
            "groupId": 199001032,
            "mapInstId": 32001,
            "routeId": 900100107,
            "aiGroupID": 199001032,
            "aiNeuronSetting": "DefaultSetting",
            "aiSensingTemplate": "DefaultTemplate",
            "NCKMKJMDPDH": ""
        },
        {
            "groupId": 199001032,
            "mapInstId": 32002,
            "routeId": 900100106,
            "aiGroupID": 199001032,
            "aiNeuronSetting": "DefaultSetting",
            "aiSensingTemplate": "DefaultTemplate",
            "NCKMKJMDPDH": ""
        },
        {
            "groupId": 199001032,
            "mapInstId": 32003,
            "aiGroupID": 199001032,
            "aiNeuronSetting": "DefaultSetting",
            "aiSensingTemplate": "DefaultTemplate",
            "NCKMKJMDPDH": ""
        },
        {
            "groupId": 199001032,
            "mapInstId": 32004,
            "aiGroupID": 199001032,
            "aiNeuronSetting": "DefaultSetting",
            "aiSensingTemplate": "DefaultTemplate",
            "NCKMKJMDPDH": ""
        },
        {
            "groupId": 199001032,
            "mapInstId": 32005,
            "aiGroupID": 199001032,
            "aiNeuronSetting": "DefaultSetting",
            "aiSensingTemplate": "DefaultTemplate",
            "NCKMKJMDPDH": ""
        },
        {
            "groupId": 199001032,
            "mapInstId": 32006,
            "aiGroupID": 199001032,
            "aiNeuronSetting": "DefaultSetting",
            "aiSensingTemplate": "DefaultTemplate",
            "NCKMKJMDPDH": ""
        },
        {
            "groupId": 199001032,
            "mapInstId": 32007,
            "aiGroupID": 199001032,
            "aiNeuronSetting": "DefaultSetting",
            "aiSensingTemplate": "DefaultTemplate",
            "NCKMKJMDPDH": ""
        },
        {
            "groupId": 199001035,
            "mapInstId": 35001,
            "aiGroupID": 199001035,
            "aiNeuronSetting": "DefaultSetting",
            "aiSensingTemplate": "DefaultTemplate",
            "forceCombatOnSpawn": true,
            "NCKMKJMDPDH": ""
        },
        {
            "groupId": 199001035,
            "mapInstId": 35002,
            "aiGroupID": 199001035,
            "aiNeuronSetting": "DefaultSetting",
            "aiSensingTemplate": "DefaultTemplate",
            "forceCombatOnSpawn": true,
            "NCKMKJMDPDH": ""
        },
        {
            "groupId": 199001035,
            "mapInstId": 35004,
            "aiGroupID": 199001035,
            "aiNeuronSetting": "DefaultSetting",
            "aiSensingTemplate": "DefaultTemplate",
            "forceCombatOnSpawn": true,
            "NCKMKJMDPDH": ""
        },
        {
            "groupId": 199001035,
            "mapInstId": 35005,
            "aiGroupID": 199001035,
            "aiNeuronSetting": "DefaultSetting",
            "aiSensingTemplate": "DefaultTemplate",
            "forceCombatOnSpawn": true,
            "NCKMKJMDPDH": ""
        },
        {
            "groupId": 199001035,
            "mapInstId": 35006,
            "aiGroupID": 199001035,
            "aiNeuronSetting": "DefaultSetting",
            "aiSensingTemplate": "DefaultTemplate",
            "forceCombatOnSpawn": true,
            "NCKMKJMDPDH": ""
        },
        {
            "groupId": 199001036,
            "mapInstId": 36001,
            "aiGroupID": 199001036,
            "aiNeuronSetting": "DefaultSetting",
            "aiSensingTemplate": "DefaultTemplate",
            "disableWander": true,
            "NCKMKJMDPDH": ""
        },
        {
            "groupId": 199001036,
            "mapInstId": 36002,
            "aiGroupID": 199001036,
            "aiNeuronSetting": "DefaultSetting",
            "aiSensingTemplate": "DefaultTemplate",
            "disableWander": true,
            "NCKMKJMDPDH": ""
        },
        {
            "groupId": 199001036,
            "mapInstId": 36003,
            "aiGroupID": 199001036,
            "aiNeuronSetting": "DefaultSetting",
            "aiSensingTemplate": "DefaultTemplate",
            "disableWander": true,
            "NCKMKJMDPDH": ""
        },
        {
            "groupId": 199001046,
            "mapInstId": 46001,
            "aiGroupID": 199001046,
            "aiNeuronSetting": "DefaultSetting",
            "aiSensingTemplate": "DefaultTemplate",
            "disableWander": true,
            "NCKMKJMDPDH": ""
        },
        {
            "groupId": 199001046,
            "mapInstId": 46002,
            "aiGroupID": 199001046,
            "aiNeuronSetting": "DefaultSetting",
            "aiSensingTemplate": "DefaultTemplate",
            "disableWander": true,
            "NCKMKJMDPDH": ""
        },
        {
            "groupId": 199001046,
            "mapInstId": 46003,
            "aiGroupID": 199001046,
            "aiNeuronSetting": "DefaultSetting",
            "aiSensingTemplate": "DefaultTemplate",
            "disableWander": true,
            "NCKMKJMDPDH": ""
        },
        {
            "groupId": 199001046,
            "mapInstId": 46004,
            "aiGroupID": 199001046,
            "aiNeuronSetting": "DefaultSetting",
            "aiSensingTemplate": "DefaultTemplate",
            "disableWander": true,
            "NCKMKJMDPDH": ""
        },
        {
            "groupId": 199001049,
            "mapInstId": 49002,
            "aiGroupID": 199001049,
            "aiNeuronSetting": "DefaultSetting",
            "aiSensingTemplate": "DefaultTemplate",
            "disableWander": true,
            "NCKMKJMDPDH": ""
        },
        {
            "groupId": 199001049,
            "mapInstId": 49003,
            "aiGroupID": 199001049,
            "aiNeuronSetting": "DefaultSetting",
            "aiSensingTemplate": "DefaultTemplate",
            "disableWander": true,
            "NCKMKJMDPDH": ""
        },
        {
            "groupId": 199001049,
            "mapInstId": 49004,
            "aiGroupID": 199001049,
            "aiNeuronSetting": "DefaultSetting",
            "aiSensingTemplate": "DefaultTemplate",
            "disableWander": true,
            "NCKMKJMDPDH": ""
        },
        {
            "groupId": 199001049,
            "mapInstId": 49005,
            "aiGroupID": 199001049,
            "aiNeuronSetting": "DefaultSetting",
            "aiSensingTemplate": "DefaultTemplate",
            "disableWander": true,
            "NCKMKJMDPDH": ""
        },
        {
            "groupId": 199001058,
            "mapInstId": 58001,
            "aiGroupID": 199001058,
            "aiNeuronSetting": "DefaultSetting",
            "aiSensingTemplate": "DefaultTemplate",
            "NCKMKJMDPDH": ""
        },
        {
            "groupId": 199001058,
            "mapInstId": 58010,
            "aiGroupID": 199001058,
            "aiNeuronSetting": "DefaultSetting",
            "aiSensingTemplate": "DefaultTemplate",
            "NCKMKJMDPDH": ""
        },
        {
            "groupId": 199001058,
            "mapInstId": 58013,
            "aiGroupID": 199001058,
            "aiNeuronSetting": "DefaultSetting",
            "aiSensingTemplate": "DefaultTemplate",
            "NCKMKJMDPDH": ""
        },
        {
            "groupId": 199001058,
            "mapInstId": 58014,
            "aiGroupID": 199001058,
            "aiNeuronSetting": "DefaultSetting",
            "aiSensingTemplate": "DefaultTemplate",
            "NCKMKJMDPDH": ""
        },
        {
            "groupId": 199001059,
            "mapInstId": 59001,
            "aiGroupID": 199001059,
            "aiNeuronSetting": "DefaultSetting",
            "aiSensingTemplate": "DefaultTemplate",
            "disableWander": true,
            "NCKMKJMDPDH": ""
        },
        {
            "groupId": 199001059,
            "mapInstId": 59004,
            "aiGroupID": 199001059,
            "aiNeuronSetting": "DefaultSetting",
            "aiSensingTemplate": "DefaultTemplate",
            "disableWander": true,
            "NCKMKJMDPDH": ""
        },
        {
            "groupId": 199001059,
            "mapInstId": 59006,
            "aiGroupID": 199001059,
            "aiNeuronSetting": "DefaultSetting",
            "aiSensingTemplate": "DefaultTemplate",
            "disableWander": true,
            "NCKMKJMDPDH": ""
        },
        {
            "groupId": 199001059,
            "mapInstId": 59007,
            "aiGroupID": 199001059,
            "aiNeuronSetting": "DefaultSetting",
            "aiSensingTemplate": "DefaultTemplate",
            "disableWander": true,
            "NCKMKJMDPDH": ""
        },
        {
            "groupId": 199001059,
            "mapInstId": 59009,
            "aiGroupID": 199001059,
            "aiNeuronSetting": "DefaultSetting",
            "aiSensingTemplate": "DefaultTemplate",
            "disableWander": true,
            "NCKMKJMDPDH": ""
        },
        {
            "groupId": 199001091,
            "mapInstId": 91012,
            "defendAreaRange": 25.0,
            "aiNeuronSetting": "DefaultSetting",
            "aiSensingTemplate": "DefaultTemplate",
            "disableWander": true,
            "NCKMKJMDPDH": ""
        },
        {
            "groupId": 199001091,
            "mapInstId": 91013,
            "defendAreaRange": 25.0,
            "aiNeuronSetting": "DefaultSetting",
            "aiSensingTemplate": "DefaultTemplate",
            "disableWander": true,
            "NCKMKJMDPDH": ""
        },
        {
            "groupId": 199001091,
            "mapInstId": 91014,
            "defendAreaRange": 25.0,
            "aiNeuronSetting": "DefaultSetting",
            "aiSensingTemplate": "DefaultTemplate",
            "disableWander": true,
            "NCKMKJMDPDH": ""
        },
        {
            "groupId": 199001091,
            "mapInstId": 91015,
            "defendAreaRange": 25.0,
            "aiNeuronSetting": "DefaultSetting",
            "aiSensingTemplate": "DefaultTemplate",
            "disableWander": true,
            "NCKMKJMDPDH": ""
        },
        {
            "groupId": 199001091,
            "mapInstId": 91016,
            "defendAreaRange": 25.0,
            "aiNeuronSetting": "DefaultSetting",
            "aiSensingTemplate": "DefaultTemplate",
            "disableWander": true,
            "NCKMKJMDPDH": ""
        },
        {
            "groupId": 199001091,
            "mapInstId": 91017,
            "defendAreaRange": 25.0,
            "aiNeuronSetting": "DefaultSetting",
            "aiSensingTemplate": "DefaultTemplate",
            "disableWander": true,
            "NCKMKJMDPDH": ""
        },
        {
            "groupId": 199001091,
            "mapInstId": 91033,
            "defendAreaRange": 25.0,
            "aiNeuronSetting": "DefaultSetting",
            "aiSensingTemplate": "DefaultTemplate",
            "disableWander": true,
            "NCKMKJMDPDH": ""
        },
        {
            "groupId": 199001091,
            "mapInstId": 91034,
            "defendAreaRange": 25.0,
            "aiNeuronSetting": "DefaultSetting",
            "aiSensingTemplate": "DefaultTemplate",
            "disableWander": true,
            "NCKMKJMDPDH": ""
        },
        {
            "groupId": 199001091,
            "mapInstId": 91035,
            "defendAreaRange": 25.0,
            "aiNeuronSetting": "DefaultSetting",
            "aiSensingTemplate": "DefaultTemplate",
            "disableWander": true,
            "NCKMKJMDPDH": ""
        },
        {
            "groupId": 199001091,
            "mapInstId": 91036,
            "defendAreaRange": 25.0,
            "aiNeuronSetting": "DefaultSetting",
            "aiSensingTemplate": "DefaultTemplate",
            "disableWander": true,
            "NCKMKJMDPDH": ""
        },
        {
            "groupId": 199001091,
            "mapInstId": 91062,
            "defendAreaRange": 25.0,
            "aiNeuronSetting": "DefaultSetting",
            "aiSensingTemplate": "DefaultTemplate",
            "disableWander": true,
            "NCKMKJMDPDH": ""
        },
        {
            "groupId": 199001091,
            "mapInstId": 91107,
            "defendAreaRange": 25.0,
            "aiNeuronSetting": "DefaultSetting",
            "aiSensingTemplate": "DefaultTemplate",
            "disableWander": true,
            "NCKMKJMDPDH": ""
        },
        {
            "groupId": 199001091,
            "mapInstId": 91108,
            "defendAreaRange": 25.0,
            "aiNeuronSetting": "DefaultSetting",
            "aiSensingTemplate": "DefaultTemplate",
            "disableWander": true,
            "NCKMKJMDPDH": ""
        },
        {
            "groupId": 199001091,
            "mapInstId": 91109,
            "defendAreaRange": 25.0,
            "aiNeuronSetting": "DefaultSetting",
            "aiSensingTemplate": "DefaultTemplate",
            "disableWander": true,
            "NCKMKJMDPDH": ""
        },
        {
            "groupId": 199001091,
            "mapInstId": 91110,
            "defendAreaRange": 25.0,
            "aiNeuronSetting": "DefaultSetting",
            "aiSensingTemplate": "DefaultTemplate",
            "disableWander": true,
            "NCKMKJMDPDH": ""
        },
        {
            "groupId": 199001091,
            "mapInstId": 91117,
            "defendAreaRange": 25.0,
            "aiNeuronSetting": "DefaultSetting",
            "aiSensingTemplate": "DefaultTemplate",
            "forceCombatOnSpawn": true,
            "disableWander": true,
            "NCKMKJMDPDH": ""
        },
        {
            "groupId": 199001091,
            "mapInstId": 91118,
            "defendAreaRange": 25.0,
            "aiNeuronSetting": "DefaultSetting",
            "aiSensingTemplate": "DefaultTemplate",
            "forceCombatOnSpawn": true,
            "disableWander": true,
            "NCKMKJMDPDH": ""
        },
        {
            "groupId": 199001091,
            "mapInstId": 91147,
            "defendAreaRange": 25.0,
            "aiNeuronSetting": "DefaultSetting",
            "aiSensingTemplate": "DefaultTemplate",
            "disableWander": true,
            "NCKMKJMDPDH": ""
        },
        {
            "groupId": 199001091,
            "mapInstId": 91148,
            "defendAreaRange": 25.0,
            "aiNeuronSetting": "DefaultSetting",
            "aiSensingTemplate": "DefaultTemplate",
            "disableWander": true,
            "NCKMKJMDPDH": ""
        },
        {
            "groupId": 199001091,
            "mapInstId": 91149,
            "defendAreaRange": 25.0,
            "aiNeuronSetting": "DefaultSetting",
            "aiSensingTemplate": "DefaultTemplate",
            "disableWander": true,
            "NCKMKJMDPDH": ""
        },
        {
            "groupId": 199001091,
            "mapInstId": 91150,
            "defendAreaRange": 25.0,
            "aiNeuronSetting": "DefaultSetting",
            "aiSensingTemplate": "DefaultTemplate",
            "disableWander": true,
            "NCKMKJMDPDH": ""
        },
        {
            "groupId": 199001091,
            "mapInstId": 91151,
            "defendAreaRange": 25.0,
            "aiNeuronSetting": "DefaultSetting",
            "aiSensingTemplate": "DefaultTemplate",
            "disableWander": true,
            "NCKMKJMDPDH": ""
        },
        {
            "groupId": 199001091,
            "mapInstId": 91152,
            "defendAreaRange": 25.0,
            "aiNeuronSetting": "DefaultSetting",
            "aiSensingTemplate": "DefaultTemplate",
            "disableWander": true,
            "NCKMKJMDPDH": ""
        },
        {
            "groupId": 199001091,
            "mapInstId": 91153,
            "defendAreaRange": 25.0,
            "aiNeuronSetting": "DefaultSetting",
            "aiSensingTemplate": "DefaultTemplate",
            "disableWander": true,
            "NCKMKJMDPDH": ""
        },
        {
            "groupId": 199001091,
            "mapInstId": 91154,
            "defendAreaRange": 25.0,
            "aiNeuronSetting": "DefaultSetting",
            "aiSensingTemplate": "DefaultTemplate",
            "disableWander": true,
            "NCKMKJMDPDH": ""
        },
        {
            "groupId": 199001091,
            "mapInstId": 91155,
            "defendAreaRange": 25.0,
            "aiNeuronSetting": "DefaultSetting",
            "aiSensingTemplate": "DefaultTemplate",
            "disableWander": true,
            "NCKMKJMDPDH": ""
        },
        {
            "groupId": 199001091,
            "mapInstId": 91156,
            "defendAreaRange": 25.0,
            "aiNeuronSetting": "DefaultSetting",
            "aiSensingTemplate": "DefaultTemplate",
            "disableWander": true,
            "NCKMKJMDPDH": ""
        },
        {
            "groupId": 199001091,
            "mapInstId": 91251,
            "defendAreaRange": 25.0,
            "aiNeuronSetting": "DefaultSetting",
            "aiSensingTemplate": "DefaultTemplate",
            "disableWander": true,
            "NCKMKJMDPDH": ""
        },
        {
            "groupId": 199001091,
            "mapInstId": 91252,
            "defendAreaRange": 25.0,
            "aiNeuronSetting": "DefaultSetting",
            "aiSensingTemplate": "DefaultTemplate",
            "disableWander": true,
            "NCKMKJMDPDH": ""
        },
        {
            "groupId": 199001091,
            "mapInstId": 91253,
            "defendAreaRange": 25.0,
            "aiNeuronSetting": "DefaultSetting",
            "aiSensingTemplate": "DefaultTemplate",
            "disableWander": true,
            "NCKMKJMDPDH": ""
        },
        {
            "groupId": 199001091,
            "mapInstId": 91254,
            "defendAreaRange": 25.0,
            "aiNeuronSetting": "DefaultSetting",
            "aiSensingTemplate": "DefaultTemplate",
            "disableWander": true,
            "NCKMKJMDPDH": ""
        },
        {
            "groupId": 199001091,
            "mapInstId": 91255,
            "defendAreaRange": 25.0,
            "aiNeuronSetting": "DefaultSetting",
            "aiSensingTemplate": "DefaultTemplate",
            "disableWander": true,
            "NCKMKJMDPDH": ""
        },
        {
            "groupId": 199001102,
            "mapInstId": 102001,
            "aiGroupID": 199001102,
            "aiNeuronSetting": "DefaultSetting",
            "aiSensingTemplate": "DefaultTemplate",
            "NCKMKJMDPDH": ""
        },
        {
            "groupId": 199001102,
            "mapInstId": 102003,
            "aiGroupID": 199001102,
            "aiNeuronSetting": "DefaultSetting",
            "aiSensingTemplate": "DefaultTemplate",
            "NCKMKJMDPDH": ""
        },
        {
            "groupId": 199001102,
            "mapInstId": 102004,
            "aiGroupID": 199001102,
            "aiNeuronSetting": "DefaultSetting",
            "aiSensingTemplate": "DefaultTemplate",
            "NCKMKJMDPDH": ""
        },
        {
            "groupId": 199001102,
            "mapInstId": 102005,
            "aiGroupID": 199001102,
            "aiNeuronSetting": "DefaultSetting",
            "aiSensingTemplate": "DefaultTemplate",
            "NCKMKJMDPDH": ""
        },
        {
            "groupId": 199001102,
            "mapInstId": 102006,
            "aiGroupID": 199001102,
            "aiNeuronSetting": "DefaultSetting",
            "aiSensingTemplate": "DefaultTemplate",
            "NCKMKJMDPDH": ""
        },
        {
            "groupId": 199001102,
            "mapInstId": 102007,
            "aiGroupID": 199001102,
            "aiNeuronSetting": "DefaultSetting",
            "aiSensingTemplate": "DefaultTemplate",
            "NCKMKJMDPDH": ""
        },
        {
            "groupId": 199001109,
            "mapInstId": 109009,
            "aiGroupID": 199001109,
            "aiNeuronSetting": "DefaultSetting",
            "aiSensingTemplate": "DefaultTemplate",
            "disableWander": true,
            "NCKMKJMDPDH": ""
        },
        {
            "groupId": 199001109,
            "mapInstId": 109010,
            "aiGroupID": 199001109,
            "aiNeuronSetting": "DefaultSetting",
            "aiSensingTemplate": "DefaultTemplate",
            "disableWander": true,
            "NCKMKJMDPDH": ""
        },
        {
            "groupId": 199001109,
            "mapInstId": 109011,
            "aiGroupID": 199001109,
            "aiNeuronSetting": "DefaultSetting",
            "aiSensingTemplate": "DefaultTemplate",
            "disableWander": true,
            "NCKMKJMDPDH": ""
        },
        {
            "groupId": 199001109,
            "mapInstId": 109012,
            "aiGroupID": 199001109,
            "aiNeuronSetting": "DefaultSetting",
            "aiSensingTemplate": "DefaultTemplate",
            "disableWander": true,
            "NCKMKJMDPDH": ""
        },
        {
            "groupId": 199001109,
            "mapInstId": 109014,
            "aiGroupID": 199001109,
            "aiNeuronSetting": "DefaultSetting",
            "aiSensingTemplate": "DefaultTemplate",
            "disableWander": true,
            "NCKMKJMDPDH": ""
        },
        {
            "groupId": 199001109,
            "mapInstId": 109015,
            "aiGroupID": 199001109,
            "aiNeuronSetting": "DefaultSetting",
            "aiSensingTemplate": "DefaultTemplate",
            "disableWander": true,
            "NCKMKJMDPDH": ""
        },
        {
            "groupId": 199001109,
            "mapInstId": 109016,
            "aiGroupID": 199001109,
            "aiNeuronSetting": "DefaultSetting",
            "aiSensingTemplate": "DefaultTemplate",
            "disableWander": true,
            "NCKMKJMDPDH": ""
        },
        {
            "groupId": 199001109,
            "mapInstId": 109017,
            "aiGroupID": 199001109,
            "aiNeuronSetting": "DefaultSetting",
            "aiSensingTemplate": "DefaultTemplate",
            "disableWander": true,
            "NCKMKJMDPDH": ""
        },
        {
            "groupId": 199001109,
            "mapInstId": 109018,
            "aiGroupID": 199001109,
            "aiNeuronSetting": "DefaultSetting",
            "aiSensingTemplate": "DefaultTemplate",
            "disableWander": true,
            "NCKMKJMDPDH": ""
        },
        {
            "groupId": 199001127,
            "mapInstId": 127001,
            "routeId": 900100042,
            "aiGroupID": 199001127,
            "aiNeuronSetting": "DefaultSetting",
            "aiSensingTemplate": "DefaultTemplate",
            "disableWander": true,
            "NCKMKJMDPDH": ""
        },
        {
            "groupId": 199001127,
            "mapInstId": 127002,
            "aiGroupID": 199001127,
            "aiNeuronSetting": "DefaultSetting",
            "aiSensingTemplate": "DefaultTemplate",
            "disableWander": true,
            "NCKMKJMDPDH": ""
        },
        {
            "groupId": 199001127,
            "mapInstId": 127003,
            "routeId": 900100043,
            "aiGroupID": 199001127,
            "aiNeuronSetting": "DefaultSetting",
            "aiSensingTemplate": "DefaultTemplate",
            "disableWander": true,
            "NCKMKJMDPDH": ""
        },
        {
            "groupId": 199001127,
            "mapInstId": 127004,
            "aiGroupID": 199001127,
            "aiNeuronSetting": "DefaultSetting",
            "aiSensingTemplate": "DefaultTemplate",
            "disableWander": true,
            "NCKMKJMDPDH": ""
        },
        {
            "groupId": 199001127,
            "mapInstId": 127005,
            "aiGroupID": 199001127,
            "aiNeuronSetting": "DefaultSetting",
            "aiSensingTemplate": "DefaultTemplate",
            "disableWander": true,
            "NCKMKJMDPDH": ""
        },
        {
            "groupId": 199001127,
            "mapInstId": 127006,
            "aiGroupID": 199001127,
            "aiNeuronSetting": "DefaultSetting",
            "aiSensingTemplate": "DefaultTemplate",
            "disableWander": true,
            "NCKMKJMDPDH": ""
        },
        {
            "groupId": 199001128,
            "mapInstId": 128001,
            "aiGroupID": 199001128,
            "aiNeuronSetting": "DefaultSetting",
            "aiSensingTemplate": "LowAlertForMimiTomoTemplate",
            "disableWander": true,
            "NCKMKJMDPDH": ""
        },
        {
            "groupId": 199001128,
            "mapInstId": 128003,
            "aiGroupID": 199001128,
            "aiNeuronSetting": "DefaultSetting",
            "aiSensingTemplate": "DefaultTemplate",
            "disableWander": true,
            "NCKMKJMDPDH": ""
        },
        {
            "groupId": 199001128,
            "mapInstId": 128004,
            "aiGroupID": 199001128,
            "aiNeuronSetting": "DefaultSetting",
            "aiSensingTemplate": "DefaultTemplate",
            "disableWander": true,
            "NCKMKJMDPDH": ""
        },
        {
            "groupId": 199001128,
            "mapInstId": 128009,
            "aiGroupID": 199001128,
            "aiNeuronSetting": "DefaultSetting",
            "aiSensingTemplate": "LowAlertForMimiTomoTemplate",
            "disableWander": true,
            "NCKMKJMDPDH": ""
        },
        {
            "groupId": 199001128,
            "mapInstId": 128010,
            "aiGroupID": 199001128,
            "aiNeuronSetting": "DefaultSetting",
            "aiSensingTemplate": "DefaultTemplate",
            "NCKMKJMDPDH": ""
        },
        {
            "groupId": 199001129,
            "mapInstId": 129008,
            "aiGroupID": 199001129,
            "aiNeuronSetting": "DefaultSetting",
            "aiSensingTemplate": "LowAlertForMimiTomoTemplate",
            "NCKMKJMDPDH": ""
        },
        {
            "groupId": 199001129,
            "mapInstId": 129009,
            "aiGroupID": 199001129,
            "aiNeuronSetting": "DefaultSetting",
            "aiSensingTemplate": "LowAlertForMimiTomoTemplate",
            "NCKMKJMDPDH": ""
        },
        {
            "groupId": 199001129,
            "mapInstId": 129010,
            "aiGroupID": 199001129,
            "aiNeuronSetting": "DefaultSetting",
            "aiSensingTemplate": "LowAlertForMimiTomoTemplate",
            "NCKMKJMDPDH": ""
        },
        {
            "groupId": 199001139,
            "mapInstId": 139003,
            "aiGroupID": 199001139,
            "aiNeuronSetting": "DefaultSetting",
            "aiSensingTemplate": "DefaultTemplate",
            "NCKMKJMDPDH": ""
        },
        {
            "groupId": 199001147,
            "mapInstId": 147004,
            "aiGroupID": 199001147,
            "aiNeuronSetting": "DefaultSetting",
            "aiSensingTemplate": "DefaultTemplate",
            "disableWander": true,
            "NCKMKJMDPDH": ""
        },
        {
            "groupId": 199001147,
            "mapInstId": 147005,
            "aiGroupID": 199001147,
            "aiNeuronSetting": "DefaultSetting",
            "aiSensingTemplate": "DefaultTemplate",
            "disableWander": true,
            "NCKMKJMDPDH": ""
        },
        {
            "groupId": 199001147,
            "mapInstId": 147006,
            "aiGroupID": 199001147,
            "aiNeuronSetting": "DefaultSetting",
            "aiSensingTemplate": "DefaultTemplate",
            "disableWander": true,
            "NCKMKJMDPDH": ""
        },
        {
            "groupId": 199001147,
            "mapInstId": 147007,
            "aiGroupID": 199001147,
            "aiNeuronSetting": "DefaultSetting",
            "aiSensingTemplate": "DefaultTemplate",
            "disableWander": true,
            "NCKMKJMDPDH": ""
        },
        {
            "groupId": 199001148,
            "mapInstId": 148001,
            "aiGroupID": 199001148,
            "aiNeuronSetting": "DefaultSetting",
            "aiSensingTemplate": "DefaultTemplate",
            "NCKMKJMDPDH": ""
        },
        {
            "groupId": 199001148,
            "mapInstId": 148002,
            "aiGroupID": 199001148,
            "aiNeuronSetting": "DefaultSetting",
            "aiSensingTemplate": "DefaultTemplate",
            "NCKMKJMDPDH": ""
        },
        {
            "groupId": 199001148,
            "mapInstId": 148003,
            "aiGroupID": 199001148,
            "aiNeuronSetting": "DefaultSetting",
            "aiSensingTemplate": "DefaultTemplate",
            "NCKMKJMDPDH": ""
        },
        {
            "groupId": 199001148,
            "mapInstId": 148004,
            "aiGroupID": 199001148,
            "aiNeuronSetting": "DefaultSetting",
            "aiSensingTemplate": "DefaultTemplate",
            "NCKMKJMDPDH": ""
        },
        {
            "groupId": 199001148,
            "mapInstId": 148005,
            "aiGroupID": 199001148,
            "aiNeuronSetting": "DefaultSetting",
            "aiSensingTemplate": "DefaultTemplate",
            "NCKMKJMDPDH": ""
        },
        {
            "groupId": 199001162,
            "mapInstId": 162001,
            "aiGroupID": 199001162,
            "aiNeuronSetting": "DefaultSetting",
            "aiSensingTemplate": "DefaultTemplate",
            "disableWander": true,
            "NCKMKJMDPDH": ""
        },
        {
            "groupId": 199001162,
            "mapInstId": 162004,
            "aiGroupID": 199001162,
            "aiNeuronSetting": "DefaultSetting",
            "aiSensingTemplate": "DefaultTemplate",
            "disableWander": true,
            "NCKMKJMDPDH": ""
        },
        {
            "groupId": 199001162,
            "mapInstId": 162005,
            "aiGroupID": 199001162,
            "aiNeuronSetting": "DefaultSetting",
            "aiSensingTemplate": "DefaultTemplate",
            "disableWander": true,
            "NCKMKJMDPDH": ""
        },
        {
            "groupId": 199001163,
            "mapInstId": 163004,
            "aiGroupID": 199001163,
            "aiNeuronSetting": "DefaultSetting",
            "aiSensingTemplate": "DefaultTemplate",
            "disableWander": true,
            "NCKMKJMDPDH": ""
        },
        {
            "groupId": 199001163,
            "mapInstId": 163006,
            "aiGroupID": 199001163,
            "aiNeuronSetting": "DefaultSetting",
            "aiSensingTemplate": "LowAlertForMimiTomoTemplate",
            "disableWander": true,
            "NCKMKJMDPDH": ""
        },
        {
            "groupId": 199001163,
            "mapInstId": 163009,
            "aiGroupID": 199001163,
            "aiNeuronSetting": "DefaultSetting",
            "aiSensingTemplate": "HighAlertTemplate",
            "disableWander": true,
            "NCKMKJMDPDH": ""
        },
        {
            "groupId": 199001163,
            "mapInstId": 163010,
            "aiGroupID": 199001163,
            "aiNeuronSetting": "DefaultSetting",
            "aiSensingTemplate": "DefaultTemplate",
            "disableWander": true,
            "NCKMKJMDPDH": ""
        },
        {
            "groupId": 199001163,
            "mapInstId": 163011,
            "aiGroupID": 199001163,
            "aiNeuronSetting": "DefaultSetting",
            "aiSensingTemplate": "DefaultTemplate",
            "disableWander": true,
            "NCKMKJMDPDH": ""
        },
        {
            "groupId": 199001167,
            "mapInstId": 167001,
            "routeId": 900100027,
            "aiGroupID": 199001167,
            "aiNeuronSetting": "DefaultSetting",
            "aiSensingTemplate": "DefaultTemplate",
            "NCKMKJMDPDH": ""
        },
        {
            "groupId": 199001167,
            "mapInstId": 167002,
            "routeId": 900100028,
            "aiGroupID": 199001167,
            "aiNeuronSetting": "DefaultSetting",
            "aiSensingTemplate": "DefaultTemplate",
            "NCKMKJMDPDH": ""
        },
        {
            "groupId": 199001168,
            "mapInstId": 168001,
            "routeId": 900100029,
            "aiGroupID": 199001168,
            "aiNeuronSetting": "DefaultSetting",
            "aiSensingTemplate": "DefaultTemplate",
            "NCKMKJMDPDH": ""
        },
        {
            "groupId": 199001168,
            "mapInstId": 168002,
            "aiGroupID": 199001168,
            "aiNeuronSetting": "DefaultSetting",
            "aiSensingTemplate": "DefaultTemplate",
            "disableWander": true,
            "NCKMKJMDPDH": ""
        },
        {
            "groupId": 199001168,
            "mapInstId": 168003,
            "routeId": 900100030,
            "aiGroupID": 199001168,
            "aiNeuronSetting": "DefaultSetting",
            "aiSensingTemplate": "DefaultTemplate",
            "NCKMKJMDPDH": ""
        },
        {
            "groupId": 199001172,
            "mapInstId": 172001,
            "aiGroupID": 199001103,
            "aiNeuronSetting": "DefaultSetting",
            "aiSensingTemplate": "DefaultTemplate",
            "disableWander": true,
            "NCKMKJMDPDH": ""
        },
        {
            "groupId": 199001172,
            "mapInstId": 172002,
            "aiGroupID": 199001103,
            "aiNeuronSetting": "DefaultSetting",
            "aiSensingTemplate": "DefaultTemplate",
            "disableWander": true,
            "NCKMKJMDPDH": ""
        },
        {
            "groupId": 199001172,
            "mapInstId": 172003,
            "aiGroupID": 199001060,
            "aiNeuronSetting": "DefaultSetting",
            "aiSensingTemplate": "DefaultTemplate",
            "disableWander": true,
            "NCKMKJMDPDH": ""
        },
        {
            "groupId": 199001172,
            "mapInstId": 172004,
            "aiGroupID": 199001172,
            "aiNeuronSetting": "DefaultSetting",
            "aiSensingTemplate": "DefaultTemplate",
            "disableWander": true,
            "NCKMKJMDPDH": ""
        },
        {
            "groupId": 199001172,
            "mapInstId": 172005,
            "aiGroupID": 199001172,
            "aiNeuronSetting": "DefaultSetting",
            "aiSensingTemplate": "DefaultTemplate",
            "disableWander": true,
            "NCKMKJMDPDH": ""
        },
        {
            "groupId": 199001175,
            "mapInstId": 175001,
            "aiGroupID": 199001175,
            "aiNeuronSetting": "DefaultSetting",
            "aiSensingTemplate": "LowAlertForMimiTomoTemplate",
            "disableWander": true,
            "NCKMKJMDPDH": ""
        },
        {
            "groupId": 199001175,
            "mapInstId": 175004,
            "aiGroupID": 199001175,
            "aiNeuronSetting": "DefaultSetting",
            "aiSensingTemplate": "DefaultTemplate",
            "disableWander": true,
            "NCKMKJMDPDH": ""
        },
        {
            "groupId": 199001175,
            "mapInstId": 175005,
            "aiGroupID": 199001175,
            "aiNeuronSetting": "DefaultSetting",
            "aiSensingTemplate": "DefaultTemplate",
            "disableWander": true,
            "NCKMKJMDPDH": ""
        },
        {
            "groupId": 199001182,
            "mapInstId": 182001,
            "aiGroupID": 199001182,
            "aiNeuronSetting": "DefaultSetting",
            "aiSensingTemplate": "DefaultTemplate",
            "forceCombatOnSpawn": true,
            "disableWander": true,
            "NCKMKJMDPDH": ""
        },
        {
            "groupId": 199001182,
            "mapInstId": 182002,
            "aiGroupID": 199001182,
            "aiNeuronSetting": "DefaultSetting",
            "aiSensingTemplate": "DefaultTemplate",
            "forceCombatOnSpawn": true,
            "disableWander": true,
            "NCKMKJMDPDH": ""
        },
        {
            "groupId": 199001182,
            "mapInstId": 182003,
            "aiGroupID": 199001182,
            "aiNeuronSetting": "DefaultSetting",
            "aiSensingTemplate": "DefaultTemplate",
            "forceCombatOnSpawn": true,
            "disableWander": true,
            "NCKMKJMDPDH": ""
        },
        {
            "groupId": 199001184,
            "mapInstId": 184001,
            "routeId": 900100041,
            "aiGroupID": 199001184,
            "aiNeuronSetting": "DefaultSetting",
            "aiSensingTemplate": "DefaultTemplate",
            "NCKMKJMDPDH": ""
        },
        {
            "groupId": 199001184,
            "mapInstId": 184002,
            "aiGroupID": 199001184,
            "aiNeuronSetting": "DefaultSetting",
            "aiSensingTemplate": "DefaultTemplate",
            "NCKMKJMDPDH": ""
        },
        {
            "groupId": 199001184,
            "mapInstId": 184004,
            "aiGroupID": 199001184,
            "aiNeuronSetting": "DefaultSetting",
            "aiSensingTemplate": "DefaultTemplate",
            "disableWander": true,
            "NCKMKJMDPDH": ""
        },
        {
            "groupId": 199001185,
            "mapInstId": 185001,
            "routeId": 900100042,
            "aiGroupID": 199001185,
            "aiNeuronSetting": "DefaultSetting",
            "aiSensingTemplate": "DefaultTemplate",
            "NCKMKJMDPDH": ""
        },
        {
            "groupId": 199001185,
            "mapInstId": 185002,
            "aiGroupID": 199001185,
            "aiNeuronSetting": "DefaultSetting",
            "aiSensingTemplate": "DefaultTemplate",
            "disableWander": true,
            "NCKMKJMDPDH": ""
        },
        {
            "groupId": 199001185,
            "mapInstId": 185003,
            "routeId": 900100043,
            "aiGroupID": 199001185,
            "aiNeuronSetting": "DefaultSetting",
            "aiSensingTemplate": "DefaultTemplate",
            "NCKMKJMDPDH": ""
        },
        {
            "groupId": 199001185,
            "mapInstId": 185004,
            "aiGroupID": 199001185,
            "aiNeuronSetting": "DefaultSetting",
            "aiSensingTemplate": "DefaultTemplate",
            "disableWander": true,
            "NCKMKJMDPDH": ""
        },
        {
            "groupId": 199001185,
            "mapInstId": 185005,
            "aiGroupID": 199001185,
            "aiNeuronSetting": "DefaultSetting",
            "aiSensingTemplate": "DefaultTemplate",
            "disableWander": true,
            "NCKMKJMDPDH": ""
        },
        {
            "groupId": 199001185,
            "mapInstId": 185006,
            "aiGroupID": 199001185,
            "aiNeuronSetting": "DefaultSetting",
            "aiSensingTemplate": "DefaultTemplate",
            "disableWander": true,
            "NCKMKJMDPDH": ""
        },
        {
            "groupId": 199001186,
            "mapInstId": 186001,
            "aiGroupID": 199001186,
            "aiNeuronSetting": "DefaultSetting",
            "aiSensingTemplate": "DefaultTemplate",
            "disableWander": true,
            "NCKMKJMDPDH": ""
        },
        {
            "groupId": 199001186,
            "mapInstId": 186003,
            "aiGroupID": 199001186,
            "aiNeuronSetting": "DefaultSetting",
            "aiSensingTemplate": "DefaultTemplate",
            "disableWander": true,
            "NCKMKJMDPDH": ""
        },
        {
            "groupId": 199001186,
            "mapInstId": 186004,
            "routeId": 900100044,
            "aiGroupID": 199001186,
            "aiNeuronSetting": "DefaultSetting",
            "aiSensingTemplate": "DefaultTemplate",
            "NCKMKJMDPDH": ""
        },
        {
            "groupId": 199001186,
            "mapInstId": 186005,
            "routeId": 900100045,
            "aiGroupID": 199001186,
            "aiNeuronSetting": "DefaultSetting",
            "aiSensingTemplate": "DefaultTemplate",
            "NCKMKJMDPDH": ""
        },
        {
            "groupId": 199001187,
            "mapInstId": 187001,
            "routeId": 900100046,
            "aiGroupID": 199001187,
            "aiNeuronSetting": "DefaultSetting",
            "aiSensingTemplate": "DefaultTemplate",
            "NCKMKJMDPDH": ""
        },
        {
            "groupId": 199001187,
            "mapInstId": 187002,
            "aiGroupID": 199001187,
            "aiNeuronSetting": "DefaultSetting",
            "aiSensingTemplate": "DefaultTemplate",
            "disableWander": true,
            "NCKMKJMDPDH": ""
        },
        {
            "groupId": 199001187,
            "mapInstId": 187003,
            "aiGroupID": 199001187,
            "aiNeuronSetting": "DefaultSetting",
            "aiSensingTemplate": "DefaultTemplate",
            "disableWander": true,
            "NCKMKJMDPDH": ""
        },
        {
            "groupId": 199001188,
            "mapInstId": 188001,
            "aiGroupID": 199001188,
            "aiNeuronSetting": "DefaultSetting",
            "aiSensingTemplate": "DefaultTemplate",
            "disableWander": true,
            "NCKMKJMDPDH": ""
        },
        {
            "groupId": 199001188,
            "mapInstId": 188002,
            "aiGroupID": 199001188,
            "aiNeuronSetting": "DefaultSetting",
            "aiSensingTemplate": "DefaultTemplate",
            "NCKMKJMDPDH": ""
        },
        {
            "groupId": 199001188,
            "mapInstId": 188003,
            "aiGroupID": 199001188,
            "aiNeuronSetting": "DefaultSetting",
            "aiSensingTemplate": "DefaultTemplate",
            "disableWander": true,
            "NCKMKJMDPDH": ""
        },
        {
            "groupId": 199001188,
            "mapInstId": 188004,
            "aiGroupID": 199001188,
            "aiNeuronSetting": "DefaultSetting",
            "aiSensingTemplate": "DefaultTemplate",
            "disableWander": true,
            "NCKMKJMDPDH": ""
        },
        {
            "groupId": 199001189,
            "mapInstId": 189001,
            "aiGroupID": 199001189,
            "aiNeuronSetting": "DefaultSetting",
            "aiSensingTemplate": "DefaultTemplate",
            "disableWander": true,
            "NCKMKJMDPDH": ""
        },
        {
            "groupId": 199001189,
            "mapInstId": 189002,
            "aiGroupID": 199001189,
            "aiNeuronSetting": "DefaultSetting",
            "aiSensingTemplate": "DefaultTemplate",
            "disableWander": true,
            "NCKMKJMDPDH": ""
        },
        {
            "groupId": 199001189,
            "mapInstId": 189003,
            "aiGroupID": 199001189,
            "aiNeuronSetting": "DefaultSetting",
            "aiSensingTemplate": "DefaultTemplate",
            "NCKMKJMDPDH": ""
        },
        {
            "groupId": 199001189,
            "mapInstId": 189004,
            "aiGroupID": 199001189,
            "aiNeuronSetting": "DefaultSetting",
            "aiSensingTemplate": "DefaultTemplate",
            "NCKMKJMDPDH": ""
        },
        {
            "groupId": 199001189,
            "mapInstId": 189005,
            "aiGroupID": 199001189,
            "aiNeuronSetting": "DefaultSetting",
            "aiSensingTemplate": "DefaultTemplate",
            "NCKMKJMDPDH": ""
        },
        {
            "groupId": 199001200,
            "mapInstId": 200001,
            "aiGroupID": 199001200,
            "aiNeuronSetting": "DefaultSetting",
            "aiSensingTemplate": "DefaultTemplate",
            "disableWander": true,
            "NCKMKJMDPDH": ""
        },
        {
            "groupId": 199001200,
            "mapInstId": 200004,
            "aiGroupID": 199001200,
            "aiNeuronSetting": "DefaultSetting",
            "aiSensingTemplate": "DefaultTemplate",
            "disableWander": true,
            "NCKMKJMDPDH": ""
        },
        {
            "groupId": 199001200,
            "mapInstId": 200005,
            "aiGroupID": 199001200,
            "aiNeuronSetting": "DefaultSetting",
            "aiSensingTemplate": "DefaultTemplate",
            "disableWander": true,
            "NCKMKJMDPDH": ""
        },
        {
            "groupId": 199001200,
            "mapInstId": 200006,
            "aiGroupID": 199001200,
            "aiNeuronSetting": "DefaultSetting",
            "aiSensingTemplate": "DefaultTemplate",
            "disableWander": true,
            "NCKMKJMDPDH": ""
        },
        {
            "groupId": 199001200,
            "mapInstId": 200007,
            "aiGroupID": 199001200,
            "aiNeuronSetting": "DefaultSetting",
            "aiSensingTemplate": "DefaultTemplate",
            "disableWander": true,
            "NCKMKJMDPDH": ""
        },
        {
            "groupId": 199001201,
            "mapInstId": 201001,
            "aiGroupID": 199001201,
            "aiNeuronSetting": "DefaultSetting",
            "aiSensingTemplate": "DefaultTemplate",
            "disableWander": true,
            "NCKMKJMDPDH": ""
        },
        {
            "groupId": 199001201,
            "mapInstId": 201002,
            "aiGroupID": 199001201,
            "aiNeuronSetting": "DefaultSetting",
            "aiSensingTemplate": "DefaultTemplate",
            "disableWander": true,
            "NCKMKJMDPDH": ""
        },
        {
            "groupId": 199001201,
            "mapInstId": 201003,
            "aiGroupID": 199001201,
            "aiNeuronSetting": "DefaultSetting",
            "aiSensingTemplate": "DefaultTemplate",
            "disableWander": true,
            "NCKMKJMDPDH": ""
        },
        {
            "groupId": 199001224,
            "mapInstId": 224001,
            "aiGroupID": 199001224,
            "aiNeuronSetting": "DefaultSetting",
            "aiSensingTemplate": "DefaultTemplate",
            "disableWander": true,
            "NCKMKJMDPDH": ""
        },
        {
            "groupId": 199001224,
            "mapInstId": 224004,
            "aiGroupID": 199001224,
            "aiNeuronSetting": "DefaultSetting",
            "aiSensingTemplate": "DefaultTemplate",
            "disableWander": true,
            "NCKMKJMDPDH": ""
        },
        {
            "groupId": 199001224,
            "mapInstId": 224005,
            "aiGroupID": 199001224,
            "aiNeuronSetting": "DefaultSetting",
            "aiSensingTemplate": "DefaultTemplate",
            "disableWander": true,
            "NCKMKJMDPDH": ""
        },
        {
            "groupId": 199001225,
            "mapInstId": 225001,
            "aiGroupID": 199001225,
            "aiNeuronSetting": "DefaultSetting",
            "aiSensingTemplate": "DefaultTemplate",
            "disableWander": true,
            "NCKMKJMDPDH": ""
        },
        {
            "groupId": 199001225,
            "mapInstId": 225003,
            "routeId": 900100030,
            "aiGroupID": 199001225,
            "aiNeuronSetting": "DefaultSetting",
            "aiSensingTemplate": "DefaultTemplate",
            "disableWander": true,
            "NCKMKJMDPDH": ""
        },
        {
            "groupId": 199001225,
            "mapInstId": 225004,
            "aiGroupID": 199001225,
            "aiNeuronSetting": "DefaultSetting",
            "aiSensingTemplate": "DefaultTemplate",
            "disableWander": true,
            "NCKMKJMDPDH": ""
        },
        {
            "groupId": 199001225,
            "mapInstId": 225005,
            "aiGroupID": 199001225,
            "aiNeuronSetting": "DefaultSetting",
            "aiSensingTemplate": "DefaultTemplate",
            "disableWander": true,
            "NCKMKJMDPDH": ""
        },
        {
            "groupId": 199001226,
            "mapInstId": 226001,
            "aiGroupID": 199001226,
            "aiNeuronSetting": "DefaultSetting",
            "aiSensingTemplate": "DefaultTemplate",
            "disableWander": true,
            "NCKMKJMDPDH": ""
        },
        {
            "groupId": 199001226,
            "mapInstId": 226002,
            "aiGroupID": 199001226,
            "aiNeuronSetting": "DefaultSetting",
            "aiSensingTemplate": "DefaultTemplate",
            "disableWander": true,
            "NCKMKJMDPDH": ""
        },
        {
            "groupId": 199001226,
            "mapInstId": 226003,
            "aiGroupID": 199001226,
            "aiNeuronSetting": "DefaultSetting",
            "aiSensingTemplate": "DefaultTemplate",
            "disableWander": true,
            "NCKMKJMDPDH": ""
        },
        {
            "groupId": 199001227,
            "mapInstId": 227001,
            "aiGroupID": 199001227,
            "aiNeuronSetting": "DefaultSetting",
            "aiSensingTemplate": "DefaultTemplate",
            "disableWander": true,
            "NCKMKJMDPDH": ""
        },
        {
            "groupId": 199001227,
            "mapInstId": 227002,
            "aiGroupID": 199001227,
            "aiNeuronSetting": "DefaultSetting",
            "aiSensingTemplate": "DefaultTemplate",
            "disableWander": true,
            "NCKMKJMDPDH": ""
        },
        {
            "groupId": 199001227,
            "mapInstId": 227003,
            "aiGroupID": 199001227,
            "aiNeuronSetting": "DefaultSetting",
            "aiSensingTemplate": "DefaultTemplate",
            "disableWander": true,
            "NCKMKJMDPDH": ""
        },
        {
            "groupId": 199001227,
            "mapInstId": 227006,
            "aiGroupID": 199001227,
            "aiNeuronSetting": "DefaultSetting",
            "aiSensingTemplate": "DefaultTemplate",
            "disableWander": true,
            "NCKMKJMDPDH": ""
        },
        {
            "groupId": 199001227,
            "mapInstId": 227011,
            "aiGroupID": 199001227,
            "aiNeuronSetting": "DefaultSetting",
            "aiSensingTemplate": "DefaultTemplate",
            "disableWander": true,
            "NCKMKJMDPDH": ""
        },
        {
            "groupId": 199001242,
            "mapInstId": 242001,
            "aiGroupID": 199001242,
            "aiNeuronSetting": "DefaultSetting",
            "aiSensingTemplate": "DefaultTemplate",
            "forceCombatOnSpawn": true,
            "disableWander": true,
            "NCKMKJMDPDH": ""
        },
        {
            "groupId": 199001242,
            "mapInstId": 242002,
            "aiGroupID": 199001242,
            "aiNeuronSetting": "DefaultSetting",
            "aiSensingTemplate": "DefaultTemplate",
            "forceCombatOnSpawn": true,
            "disableWander": true,
            "NCKMKJMDPDH": ""
        },
        {
            "groupId": 199001242,
            "mapInstId": 242003,
            "aiGroupID": 199001242,
            "aiNeuronSetting": "DefaultSetting",
            "aiSensingTemplate": "DefaultTemplate",
            "forceCombatOnSpawn": true,
            "disableWander": true,
            "NCKMKJMDPDH": ""
        },
        {
            "groupId": 199001249,
            "mapInstId": 249003,
            "aiGroupID": 199001249,
            "aiNeuronSetting": "DefaultSetting",
            "aiSensingTemplate": "DefaultTemplate",
            "NCKMKJMDPDH": ""
        },
        {
            "groupId": 199001249,
            "mapInstId": 249004,
            "aiGroupID": 199001249,
            "aiNeuronSetting": "DefaultSetting",
            "aiSensingTemplate": "DefaultTemplate",
            "NCKMKJMDPDH": ""
        },
        {
            "groupId": 199001250,
            "mapInstId": 250003,
            "aiGroupID": 199001250,
            "aiNeuronSetting": "DefaultSetting",
            "aiSensingTemplate": "DefaultTemplate",
            "NCKMKJMDPDH": ""
        },
        {
            "groupId": 199001251,
            "mapInstId": 251002,
            "aiGroupID": 199001251,
            "aiNeuronSetting": "DefaultSetting",
            "aiSensingTemplate": "DefaultTemplate",
            "NCKMKJMDPDH": ""
        }
    ]
}