{
    "sceneId": 35849,
    "monsters": [
        {
            "groupId": 235849001,
            "mapInstId": 1001,
            "aiGroupID": 235849001,
            "aiNeuronSetting": "DefaultSetting",
            "aiSensingTemplate": "DefaultTemplate",
            "disableWander": true,
            "NCKMKJMDPDH": ""
        },
        {
            "groupId": 235849001,
            "mapInstId": 1002,
            "aiGroupID": 235849001,
            "aiNeuronSetting": "DefaultSetting",
            "aiSensingTemplate": "DefaultTemplate",
            "disableWander": true,
            "NCKMKJMDPDH": ""
        },
        {
            "groupId": 235849001,
            "mapInstId": 1003,
            "aiGroupID": 235849001,
            "aiNeuronSetting": "DefaultSetting",
            "aiSensingTemplate": "DefaultTemplate",
            "disableWander": true,
            "NCKMKJMDPDH": ""
        },
        {
            "groupId": 235849001,
            "mapInstId": 1004,
            "aiGroupID": 235849001,
            "aiNeuronSetting": "DefaultSetting",
            "aiSensingTemplate": "DefaultTemplate",
            "disableWander": true,
            "NCKMKJMDPDH": ""
        },
        {
            "groupId": 235849001,
            "mapInstId": 1005,
            "aiGroupID": 235849001,
            "aiNeuronSetting": "DefaultSetting",
            "aiSensingTemplate": "DefaultTemplate",
            "disableWander": true,
            "NCKMKJMDPDH": ""
        },
        {
            "groupId": 235849001,
            "mapInstId": 1006,
            "aiGroupID": 235849001,
            "aiNeuronSetting": "DefaultSetting",
            "aiSensingTemplate": "DefaultTemplate",
            "disableWander": true,
            "NCKMKJMDPDH": ""
        },
        {
            "groupId": 235849001,
            "mapInstId": 1007,
            "aiGroupID": 235849001,
            "aiNeuronSetting": "DefaultSetting",
            "aiSensingTemplate": "DefaultTemplate",
            "disableWander": true,
            "NCKMKJMDPDH": ""
        },
        {
            "groupId": 235849001,
            "mapInstId": 1008,
            "aiGroupID": 235849001,
            "aiNeuronSetting": "DefaultSetting",
            "aiSensingTemplate": "DefaultTemplate",
            "disableWander": true,
            "NCKMKJMDPDH": ""
        },
        {
            "groupId": 235849001,
            "mapInstId": 1009,
            "aiGroupID": 235849001,
            "aiNeuronSetting": "DefaultSetting",
            "aiSensingTemplate": "DefaultTemplate",
            "disableWander": true,
            "NCKMKJMDPDH": ""
        },
        {
            "groupId": 235849001,
            "mapInstId": 1010,
            "aiGroupID": 235849001,
            "aiNeuronSetting": "DefaultSetting",
            "aiSensingTemplate": "DefaultTemplate",
            "disableWander": true,
            "NCKMKJMDPDH": ""
        },
        {
            "groupId": 235849001,
            "mapInstId": 1011,
            "aiGroupID": 235849001,
            "aiNeuronSetting": "DefaultSetting",
            "aiSensingTemplate": "DefaultTemplate",
            "disableWander": true,
            "NCKMKJMDPDH": ""
        },
        {
            "groupId": 235849001,
            "mapInstId": 1012,
            "aiGroupID": 235849001,
            "aiNeuronSetting": "DefaultSetting",
            "aiSensingTemplate": "DefaultTemplate",
            "disableWander": true,
            "billboardHasUIBar": true,
            "NCKMKJMDPDH": ""
        },
        {
            "groupId": 235849001,
            "mapInstId": 1013,
            "aiGroupID": 235849001,
            "CBNANHBMMNC": true,
            "DGLJAJDAPNH": 99.0,
            "aiNeuronSetting": "DefaultSetting",
            "aiSensingTemplate": "DefaultTemplate",
            "disableWander": true,
            "NCKMKJMDPDH": ""
        },
        {
            "groupId": 235849001,
            "mapInstId": 1014,
            "aiGroupID": 235849001,
            "aiNeuronSetting": "DefaultSetting",
            "aiSensingTemplate": "DefaultTemplate",
            "disableWander": true,
            "NCKMKJMDPDH": ""
        },
        {
            "groupId": 235849001,
            "mapInstId": 1015,
            "aiGroupID": 235849001,
            "aiNeuronSetting": "DefaultSetting",
            "aiSensingTemplate": "DefaultTemplate",
            "disableWander": true,
            "billboardHasUIBar": true,
            "NCKMKJMDPDH": ""
        },
        {
            "groupId": 235849001,
            "mapInstId": 1045,
            "aiGroupID": 235849001,
            "aiNeuronSetting": "DefaultSetting",
            "aiSensingTemplate": "DefaultTemplate",
            "disableWander": true,
            "billboardHasUIBar": true,
            "NCKMKJMDPDH": ""
        },
        {
            "groupId": 235849001,
            "mapInstId": 1046,
            "aiGroupID": 235849001,
            "aiNeuronSetting": "DefaultSetting",
            "aiSensingTemplate": "DefaultTemplate",
            "disableWander": true,
            "billboardHasUIBar": true,
            "NCKMKJMDPDH": ""
        }
    ]
}