{
    "sceneId": 35840,
    "monsters": [
        {
            "groupId": 235840001,
            "mapInstId": 1002,
            "aiGroupID": 235840001,
            "CBNANHBMMNC": true,
            "DGLJAJDAPNH": 99.0,
            "LGAONPKJDEC": true,
            "clearThreatTargetDistance": 99.0,
            "aiNeuronSetting": "DefaultSetting",
            "aiSensingTemplate": "DefaultTemplate",
            "forceCombatOnSpawn": true,
            "disableWander": true,
            "NCKMKJMDPDH": ""
        },
        {
            "groupId": 235840001,
            "mapInstId": 1003,
            "aiGroupID": 235840001,
            "CBNANHBMMNC": true,
            "DGLJAJDAPNH": 99.0,
            "LGAONPKJDEC": true,
            "clearThreatTargetDistance": 99.0,
            "aiNeuronSetting": "DefaultSetting",
            "aiSensingTemplate": "DefaultTemplate",
            "forceCombatOnSpawn": true,
            "disableWander": true,
            "NCKMKJMDPDH": ""
        },
        {
            "groupId": 235840001,
            "mapInstId": 1004,
            "aiGroupID": 235840001,
            "CBNANHBMMNC": true,
            "DGLJAJDAPNH": 99.0,
            "LGAONPKJDEC": true,
            "clearThreatTargetDistance": 99.0,
            "aiNeuronSetting": "DefaultSetting",
            "aiSensingTemplate": "DefaultTemplate",
            "forceCombatOnSpawn": true,
            "disableWander": true,
            "NCKMKJMDPDH": ""
        },
        {
            "groupId": 235840001,
            "mapInstId": 1005,
            "aiGroupID": 235840001,
            "CBNANHBMMNC": true,
            "DGLJAJDAPNH": 99.0,
            "LGAONPKJDEC": true,
            "clearThreatTargetDistance": 99.0,
            "aiNeuronSetting": "DefaultSetting",
            "aiSensingTemplate": "DefaultTemplate",
            "forceCombatOnSpawn": true,
            "disableWander": true,
            "NCKMKJMDPDH": ""
        },
        {
            "groupId": 235840001,
            "mapInstId": 1006,
            "aiGroupID": 235840001,
            "CBNANHBMMNC": true,
            "DGLJAJDAPNH": 99.0,
            "LGAONPKJDEC": true,
            "clearThreatTargetDistance": 99.0,
            "aiNeuronSetting": "DefaultSetting",
            "aiSensingTemplate": "DefaultTemplate",
            "forceCombatOnSpawn": true,
            "disableWander": true,
            "NCKMKJMDPDH": ""
        },
        {
            "groupId": 235840001,
            "mapInstId": 1007,
            "aiGroupID": 235840001,
            "CBNANHBMMNC": true,
            "DGLJAJDAPNH": 99.0,
            "LGAONPKJDEC": true,
            "clearThreatTargetDistance": 99.0,
            "aiNeuronSetting": "DefaultSetting",
            "aiSensingTemplate": "DefaultTemplate",
            "forceCombatOnSpawn": true,
            "disableWander": true,
            "NCKMKJMDPDH": ""
        },
        {
            "groupId": 235840001,
            "mapInstId": 1008,
            "aiGroupID": 235840001,
            "CBNANHBMMNC": true,
            "DGLJAJDAPNH": 99.0,
            "LGAONPKJDEC": true,
            "clearThreatTargetDistance": 99.0,
            "aiNeuronSetting": "DefaultSetting",
            "aiSensingTemplate": "DefaultTemplate",
            "forceCombatOnSpawn": true,
            "disableWander": true,
            "NCKMKJMDPDH": ""
        },
        {
            "groupId": 235840001,
            "mapInstId": 1009,
            "aiGroupID": 235840001,
            "CBNANHBMMNC": true,
            "DGLJAJDAPNH": 99.0,
            "LGAONPKJDEC": true,
            "clearThreatTargetDistance": 99.0,
            "aiNeuronSetting": "DefaultSetting",
            "aiSensingTemplate": "DefaultTemplate",
            "forceCombatOnSpawn": true,
            "disableWander": true,
            "NCKMKJMDPDH": ""
        },
        {
            "groupId": 235840001,
            "mapInstId": 1010,
            "aiGroupID": 235840001,
            "CBNANHBMMNC": true,
            "DGLJAJDAPNH": 99.0,
            "LGAONPKJDEC": true,
            "clearThreatTargetDistance": 99.0,
            "aiNeuronSetting": "DefaultSetting",
            "aiSensingTemplate": "DefaultTemplate",
            "forceCombatOnSpawn": true,
            "disableWander": true,
            "NCKMKJMDPDH": ""
        },
        {
            "groupId": 235840001,
            "mapInstId": 1011,
            "aiGroupID": 235840001,
            "CBNANHBMMNC": true,
            "DGLJAJDAPNH": 99.0,
            "LGAONPKJDEC": true,
            "clearThreatTargetDistance": 99.0,
            "aiNeuronSetting": "DefaultSetting",
            "aiSensingTemplate": "DefaultTemplate",
            "forceCombatOnSpawn": true,
            "disableWander": true,
            "NCKMKJMDPDH": ""
        },
        {
            "groupId": 235840001,
            "mapInstId": 1012,
            "aiGroupID": 235840001,
            "CBNANHBMMNC": true,
            "DGLJAJDAPNH": 99.0,
            "LGAONPKJDEC": true,
            "clearThreatTargetDistance": 99.0,
            "aiNeuronSetting": "DefaultSetting",
            "aiSensingTemplate": "DefaultTemplate",
            "forceCombatOnSpawn": true,
            "disableWander": true,
            "NCKMKJMDPDH": ""
        },
        {
            "groupId": 235840001,
            "mapInstId": 1013,
            "aiGroupID": 235840001,
            "CBNANHBMMNC": true,
            "DGLJAJDAPNH": 99.0,
            "LGAONPKJDEC": true,
            "clearThreatTargetDistance": 99.0,
            "aiNeuronSetting": "DefaultSetting",
            "aiSensingTemplate": "DefaultTemplate",
            "forceCombatOnSpawn": true,
            "disableWander": true,
            "NCKMKJMDPDH": ""
        },
        {
            "groupId": 235840001,
            "mapInstId": 1014,
            "aiGroupID": 235840001,
            "CBNANHBMMNC": true,
            "DGLJAJDAPNH": 99.0,
            "LGAONPKJDEC": true,
            "clearThreatTargetDistance": 99.0,
            "aiNeuronSetting": "DefaultSetting",
            "aiSensingTemplate": "DefaultTemplate",
            "forceCombatOnSpawn": true,
            "disableWander": true,
            "NCKMKJMDPDH": ""
        },
        {
            "groupId": 235840001,
            "mapInstId": 1015,
            "aiGroupID": 235840001,
            "CBNANHBMMNC": true,
            "DGLJAJDAPNH": 99.0,
            "LGAONPKJDEC": true,
            "clearThreatTargetDistance": 99.0,
            "aiNeuronSetting": "DefaultSetting",
            "aiSensingTemplate": "DefaultTemplate",
            "forceCombatOnSpawn": true,
            "disableWander": true,
            "NCKMKJMDPDH": ""
        },
        {
            "groupId": 235840001,
            "mapInstId": 1016,
            "aiGroupID": 235840001,
            "CBNANHBMMNC": true,
            "DGLJAJDAPNH": 99.0,
            "LGAONPKJDEC": true,
            "clearThreatTargetDistance": 99.0,
            "aiNeuronSetting": "DefaultSetting",
            "aiSensingTemplate": "DefaultTemplate",
            "forceCombatOnSpawn": true,
            "disableWander": true,
            "NCKMKJMDPDH": ""
        },
        {
            "groupId": 235840001,
            "mapInstId": 1017,
            "aiGroupID": 235840001,
            "CBNANHBMMNC": true,
            "DGLJAJDAPNH": 99.0,
            "LGAONPKJDEC": true,
            "clearThreatTargetDistance": 99.0,
            "aiNeuronSetting": "DefaultSetting",
            "aiSensingTemplate": "DefaultTemplate",
            "forceCombatOnSpawn": true,
            "disableWander": true,
            "NCKMKJMDPDH": ""
        },
        {
            "groupId": 235840001,
            "mapInstId": 1018,
            "aiGroupID": 235840001,
            "CBNANHBMMNC": true,
            "DGLJAJDAPNH": 99.0,
            "LGAONPKJDEC": true,
            "clearThreatTargetDistance": 99.0,
            "aiNeuronSetting": "DefaultSetting",
            "aiSensingTemplate": "DefaultTemplate",
            "forceCombatOnSpawn": true,
            "disableWander": true,
            "NCKMKJMDPDH": ""
        },
        {
            "groupId": 235840001,
            "mapInstId": 1019,
            "aiGroupID": 235840001,
            "CBNANHBMMNC": true,
            "DGLJAJDAPNH": 99.0,
            "LGAONPKJDEC": true,
            "clearThreatTargetDistance": 99.0,
            "aiNeuronSetting": "DefaultSetting",
            "aiSensingTemplate": "DefaultTemplate",
            "forceCombatOnSpawn": true,
            "disableWander": true,
            "NCKMKJMDPDH": ""
        },
        {
            "groupId": 235840001,
            "mapInstId": 1020,
            "aiGroupID": 235840001,
            "CBNANHBMMNC": true,
            "DGLJAJDAPNH": 99.0,
            "LGAONPKJDEC": true,
            "clearThreatTargetDistance": 99.0,
            "aiNeuronSetting": "DefaultSetting",
            "aiSensingTemplate": "DefaultTemplate",
            "forceCombatOnSpawn": true,
            "disableWander": true,
            "NCKMKJMDPDH": ""
        },
        {
            "groupId": 235840001,
            "mapInstId": 1021,
            "aiGroupID": 235840001,
            "CBNANHBMMNC": true,
            "DGLJAJDAPNH": 99.0,
            "LGAONPKJDEC": true,
            "clearThreatTargetDistance": 99.0,
            "aiNeuronSetting": "DefaultSetting",
            "aiSensingTemplate": "DefaultTemplate",
            "forceCombatOnSpawn": true,
            "disableWander": true,
            "NCKMKJMDPDH": ""
        },
        {
            "groupId": 235840001,
            "mapInstId": 1022,
            "aiGroupID": 235840001,
            "CBNANHBMMNC": true,
            "DGLJAJDAPNH": 99.0,
            "LGAONPKJDEC": true,
            "clearThreatTargetDistance": 99.0,
            "aiNeuronSetting": "DefaultSetting",
            "aiSensingTemplate": "DefaultTemplate",
            "forceCombatOnSpawn": true,
            "disableWander": true,
            "NCKMKJMDPDH": ""
        },
        {
            "groupId": 235840001,
            "mapInstId": 1023,
            "aiGroupID": 235840001,
            "CBNANHBMMNC": true,
            "DGLJAJDAPNH": 99.0,
            "LGAONPKJDEC": true,
            "clearThreatTargetDistance": 99.0,
            "aiNeuronSetting": "DefaultSetting",
            "aiSensingTemplate": "DefaultTemplate",
            "forceCombatOnSpawn": true,
            "disableWander": true,
            "NCKMKJMDPDH": ""
        },
        {
            "groupId": 235840001,
            "mapInstId": 1024,
            "aiGroupID": 235840001,
            "CBNANHBMMNC": true,
            "DGLJAJDAPNH": 99.0,
            "LGAONPKJDEC": true,
            "clearThreatTargetDistance": 99.0,
            "aiNeuronSetting": "DefaultSetting",
            "aiSensingTemplate": "DefaultTemplate",
            "forceCombatOnSpawn": true,
            "disableWander": true,
            "NCKMKJMDPDH": ""
        },
        {
            "groupId": 235840001,
            "mapInstId": 1025,
            "aiGroupID": 235840001,
            "CBNANHBMMNC": true,
            "DGLJAJDAPNH": 99.0,
            "LGAONPKJDEC": true,
            "clearThreatTargetDistance": 99.0,
            "aiNeuronSetting": "DefaultSetting",
            "aiSensingTemplate": "DefaultTemplate",
            "forceCombatOnSpawn": true,
            "disableWander": true,
            "NCKMKJMDPDH": ""
        },
        {
            "groupId": 235840001,
            "mapInstId": 1026,
            "aiGroupID": 235840001,
            "CBNANHBMMNC": true,
            "DGLJAJDAPNH": 99.0,
            "LGAONPKJDEC": true,
            "clearThreatTargetDistance": 99.0,
            "aiNeuronSetting": "DefaultSetting",
            "aiSensingTemplate": "DefaultTemplate",
            "forceCombatOnSpawn": true,
            "disableWander": true,
            "NCKMKJMDPDH": ""
        },
        {
            "groupId": 235840001,
            "mapInstId": 1027,
            "aiGroupID": 235840001,
            "CBNANHBMMNC": true,
            "DGLJAJDAPNH": 99.0,
            "LGAONPKJDEC": true,
            "clearThreatTargetDistance": 99.0,
            "aiNeuronSetting": "DefaultSetting",
            "aiSensingTemplate": "DefaultTemplate",
            "forceCombatOnSpawn": true,
            "disableWander": true,
            "NCKMKJMDPDH": ""
        },
        {
            "groupId": 235840001,
            "mapInstId": 1028,
            "aiGroupID": 235840001,
            "CBNANHBMMNC": true,
            "DGLJAJDAPNH": 99.0,
            "LGAONPKJDEC": true,
            "clearThreatTargetDistance": 99.0,
            "aiNeuronSetting": "DefaultSetting",
            "aiSensingTemplate": "DefaultTemplate",
            "forceCombatOnSpawn": true,
            "disableWander": true,
            "NCKMKJMDPDH": ""
        },
        {
            "groupId": 235840001,
            "mapInstId": 1029,
            "aiGroupID": 235840001,
            "CBNANHBMMNC": true,
            "DGLJAJDAPNH": 99.0,
            "LGAONPKJDEC": true,
            "clearThreatTargetDistance": 99.0,
            "aiNeuronSetting": "DefaultSetting",
            "aiSensingTemplate": "DefaultTemplate",
            "forceCombatOnSpawn": true,
            "disableWander": true,
            "NCKMKJMDPDH": ""
        },
        {
            "groupId": 235840001,
            "mapInstId": 1042,
            "aiGroupID": 235840001,
            "CBNANHBMMNC": true,
            "DGLJAJDAPNH": 99.0,
            "LGAONPKJDEC": true,
            "clearThreatTargetDistance": 99.0,
            "aiNeuronSetting": "DefaultSetting",
            "aiSensingTemplate": "DefaultTemplate",
            "forceCombatOnSpawn": true,
            "disableWander": true,
            "NCKMKJMDPDH": ""
        },
        {
            "groupId": 235840001,
            "mapInstId": 1043,
            "aiGroupID": 235840001,
            "CBNANHBMMNC": true,
            "DGLJAJDAPNH": 99.0,
            "LGAONPKJDEC": true,
            "clearThreatTargetDistance": 99.0,
            "aiNeuronSetting": "DefaultSetting",
            "aiSensingTemplate": "DefaultTemplate",
            "forceCombatOnSpawn": true,
            "disableWander": true,
            "NCKMKJMDPDH": ""
        },
        {
            "groupId": 235840002,
            "mapInstId": 2001,
            "aiGroupID": 235840002,
            "CBNANHBMMNC": true,
            "DGLJAJDAPNH": 99.0,
            "LGAONPKJDEC": true,
            "clearThreatTargetDistance": 99.0,
            "aiNeuronSetting": "DefaultSetting",
            "aiSensingTemplate": "DefaultTemplate",
            "forceCombatOnSpawn": true,
            "disableWander": true,
            "NCKMKJMDPDH": ""
        },
        {
            "groupId": 235840002,
            "mapInstId": 2002,
            "aiGroupID": 235840002,
            "CBNANHBMMNC": true,
            "DGLJAJDAPNH": 99.0,
            "LGAONPKJDEC": true,
            "clearThreatTargetDistance": 99.0,
            "aiNeuronSetting": "DefaultSetting",
            "aiSensingTemplate": "DefaultTemplate",
            "forceCombatOnSpawn": true,
            "disableWander": true,
            "NCKMKJMDPDH": ""
        },
        {
            "groupId": 235840002,
            "mapInstId": 2003,
            "aiGroupID": 235840002,
            "CBNANHBMMNC": true,
            "DGLJAJDAPNH": 99.0,
            "LGAONPKJDEC": true,
            "clearThreatTargetDistance": 99.0,
            "aiNeuronSetting": "DefaultSetting",
            "aiSensingTemplate": "DefaultTemplate",
            "forceCombatOnSpawn": true,
            "disableWander": true,
            "NCKMKJMDPDH": ""
        },
        {
            "groupId": 235840002,
            "mapInstId": 2004,
            "aiGroupID": 235840002,
            "CBNANHBMMNC": true,
            "DGLJAJDAPNH": 99.0,
            "LGAONPKJDEC": true,
            "clearThreatTargetDistance": 99.0,
            "aiNeuronSetting": "DefaultSetting",
            "aiSensingTemplate": "DefaultTemplate",
            "forceCombatOnSpawn": true,
            "disableWander": true,
            "NCKMKJMDPDH": ""
        },
        {
            "groupId": 235840002,
            "mapInstId": 2005,
            "aiGroupID": 235840002,
            "CBNANHBMMNC": true,
            "DGLJAJDAPNH": 99.0,
            "LGAONPKJDEC": true,
            "clearThreatTargetDistance": 99.0,
            "aiNeuronSetting": "DefaultSetting",
            "aiSensingTemplate": "DefaultTemplate",
            "forceCombatOnSpawn": true,
            "disableWander": true,
            "NCKMKJMDPDH": ""
        },
        {
            "groupId": 235840002,
            "mapInstId": 2006,
            "aiGroupID": 235840002,
            "CBNANHBMMNC": true,
            "DGLJAJDAPNH": 99.0,
            "LGAONPKJDEC": true,
            "clearThreatTargetDistance": 99.0,
            "aiNeuronSetting": "DefaultSetting",
            "aiSensingTemplate": "DefaultTemplate",
            "forceCombatOnSpawn": true,
            "disableWander": true,
            "NCKMKJMDPDH": ""
        },
        {
            "groupId": 235840002,
            "mapInstId": 2007,
            "aiGroupID": 235840002,
            "CBNANHBMMNC": true,
            "DGLJAJDAPNH": 99.0,
            "LGAONPKJDEC": true,
            "clearThreatTargetDistance": 99.0,
            "aiNeuronSetting": "DefaultSetting",
            "aiSensingTemplate": "DefaultTemplate",
            "forceCombatOnSpawn": true,
            "disableWander": true,
            "NCKMKJMDPDH": ""
        },
        {
            "groupId": 235840002,
            "mapInstId": 2008,
            "aiGroupID": 235840002,
            "CBNANHBMMNC": true,
            "DGLJAJDAPNH": 99.0,
            "LGAONPKJDEC": true,
            "clearThreatTargetDistance": 99.0,
            "aiNeuronSetting": "DefaultSetting",
            "aiSensingTemplate": "DefaultTemplate",
            "forceCombatOnSpawn": true,
            "disableWander": true,
            "NCKMKJMDPDH": ""
        },
        {
            "groupId": 235840002,
            "mapInstId": 2009,
            "aiGroupID": 235840002,
            "CBNANHBMMNC": true,
            "DGLJAJDAPNH": 99.0,
            "LGAONPKJDEC": true,
            "clearThreatTargetDistance": 99.0,
            "aiNeuronSetting": "DefaultSetting",
            "aiSensingTemplate": "DefaultTemplate",
            "forceCombatOnSpawn": true,
            "disableWander": true,
            "NCKMKJMDPDH": ""
        },
        {
            "groupId": 235840002,
            "mapInstId": 2010,
            "aiGroupID": 235840002,
            "CBNANHBMMNC": true,
            "DGLJAJDAPNH": 99.0,
            "LGAONPKJDEC": true,
            "clearThreatTargetDistance": 99.0,
            "aiNeuronSetting": "DefaultSetting",
            "aiSensingTemplate": "DefaultTemplate",
            "forceCombatOnSpawn": true,
            "disableWander": true,
            "NCKMKJMDPDH": ""
        },
        {
            "groupId": 235840002,
            "mapInstId": 2011,
            "aiGroupID": 235840002,
            "CBNANHBMMNC": true,
            "DGLJAJDAPNH": 99.0,
            "LGAONPKJDEC": true,
            "clearThreatTargetDistance": 99.0,
            "aiNeuronSetting": "DefaultSetting",
            "aiSensingTemplate": "DefaultTemplate",
            "forceCombatOnSpawn": true,
            "disableWander": true,
            "NCKMKJMDPDH": ""
        },
        {
            "groupId": 235840002,
            "mapInstId": 2012,
            "aiGroupID": 235840002,
            "CBNANHBMMNC": true,
            "DGLJAJDAPNH": 99.0,
            "LGAONPKJDEC": true,
            "clearThreatTargetDistance": 99.0,
            "aiNeuronSetting": "DefaultSetting",
            "aiSensingTemplate": "DefaultTemplate",
            "forceCombatOnSpawn": true,
            "disableWander": true,
            "NCKMKJMDPDH": ""
        },
        {
            "groupId": 235840002,
            "mapInstId": 2013,
            "aiGroupID": 235840002,
            "CBNANHBMMNC": true,
            "DGLJAJDAPNH": 99.0,
            "LGAONPKJDEC": true,
            "clearThreatTargetDistance": 99.0,
            "aiNeuronSetting": "DefaultSetting",
            "aiSensingTemplate": "DefaultTemplate",
            "forceCombatOnSpawn": true,
            "disableWander": true,
            "NCKMKJMDPDH": ""
        },
        {
            "groupId": 235840002,
            "mapInstId": 2014,
            "aiGroupID": 235840002,
            "CBNANHBMMNC": true,
            "DGLJAJDAPNH": 99.0,
            "LGAONPKJDEC": true,
            "clearThreatTargetDistance": 99.0,
            "aiNeuronSetting": "DefaultSetting",
            "aiSensingTemplate": "DefaultTemplate",
            "forceCombatOnSpawn": true,
            "disableWander": true,
            "NCKMKJMDPDH": ""
        },
        {
            "groupId": 235840002,
            "mapInstId": 2015,
            "aiGroupID": 235840002,
            "CBNANHBMMNC": true,
            "DGLJAJDAPNH": 99.0,
            "LGAONPKJDEC": true,
            "clearThreatTargetDistance": 99.0,
            "aiNeuronSetting": "DefaultSetting",
            "aiSensingTemplate": "DefaultTemplate",
            "forceCombatOnSpawn": true,
            "disableWander": true,
            "NCKMKJMDPDH": ""
        },
        {
            "groupId": 235840002,
            "mapInstId": 2016,
            "aiGroupID": 235840002,
            "CBNANHBMMNC": true,
            "DGLJAJDAPNH": 99.0,
            "LGAONPKJDEC": true,
            "clearThreatTargetDistance": 99.0,
            "aiNeuronSetting": "DefaultSetting",
            "aiSensingTemplate": "DefaultTemplate",
            "forceCombatOnSpawn": true,
            "disableWander": true,
            "NCKMKJMDPDH": ""
        },
        {
            "groupId": 235840002,
            "mapInstId": 2017,
            "aiGroupID": 235840002,
            "CBNANHBMMNC": true,
            "DGLJAJDAPNH": 99.0,
            "LGAONPKJDEC": true,
            "clearThreatTargetDistance": 99.0,
            "aiNeuronSetting": "DefaultSetting",
            "aiSensingTemplate": "DefaultTemplate",
            "forceCombatOnSpawn": true,
            "disableWander": true,
            "NCKMKJMDPDH": ""
        },
        {
            "groupId": 235840002,
            "mapInstId": 2018,
            "aiGroupID": 235840002,
            "CBNANHBMMNC": true,
            "DGLJAJDAPNH": 99.0,
            "LGAONPKJDEC": true,
            "clearThreatTargetDistance": 99.0,
            "aiNeuronSetting": "DefaultSetting",
            "aiSensingTemplate": "DefaultTemplate",
            "forceCombatOnSpawn": true,
            "disableWander": true,
            "NCKMKJMDPDH": ""
        },
        {
            "groupId": 235840002,
            "mapInstId": 2019,
            "aiGroupID": 235840002,
            "CBNANHBMMNC": true,
            "DGLJAJDAPNH": 99.0,
            "LGAONPKJDEC": true,
            "clearThreatTargetDistance": 99.0,
            "aiNeuronSetting": "DefaultSetting",
            "aiSensingTemplate": "DefaultTemplate",
            "forceCombatOnSpawn": true,
            "disableWander": true,
            "NCKMKJMDPDH": ""
        },
        {
            "groupId": 235840002,
            "mapInstId": 2020,
            "aiGroupID": 235840002,
            "CBNANHBMMNC": true,
            "DGLJAJDAPNH": 99.0,
            "LGAONPKJDEC": true,
            "clearThreatTargetDistance": 99.0,
            "aiNeuronSetting": "DefaultSetting",
            "aiSensingTemplate": "DefaultTemplate",
            "forceCombatOnSpawn": true,
            "disableWander": true,
            "NCKMKJMDPDH": ""
        },
        {
            "groupId": 235840002,
            "mapInstId": 2023,
            "aiGroupID": 235840002,
            "CBNANHBMMNC": true,
            "DGLJAJDAPNH": 99.0,
            "LGAONPKJDEC": true,
            "clearThreatTargetDistance": 99.0,
            "aiNeuronSetting": "DefaultSetting",
            "aiSensingTemplate": "DefaultTemplate",
            "forceCombatOnSpawn": true,
            "disableWander": true,
            "NCKMKJMDPDH": ""
        },
        {
            "groupId": 235840002,
            "mapInstId": 2024,
            "aiGroupID": 235840002,
            "CBNANHBMMNC": true,
            "DGLJAJDAPNH": 99.0,
            "LGAONPKJDEC": true,
            "clearThreatTargetDistance": 99.0,
            "aiNeuronSetting": "DefaultSetting",
            "aiSensingTemplate": "DefaultTemplate",
            "forceCombatOnSpawn": true,
            "disableWander": true,
            "NCKMKJMDPDH": ""
        },
        {
            "groupId": 235840002,
            "mapInstId": 2025,
            "aiGroupID": 235840002,
            "CBNANHBMMNC": true,
            "DGLJAJDAPNH": 99.0,
            "LGAONPKJDEC": true,
            "clearThreatTargetDistance": 99.0,
            "aiNeuronSetting": "DefaultSetting",
            "aiSensingTemplate": "DefaultTemplate",
            "forceCombatOnSpawn": true,
            "disableWander": true,
            "NCKMKJMDPDH": ""
        },
        {
            "groupId": 235840002,
            "mapInstId": 2026,
            "aiGroupID": 235840002,
            "CBNANHBMMNC": true,
            "DGLJAJDAPNH": 99.0,
            "LGAONPKJDEC": true,
            "clearThreatTargetDistance": 99.0,
            "aiNeuronSetting": "DefaultSetting",
            "aiSensingTemplate": "DefaultTemplate",
            "forceCombatOnSpawn": true,
            "disableWander": true,
            "NCKMKJMDPDH": ""
        },
        {
            "groupId": 235840002,
            "mapInstId": 2027,
            "aiGroupID": 235840002,
            "CBNANHBMMNC": true,
            "DGLJAJDAPNH": 99.0,
            "LGAONPKJDEC": true,
            "clearThreatTargetDistance": 99.0,
            "aiNeuronSetting": "DefaultSetting",
            "aiSensingTemplate": "DefaultTemplate",
            "forceCombatOnSpawn": true,
            "disableWander": true,
            "NCKMKJMDPDH": ""
        },
        {
            "groupId": 235840002,
            "mapInstId": 2028,
            "aiGroupID": 235840002,
            "CBNANHBMMNC": true,
            "DGLJAJDAPNH": 99.0,
            "LGAONPKJDEC": true,
            "clearThreatTargetDistance": 99.0,
            "aiNeuronSetting": "DefaultSetting",
            "aiSensingTemplate": "DefaultTemplate",
            "forceCombatOnSpawn": true,
            "disableWander": true,
            "NCKMKJMDPDH": ""
        },
        {
            "groupId": 235840002,
            "mapInstId": 2029,
            "aiGroupID": 235840002,
            "CBNANHBMMNC": true,
            "DGLJAJDAPNH": 99.0,
            "LGAONPKJDEC": true,
            "clearThreatTargetDistance": 99.0,
            "aiNeuronSetting": "DefaultSetting",
            "aiSensingTemplate": "DefaultTemplate",
            "forceCombatOnSpawn": true,
            "disableWander": true,
            "NCKMKJMDPDH": ""
        },
        {
            "groupId": 235840002,
            "mapInstId": 2030,
            "aiGroupID": 235840002,
            "CBNANHBMMNC": true,
            "DGLJAJDAPNH": 99.0,
            "LGAONPKJDEC": true,
            "clearThreatTargetDistance": 99.0,
            "aiNeuronSetting": "DefaultSetting",
            "aiSensingTemplate": "DefaultTemplate",
            "forceCombatOnSpawn": true,
            "disableWander": true,
            "NCKMKJMDPDH": ""
        },
        {
            "groupId": 235840002,
            "mapInstId": 2034,
            "aiGroupID": 235840002,
            "CBNANHBMMNC": true,
            "DGLJAJDAPNH": 99.0,
            "LGAONPKJDEC": true,
            "clearThreatTargetDistance": 99.0,
            "aiNeuronSetting": "DefaultSetting",
            "aiSensingTemplate": "DefaultTemplate",
            "forceCombatOnSpawn": true,
            "disableWander": true,
            "NCKMKJMDPDH": ""
        },
        {
            "groupId": 235840002,
            "mapInstId": 2035,
            "aiGroupID": 235840002,
            "CBNANHBMMNC": true,
            "DGLJAJDAPNH": 99.0,
            "LGAONPKJDEC": true,
            "clearThreatTargetDistance": 99.0,
            "aiNeuronSetting": "DefaultSetting",
            "aiSensingTemplate": "DefaultTemplate",
            "forceCombatOnSpawn": true,
            "disableWander": true,
            "NCKMKJMDPDH": ""
        },
        {
            "groupId": 235840002,
            "mapInstId": 2036,
            "aiGroupID": 235840002,
            "CBNANHBMMNC": true,
            "DGLJAJDAPNH": 99.0,
            "LGAONPKJDEC": true,
            "clearThreatTargetDistance": 99.0,
            "aiNeuronSetting": "DefaultSetting",
            "aiSensingTemplate": "DefaultTemplate",
            "forceCombatOnSpawn": true,
            "disableWander": true,
            "NCKMKJMDPDH": ""
        },
        {
            "groupId": 235840002,
            "mapInstId": 2037,
            "aiGroupID": 235840002,
            "CBNANHBMMNC": true,
            "DGLJAJDAPNH": 99.0,
            "LGAONPKJDEC": true,
            "clearThreatTargetDistance": 99.0,
            "aiNeuronSetting": "DefaultSetting",
            "aiSensingTemplate": "DefaultTemplate",
            "forceCombatOnSpawn": true,
            "disableWander": true,
            "NCKMKJMDPDH": ""
        },
        {
            "groupId": 235840002,
            "mapInstId": 2038,
            "aiGroupID": 235840002,
            "CBNANHBMMNC": true,
            "DGLJAJDAPNH": 99.0,
            "LGAONPKJDEC": true,
            "clearThreatTargetDistance": 99.0,
            "aiNeuronSetting": "DefaultSetting",
            "aiSensingTemplate": "DefaultTemplate",
            "forceCombatOnSpawn": true,
            "disableWander": true,
            "NCKMKJMDPDH": ""
        },
        {
            "groupId": 235840002,
            "mapInstId": 2039,
            "aiGroupID": 235840002,
            "CBNANHBMMNC": true,
            "DGLJAJDAPNH": 99.0,
            "LGAONPKJDEC": true,
            "clearThreatTargetDistance": 99.0,
            "aiNeuronSetting": "DefaultSetting",
            "aiSensingTemplate": "DefaultTemplate",
            "forceCombatOnSpawn": true,
            "disableWander": true,
            "NCKMKJMDPDH": ""
        },
        {
            "groupId": 235840002,
            "mapInstId": 2040,
            "aiGroupID": 235840002,
            "CBNANHBMMNC": true,
            "DGLJAJDAPNH": 99.0,
            "LGAONPKJDEC": true,
            "clearThreatTargetDistance": 99.0,
            "aiNeuronSetting": "DefaultSetting",
            "aiSensingTemplate": "DefaultTemplate",
            "forceCombatOnSpawn": true,
            "disableWander": true,
            "NCKMKJMDPDH": ""
        },
        {
            "groupId": 235840002,
            "mapInstId": 2041,
            "aiGroupID": 235840002,
            "CBNANHBMMNC": true,
            "DGLJAJDAPNH": 99.0,
            "LGAONPKJDEC": true,
            "clearThreatTargetDistance": 99.0,
            "aiNeuronSetting": "DefaultSetting",
            "aiSensingTemplate": "DefaultTemplate",
            "forceCombatOnSpawn": true,
            "disableWander": true,
            "NCKMKJMDPDH": ""
        },
        {
            "groupId": 235840002,
            "mapInstId": 2042,
            "aiGroupID": 235840002,
            "CBNANHBMMNC": true,
            "DGLJAJDAPNH": 99.0,
            "LGAONPKJDEC": true,
            "clearThreatTargetDistance": 99.0,
            "aiNeuronSetting": "DefaultSetting",
            "aiSensingTemplate": "DefaultTemplate",
            "forceCombatOnSpawn": true,
            "disableWander": true,
            "NCKMKJMDPDH": ""
        },
        {
            "groupId": 235840002,
            "mapInstId": 2043,
            "aiGroupID": 235840002,
            "CBNANHBMMNC": true,
            "DGLJAJDAPNH": 99.0,
            "LGAONPKJDEC": true,
            "clearThreatTargetDistance": 99.0,
            "aiNeuronSetting": "DefaultSetting",
            "aiSensingTemplate": "DefaultTemplate",
            "forceCombatOnSpawn": true,
            "disableWander": true,
            "NCKMKJMDPDH": ""
        }
    ]
}