{
    "sceneId": 40618,
    "monsters": [
        {
            "groupId": 240618002,
            "mapInstId": 2001,
            "aiGroupID": 240618002,
            "CBNANHBMMNC": true,
            "DGLJAJDAPNH": 999.0,
            "IHCHOJDLMMH": true,
            "defendAreaRange": 999.0,
            "aiNeuronSetting": "DefaultSetting",
            "aiSensingTemplate": "DefaultTemplate",
            "forceCombatOnSpawn": true,
            "disableWander": true,
            "NCKMKJMDPDH": ""
        },
        {
            "groupId": 240618002,
            "mapInstId": 2002,
            "aiGroupID": 240618002,
            "CBNANHBMMNC": true,
            "DGLJAJDAPNH": 999.0,
            "IHCHOJDLMMH": true,
            "defendAreaRange": 999.0,
            "aiNeuronSetting": "DefaultSetting",
            "aiSensingTemplate": "DefaultTemplate",
            "forceCombatOnSpawn": true,
            "disableWander": true,
            "NCKMKJMDPDH": ""
        },
        {
            "groupId": 240618002,
            "mapInstId": 2003,
            "aiGroupID": 240618002,
            "CBNANHBMMNC": true,
            "DGLJAJDAPNH": 999.0,
            "IHCHOJDLMMH": true,
            "defendAreaRange": 999.0,
            "aiNeuronSetting": "DefaultSetting",
            "aiSensingTemplate": "DefaultTemplate",
            "forceCombatOnSpawn": true,
            "disableWander": true,
            "NCKMKJMDPDH": ""
        },
        {
            "groupId": 240618002,
            "mapInstId": 2004,
            "aiGroupID": 240618002,
            "CBNANHBMMNC": true,
            "DGLJAJDAPNH": 999.0,
            "IHCHOJDLMMH": true,
            "defendAreaRange": 999.0,
            "aiNeuronSetting": "DefaultSetting",
            "aiSensingTemplate": "DefaultTemplate",
            "forceCombatOnSpawn": true,
            "disableWander": true,
            "NCKMKJMDPDH": ""
        }
    ]
}