{
    "sceneId": 34738,
    "monsters": [
        {
            "groupId": 234738007,
            "mapInstId": 7001,
            "aiGroupID": 234738007,
            "CBNANHBMMNC": true,
            "DGLJAJDAPNH": 999.0,
            "LGAONPKJDEC": true,
            "clearThreatTargetDistance": 999.0,
            "aiNeuronSetting": "DefaultSetting",
            "aiSensingTemplate": "DefaultTemplate",
            "forceCombatOnSpawn": true,
            "disableWander": true,
            "NCKMKJMDPDH": ""
        },
        {
            "groupId": 234738007,
            "mapInstId": 7003,
            "aiGroupID": 234738007,
            "CBNANHBMMNC": true,
            "DGLJAJDAPNH": 999.0,
            "LGAONPKJDEC": true,
            "clearThreatTargetDistance": 999.0,
            "aiNeuronSetting": "DefaultSetting",
            "aiSensingTemplate": "DefaultTemplate",
            "forceCombatOnSpawn": true,
            "disableWander": true,
            "NCKMKJMDPDH": ""
        },
        {
            "groupId": 234738007,
            "mapInstId": 7004,
            "aiGroupID": 234738007,
            "CBNANHBMMNC": true,
            "DGLJAJDAPNH": 999.0,
            "LGAONPKJDEC": true,
            "clearThreatTargetDistance": 999.0,
            "aiNeuronSetting": "DefaultSetting",
            "aiSensingTemplate": "DefaultTemplate",
            "forceCombatOnSpawn": true,
            "disableWander": true,
            "NCKMKJMDPDH": ""
        },
        {
            "groupId": 234738007,
            "mapInstId": 7006,
            "aiGroupID": 234738007,
            "CBNANHBMMNC": true,
            "DGLJAJDAPNH": 999.0,
            "LGAONPKJDEC": true,
            "clearThreatTargetDistance": 999.0,
            "aiNeuronSetting": "DefaultSetting",
            "aiSensingTemplate": "DefaultTemplate",
            "forceCombatOnSpawn": true,
            "disableWander": true,
            "NCKMKJMDPDH": ""
        },
        {
            "groupId": 234738007,
            "mapInstId": 7007,
            "aiGroupID": 234738007,
            "CBNANHBMMNC": true,
            "DGLJAJDAPNH": 999.0,
            "LGAONPKJDEC": true,
            "clearThreatTargetDistance": 999.0,
            "aiNeuronSetting": "DefaultSetting",
            "aiSensingTemplate": "DefaultTemplate",
            "forceCombatOnSpawn": true,
            "disableWander": true,
            "NCKMKJMDPDH": ""
        },
        {
            "groupId": 234738008,
            "mapInstId": 8003,
            "aiGroupID": 234738008,
            "CBNANHBMMNC": true,
            "DGLJAJDAPNH": 999.0,
            "LGAONPKJDEC": true,
            "clearThreatTargetDistance": 999.0,
            "aiNeuronSetting": "DefaultSetting",
            "aiSensingTemplate": "DefaultTemplate",
            "forceCombatOnSpawn": true,
            "disableWander": true,
            "NCKMKJMDPDH": ""
        },
        {
            "groupId": 234738008,
            "mapInstId": 8007,
            "aiGroupID": 234738008,
            "CBNANHBMMNC": true,
            "DGLJAJDAPNH": 999.0,
            "LGAONPKJDEC": true,
            "clearThreatTargetDistance": 999.0,
            "aiNeuronSetting": "DefaultSetting",
            "aiSensingTemplate": "DefaultTemplate",
            "forceCombatOnSpawn": true,
            "disableWander": true,
            "NCKMKJMDPDH": ""
        }
    ]
}