{
    "sceneId": 20115,
    "monsters": [
        {
            "groupId": 220115001,
            "mapInstId": 1003,
            "defendAreaID": 1,
            "aiNeuronSetting": "DefaultSetting",
            "aiSensingTemplate": "DefaultTemplate",
            "billboardHasUIBar": true,
            "billboardHpBarStyle": "Boss",
            "NCKMKJMDPDH": ""
        },
        {
            "groupId": 220115001,
            "mapInstId": 1004,
            "defendAreaID": 1,
            "aiNeuronSetting": "DefaultSetting",
            "aiSensingTemplate": "DefaultTemplate",
            "billboardHasUIBar": true,
            "billboardHpBarStyle": "Boss",
            "NCKMKJMDPDH": ""
        }
    ]
}