{
    "sceneId": 35741,
    "monsters": [
        {
            "groupId": 235741007,
            "mapInstId": 7001,
            "aiGroupID": 235741007,
            "CBNANHBMMNC": true,
            "DGLJAJDAPNH": 999.0,
            "LGAONPKJDEC": true,
            "clearThreatTargetDistance": 999.0,
            "aiNeuronSetting": "DefaultSetting",
            "aiSensingTemplate": "DefaultTemplate",
            "forceCombatOnSpawn": true,
            "disableWander": true,
            "NCKMKJMDPDH": ""
        },
        {
            "groupId": 235741007,
            "mapInstId": 7002,
            "aiGroupID": 235741007,
            "CBNANHBMMNC": true,
            "DGLJAJDAPNH": 999.0,
            "LGAONPKJDEC": true,
            "clearThreatTargetDistance": 999.0,
            "aiNeuronSetting": "DefaultSetting",
            "aiSensingTemplate": "DefaultTemplate",
            "forceCombatOnSpawn": true,
            "disableWander": true,
            "NCKMKJMDPDH": ""
        },
        {
            "groupId": 235741007,
            "mapInstId": 7003,
            "aiGroupID": 235741007,
            "CBNANHBMMNC": true,
            "DGLJAJDAPNH": 999.0,
            "LGAONPKJDEC": true,
            "clearThreatTargetDistance": 999.0,
            "aiNeuronSetting": "DefaultSetting",
            "aiSensingTemplate": "DefaultTemplate",
            "forceCombatOnSpawn": true,
            "disableWander": true,
            "NCKMKJMDPDH": ""
        },
        {
            "groupId": 235741007,
            "mapInstId": 7004,
            "aiGroupID": 235741007,
            "CBNANHBMMNC": true,
            "DGLJAJDAPNH": 999.0,
            "LGAONPKJDEC": true,
            "clearThreatTargetDistance": 999.0,
            "aiNeuronSetting": "DefaultSetting",
            "aiSensingTemplate": "DefaultTemplate",
            "forceCombatOnSpawn": true,
            "disableWander": true,
            "NCKMKJMDPDH": ""
        },
        {
            "groupId": 235741007,
            "mapInstId": 7005,
            "aiGroupID": 235741007,
            "CBNANHBMMNC": true,
            "DGLJAJDAPNH": 999.0,
            "LGAONPKJDEC": true,
            "clearThreatTargetDistance": 999.0,
            "aiNeuronSetting": "DefaultSetting",
            "aiSensingTemplate": "DefaultTemplate",
            "forceCombatOnSpawn": true,
            "disableWander": true,
            "NCKMKJMDPDH": ""
        },
        {
            "groupId": 235741007,
            "mapInstId": 7006,
            "aiGroupID": 235741007,
            "CBNANHBMMNC": true,
            "DGLJAJDAPNH": 999.0,
            "LGAONPKJDEC": true,
            "clearThreatTargetDistance": 999.0,
            "aiNeuronSetting": "DefaultSetting",
            "aiSensingTemplate": "DefaultTemplate",
            "forceCombatOnSpawn": true,
            "disableWander": true,
            "NCKMKJMDPDH": ""
        },
        {
            "groupId": 235741007,
            "mapInstId": 7007,
            "aiGroupID": 235741007,
            "CBNANHBMMNC": true,
            "DGLJAJDAPNH": 999.0,
            "LGAONPKJDEC": true,
            "clearThreatTargetDistance": 999.0,
            "aiNeuronSetting": "DefaultSetting",
            "aiSensingTemplate": "DefaultTemplate",
            "forceCombatOnSpawn": true,
            "disableWander": true,
            "NCKMKJMDPDH": ""
        },
        {
            "groupId": 235741007,
            "mapInstId": 7008,
            "aiGroupID": 235741007,
            "CBNANHBMMNC": true,
            "DGLJAJDAPNH": 999.0,
            "LGAONPKJDEC": true,
            "clearThreatTargetDistance": 999.0,
            "aiNeuronSetting": "DefaultSetting",
            "aiSensingTemplate": "DefaultTemplate",
            "forceCombatOnSpawn": true,
            "disableWander": true,
            "NCKMKJMDPDH": ""
        },
        {
            "groupId": 235741007,
            "mapInstId": 7009,
            "aiGroupID": 235741007,
            "CBNANHBMMNC": true,
            "DGLJAJDAPNH": 999.0,
            "LGAONPKJDEC": true,
            "clearThreatTargetDistance": 999.0,
            "aiNeuronSetting": "DefaultSetting",
            "aiSensingTemplate": "DefaultTemplate",
            "forceCombatOnSpawn": true,
            "disableWander": true,
            "NCKMKJMDPDH": ""
        },
        {
            "groupId": 235741007,
            "mapInstId": 7012,
            "aiGroupID": 235741007,
            "CBNANHBMMNC": true,
            "DGLJAJDAPNH": 999.0,
            "LGAONPKJDEC": true,
            "clearThreatTargetDistance": 999.0,
            "aiNeuronSetting": "DefaultSetting",
            "aiSensingTemplate": "DefaultTemplate",
            "forceCombatOnSpawn": true,
            "disableWander": true,
            "NCKMKJMDPDH": ""
        },
        {
            "groupId": 235741007,
            "mapInstId": 7016,
            "aiGroupID": 235741007,
            "CBNANHBMMNC": true,
            "DGLJAJDAPNH": 999.0,
            "LGAONPKJDEC": true,
            "clearThreatTargetDistance": 999.0,
            "aiNeuronSetting": "DefaultSetting",
            "aiSensingTemplate": "DefaultTemplate",
            "forceCombatOnSpawn": true,
            "disableWander": true,
            "NCKMKJMDPDH": ""
        },
        {
            "groupId": 235741007,
            "mapInstId": 7017,
            "aiGroupID": 235741007,
            "CBNANHBMMNC": true,
            "DGLJAJDAPNH": 999.0,
            "LGAONPKJDEC": true,
            "clearThreatTargetDistance": 999.0,
            "aiNeuronSetting": "DefaultSetting",
            "aiSensingTemplate": "DefaultTemplate",
            "forceCombatOnSpawn": true,
            "disableWander": true,
            "NCKMKJMDPDH": ""
        },
        {
            "groupId": 235741008,
            "mapInstId": 8001,
            "aiGroupID": 235741008,
            "CBNANHBMMNC": true,
            "DGLJAJDAPNH": 999.0,
            "LGAONPKJDEC": true,
            "clearThreatTargetDistance": 999.0,
            "aiNeuronSetting": "DefaultSetting",
            "aiSensingTemplate": "DefaultTemplate",
            "forceCombatOnSpawn": true,
            "disableWander": true,
            "billboardHasUIBar": true,
            "NCKMKJMDPDH": ""
        }
    ]
}