{
    "sceneId": 7,
    "monsters": [
        {
            "groupId": 177003005,
            "mapInstId": 5001,
            "aiNeuronSetting": "DefaultSetting",
            "aiSensingTemplate": "DefaultTemplate",
            "disableWander": true,
            "NCKMKJMDPDH": ""
        },
        {
            "groupId": 177003012,
            "mapInstId": 12002,
            "aiGroupID": 177003012,
            "aiNeuronSetting": "DefaultSetting",
            "aiSensingTemplate": "DefaultTemplate",
            "NCKMKJMDPDH": ""
        },
        {
            "groupId": 177003012,
            "mapInstId": 12003,
            "aiGroupID": 177003012,
            "aiNeuronSetting": "DefaultSetting",
            "aiSensingTemplate": "DefaultTemplate",
            "disableWander": true,
            "NCKMKJMDPDH": ""
        }
    ]
}