{
    "sceneId": 34728,
    "monsters": [
        {
            "groupId": 234728004,
            "mapInstId": 4004,
            "aiGroupID": 234728004,
            "CBNANHBMMNC": true,
            "DGLJAJDAPNH": 999.0,
            "LGAONPKJDEC": true,
            "clearThreatTargetDistance": 999.0,
            "aiNeuronSetting": "DefaultSetting",
            "aiSensingTemplate": "DefaultTemplate",
            "forceCombatOnSpawn": true,
            "disableWander": true,
            "billboardHasUIBar": true,
            "NCKMKJMDPDH": ""
        },
        {
            "groupId": 234728005,
            "mapInstId": 5001,
            "aiGroupID": 234728005,
            "CBNANHBMMNC": true,
            "DGLJAJDAPNH": 999.0,
            "LGAONPKJDEC": true,
            "clearThreatTargetDistance": 999.0,
            "aiNeuronSetting": "DefaultSetting",
            "aiSensingTemplate": "DefaultTemplate",
            "forceCombatOnSpawn": true,
            "disableWander": true,
            "LPMJAKBHFIA": 3,
            "NCKMKJMDPDH": ""
        },
        {
            "groupId": 234728005,
            "mapInstId": 5002,
            "aiGroupID": 234728005,
            "CBNANHBMMNC": true,
            "DGLJAJDAPNH": 999.0,
            "LGAONPKJDEC": true,
            "clearThreatTargetDistance": 999.0,
            "aiNeuronSetting": "DefaultSetting",
            "aiSensingTemplate": "DefaultTemplate",
            "forceCombatOnSpawn": true,
            "disableWander": true,
            "CJJKJDJDDLJ": 2,
            "LPMJAKBHFIA": 3,
            "NCKMKJMDPDH": ""
        }
    ]
}