{
    "sceneId": 7,
    "monsters": [
        {
            "groupId": 177007001,
            "mapInstId": 1001,
            "aiNeuronSetting": "DefaultSetting",
            "aiSensingTemplate": "DefaultTemplate",
            "disableWander": true,
            "NCKMKJMDPDH": ""
        },
        {
            "groupId": 177007001,
            "mapInstId": 1003,
            "aiNeuronSetting": "DefaultSetting",
            "aiSensingTemplate": "DefaultTemplate",
            "disableWander": true,
            "NCKMKJMDPDH": ""
        },
        {
            "groupId": 177007001,
            "mapInstId": 1004,
            "aiNeuronSetting": "DefaultSetting",
            "aiSensingTemplate": "DefaultTemplate",
            "disableWander": true,
            "NCKMKJMDPDH": ""
        },
        {
            "groupId": 177007001,
            "mapInstId": 1005,
            "aiNeuronSetting": "DefaultSetting",
            "aiSensingTemplate": "DefaultTemplate",
            "disableWander": true,
            "NCKMKJMDPDH": ""
        },
        {
            "groupId": 177007002,
            "mapInstId": 2001,
            "aiNeuronSetting": "DefaultSetting",
            "aiSensingTemplate": "DefaultTemplate",
            "forceCombatOnSpawn": true,
            "NCKMKJMDPDH": ""
        },
        {
            "groupId": 177007002,
            "mapInstId": 2003,
            "aiNeuronSetting": "DefaultSetting",
            "aiSensingTemplate": "DefaultTemplate",
            "forceCombatOnSpawn": true,
            "NCKMKJMDPDH": ""
        },
        {
            "groupId": 177007002,
            "mapInstId": 2004,
            "aiNeuronSetting": "DefaultSetting",
            "aiSensingTemplate": "DefaultTemplate",
            "forceCombatOnSpawn": true,
            "NCKMKJMDPDH": ""
        },
        {
            "groupId": 177005017,
            "mapInstId": 17001,
            "routeId": 700500041,
            "aiGroupID": 177005017,
            "aiNeuronSetting": "DefaultSetting",
            "aiSensingTemplate": "DefaultTemplate",
            "NCKMKJMDPDH": ""
        },
        {
            "groupId": 177005017,
            "mapInstId": 17004,
            "aiGroupID": 177005017,
            "aiNeuronSetting": "DefaultSetting",
            "aiSensingTemplate": "DefaultTemplate",
            "disableWander": true,
            "NCKMKJMDPDH": ""
        },
        {
            "groupId": 177005017,
            "mapInstId": 17005,
            "aiGroupID": 177005017,
            "aiNeuronSetting": "DefaultSetting",
            "aiSensingTemplate": "DefaultTemplate",
            "disableWander": true,
            "NCKMKJMDPDH": ""
        },
        {
            "groupId": 177005022,
            "mapInstId": 22001,
            "aiGroupID": 177005022,
            "IHCHOJDLMMH": true,
            "defendAreaRange": 80.0,
            "defendAreaID": 700500001,
            "aiNeuronSetting": "DefaultSetting",
            "aiSensingTemplate": "LowAlert",
            "billboardHasUIBar": true,
            "billboardShowUIBarDis": 160.0,
            "billboardHideUIBarDis": 160.0,
            "billboardUIBarNeedEnterCombat": true,
            "LPMJAKBHFIA": 2,
            "NCKMKJMDPDH": ""
        },
        {
            "groupId": 177005022,
            "mapInstId": 22002,
            "aiGroupID": 177005022,
            "IHCHOJDLMMH": true,
            "defendAreaRange": 80.0,
            "defendAreaID": 700500001,
            "aiNeuronSetting": "DefaultSetting",
            "aiSensingTemplate": "LowAlert",
            "billboardHasUIBar": true,
            "billboardShowUIBarDis": 160.0,
            "billboardHideUIBarDis": 160.0,
            "billboardUIBarNeedEnterCombat": true,
            "CJJKJDJDDLJ": 1,
            "LPMJAKBHFIA": 2,
            "NCKMKJMDPDH": ""
        },
        {
            "groupId": 177005023,
            "mapInstId": 23001,
            "aiGroupID": 177005023,
            "aiNeuronSetting": "DefaultSetting",
            "aiSensingTemplate": "DefaultTemplate",
            "disableWander": true,
            "NCKMKJMDPDH": ""
        },
        {
            "groupId": 177005028,
            "mapInstId": 28001,
            "aiGroupID": 177005028,
            "aiNeuronSetting": "DefaultSetting",
            "aiSensingTemplate": "DefaultTemplate",
            "disableWander": true,
            "NCKMKJMDPDH": ""
        },
        {
            "groupId": 177005029,
            "mapInstId": 29001,
            "aiGroupID": 177005029,
            "aiNeuronSetting": "DefaultSetting",
            "aiSensingTemplate": "DefaultTemplate",
            "NCKMKJMDPDH": ""
        },
        {
            "groupId": 177005029,
            "mapInstId": 29004,
            "aiGroupID": 177005029,
            "aiNeuronSetting": "DefaultSetting",
            "aiSensingTemplate": "DefaultTemplate",
            "NCKMKJMDPDH": ""
        },
        {
            "groupId": 177005029,
            "mapInstId": 29005,
            "aiGroupID": 177005029,
            "aiNeuronSetting": "DefaultSetting",
            "aiSensingTemplate": "DefaultTemplate",
            "NCKMKJMDPDH": ""
        },
        {
            "groupId": 177005029,
            "mapInstId": 29014,
            "aiGroupID": 177005029,
            "aiNeuronSetting": "DefaultSetting",
            "aiSensingTemplate": "DefaultTemplate",
            "NCKMKJMDPDH": ""
        },
        {
            "groupId": 177005063,
            "mapInstId": 63001,
            "aiGroupID": 177005063,
            "aiNeuronSetting": "DefaultSetting",
            "aiSensingTemplate": "DefaultTemplate",
            "disableWander": true,
            "NCKMKJMDPDH": ""
        },
        {
            "groupId": 177005063,
            "mapInstId": 63004,
            "aiGroupID": 177005063,
            "aiNeuronSetting": "DefaultSetting",
            "aiSensingTemplate": "DefaultTemplate",
            "NCKMKJMDPDH": ""
        },
        {
            "groupId": 177005063,
            "mapInstId": 63005,
            "aiGroupID": 177005063,
            "aiNeuronSetting": "DefaultSetting",
            "aiSensingTemplate": "DefaultTemplate",
            "NCKMKJMDPDH": ""
        },
        {
            "groupId": 177005063,
            "mapInstId": 63007,
            "aiGroupID": 177005063,
            "aiNeuronSetting": "DefaultSetting",
            "aiSensingTemplate": "DefaultTemplate",
            "disableWander": true,
            "NCKMKJMDPDH": ""
        },
        {
            "groupId": 177005063,
            "mapInstId": 63016,
            "aiGroupID": 177005063,
            "aiNeuronSetting": "DefaultSetting",
            "aiSensingTemplate": "DefaultTemplate",
            "NCKMKJMDPDH": ""
        },
        {
            "groupId": 177005064,
            "mapInstId": 64001,
            "aiGroupID": 177005064,
            "aiNeuronSetting": "DefaultSetting",
            "aiSensingTemplate": "DefaultTemplate",
            "NCKMKJMDPDH": ""
        },
        {
            "groupId": 177005064,
            "mapInstId": 64004,
            "aiGroupID": 177005064,
            "aiNeuronSetting": "DefaultSetting",
            "aiSensingTemplate": "DefaultTemplate",
            "NCKMKJMDPDH": ""
        },
        {
            "groupId": 177005066,
            "mapInstId": 66001,
            "aiGroupID": 177005066,
            "aiNeuronSetting": "DefaultSetting",
            "aiSensingTemplate": "DefaultTemplate",
            "NCKMKJMDPDH": ""
        },
        {
            "groupId": 177005066,
            "mapInstId": 66004,
            "aiGroupID": 177005066,
            "aiNeuronSetting": "DefaultSetting",
            "aiSensingTemplate": "DefaultTemplate",
            "NCKMKJMDPDH": ""
        },
        {
            "groupId": 177005075,
            "mapInstId": 75001,
            "aiGroupID": 177005075,
            "defendAreaID": 700500001,
            "aiNeuronSetting": "DefaultSetting",
            "aiSensingTemplate": "DefaultTemplate",
            "billboardHasUIBar": true,
            "billboardShowUIBarDis": 160.0,
            "billboardHideUIBarDis": 160.0,
            "billboardUIBarNeedEnterCombat": true,
            "LPMJAKBHFIA": 2,
            "NCKMKJMDPDH": ""
        },
        {
            "groupId": 177005075,
            "mapInstId": 75002,
            "aiGroupID": 177005075,
            "defendAreaID": 700500001,
            "aiNeuronSetting": "DefaultSetting",
            "aiSensingTemplate": "DefaultTemplate",
            "billboardHasUIBar": true,
            "billboardShowUIBarDis": 160.0,
            "billboardHideUIBarDis": 160.0,
            "billboardUIBarNeedEnterCombat": true,
            "CJJKJDJDDLJ": 1,
            "LPMJAKBHFIA": 2,
            "NCKMKJMDPDH": ""
        },
        {
            "groupId": 177005075,
            "mapInstId": 75019,
            "aiGroupID": 177005075,
            "defendAreaID": 700500001,
            "aiNeuronSetting": "DefaultSetting",
            "aiSensingTemplate": "DefaultTemplate",
            "billboardHasUIBar": true,
            "billboardShowUIBarDis": 160.0,
            "billboardHideUIBarDis": 160.0,
            "billboardUIBarNeedEnterCombat": true,
            "LPMJAKBHFIA": 2,
            "NCKMKJMDPDH": ""
        },
        {
            "groupId": 177005075,
            "mapInstId": 75020,
            "aiGroupID": 177005075,
            "defendAreaID": 700500001,
            "aiNeuronSetting": "DefaultSetting",
            "aiSensingTemplate": "DefaultTemplate",
            "billboardHasUIBar": true,
            "billboardShowUIBarDis": 160.0,
            "billboardHideUIBarDis": 160.0,
            "billboardUIBarNeedEnterCombat": true,
            "CJJKJDJDDLJ": 1,
            "LPMJAKBHFIA": 2,
            "NCKMKJMDPDH": ""
        },
        {
            "groupId": 177005075,
            "mapInstId": 75021,
            "aiGroupID": 177005075,
            "defendAreaID": 700500001,
            "aiNeuronSetting": "DefaultSetting",
            "aiSensingTemplate": "DefaultTemplate",
            "billboardHasUIBar": true,
            "billboardShowUIBarDis": 160.0,
            "billboardHideUIBarDis": 160.0,
            "billboardUIBarNeedEnterCombat": true,
            "LPMJAKBHFIA": 2,
            "NCKMKJMDPDH": ""
        },
        {
            "groupId": 177005075,
            "mapInstId": 75022,
            "aiGroupID": 177005075,
            "defendAreaID": 700500001,
            "aiNeuronSetting": "DefaultSetting",
            "aiSensingTemplate": "DefaultTemplate",
            "billboardHasUIBar": true,
            "billboardShowUIBarDis": 160.0,
            "billboardHideUIBarDis": 160.0,
            "billboardUIBarNeedEnterCombat": true,
            "CJJKJDJDDLJ": 1,
            "LPMJAKBHFIA": 2,
            "NCKMKJMDPDH": ""
        },
        {
            "groupId": 177005085,
            "mapInstId": 85001,
            "aiGroupID": 177005085,
            "aiNeuronSetting": "DefaultSetting",
            "aiSensingTemplate": "DefaultTemplate",
            "forceCombatOnSpawn": true,
            "disableWander": true,
            "NCKMKJMDPDH": ""
        },
        {
            "groupId": 177005085,
            "mapInstId": 85002,
            "aiGroupID": 177005085,
            "aiNeuronSetting": "DefaultSetting",
            "aiSensingTemplate": "DefaultTemplate",
            "forceCombatOnSpawn": true,
            "disableWander": true,
            "NCKMKJMDPDH": ""
        },
        {
            "groupId": 177005085,
            "mapInstId": 85003,
            "aiGroupID": 177005085,
            "aiNeuronSetting": "DefaultSetting",
            "aiSensingTemplate": "DefaultTemplate",
            "forceCombatOnSpawn": true,
            "disableWander": true,
            "NCKMKJMDPDH": ""
        },
        {
            "groupId": 177005085,
            "mapInstId": 85015,
            "aiGroupID": 177005085,
            "aiNeuronSetting": "DefaultSetting",
            "aiSensingTemplate": "DefaultTemplate",
            "forceCombatOnSpawn": true,
            "disableWander": true,
            "NCKMKJMDPDH": ""
        },
        {
            "groupId": 177005087,
            "mapInstId": 87001,
            "aiGroupID": 177005087,
            "aiNeuronSetting": "DefaultSetting",
            "aiSensingTemplate": "DefaultTemplate",
            "forceCombatOnSpawn": true,
            "disableWander": true,
            "NCKMKJMDPDH": ""
        },
        {
            "groupId": 177005087,
            "mapInstId": 87002,
            "aiGroupID": 177005087,
            "aiNeuronSetting": "DefaultSetting",
            "aiSensingTemplate": "DefaultTemplate",
            "forceCombatOnSpawn": true,
            "disableWander": true,
            "NCKMKJMDPDH": ""
        },
        {
            "groupId": 177005089,
            "mapInstId": 89002,
            "aiGroupID": 177005089,
            "aiNeuronSetting": "DefaultSetting",
            "aiSensingTemplate": "DefaultTemplate",
            "forceCombatOnSpawn": true,
            "disableWander": true,
            "NCKMKJMDPDH": ""
        },
        {
            "groupId": 177005089,
            "mapInstId": 89003,
            "aiGroupID": 177005089,
            "aiNeuronSetting": "DefaultSetting",
            "aiSensingTemplate": "DefaultTemplate",
            "forceCombatOnSpawn": true,
            "disableWander": true,
            "NCKMKJMDPDH": ""
        },
        {
            "groupId": 177005101,
            "mapInstId": 101002,
            "aiGroupID": 177005101,
            "aiNeuronSetting": "DefaultSetting",
            "aiSensingTemplate": "DefaultTemplate",
            "billboardHasUIBar": true,
            "billboardUIBarNeedEnterCombat": true,
            "NCKMKJMDPDH": ""
        },
        {
            "groupId": 177005108,
            "mapInstId": 108005,
            "aiGroupID": 177005108,
            "aiNeuronSetting": "DefaultSetting",
            "aiSensingTemplate": "DefaultTemplate",
            "disableWander": true,
            "NCKMKJMDPDH": ""
        },
        {
            "groupId": 177005108,
            "mapInstId": 108006,
            "aiGroupID": 177005108,
            "aiNeuronSetting": "DefaultSetting",
            "aiSensingTemplate": "DefaultTemplate",
            "NCKMKJMDPDH": ""
        },
        {
            "groupId": 177005108,
            "mapInstId": 108008,
            "aiGroupID": 177005108,
            "aiNeuronSetting": "DefaultSetting",
            "aiSensingTemplate": "DefaultTemplate",
            "NCKMKJMDPDH": ""
        },
        {
            "groupId": 177005146,
            "mapInstId": 146012,
            "aiGroupID": 177005146,
            "aiNeuronSetting": "DefaultSetting",
            "aiSensingTemplate": "DefaultTemplate",
            "NCKMKJMDPDH": ""
        },
        {
            "groupId": 177005146,
            "mapInstId": 146013,
            "aiGroupID": 177005146,
            "aiNeuronSetting": "DefaultSetting",
            "aiSensingTemplate": "DefaultTemplate",
            "NCKMKJMDPDH": ""
        },
        {
            "groupId": 177005146,
            "mapInstId": 146014,
            "aiGroupID": 177005146,
            "aiNeuronSetting": "DefaultSetting",
            "aiSensingTemplate": "DefaultTemplate",
            "NCKMKJMDPDH": ""
        },
        {
            "groupId": 177005146,
            "mapInstId": 146015,
            "aiGroupID": 177005146,
            "aiNeuronSetting": "DefaultSetting",
            "aiSensingTemplate": "DefaultTemplate",
            "NCKMKJMDPDH": ""
        },
        {
            "groupId": 177005146,
            "mapInstId": 146016,
            "aiGroupID": 177005146,
            "aiNeuronSetting": "DefaultSetting",
            "aiSensingTemplate": "DefaultTemplate",
            "NCKMKJMDPDH": ""
        },
        {
            "groupId": 177005146,
            "mapInstId": 146017,
            "aiGroupID": 177005146,
            "aiNeuronSetting": "DefaultSetting",
            "aiSensingTemplate": "DefaultTemplate",
            "NCKMKJMDPDH": ""
        },
        {
            "groupId": 177005154,
            "mapInstId": 154001,
            "aiGroupID": 177005154,
            "aiNeuronSetting": "DefaultSetting",
            "aiSensingTemplate": "DefaultTemplate",
            "NCKMKJMDPDH": ""
        },
        {
            "groupId": 177005154,
            "mapInstId": 154004,
            "aiGroupID": 177005154,
            "aiNeuronSetting": "DefaultSetting",
            "aiSensingTemplate": "DefaultTemplate",
            "disableWander": true,
            "NCKMKJMDPDH": ""
        },
        {
            "groupId": 177005154,
            "mapInstId": 154005,
            "aiGroupID": 177005154,
            "aiNeuronSetting": "DefaultSetting",
            "aiSensingTemplate": "DefaultTemplate",
            "NCKMKJMDPDH": ""
        },
        {
            "groupId": 177005154,
            "mapInstId": 154006,
            "aiGroupID": 177005154,
            "aiNeuronSetting": "DefaultSetting",
            "aiSensingTemplate": "DefaultTemplate",
            "NCKMKJMDPDH": ""
        },
        {
            "groupId": 177005154,
            "mapInstId": 154007,
            "aiGroupID": 177005154,
            "aiNeuronSetting": "DefaultSetting",
            "aiSensingTemplate": "DefaultTemplate",
            "NCKMKJMDPDH": ""
        },
        {
            "groupId": 177005155,
            "mapInstId": 155003,
            "aiGroupID": 177005155,
            "aiNeuronSetting": "DefaultSetting",
            "aiSensingTemplate": "DefaultTemplate",
            "forceCombatOnSpawn": true,
            "disableWander": true,
            "NCKMKJMDPDH": ""
        },
        {
            "groupId": 177005155,
            "mapInstId": 155004,
            "aiGroupID": 177005155,
            "aiNeuronSetting": "DefaultSetting",
            "aiSensingTemplate": "DefaultTemplate",
            "forceCombatOnSpawn": true,
            "disableWander": true,
            "NCKMKJMDPDH": ""
        },
        {
            "groupId": 177005155,
            "mapInstId": 155005,
            "aiGroupID": 177005155,
            "aiNeuronSetting": "DefaultSetting",
            "aiSensingTemplate": "DefaultTemplate",
            "forceCombatOnSpawn": true,
            "disableWander": true,
            "NCKMKJMDPDH": ""
        },
        {
            "groupId": 177005155,
            "mapInstId": 155018,
            "aiGroupID": 177005155,
            "aiNeuronSetting": "DefaultSetting",
            "aiSensingTemplate": "DefaultTemplate",
            "forceCombatOnSpawn": true,
            "disableWander": true,
            "NCKMKJMDPDH": ""
        },
        {
            "groupId": 177005155,
            "mapInstId": 155019,
            "aiGroupID": 177005155,
            "aiNeuronSetting": "DefaultSetting",
            "aiSensingTemplate": "DefaultTemplate",
            "forceCombatOnSpawn": true,
            "disableWander": true,
            "NCKMKJMDPDH": ""
        },
        {
            "groupId": 177005156,
            "mapInstId": 156001,
            "aiGroupID": 177005156,
            "aiNeuronSetting": "DefaultSetting",
            "aiSensingTemplate": "DefaultTemplate",
            "forceCombatOnSpawn": true,
            "disableWander": true,
            "NCKMKJMDPDH": ""
        },
        {
            "groupId": 177005156,
            "mapInstId": 156002,
            "aiGroupID": 177005156,
            "aiNeuronSetting": "DefaultSetting",
            "aiSensingTemplate": "DefaultTemplate",
            "forceCombatOnSpawn": true,
            "disableWander": true,
            "NCKMKJMDPDH": ""
        },
        {
            "groupId": 177005156,
            "mapInstId": 156003,
            "aiGroupID": 177005156,
            "aiNeuronSetting": "DefaultSetting",
            "aiSensingTemplate": "DefaultTemplate",
            "forceCombatOnSpawn": true,
            "disableWander": true,
            "NCKMKJMDPDH": ""
        },
        {
            "groupId": 177005156,
            "mapInstId": 156015,
            "aiGroupID": 177005156,
            "aiNeuronSetting": "DefaultSetting",
            "aiSensingTemplate": "DefaultTemplate",
            "forceCombatOnSpawn": true,
            "disableWander": true,
            "NCKMKJMDPDH": ""
        },
        {
            "groupId": 177005156,
            "mapInstId": 156016,
            "aiGroupID": 177005156,
            "aiNeuronSetting": "DefaultSetting",
            "aiSensingTemplate": "DefaultTemplate",
            "forceCombatOnSpawn": true,
            "disableWander": true,
            "NCKMKJMDPDH": ""
        },
        {
            "groupId": 177005157,
            "mapInstId": 157001,
            "aiGroupID": 177005157,
            "aiNeuronSetting": "DefaultSetting",
            "aiSensingTemplate": "DefaultTemplate",
            "NCKMKJMDPDH": ""
        },
        {
            "groupId": 177005157,
            "mapInstId": 157002,
            "aiGroupID": 177005157,
            "aiNeuronSetting": "DefaultSetting",
            "aiSensingTemplate": "DefaultTemplate",
            "NCKMKJMDPDH": ""
        },
        {
            "groupId": 177005159,
            "mapInstId": 159001,
            "aiGroupID": 177005159,
            "aiNeuronSetting": "DefaultSetting",
            "aiSensingTemplate": "DefaultTemplate",
            "NCKMKJMDPDH": ""
        },
        {
            "groupId": 177005159,
            "mapInstId": 159002,
            "aiGroupID": 177005159,
            "aiNeuronSetting": "DefaultSetting",
            "aiSensingTemplate": "DefaultTemplate",
            "NCKMKJMDPDH": ""
        },
        {
            "groupId": 177005159,
            "mapInstId": 159003,
            "aiGroupID": 177005159,
            "aiNeuronSetting": "DefaultSetting",
            "aiSensingTemplate": "DefaultTemplate",
            "NCKMKJMDPDH": ""
        },
        {
            "groupId": 177005159,
            "mapInstId": 159004,
            "aiGroupID": 177005159,
            "aiNeuronSetting": "DefaultSetting",
            "aiSensingTemplate": "DefaultTemplate",
            "NCKMKJMDPDH": ""
        },
        {
            "groupId": 177005164,
            "mapInstId": 164001,
            "aiGroupID": 177005164,
            "aiNeuronSetting": "DefaultSetting",
            "aiSensingTemplate": "DefaultTemplate",
            "NCKMKJMDPDH": ""
        },
        {
            "groupId": 177005164,
            "mapInstId": 164002,
            "aiGroupID": 177005164,
            "aiNeuronSetting": "DefaultSetting",
            "aiSensingTemplate": "DefaultTemplate",
            "NCKMKJMDPDH": ""
        },
        {
            "groupId": 177005164,
            "mapInstId": 164003,
            "aiGroupID": 177005164,
            "aiNeuronSetting": "DefaultSetting",
            "aiSensingTemplate": "DefaultTemplate",
            "NCKMKJMDPDH": ""
        },
        {
            "groupId": 177005164,
            "mapInstId": 164004,
            "aiGroupID": 177005164,
            "aiNeuronSetting": "DefaultSetting",
            "aiSensingTemplate": "DefaultTemplate",
            "NCKMKJMDPDH": ""
        },
        {
            "groupId": 177005164,
            "mapInstId": 164005,
            "aiGroupID": 177005164,
            "aiNeuronSetting": "DefaultSetting",
            "aiSensingTemplate": "DefaultTemplate",
            "NCKMKJMDPDH": ""
        },
        {
            "groupId": 177005164,
            "mapInstId": 164006,
            "aiGroupID": 177005164,
            "aiNeuronSetting": "DefaultSetting",
            "aiSensingTemplate": "DefaultTemplate",
            "NCKMKJMDPDH": ""
        },
        {
            "groupId": 177005164,
            "mapInstId": 164007,
            "aiGroupID": 177005164,
            "aiNeuronSetting": "DefaultSetting",
            "aiSensingTemplate": "DefaultTemplate",
            "NCKMKJMDPDH": ""
        },
        {
            "groupId": 177005164,
            "mapInstId": 164008,
            "aiGroupID": 177005164,
            "aiNeuronSetting": "DefaultSetting",
            "aiSensingTemplate": "DefaultTemplate",
            "NCKMKJMDPDH": ""
        },
        {
            "groupId": 177005164,
            "mapInstId": 164009,
            "aiGroupID": 177005164,
            "aiNeuronSetting": "DefaultSetting",
            "aiSensingTemplate": "DefaultTemplate",
            "NCKMKJMDPDH": ""
        },
        {
            "groupId": 177005164,
            "mapInstId": 164010,
            "aiGroupID": 177005164,
            "aiNeuronSetting": "DefaultSetting",
            "aiSensingTemplate": "DefaultTemplate",
            "NCKMKJMDPDH": ""
        },
        {
            "groupId": 177005172,
            "mapInstId": 172001,
            "aiGroupID": 177005172,
            "aiNeuronSetting": "DefaultSetting",
            "aiSensingTemplate": "DefaultTemplate",
            "disableWander": true,
            "NCKMKJMDPDH": ""
        },
        {
            "groupId": 177005172,
            "mapInstId": 172003,
            "aiGroupID": 177005172,
            "aiNeuronSetting": "DefaultSetting",
            "aiSensingTemplate": "DefaultTemplate",
            "disableWander": true,
            "NCKMKJMDPDH": ""
        },
        {
            "groupId": 177005174,
            "mapInstId": 174001,
            "aiGroupID": 177005174,
            "aiNeuronSetting": "DefaultSetting",
            "aiSensingTemplate": "DefaultTemplate",
            "NCKMKJMDPDH": ""
        }
    ]
}