{
    "sceneId": 40010,
    "monsters": [
        {
            "groupId": 240010005,
            "mapInstId": 16,
            "routeId": 2,
            "aiNeuronSetting": "DefaultSetting",
            "aiSensingTemplate": "DefaultTemplate",
            "NCKMKJMDPDH": ""
        }
    ]
}