{
    "sceneId": 33712,
    "monsters": [
        {
            "groupId": 233712004,
            "mapInstId": 4001,
            "aiGroupID": 233712004,
            "aiNeuronSetting": "DefaultSetting",
            "aiSensingTemplate": "DefaultTemplate",
            "forceCombatOnSpawn": true,
            "NCKMKJMDPDH": ""
        },
        {
            "groupId": 233712004,
            "mapInstId": 4002,
            "aiGroupID": 233712004,
            "aiNeuronSetting": "DefaultSetting",
            "aiSensingTemplate": "DefaultTemplate",
            "forceCombatOnSpawn": true,
            "NCKMKJMDPDH": ""
        },
        {
            "groupId": 233712004,
            "mapInstId": 4003,
            "aiGroupID": 233712004,
            "aiNeuronSetting": "DefaultSetting",
            "aiSensingTemplate": "DefaultTemplate",
            "forceCombatOnSpawn": true,
            "NCKMKJMDPDH": ""
        },
        {
            "groupId": 233712005,
            "mapInstId": 5001,
            "aiGroupID": 233712005,
            "aiNeuronSetting": "DefaultSetting",
            "aiSensingTemplate": "DefaultTemplate",
            "forceCombatOnSpawn": true,
            "NCKMKJMDPDH": ""
        },
        {
            "groupId": 233712005,
            "mapInstId": 5002,
            "aiGroupID": 233712005,
            "aiNeuronSetting": "DefaultSetting",
            "aiSensingTemplate": "DefaultTemplate",
            "forceCombatOnSpawn": true,
            "NCKMKJMDPDH": ""
        },
        {
            "groupId": 233712005,
            "mapInstId": 5003,
            "aiGroupID": 233712005,
            "aiNeuronSetting": "DefaultSetting",
            "aiSensingTemplate": "DefaultTemplate",
            "forceCombatOnSpawn": true,
            "NCKMKJMDPDH": ""
        }
    ]
}