{
    "sceneId": 35702,
    "monsters": [
        {
            "groupId": 235702003,
            "mapInstId": 3001,
            "aiGroupID": 235702003,
            "aiNeuronSetting": "DefaultSetting",
            "aiSensingTemplate": "DefaultTemplate",
            "forceCombatOnSpawn": true,
            "NCKMKJMDPDH": ""
        },
        {
            "groupId": 235702003,
            "mapInstId": 3002,
            "aiGroupID": 235702003,
            "aiNeuronSetting": "DefaultSetting",
            "aiSensingTemplate": "DefaultTemplate",
            "forceCombatOnSpawn": true,
            "NCKMKJMDPDH": ""
        },
        {
            "groupId": 235702003,
            "mapInstId": 3003,
            "aiGroupID": 235702003,
            "aiNeuronSetting": "DefaultSetting",
            "aiSensingTemplate": "DefaultTemplate",
            "forceCombatOnSpawn": true,
            "NCKMKJMDPDH": ""
        },
        {
            "groupId": 235702003,
            "mapInstId": 3004,
            "aiGroupID": 235702003,
            "aiNeuronSetting": "DefaultSetting",
            "aiSensingTemplate": "DefaultTemplate",
            "forceCombatOnSpawn": true,
            "NCKMKJMDPDH": ""
        },
        {
            "groupId": 235702003,
            "mapInstId": 3005,
            "aiGroupID": 235702003,
            "aiNeuronSetting": "DefaultSetting",
            "aiSensingTemplate": "DefaultTemplate",
            "forceCombatOnSpawn": true,
            "NCKMKJMDPDH": ""
        },
        {
            "groupId": 235702003,
            "mapInstId": 3006,
            "aiGroupID": 235702003,
            "aiNeuronSetting": "DefaultSetting",
            "aiSensingTemplate": "DefaultTemplate",
            "forceCombatOnSpawn": true,
            "NCKMKJMDPDH": ""
        },
        {
            "groupId": 235702004,
            "mapInstId": 4001,
            "aiGroupID": 235702004,
            "aiNeuronSetting": "DefaultSetting",
            "aiSensingTemplate": "DefaultTemplate",
            "forceCombatOnSpawn": true,
            "NCKMKJMDPDH": ""
        },
        {
            "groupId": 235702004,
            "mapInstId": 4002,
            "aiGroupID": 235702004,
            "aiNeuronSetting": "DefaultSetting",
            "aiSensingTemplate": "DefaultTemplate",
            "forceCombatOnSpawn": true,
            "NCKMKJMDPDH": ""
        },
        {
            "groupId": 235702004,
            "mapInstId": 4003,
            "aiGroupID": 235702004,
            "aiNeuronSetting": "DefaultSetting",
            "aiSensingTemplate": "DefaultTemplate",
            "forceCombatOnSpawn": true,
            "NCKMKJMDPDH": ""
        }
    ]
}