{
    "sceneId": 40024,
    "monsters": [
        {
            "groupId": 240024002,
            "mapInstId": 2002,
            "aiNeuronSetting": "DefaultSetting",
            "aiSensingTemplate": "DefaultTemplate",
            "forceCombatOnSpawn": true,
            "billboardHasUIBar": true,
            "NCKMKJMDPDH": ""
        }
    ]
}