{
    "sceneId": 20027,
    "monsters": [
        {
            "groupId": 220027002,
            "mapInstId": 1,
            "aiGroupID": 220027002,
            "aiNeuronSetting": "DefaultSetting",
            "aiSensingTemplate": "DefaultTemplate",
            "disableWander": true,
            "NCKMKJMDPDH": ""
        },
        {
            "groupId": 220027002,
            "mapInstId": 3,
            "aiGroupID": 220027002,
            "aiNeuronSetting": "DefaultSetting",
            "aiSensingTemplate": "PowerOff_Passive",
            "NCKMKJMDPDH": ""
        },
        {
            "groupId": 220027002,
            "mapInstId": 8,
            "aiGroupID": 220027002,
            "aiNeuronSetting": "DefaultSetting",
            "aiSensingTemplate": "DefaultTemplate",
            "disableWander": true,
            "NCKMKJMDPDH": ""
        },
        {
            "groupId": 220027006,
            "mapInstId": 10,
            "aiGroupID": 220027006,
            "aiNeuronSetting": "DefaultSetting",
            "aiSensingTemplate": "DefaultTemplate",
            "NCKMKJMDPDH": ""
        },
        {
            "groupId": 220027006,
            "mapInstId": 11,
            "aiGroupID": 220027006,
            "aiNeuronSetting": "DefaultSetting",
            "aiSensingTemplate": "HighAlertTemplate",
            "disableWander": true,
            "NCKMKJMDPDH": ""
        },
        {
            "groupId": 220027006,
            "mapInstId": 12,
            "aiGroupID": 220027006,
            "aiNeuronSetting": "DefaultSetting",
            "aiSensingTemplate": "HighAlertTemplate",
            "disableWander": true,
            "NCKMKJMDPDH": ""
        },
        {
            "groupId": 220027008,
            "mapInstId": 16,
            "aiNeuronSetting": "DefaultSetting",
            "aiSensingTemplate": "HighAlertTemplate",
            "disableWander": true,
            "NCKMKJMDPDH": ""
        },
        {
            "groupId": 220027002,
            "mapInstId": 18,
            "aiGroupID": 220027002,
            "aiNeuronSetting": "DefaultSetting",
            "aiSensingTemplate": "DefaultTemplate",
            "disableWander": true,
            "NCKMKJMDPDH": ""
        },
        {
            "groupId": 220027007,
            "mapInstId": 24,
            "aiNeuronSetting": "DefaultSetting",
            "aiSensingTemplate": "HighAlertTemplate",
            "NCKMKJMDPDH": ""
        },
        {
            "groupId": 220027016,
            "mapInstId": 25,
            "aiNeuronSetting": "DefaultSetting",
            "aiSensingTemplate": "DefaultTemplate",
            "billboardHasUIBar": true,
            "billboardUIBarNeedEnterCombat": true,
            "NCKMKJMDPDH": ""
        },
        {
            "groupId": 220027012,
            "mapInstId": 27,
            "aiGroupID": 220027012,
            "aiNeuronSetting": "DefaultSetting",
            "aiSensingTemplate": "DefaultTemplate",
            "NCKMKJMDPDH": ""
        },
        {
            "groupId": 220027012,
            "mapInstId": 28,
            "aiGroupID": 220027012,
            "aiNeuronSetting": "DefaultSetting",
            "aiSensingTemplate": "DefaultTemplate",
            "NCKMKJMDPDH": ""
        },
        {
            "groupId": 220027012,
            "mapInstId": 29,
            "aiGroupID": 220027012,
            "aiNeuronSetting": "DefaultSetting",
            "aiSensingTemplate": "DefaultTemplate",
            "NCKMKJMDPDH": ""
        },
        {
            "groupId": 220027012,
            "mapInstId": 30,
            "aiGroupID": 220027012,
            "aiNeuronSetting": "DefaultSetting",
            "aiSensingTemplate": "DefaultTemplate",
            "NCKMKJMDPDH": ""
        },
        {
            "groupId": 220027012,
            "mapInstId": 31,
            "aiGroupID": 220027012,
            "aiNeuronSetting": "DefaultSetting",
            "aiSensingTemplate": "DefaultTemplate",
            "NCKMKJMDPDH": ""
        },
        {
            "groupId": 220027014,
            "mapInstId": 32,
            "aiNeuronSetting": "DefaultSetting",
            "aiSensingTemplate": "DefaultTemplate",
            "disableWander": true,
            "NCKMKJMDPDH": ""
        },
        {
            "groupId": 220027005,
            "mapInstId": 39,
            "aiGroupID": 220027005,
            "aiNeuronSetting": "DefaultSetting",
            "aiSensingTemplate": "HighAlertTemplate",
            "NCKMKJMDPDH": ""
        },
        {
            "groupId": 220027005,
            "mapInstId": 40,
            "aiGroupID": 220027005,
            "aiNeuronSetting": "DefaultSetting",
            "aiSensingTemplate": "HighAlertTemplate",
            "NCKMKJMDPDH": ""
        },
        {
            "groupId": 220027007,
            "mapInstId": 43,
            "aiNeuronSetting": "DefaultSetting",
            "aiSensingTemplate": "HighAlertTemplate",
            "NCKMKJMDPDH": ""
        },
        {
            "groupId": 220027006,
            "mapInstId": 44,
            "aiGroupID": 220027006,
            "aiNeuronSetting": "DefaultSetting",
            "aiSensingTemplate": "HighAlertTemplate",
            "disableWander": true,
            "NCKMKJMDPDH": ""
        },
        {
            "groupId": 220027006,
            "mapInstId": 45,
            "aiGroupID": 220027006,
            "aiNeuronSetting": "DefaultSetting",
            "aiSensingTemplate": "HighAlertTemplate",
            "disableWander": true,
            "NCKMKJMDPDH": ""
        },
        {
            "groupId": 220027020,
            "mapInstId": 46,
            "aiGroupID": 220027020,
            "aiNeuronSetting": "DefaultSetting",
            "aiSensingTemplate": "DefaultTemplate",
            "disableWander": true,
            "NCKMKJMDPDH": ""
        },
        {
            "groupId": 220027020,
            "mapInstId": 47,
            "aiGroupID": 220027020,
            "aiNeuronSetting": "DefaultSetting",
            "aiSensingTemplate": "DefaultTemplate",
            "disableWander": true,
            "NCKMKJMDPDH": ""
        },
        {
            "groupId": 220027003,
            "mapInstId": 3001,
            "aiGroupID": 220027003,
            "aiNeuronSetting": "DefaultSetting",
            "aiSensingTemplate": "DefaultTemplate",
            "disableWander": true,
            "NCKMKJMDPDH": ""
        },
        {
            "groupId": 220027003,
            "mapInstId": 3002,
            "aiGroupID": 220027003,
            "aiNeuronSetting": "DefaultSetting",
            "aiSensingTemplate": "HighAlertTemplate",
            "NCKMKJMDPDH": ""
        },
        {
            "groupId": 220027003,
            "mapInstId": 3003,
            "aiGroupID": 220027003,
            "aiNeuronSetting": "DefaultSetting",
            "aiSensingTemplate": "HighAlertTemplate",
            "NCKMKJMDPDH": ""
        },
        {
            "groupId": 220027003,
            "mapInstId": 3004,
            "aiGroupID": 220027003,
            "aiNeuronSetting": "DefaultSetting",
            "aiSensingTemplate": "HighAlertTemplate",
            "NCKMKJMDPDH": ""
        },
        {
            "groupId": 220027003,
            "mapInstId": 3005,
            "aiGroupID": 220027003,
            "aiNeuronSetting": "DefaultSetting",
            "aiSensingTemplate": "HighAlertTemplate",
            "NCKMKJMDPDH": ""
        },
        {
            "groupId": 220027003,
            "mapInstId": 3006,
            "aiGroupID": 220027003,
            "aiNeuronSetting": "DefaultSetting",
            "aiSensingTemplate": "DefaultTemplate",
            "NCKMKJMDPDH": ""
        },
        {
            "groupId": 220027003,
            "mapInstId": 3007,
            "aiGroupID": 220027003,
            "aiNeuronSetting": "DefaultSetting",
            "aiSensingTemplate": "DefaultTemplate",
            "NCKMKJMDPDH": ""
        },
        {
            "groupId": 220027003,
            "mapInstId": 3008,
            "aiGroupID": 220027003,
            "aiNeuronSetting": "DefaultSetting",
            "aiSensingTemplate": "DefaultTemplate",
            "NCKMKJMDPDH": ""
        },
        {
            "groupId": 220027003,
            "mapInstId": 3009,
            "aiGroupID": 220027003,
            "aiNeuronSetting": "DefaultSetting",
            "aiSensingTemplate": "DefaultTemplate",
            "NCKMKJMDPDH": ""
        }
    ]
}