{
    "sceneId": 20014,
    "monsters": [
        {
            "groupId": 220014005,
            "mapInstId": 1,
            "aiGroupID": 220014005,
            "aiNeuronSetting": "DefaultSetting",
            "aiSensingTemplate": "HighAlertTemplate",
            "NCKMKJMDPDH": ""
        },
        {
            "groupId": 220014005,
            "mapInstId": 2,
            "aiGroupID": 220014005,
            "aiNeuronSetting": "DefaultSetting",
            "aiSensingTemplate": "HighAlertTemplate",
            "NCKMKJMDPDH": ""
        },
        {
            "groupId": 220014005,
            "mapInstId": 3,
            "aiGroupID": 220014005,
            "aiNeuronSetting": "DefaultSetting",
            "aiSensingTemplate": "HighAlertTemplate",
            "NCKMKJMDPDH": ""
        },
        {
            "groupId": 220014005,
            "mapInstId": 4,
            "aiGroupID": 220014005,
            "aiNeuronSetting": "DefaultSetting",
            "aiSensingTemplate": "HighAlertTemplate",
            "NCKMKJMDPDH": ""
        },
        {
            "groupId": 220014005,
            "mapInstId": 5,
            "aiGroupID": 220014005,
            "aiNeuronSetting": "DefaultSetting",
            "aiSensingTemplate": "HighAlertTemplate",
            "NCKMKJMDPDH": ""
        },
        {
            "groupId": 220014007,
            "mapInstId": 12,
            "aiNeuronSetting": "DefaultSetting",
            "aiSensingTemplate": "DefaultTemplate",
            "billboardHasUIBar": true,
            "NCKMKJMDPDH": ""
        },
        {
            "groupId": 220014007,
            "mapInstId": 17,
            "routeId": 6,
            "aiNeuronSetting": "DefaultSetting",
            "aiSensingTemplate": "DefaultTemplate",
            "disableWander": true,
            "NCKMKJMDPDH": ""
        },
        {
            "groupId": 220014007,
            "mapInstId": 18,
            "routeId": 5,
            "aiNeuronSetting": "DefaultSetting",
            "aiSensingTemplate": "DefaultTemplate",
            "disableWander": true,
            "NCKMKJMDPDH": ""
        },
        {
            "groupId": 220014007,
            "mapInstId": 19,
            "routeId": 3,
            "aiNeuronSetting": "DefaultSetting",
            "aiSensingTemplate": "DefaultTemplate",
            "disableWander": true,
            "NCKMKJMDPDH": ""
        },
        {
            "groupId": 220014007,
            "mapInstId": 20,
            "routeId": 4,
            "aiNeuronSetting": "DefaultSetting",
            "aiSensingTemplate": "DefaultTemplate",
            "disableWander": true,
            "NCKMKJMDPDH": ""
        },
        {
            "groupId": 220014008,
            "mapInstId": 23,
            "aiNeuronSetting": "DefaultSetting",
            "aiSensingTemplate": "DefaultTemplate",
            "disableWander": true,
            "NCKMKJMDPDH": ""
        },
        {
            "groupId": 220014008,
            "mapInstId": 24,
            "aiNeuronSetting": "DefaultSetting",
            "aiSensingTemplate": "DefaultTemplate",
            "disableWander": true,
            "NCKMKJMDPDH": ""
        },
        {
            "groupId": 220014004,
            "mapInstId": 29,
            "aiGroupID": 220014004,
            "aiNeuronSetting": "DefaultSetting",
            "aiSensingTemplate": "DefaultTemplate",
            "disableWander": true,
            "NCKMKJMDPDH": ""
        },
        {
            "groupId": 220014004,
            "mapInstId": 30,
            "aiGroupID": 220014004,
            "aiNeuronSetting": "DefaultSetting",
            "aiSensingTemplate": "DefaultTemplate",
            "disableWander": true,
            "NCKMKJMDPDH": ""
        },
        {
            "groupId": 220014006,
            "mapInstId": 6001,
            "aiGroupID": 220014006,
            "aiNeuronSetting": "DefaultSetting",
            "aiSensingTemplate": "DefaultTemplate",
            "disableWander": true,
            "NCKMKJMDPDH": ""
        },
        {
            "groupId": 220014006,
            "mapInstId": 6002,
            "routeId": 8,
            "aiGroupID": 220014006,
            "aiNeuronSetting": "DefaultSetting",
            "aiSensingTemplate": "DefaultTemplate",
            "NCKMKJMDPDH": ""
        },
        {
            "groupId": 220014006,
            "mapInstId": 6003,
            "routeId": 9,
            "aiGroupID": 220014006,
            "aiNeuronSetting": "DefaultSetting",
            "aiSensingTemplate": "DefaultTemplate",
            "NCKMKJMDPDH": ""
        }
    ]
}