{
    "sceneId": 1055,
    "monsters": [
        {
            "groupId": 201055002,
            "mapInstId": 2017,
            "aiGroupID": 201055002,
            "aiNeuronSetting": "DefaultSetting",
            "aiSensingTemplate": "DefaultTemplate",
            "forceCombatOnSpawn": true,
            "NCKMKJMDPDH": ""
        },
        {
            "groupId": 201055002,
            "mapInstId": 2018,
            "aiGroupID": 201055002,
            "aiNeuronSetting": "DefaultSetting",
            "aiSensingTemplate": "DefaultTemplate",
            "forceCombatOnSpawn": true,
            "NCKMKJMDPDH": ""
        },
        {
            "groupId": 201055002,
            "mapInstId": 2019,
            "aiGroupID": 201055002,
            "aiNeuronSetting": "DefaultSetting",
            "aiSensingTemplate": "DefaultTemplate",
            "forceCombatOnSpawn": true,
            "NCKMKJMDPDH": ""
        },
        {
            "groupId": 201055002,
            "mapInstId": 2020,
            "aiGroupID": 201055002,
            "aiNeuronSetting": "DefaultSetting",
            "aiSensingTemplate": "DefaultTemplate",
            "forceCombatOnSpawn": true,
            "NCKMKJMDPDH": ""
        },
        {
            "groupId": 201055002,
            "mapInstId": 2021,
            "aiGroupID": 201055002,
            "aiNeuronSetting": "DefaultSetting",
            "aiSensingTemplate": "DefaultTemplate",
            "forceCombatOnSpawn": true,
            "NCKMKJMDPDH": ""
        },
        {
            "groupId": 201055003,
            "mapInstId": 3004,
            "aiGroupID": 201055003,
            "aiNeuronSetting": "DefaultSetting",
            "aiSensingTemplate": "DefaultTemplate",
            "disableWander": true,
            "NCKMKJMDPDH": ""
        },
        {
            "groupId": 201055003,
            "mapInstId": 3005,
            "aiGroupID": 201055003,
            "aiNeuronSetting": "DefaultSetting",
            "aiSensingTemplate": "DefaultTemplate",
            "disableWander": true,
            "NCKMKJMDPDH": ""
        },
        {
            "groupId": 201055003,
            "mapInstId": 3006,
            "aiGroupID": 201055003,
            "aiNeuronSetting": "DefaultSetting",
            "aiSensingTemplate": "DefaultTemplate",
            "disableWander": true,
            "NCKMKJMDPDH": ""
        },
        {
            "groupId": 201055003,
            "mapInstId": 3027,
            "aiGroupID": 201055003,
            "aiNeuronSetting": "DefaultSetting",
            "aiSensingTemplate": "DefaultTemplate",
            "forceCombatOnSpawn": true,
            "NCKMKJMDPDH": ""
        },
        {
            "groupId": 201055003,
            "mapInstId": 3028,
            "aiGroupID": 201055003,
            "aiNeuronSetting": "DefaultSetting",
            "aiSensingTemplate": "DefaultTemplate",
            "forceCombatOnSpawn": true,
            "NCKMKJMDPDH": ""
        },
        {
            "groupId": 201055003,
            "mapInstId": 3029,
            "aiGroupID": 201055003,
            "aiNeuronSetting": "DefaultSetting",
            "aiSensingTemplate": "DefaultTemplate",
            "forceCombatOnSpawn": true,
            "NCKMKJMDPDH": ""
        },
        {
            "groupId": 201055003,
            "mapInstId": 3030,
            "aiGroupID": 201055003,
            "aiNeuronSetting": "DefaultSetting",
            "aiSensingTemplate": "DefaultTemplate",
            "forceCombatOnSpawn": true,
            "NCKMKJMDPDH": ""
        },
        {
            "groupId": 201055003,
            "mapInstId": 3031,
            "aiGroupID": 201055003,
            "aiNeuronSetting": "DefaultSetting",
            "aiSensingTemplate": "DefaultTemplate",
            "forceCombatOnSpawn": true,
            "NCKMKJMDPDH": ""
        },
        {
            "groupId": 201055005,
            "mapInstId": 5001,
            "aiGroupID": 201055005,
            "aiNeuronSetting": "DefaultSetting",
            "aiSensingTemplate": "DefaultTemplate",
            "disableWander": true,
            "NCKMKJMDPDH": ""
        },
        {
            "groupId": 201055005,
            "mapInstId": 5002,
            "aiGroupID": 201055005,
            "aiNeuronSetting": "DefaultSetting",
            "aiSensingTemplate": "DefaultTemplate",
            "disableWander": true,
            "NCKMKJMDPDH": ""
        },
        {
            "groupId": 201055005,
            "mapInstId": 5007,
            "aiGroupID": 201055005,
            "aiNeuronSetting": "DefaultSetting",
            "aiSensingTemplate": "DefaultTemplate",
            "forceCombatOnSpawn": true,
            "NCKMKJMDPDH": ""
        },
        {
            "groupId": 201055005,
            "mapInstId": 5008,
            "aiGroupID": 201055005,
            "aiNeuronSetting": "DefaultSetting",
            "aiSensingTemplate": "DefaultTemplate",
            "forceCombatOnSpawn": true,
            "NCKMKJMDPDH": ""
        }
    ]
}