{
    "sceneId": 34700,
    "monsters": [
        {
            "groupId": 234700002,
            "mapInstId": 2001,
            "aiGroupID": 234700002,
            "aiNeuronSetting": "DefaultSetting",
            "aiSensingTemplate": "DefaultTemplate",
            "forceCombatOnSpawn": true,
            "NCKMKJMDPDH": ""
        },
        {
            "groupId": 234700002,
            "mapInstId": 2002,
            "aiGroupID": 234700002,
            "aiNeuronSetting": "DefaultSetting",
            "aiSensingTemplate": "DefaultTemplate",
            "forceCombatOnSpawn": true,
            "NCKMKJMDPDH": ""
        },
        {
            "groupId": 234700002,
            "mapInstId": 2003,
            "aiGroupID": 234700002,
            "aiNeuronSetting": "DefaultSetting",
            "aiSensingTemplate": "DefaultTemplate",
            "forceCombatOnSpawn": true,
            "NCKMKJMDPDH": ""
        },
        {
            "groupId": 234700002,
            "mapInstId": 2004,
            "aiGroupID": 234700002,
            "aiNeuronSetting": "DefaultSetting",
            "aiSensingTemplate": "DefaultTemplate",
            "forceCombatOnSpawn": true,
            "NCKMKJMDPDH": ""
        },
        {
            "groupId": 234700002,
            "mapInstId": 2005,
            "aiGroupID": 234700002,
            "aiNeuronSetting": "DefaultSetting",
            "aiSensingTemplate": "DefaultTemplate",
            "forceCombatOnSpawn": true,
            "NCKMKJMDPDH": ""
        },
        {
            "groupId": 234700002,
            "mapInstId": 2006,
            "aiGroupID": 234700002,
            "aiNeuronSetting": "DefaultSetting",
            "aiSensingTemplate": "DefaultTemplate",
            "forceCombatOnSpawn": true,
            "NCKMKJMDPDH": ""
        },
        {
            "groupId": 234700002,
            "mapInstId": 2007,
            "aiGroupID": 234700002,
            "aiNeuronSetting": "DefaultSetting",
            "aiSensingTemplate": "DefaultTemplate",
            "forceCombatOnSpawn": true,
            "NCKMKJMDPDH": ""
        },
        {
            "groupId": 234700002,
            "mapInstId": 2008,
            "aiGroupID": 234700002,
            "aiNeuronSetting": "DefaultSetting",
            "aiSensingTemplate": "DefaultTemplate",
            "forceCombatOnSpawn": true,
            "NCKMKJMDPDH": ""
        },
        {
            "groupId": 234700002,
            "mapInstId": 2009,
            "aiGroupID": 234700002,
            "aiNeuronSetting": "DefaultSetting",
            "aiSensingTemplate": "DefaultTemplate",
            "forceCombatOnSpawn": true,
            "NCKMKJMDPDH": ""
        },
        {
            "groupId": 234700002,
            "mapInstId": 2010,
            "aiGroupID": 234700002,
            "aiNeuronSetting": "DefaultSetting",
            "aiSensingTemplate": "DefaultTemplate",
            "forceCombatOnSpawn": true,
            "NCKMKJMDPDH": ""
        },
        {
            "groupId": 234700002,
            "mapInstId": 2012,
            "aiGroupID": 234700002,
            "aiNeuronSetting": "DefaultSetting",
            "aiSensingTemplate": "DefaultTemplate",
            "forceCombatOnSpawn": true,
            "NCKMKJMDPDH": ""
        },
        {
            "groupId": 234700002,
            "mapInstId": 2013,
            "aiGroupID": 234700002,
            "aiNeuronSetting": "DefaultSetting",
            "aiSensingTemplate": "DefaultTemplate",
            "forceCombatOnSpawn": true,
            "NCKMKJMDPDH": ""
        },
        {
            "groupId": 234700002,
            "mapInstId": 2016,
            "aiGroupID": 234700002,
            "aiNeuronSetting": "DefaultSetting",
            "aiSensingTemplate": "DefaultTemplate",
            "forceCombatOnSpawn": true,
            "NCKMKJMDPDH": ""
        },
        {
            "groupId": 234700002,
            "mapInstId": 2018,
            "aiGroupID": 234700002,
            "aiNeuronSetting": "DefaultSetting",
            "aiSensingTemplate": "DefaultTemplate",
            "forceCombatOnSpawn": true,
            "NCKMKJMDPDH": ""
        },
        {
            "groupId": 234700002,
            "mapInstId": 2021,
            "aiGroupID": 234700002,
            "aiNeuronSetting": "DefaultSetting",
            "aiSensingTemplate": "DefaultTemplate",
            "forceCombatOnSpawn": true,
            "NCKMKJMDPDH": ""
        },
        {
            "groupId": 234700002,
            "mapInstId": 2022,
            "aiGroupID": 234700002,
            "aiNeuronSetting": "DefaultSetting",
            "aiSensingTemplate": "DefaultTemplate",
            "forceCombatOnSpawn": true,
            "NCKMKJMDPDH": ""
        },
        {
            "groupId": 234700002,
            "mapInstId": 2023,
            "aiGroupID": 234700002,
            "aiNeuronSetting": "DefaultSetting",
            "aiSensingTemplate": "DefaultTemplate",
            "forceCombatOnSpawn": true,
            "NCKMKJMDPDH": ""
        },
        {
            "groupId": 234700002,
            "mapInstId": 2024,
            "aiGroupID": 234700002,
            "aiNeuronSetting": "DefaultSetting",
            "aiSensingTemplate": "DefaultTemplate",
            "forceCombatOnSpawn": true,
            "NCKMKJMDPDH": ""
        },
        {
            "groupId": 234700002,
            "mapInstId": 2025,
            "aiGroupID": 234700002,
            "aiNeuronSetting": "DefaultSetting",
            "aiSensingTemplate": "DefaultTemplate",
            "forceCombatOnSpawn": true,
            "NCKMKJMDPDH": ""
        }
    ]
}