{
    "sceneId": 50018,
    "monsters": [
        {
            "groupId": 250018004,
            "mapInstId": 4004,
            "aiGroupID": 250018004,
            "aiNeuronSetting": "DefaultSetting",
            "aiSensingTemplate": "DefaultTemplate",
            "forceCombatOnSpawn": true,
            "NCKMKJMDPDH": ""
        },
        {
            "groupId": 250018004,
            "mapInstId": 4005,
            "aiGroupID": 250018004,
            "aiNeuronSetting": "DefaultSetting",
            "aiSensingTemplate": "DefaultTemplate",
            "NCKMKJMDPDH": ""
        },
        {
            "groupId": 250018004,
            "mapInstId": 4006,
            "aiGroupID": 250018004,
            "aiNeuronSetting": "DefaultSetting",
            "aiSensingTemplate": "DefaultTemplate",
            "NCKMKJMDPDH": ""
        }
    ]
}