{
    "sceneId": 20101,
    "monsters": [
        {
            "groupId": 220101001,
            "mapInstId": 1001,
            "aiNeuronSetting": "DefaultSetting",
            "aiSensingTemplate": "DefaultTemplate",
            "forceCombatOnSpawn": true,
            "billboardHasUIBar": true,
            "billboardHpBarStyle": "Boss",
            "NCKMKJMDPDH": ""
        },
        {
            "groupId": 220101001,
            "mapInstId": 1004,
            "aiNeuronSetting": "DefaultSetting",
            "aiSensingTemplate": "DefaultTemplate",
            "forceCombatOnSpawn": true,
            "billboardHasUIBar": true,
            "billboardHpBarStyle": "Boss",
            "NCKMKJMDPDH": ""
        },
        {
            "groupId": 220101001,
            "mapInstId": 1009,
            "aiNeuronSetting": "DefaultSetting",
            "aiSensingTemplate": "DefaultTemplate",
            "billboardHasUIBar": true,
            "billboardHpBarStyle": "Boss",
            "NCKMKJMDPDH": ""
        }
    ]
}