{
    "HBPGBNCBOMP": "",
    "KENGMFPNLEP": "",
    "group": [
        [
            {
                "$type": "ConfigCutsceneInterAction",
                "type": "CUTSCENE",
                "cutsceneCfg": {
                    "$type": "ConfigTimeline",
                    "type": "TIME_LINE_PREFAB",
                    "luaDataPath": "",
                    "resPath": "ART/FindCureCutScene",
                    "castListPath": "",
                    "entityBan": "",
                    "startPosType": "RELATIVE_TO_LOCAL_AVATAR",
                    "startOffset": {
                        "y": 300.0
                    }
                }
            }
        ]
    ]
}