{
    "HBPGBNCBOMP": "",
    "isSimpleTalk": true,
    "KENGMFPNLEP": "",
    "disableNpcLod": true,
    "startFade": {
        "startFadeOutDuration": 0.0
    },
    "endFade": {
        "startFadeOutDuration": 0.0
    },
    "actors": [
        {
            "alias": "Avatar",
            "visible": true,
            "bornPointName": "",
            "relativePosNpcAlias": ""
        },
        {
            "configID": 3035,
            "alias": "3035",
            "visible": true,
            "bornPointName": "",
            "relativePosNpcAlias": ""
        }
    ],
    "group": [
        [
            {
                "$type": "ConfigCameraMoveInterAction",
                "type": "CAMERA_FOCUS",
                "duration": 0.10000000149011612,
                "targetNpcAlias": ""
            },
            {
                "$type": "ConfigSteerInterAction",
                "type": "STEER_TO",
                "duration": 0.800000011920929,
                "aliasList": [
                    "Avatar"
                ],
                "steerType": "ABSOLUTE",
                "useSteerAnim": true,
                "targetNpcAlias": ""
            },
            {
                "$type": "ConfigDialogInterAction",
                "type": "DIALOG",
                "aliasList": [
                    "3035"
                ],
                "dialogID": 120121101,
                "protectTime": 0.5
            },
            {
                "$type": "ConfigEmoSyncInterAction",
                "type": "EMO_SYNC",
                "aliasList": [
                    "3035"
                ],
                "dataPath": "Cs_Emo_Avatar_Simple_Common_Set/Cs_Emo_Avatar_Talk/Cs_Emo_Avatar_PersonalLine/Cs_Emo_Avatar_Yoimiya/Cs_Emo_120121101",
                "phonemePath": "",
                "emotionPath": "",
                "mateDataPath": "",
                "matePhonemePath": "",
                "mateEmotionPath": "",
                "dataPathHashList": [
                    13720695315827393177,
                    7326081124990990674,
                    404101776969893845,
                    4633554012287421540
                ]
            },
            {
                "$type": "ConfigSteerInterAction",
                "type": "STEER_TO",
                "duration": 0.800000011920929,
                "aliasList": [
                    "3035"
                ],
                "steerType": "TO_TARGET",
                "useSteerAnim": true,
                "interruptFreestyle": true,
                "forceSteer": true,
                "targetNpcAlias": ""
            },
            {
                "$type": "ConfigLookAtInterAction",
                "type": "LOOK_AT",
                "delayTime": 0.800000011920929,
                "aliasList": [
                    "3035"
                ],
                "enableHead": true,
                "useTargetPos": true,
                "enableAbsolute": true,
                "headTurnTime": 0.30000001192092896,
                "targetNpcAlias": "Avatar"
            },
            {
                "$type": "ConfigLookAtInterAction",
                "type": "LOOK_AT",
                "aliasList": [
                    "3035"
                ],
                "enableHead": true,
                "useTargetPos": true,
                "enableAbsolute": true,
                "headTurnTime": 0.5,
                "targetNpcAlias": "Avatar"
            }
        ],
        [
            {
                "$type": "ConfigDialogInterAction",
                "type": "DIALOG",
                "aliasList": [
                    "3035"
                ],
                "dialogID": 120121102,
                "protectTime": 0.5
            },
            {
                "$type": "ConfigEmoSyncInterAction",
                "type": "EMO_SYNC",
                "aliasList": [
                    "3035"
                ],
                "dataPath": "Cs_Emo_Avatar_Simple_Common_Set/Cs_Emo_Avatar_Talk/Cs_Emo_Avatar_PersonalLine/Cs_Emo_Avatar_Yoimiya/Cs_Emo_120121102",
                "phonemePath": "",
                "emotionPath": "",
                "mateDataPath": "",
                "matePhonemePath": "",
                "mateEmotionPath": "",
                "dataPathHashList": [
                    16268200972455495233,
                    15431287694367418183,
                    8501194841356789685,
                    4990069083883420553
                ]
            }
        ],
        [
            {
                "$type": "ConfigSteerInterAction",
                "type": "STEER_TO",
                "duration": 0.800000011920929,
                "aliasList": [
                    "3035"
                ],
                "steerType": "RETURN",
                "useSteerAnim": true,
                "targetNpcAlias": ""
            },
            {
                "$type": "ConfigLookAtInterAction",
                "type": "LOOK_AT",
                "aliasList": [
                    "3035"
                ],
                "useTargetPos": true,
                "enableAbsolute": true,
                "headTurnTime": 0.5,
                "targetNpcAlias": "Avatar",
                "lookAtTargetType": "NONE"
            }
        ]
    ],
    "groupId": [
        {
            "grpId": 3745612474,
            "nextGrpId": 3745612475
        },
        {
            "index": 1,
            "grpId": 3745612475,
            "nextGrpId": 3745612476
        },
        {
            "index": 2,
            "grpId": 3745612476,
            "nextGrpId": 3745612477
        }
    ],
    "freeStyleDic": {
        "3035": []
    }
}