{
    "common": {
        "effectAttachShape": {
            "$type": "ConfigEffectAttachSkinnedMesh",
            "mesh": "EffectMesh"
        },
        "mass": 10.0,
        "height": 1.319599986076355,
        "modelHeight": 1.3170000314712524,
        "affectedByWorld": true,
        "checkInSurface": true
    },
    "headControl": {
        "$type": "ConfigHeadControl",
        "useHeadControl": true,
        "animStates": [
            "NormalStandby",
            "NormalMove/WalkToRun",
            "NormalMove/Walk",
            "NormalMove/RunToWalk",
            "NormalMove/Run",
            "NormalMove/RunToIdle",
            "NormalMove/WalkToIdle",
            "NormalMove/RunningTurn",
            "NormalMove/SprintToRun",
            "NormalMove/SprintToIdle",
            "Sprint",
            "Climb/ClimbIdle",
            "Ladder/LadderIdle",
            "Swim/SwimIdle",
            "NormalStandbyWeapon",
            "NormalMoveWeapon/WalkToRunWeapon",
            "NormalMoveWeapon/WalkWeapon",
            "NormalMoveWeapon/RunToWalkWeapon",
            "NormalMoveWeapon/RunWeapon",
            "NormalMoveWeapon/RunToIdleWeapon",
            "NormalMoveWeapon/WalkToIdleWeapon",
            "NormalMoveWeapon/RunningTurnWeapon"
        ]
    },
    "specialPoint": {
        "elementAbsorb": "PRIVATE_Pendant",
        "elementPendant": "PRIVATE_Pendant",
        "elementDrop": "RootNode",
        "bulletAim": "RootNode"
    },
    "combat": {
        "property": {
            "endureType": "Avatar_Pole",
            "weight": 75.0
        },
        "beHit": {
            "hitBloodEffect": ""
        },
        "combatLock": {
            "lockShape": "CircleLockEnemyClose",
            "lockWeightYaxisParam": 0.20000000298023224,
            "lockWeightYaxisThreshold": 2.0,
            "lockType": "Avatar&Monster_Lv4"
        },
        "die": {
            "hasAnimatorDie": true,
            "dieEndTime": 1.5,
            "dieForceDisappearTime": 2.5,
            "dieDisappearEffect": "Eff_Death_Avatar_Common",
            "dieShaderData": "AvatarDie",
            "useRagDoll": true,
            "ragDollDieEndTimeDelay": 0.4000000059604645
        },
        "animEvents": {
            "ATK01": {
                "attackPattern": {
                    "$type": "ConfigAttackBox",
                    "triggerType": "TriggerNoRepeat",
                    "born": {
                        "$type": "ConfigBornBySelf",
                        "offset": {
                            "AMODPKJAIGF": 0.0,
                            "DBJCBJPOOAP": 1.0,
                            "JDFJGADACKC": 0.0
                        }
                    },
                    "size": {
                        "AMODPKJAIGF": 1.2000000476837158,
                        "DBJCBJPOOAP": 1.5,
                        "JDFJGADACKC": 3.0
                    }
                },
                "attackInfo": {
                    "attackTag": "NormalAttack_01",
                    "attenuationTag": "NormalAttack",
                    "attenuationGroup": "default",
                    "attackProperty": {
                        "EHFOGJFHDPE": 0.0,
                        "GDADKLDBGIM": 0.0,
                        "bonusCriticalHurt": 25.0,
                        "overrideByWeapon": true,
                        "strikeType": "Slash",
                        "enBreak": 51.72999954223633,
                        "attackType": "Melee"
                    },
                    "hitPattern": {
                        "onHitEffectName": "default",
                        "hitImpulseType": "LV3",
                        "hitHaltTime": 0.05999999865889549,
                        "hitHaltTimeScale": 0.009999999776482582,
                        "canBeDefenceHalt": true
                    },
                    "cameraShake": {
                        "shakeType": "CustomVector",
                        "shakeRange": 0.11999999731779099,
                        "shakeTime": 0.11999999731779099,
                        "shakeDistance": 30.0,
                        "shakeDir": {
                            "x": -1.0
                        }
                    }
                }
            },
            "ATK02": {
                "attackPattern": {
                    "$type": "ConfigAttackCircle",
                    "triggerType": "TriggerNoRepeat",
                    "born": {
                        "$type": "ConfigBornBySelf",
                        "offset": {
                            "AMODPKJAIGF": 0.0,
                            "DBJCBJPOOAP": 0.0,
                            "JDFJGADACKC": 0.5
                        }
                    },
                    "fanAngle": 270.0,
                    "ILKJCNJJPEL": 2.0
                },
                "attackInfo": {
                    "attackTag": "NormalAttack_02",
                    "attenuationTag": "NormalAttack",
                    "attenuationGroup": "default",
                    "attackProperty": {
                        "EHFOGJFHDPE": 0.0,
                        "GDADKLDBGIM": 0.0,
                        "bonusCriticalHurt": 25.0,
                        "overrideByWeapon": true,
                        "strikeType": "Slash",
                        "enBreak": 47.50600051879883,
                        "attackType": "Melee"
                    },
                    "hitPattern": {
                        "onHitEffectName": "default",
                        "hitImpulseType": "LV3",
                        "hitHaltTime": 0.05999999865889549,
                        "hitHaltTimeScale": 0.009999999776482582,
                        "canBeDefenceHalt": true
                    },
                    "cameraShake": {
                        "shakeType": "CustomVector",
                        "shakeRange": 0.11999999731779099,
                        "shakeTime": 0.11999999731779099,
                        "shakeDistance": 30.0,
                        "shakeDir": {
                            "x": 1.0
                        }
                    }
                }
            },
            "ATK03_1": {
                "attackPattern": {
                    "$type": "ConfigAttackCircle",
                    "triggerType": "TriggerNoRepeat",
                    "born": {
                        "$type": "ConfigBornBySelf",
                        "offset": {
                            "AMODPKJAIGF": 0.0,
                            "DBJCBJPOOAP": 0.0,
                            "JDFJGADACKC": 0.5
                        }
                    },
                    "fanAngle": 270.0,
                    "ILKJCNJJPEL": 2.0
                },
                "attackInfo": {
                    "attackTag": "NormalAttack_03",
                    "attenuationTag": "NormalAttack",
                    "attenuationGroup": "default",
                    "attackProperty": {
                        "EHFOGJFHDPE": 0.0,
                        "GDADKLDBGIM": 0.0,
                        "bonusCriticalHurt": 25.0,
                        "overrideByWeapon": true,
                        "strikeType": "Slash",
                        "enBreak": 33.03499984741211,
                        "attackType": "Melee"
                    },
                    "hitPattern": {
                        "onHitEffectName": "default",
                        "hitImpulseType": "LV3",
                        "hitHaltTimeScale": 0.009999999776482582
                    },
                    "cameraShake": {
                        "shakeType": "CustomVector",
                        "shakeRange": 0.09000000357627869,
                        "shakeTime": 0.05999999865889549,
                        "shakeDistance": 30.0,
                        "shakeDir": {
                            "z": -1.0
                        }
                    }
                }
            },
            "ATK03_2": {
                "attackPattern": {
                    "$type": "ConfigAttackCircle",
                    "triggerType": "TriggerNoRepeat",
                    "born": {
                        "$type": "ConfigBornBySelf",
                        "offset": {
                            "AMODPKJAIGF": 0.0,
                            "DBJCBJPOOAP": 0.0,
                            "JDFJGADACKC": 0.5
                        }
                    },
                    "fanAngle": 270.0,
                    "ILKJCNJJPEL": 2.0
                },
                "attackInfo": {
                    "attackTag": "NormalAttack_03",
                    "attenuationTag": "NormalAttack",
                    "attenuationGroup": "default",
                    "attackProperty": {
                        "EHFOGJFHDPE": 0.0,
                        "GDADKLDBGIM": 0.0,
                        "bonusCriticalHurt": 25.0,
                        "overrideByWeapon": true,
                        "strikeType": "Slash",
                        "enBreak": 33.03499984741211,
                        "attackType": "Melee"
                    },
                    "hitPattern": {
                        "onHitEffectName": "default",
                        "hitImpulseType": "LV3",
                        "hitHaltTime": 0.009999999776482582,
                        "hitHaltTimeScale": 0.009999999776482582,
                        "canBeDefenceHalt": true
                    },
                    "cameraShake": {
                        "shakeType": "CustomVector",
                        "shakeRange": 0.09000000357627869,
                        "shakeTime": 0.05999999865889549,
                        "shakeDistance": 30.0,
                        "shakeDir": {
                            "z": -1.0
                        }
                    }
                }
            },
            "ATK04": {
                "attackPattern": {
                    "$type": "ConfigAttackCircle",
                    "triggerType": "TriggerNoRepeat",
                    "born": {
                        "$type": "ConfigBornBySelf",
                        "offset": {
                            "AMODPKJAIGF": 0.0,
                            "DBJCBJPOOAP": 0.0,
                            "JDFJGADACKC": 1.5
                        }
                    },
                    "ILKJCNJJPEL": 2.200000047683716
                },
                "attackInfo": {
                    "attackTag": "NormalAttack_04",
                    "attenuationTag": "NormalAttack",
                    "attenuationGroup": "default",
                    "attackProperty": {
                        "EHFOGJFHDPE": 0.0,
                        "GDADKLDBGIM": 0.0,
                        "bonusCriticalHurt": 25.0,
                        "overrideByWeapon": true,
                        "strikeType": "Slash",
                        "enBreak": 77.35800170898438,
                        "attackType": "Melee"
                    },
                    "hitPattern": {
                        "onHitEffectName": "default",
                        "hitImpulseType": "LV4",
                        "hitHaltTime": 0.09000000357627869,
                        "hitHaltTimeScale": 0.009999999776482582,
                        "canBeDefenceHalt": true
                    },
                    "cameraShake": {
                        "shakeType": "CustomVector",
                        "shakeRange": 0.2800000011920929,
                        "shakeTime": 0.11999999731779099,
                        "shakeDistance": 30.0,
                        "shakeDir": {
                            "y": 1.0
                        }
                    }
                }
            }
        }
    },
    "equipController": {
        "sheathPoint": "WeaponBackPut",
        "dissolveSheathFadeDelay": 0.07500000298023224,
        "dissolveSheathFadeTime": 2.0999999046325684,
        "attachPoints": {
            "equip01": "WeaponR",
            "equip02": "WeaponL",
            "equip03": "WeaponL"
        }
    },
    "abilities": [
        {
            "abilityID": "",
            "abilityName": "Avatar_Yaoyao_ExtraAttack",
            "abilityOverride": ""
        },
        {
            "abilityID": "",
            "abilityName": "Avatar_Yaoyao_ExtraAttack_CreateBullet",
            "abilityOverride": ""
        },
        {
            "abilityID": "",
            "abilityName": "Avatar_Yaoyao_ElementalArt",
            "abilityOverride": ""
        },
        {
            "abilityID": "",
            "abilityName": "Avatar_Yaoyao_ElementalArt_CreateGadget",
            "abilityOverride": ""
        },
        {
            "abilityID": "",
            "abilityName": "Avatar_Yaoyao_ElementalBurst",
            "abilityOverride": ""
        },
        {
            "abilityID": "",
            "abilityName": "Avatar_Yaoyao_ElementalBurst_CreateGadget",
            "abilityOverride": ""
        },
        {
            "abilityID": "",
            "abilityName": "Avatar_Yaoyao_HideWeapon",
            "abilityOverride": ""
        },
        {
            "abilityID": "",
            "abilityName": "Avatar_Yaoyao_NormalAttack_DamageHandler",
            "abilityOverride": ""
        },
        {
            "abilityID": "",
            "abilityName": "Avatar_Yaoyao_FallingAnthem",
            "abilityOverride": ""
        }
    ],
    "stateLayers": {
        "defaultLayer": {
            "$type": "ConfigNormalStateLayer",
            "layerIndexName": "",
            "stateIDs": {
                "NormalStandby": {
                    "$type": "ConfigAvatarStateIDInfo",
                    "animatorStates": {
                        "Standby": [
                            "Avatar_ResetFreeStyle"
                        ]
                    },
                    "canDoSkill": true,
                    "massRatio": 100.0,
                    "setAnimatorBoolean": [
                        {
                            "name": "&CanUseSkill"
                        }
                    ],
                    "canChangeAvatar": [
                        {}
                    ],
                    "animatorTriggerOnLanded": "",
                    "sheatheOnStart": true
                },
                "NormalMove": {
                    "$type": "ConfigAvatarStateIDInfo",
                    "animatorStates": {
                        "ShowUp": [
                            "Audio_Loli_Showup"
                        ],
                        "WalkToRun": [
                            "Audio_Loli_WalkToRun",
                            "Audio_Loli_Foley_Twice_Yaoyao"
                        ],
                        "Walk": [
                            "Ani_WalkSprint01",
                            "Audio_Loli_Walk",
                            "WalkStepOnWater",
                            "Audio_Loli_Foley_Walk_Yaoyao"
                        ],
                        "RunToWalk": [
                            "Audio_Loli_RunToWalk",
                            "Audio_Loli_Foley_Twice_Yaoyao"
                        ],
                        "Run": [
                            "Ani_Run01",
                            "Audio_Loli_Run",
                            "Audio_Loli_Foley_Run_Yaoyao"
                        ],
                        "RunToIdle": [
                            "Audio_Loli_RunToIdle",
                            "Audio_Loli_Foley_RunToIdle_Yaoyao"
                        ],
                        "WalkToIdle": [
                            "Audio_Loli_WalkToIdle"
                        ],
                        "RunningTurn": [],
                        "SprintToRun": [
                            "Audio_Loli_SprintToRun",
                            "Audio_Loli_Foley_Once_Yaoyao"
                        ],
                        "SprintToIdle": [
                            "Audio_Loli_SprintToIdle",
                            "Emo_Loli_Sprint_AS",
                            "Audio_Loli_Foley_SprintToIdle_Yaoyao"
                        ],
                        "FallOnGround": [
                            "Audio_Loli_FallOnGround",
                            "Audio_Loli_Foley_Twice_Yaoyao"
                        ],
                        "FallOnGroundLit": [
                            "Audio_Loli_FallOnGroundLit",
                            "Audio_Loli_Foley_Once_Yaoyao"
                        ],
                        "FallToGroundRun": [
                            "Audio_Loli_FallToGroundRun",
                            "Audio_Loli_Foley_Twice_Yaoyao"
                        ],
                        "FallToGroundRunHard": [
                            "Audio_Loli_FallToGroundRunHard",
                            "Audio_Loli_Foley_Twice_Yaoyao"
                        ],
                        "FallToGroundSprint": [
                            "Audio_Loli_FallToGroundSprint",
                            "Audio_Loli_Foley_Twice_Yaoyao"
                        ]
                    },
                    "canDoSkill": true,
                    "massRatio": 1.0,
                    "setAnimatorBoolean": [
                        {
                            "name": "&CanUseSkill"
                        }
                    ],
                    "canChangeAvatar": [
                        {}
                    ],
                    "animatorTriggerOnLanded": "",
                    "sheatheOnStart": true
                },
                "SprintBS": {
                    "$type": "ConfigAvatarStateIDInfo",
                    "animatorStates": {
                        "SprintBS": [
                            "Audio_Loli_RunToSprint",
                            "SprintBS_Invincible",
                            "Emo_Loli_Sprint_BS",
                            "Audio_Loli_Foley_SprintBS_Yaoyao"
                        ]
                    },
                    "canDoSkill": true,
                    "resetAnimatorTriggerOnEnter": [
                        "DoSkill",
                        "AimEnd"
                    ],
                    "setAnimatorBoolean": [
                        {
                            "name": "&CanUseSkill",
                            "normalizeStart": 0.25999999046325684
                        }
                    ],
                    "canChangeAvatar": [
                        {
                            "normalizeStart": 0.25999999046325684
                        }
                    ],
                    "animatorTriggerOnLanded": "",
                    "sheatheOnStart": true
                },
                "Sprint": {
                    "$type": "ConfigAvatarStateIDInfo",
                    "animatorStates": {
                        "Sprint": [
                            "Ani_WalkSprint01",
                            "Audio_Loli_Sprint",
                            "Emo_Loli_Sprint_Loop",
                            "Audio_Loli_Foley_Twice_Yaoyao"
                        ]
                    },
                    "canDoSkill": true,
                    "massRatio": 1.0,
                    "setAnimatorBoolean": [
                        {
                            "name": "&CanUseSkill"
                        }
                    ],
                    "canChangeAvatar": [
                        {}
                    ],
                    "animatorTriggerOnLanded": "",
                    "sheatheOnStart": true
                },
                "SkiffNormal": {
                    "$type": "ConfigAvatarStateIDInfo",
                    "animatorStates": {
                        "SkiffNormal": []
                    },
                    "massRatio": 100.0,
                    "resetAnimatorTriggerOnExit": [
                        "BeHit",
                        "DoSkill",
                        "Jump"
                    ],
                    "animatorTriggerOnLanded": "",
                    "sheatheOnStart": true
                },
                "Climb": {
                    "$type": "ConfigAvatarStateIDInfo",
                    "animatorStates": {
                        "ClimbMove0": [
                            "ClimbStep",
                            "Audio_Loli_Climb",
                            "Audio_Loli_Foley_ClimbMove_Yaoyao"
                        ],
                        "ClimbMove1": [
                            "ClimbStep",
                            "Audio_Loli_Climb",
                            "Audio_Loli_Foley_Twice_Yaoyao"
                        ],
                        "ClimbIdle": [],
                        "ClimbJump": [
                            "Audio_Loli_ClimbDash",
                            "Audio_Loli_Foley_Once_Yaoyao"
                        ],
                        "JumpUpWallForStandby": [
                            "Audio_Loli_JumpUpWallStandby",
                            "Audio_Loli_Foley_Once_Yaoyao"
                        ],
                        "Standby2ClimbB": [
                            "Audio_Loli_Standby2ClimbB",
                            "Audio_Loli_Foley_Once_Yaoyao"
                        ]
                    },
                    "resetAnimatorTriggerOnEnter": [
                        "DoSkill"
                    ],
                    "actionPanelState": "Climb",
                    "animatorTriggerOnLanded": "",
                    "sheatheOnStart": true
                },
                "ClimbTransient": {
                    "$type": "ConfigAvatarStateIDInfo",
                    "animatorStates": {
                        "JumpWallReady": [],
                        "Standby2ClimbA": [
                            "Audio_Loli_Standby2ClimbA",
                            "Audio_Loli_Foley_Once_Yaoyao"
                        ]
                    },
                    "resetAnimatorTriggerOnEnter": [
                        "DoSkill"
                    ],
                    "animatorTriggerOnLanded": "",
                    "sheatheOnStart": true
                },
                "Upstairs": {
                    "$type": "ConfigAvatarStateIDInfo",
                    "animatorStates": {
                        "Upstairs": [
                            "Audio_Loli_Upstairs",
                            "Audio_Loli_Foley_Once_Yaoyao"
                        ]
                    },
                    "resetAnimatorTriggerOnEnter": [
                        "DoSkill"
                    ],
                    "setAnimatorBoolean": [
                        {
                            "name": "&CanUseSkill"
                        }
                    ],
                    "animatorTriggerOnLanded": "",
                    "sheatheOnStart": true
                },
                "Slip": {
                    "$type": "ConfigAvatarStateIDInfo",
                    "animatorStates": {
                        "SlipFaceWall": [
                            "Audio_Loli_Foley_ThreeTimes_Yaoyao"
                        ],
                        "SlipBackWall": [
                            "Audio_Loli_Foley_ThreeTimes_Yaoyao"
                        ]
                    },
                    "resetAnimatorTriggerOnEnter": [
                        "DoSkill"
                    ],
                    "animatorTriggerOnLanded": "",
                    "sheatheOnStart": true
                },
                "Swim": {
                    "$type": "ConfigAvatarStateIDInfo",
                    "animatorStates": {
                        "SwimIdle": [
                            "Audio_Loli_SwimIdle"
                        ],
                        "SwimMove": [
                            "Ani_Walk01",
                            "SwimStep",
                            "Audio_Loli_SwimMove",
                            "Avatar_Loli_SwimDash_Hand_Effect"
                        ],
                        "SwimDash": [
                            "Audio_Loli_SwimDash",
                            "Avatar_Loli_SwimDash_Hand_Effect"
                        ],
                        "SwimJumpToWater": [
                            "Audio_Loli_SwimJumpToWater"
                        ]
                    },
                    "resetAnimatorTriggerOnEnter": [
                        "DoSkill"
                    ],
                    "actionPanelState": "Swim",
                    "animatorTriggerOnLanded": "",
                    "sheatheOnStart": true
                },
                "Fly": {
                    "$type": "ConfigAvatarStateIDInfo",
                    "animatorStates": {
                        "Fly": [
                            "Audio_Loli_Fly"
                        ],
                        "FlyStart": [
                            "Audio_Loli_FlyStart",
                            "FlyStart_Weapon",
                            "Audio_Loli_Foley_FlyStart_Yaoyao"
                        ]
                    },
                    "canDoSkill": true,
                    "resetAnimatorTriggerOnEnter": [
                        "DoSkill"
                    ],
                    "setAnimatorBoolean": [
                        {
                            "name": "&CanUseAirSkill"
                        }
                    ],
                    "actionPanelState": "Fly",
                    "animatorTriggerOnLanded": "",
                    "sheatheOnStart": true
                },
                "Jump": {
                    "$type": "ConfigAvatarStateIDInfo",
                    "animatorStates": {
                        "Jump": [
                            "Audio_Loli_Jump",
                            "Audio_Loli_Foley_Jump_Yaoyao"
                        ],
                        "JumpForRun": [
                            "Audio_Loli_Jump",
                            "Audio_Loli_Foley_Once_Yaoyao"
                        ],
                        "JumpForWalk": [
                            "Audio_Loli_Jump",
                            "Audio_Loli_Foley_Once_Yaoyao"
                        ],
                        "JumpForSprint": [
                            "Audio_Loli_Jump",
                            "Audio_Loli_Foley_Once_Yaoyao"
                        ]
                    },
                    "canDoSkill": true,
                    "resetAnimatorTriggerOnEnter": [
                        "DoSkill",
                        "AimEnd"
                    ],
                    "setAnimatorBoolean": [
                        {
                            "name": "&CanUseAirSkill"
                        }
                    ],
                    "actionPanelState": "Jump",
                    "animatorTriggerOnLanded": "",
                    "sheatheOnStart": true
                },
                "Fall": {
                    "$type": "ConfigAvatarStateIDInfo",
                    "animatorStates": {
                        "JumpOffWall": [
                            "Audio_Loli_Jump",
                            "Audio_Loli_Foley_Once_Yaoyao"
                        ],
                        "SwimJump": [
                            "Audio_Loli_SwimJump",
                            "Audio_Loli_Foley_Once_Yaoyao"
                        ],
                        "SwimJumpDrop": [
                            "Audio_Loli_Foley_ThreeTimes_Yaoyao"
                        ],
                        "DropDown": [
                            "Audio_Loli_DropDown",
                            "Audio_Loli_Foley_ThreeTimes_Yaoyao"
                        ],
                        "DropDownLit": [],
                        "WalkDropDownLit": []
                    },
                    "canDoSkill": true,
                    "resetAnimatorTriggerOnEnter": [
                        "DoSkill"
                    ],
                    "setAnimatorBoolean": [
                        {
                            "name": "&CanUseAirSkill"
                        }
                    ],
                    "animatorTriggerOnLanded": "",
                    "sheatheOnStart": true
                },
                "NormalStandbyWeapon": {
                    "$type": "ConfigAvatarStateIDInfo",
                    "animatorStates": {
                        "StandbyWeapon": []
                    },
                    "canDoSkill": true,
                    "massRatio": 100.0,
                    "setAnimatorBoolean": [
                        {
                            "name": "&CanUseSkill"
                        }
                    ],
                    "canChangeAvatar": [
                        {}
                    ],
                    "animatorTriggerOnLanded": "",
                    "battouOnStart": true
                },
                "NormalMoveWeapon": {
                    "$type": "ConfigAvatarStateIDInfo",
                    "animatorStates": {
                        "WalkToRunWeapon": [
                            "Loli_Pole_Putaway_RunBS",
                            "Audio_Loli_WalkToRun"
                        ],
                        "WalkWeapon": [
                            "Audio_Loli_Walk",
                            "Audio_Loli_Foley_Twice_Yaoyao"
                        ],
                        "RunToWalkWeapon": [
                            "Audio_Loli_RunToWalk"
                        ],
                        "RunWeapon": [
                            "Audio_Loli_Run",
                            "Audio_Loli_Foley_Twice_Yaoyao"
                        ],
                        "RunToIdleWeapon": [
                            "Audio_Loli_Foley_Twice_Yaoyao"
                        ],
                        "WalkToIdleWeapon": [
                            "Audio_Loli_Foley_Twice_Yaoyao"
                        ],
                        "RunningTurnWeapon": [],
                        "FallOnGroundWeapon": [
                            "Audio_Loli_FallOnGround"
                        ],
                        "FallOnGroundLitWeapon": [
                            "Audio_Loli_FallOnGroundLit"
                        ],
                        "FallOnGroundMiddleWeapon": [
                            "Audio_Loli_FallOnGroundMiddle"
                        ],
                        "FallToGroundRunWeapon": [
                            "Audio_Loli_FallToGroundRun"
                        ],
                        "FallToGroundRunHardWeapon": [
                            "Audio_Loli_FallToGroundRunHard"
                        ]
                    },
                    "canDoSkill": true,
                    "massRatio": 2.0,
                    "setAnimatorBoolean": [
                        {
                            "name": "&CanUseSkill"
                        }
                    ],
                    "canChangeAvatar": [
                        {}
                    ],
                    "animatorTriggerOnLanded": "",
                    "battouOnStart": true
                },
                "NormalMoveWeaponPutaway": {
                    "$type": "ConfigAvatarStateIDInfo",
                    "animatorStates": {
                        "WalkPutaway": [
                            "Loli_Pole_Putaway_Walk",
                            "Audio_Loli_Pole_WalkPutAway",
                            "Audio_Loli_Foley_Twice_Yaoyao"
                        ],
                        "RunPutaway": [
                            "Loli_Pole_Putaway_Run",
                            "Audio_Loli_Pole_RunPutAway",
                            "Audio_Loli_Foley_Twice_Yaoyao"
                        ],
                        "RunToSprintWeapon": [
                            "Loli_Pole_Putaway_Sprint",
                            "Audio_Loli_Pole_RunToSprintWeapon"
                        ]
                    },
                    "canDoSkill": true,
                    "massRatio": 2.0,
                    "setAnimatorBoolean": [
                        {
                            "name": "&CanUseSkill"
                        }
                    ],
                    "canChangeAvatar": [
                        {}
                    ],
                    "animatorTriggerOnLanded": "",
                    "battouOnStart": true
                },
                "NormalMoveWeaponStandByPutaway": {
                    "$type": "ConfigAvatarStateIDInfo",
                    "animatorStates": {
                        "StandbyPutaway": [
                            "Loli_Pole_Putaway_Standby",
                            "Audio_Loli_Pole_StandbyPutAway",
                            "Audio_Loli_Foley_Once_Yaoyao"
                        ]
                    },
                    "canDoSkill": true,
                    "massRatio": 2.0,
                    "setAnimatorBoolean": [
                        {
                            "name": "&CanUseSkill"
                        }
                    ],
                    "canChangeAvatar": [
                        {}
                    ],
                    "equipReattach": [
                        {
                            "equip": "equip01",
                            "targetPoint": "WeaponR2"
                        }
                    ],
                    "animatorTriggerOnLanded": "",
                    "battouOnStart": true
                },
                "NormalMoveWeaponOver": {
                    "$type": "ConfigAvatarStateIDInfo",
                    "animatorStates": {
                        "WalkPutawayOver": [
                            "Audio_Loli_Pole_WalkPutAwayOver"
                        ],
                        "RunPutawayOver": [
                            "Audio_Loli_Pole_RunPutAwayOver"
                        ],
                        "RunToSprintWeaponOver": [
                            "Audio_Loli_Pole_RunToSprintWeaponOver"
                        ]
                    },
                    "canDoSkill": true,
                    "massRatio": 2.0,
                    "setAnimatorBoolean": [
                        {
                            "name": "&CanUseSkill"
                        }
                    ],
                    "canChangeAvatar": [
                        {}
                    ],
                    "animatorTriggerOnLanded": "",
                    "sheatheOnStart": true
                },
                "JumpWeapon": {
                    "$type": "ConfigAvatarStateIDInfo",
                    "animatorStates": {
                        "JumpWeapon": [
                            "Audio_Loli_Jump",
                            "Audio_Loli_Foley_Once_Yaoyao"
                        ],
                        "JumpForRunWeapon": [
                            "Audio_Loli_Jump",
                            "Audio_Loli_Foley_Once_Yaoyao"
                        ],
                        "JumpForWalkWeapon": [
                            "Audio_Loli_Jump",
                            "Audio_Loli_Foley_Once_Yaoyao"
                        ]
                    },
                    "canDoSkill": true,
                    "resetAnimatorTriggerOnEnter": [
                        "DoSkill"
                    ],
                    "setAnimatorBoolean": [
                        {
                            "name": "&CanUseAirSkill"
                        }
                    ],
                    "canChangeAvatar": [
                        {}
                    ],
                    "actionPanelState": "Jump",
                    "animatorTriggerOnLanded": "",
                    "battouOnStart": true
                },
                "FallWeapon": {
                    "$type": "ConfigAvatarStateIDInfo",
                    "animatorStates": {
                        "DropDownWeapon": [
                            "Audio_Loli_DropDown",
                            "Audio_Loli_Foley_ThreeTimes_Yaoyao"
                        ],
                        "DropDownLitWeapon": [],
                        "WalkDropDownLitWeapon": []
                    },
                    "canDoSkill": true,
                    "resetAnimatorTriggerOnEnter": [
                        "DoSkill"
                    ],
                    "setAnimatorBoolean": [
                        {
                            "name": "&CanUseAirSkill"
                        }
                    ],
                    "animatorTriggerOnLanded": "",
                    "battouOnStart": true
                },
                "BeHit": {
                    "$type": "ConfigAvatarStateIDInfo",
                    "animatorStates": {
                        "Hit_L": [
                            "Audio_Loli_Hit_L",
                            "Audio_Loli_Foley_Once_Yaoyao"
                        ],
                        "Hit_H": [
                            "Audio_Loli_Hit_H",
                            "Audio_Loli_Foley_Once_Yaoyao"
                        ]
                    },
                    "moveType": "combatMove",
                    "resetAnimatorTriggerOnEnter": [
                        "BeHit",
                        "HitAir2HitDrop"
                    ],
                    "resetAnimatorTriggerOnExit": [
                        "DoSkill"
                    ],
                    "cameraType": "combatBeHit",
                    "jumpCancelEnd": 0.0,
                    "animatorTriggerOnLanded": "",
                    "battouOnStart": true
                },
                "HitThrow": {
                    "$type": "ConfigAvatarStateIDInfo",
                    "animatorStates": {
                        "Hit_Throw_Ground": [
                            "BeHitAir_Weapon",
                            "Audio_Loli_HitThrowGround",
                            "Audio_Loli_Foley_HitThrowGround_Yaoyao"
                        ]
                    },
                    "moveType": "combatMove",
                    "resetAnimatorTriggerOnEnter": [
                        "BeHit",
                        "HitAir2HitDrop"
                    ],
                    "resetAnimatorTriggerOnExit": [
                        "DoSkill"
                    ],
                    "cameraType": "combatBeHit",
                    "jumpCancelEnd": 0.0,
                    "animatorTriggerOnLanded": "",
                    "sheatheOnStart": true
                },
                "BeHitAir": {
                    "$type": "ConfigAvatarStateIDInfo",
                    "animatorStates": {
                        "Hit_Throw": [
                            "Audio_Loli_Hit_Throw",
                            "BeHitAir_Weapon",
                            "Audio_Loli_Foley_Once_Yaoyao"
                        ],
                        "Hit_ThrowAir": [
                            "Audio_Loli_Hit_ThrowAir",
                            "BeHitAir_Weapon"
                        ],
                        "Struggle": [
                            "BeHitAir_Weapon",
                            "Audio_Loli_Foley_ThreeTimes_Yaoyao"
                        ]
                    },
                    "moveType": "combatAir",
                    "resetAnimatorTriggerOnEnter": [
                        "BeHit"
                    ],
                    "resetAnimatorTriggerOnExit": [
                        "DoSkill"
                    ],
                    "cameraType": "combatBeHit",
                    "actionPanelState": "CombatAir",
                    "jumpCancelEnd": 0.0,
                    "animatorTriggerOnLanded": "",
                    "sheatheOnStart": true
                },
                "Die": {
                    "$type": "ConfigAvatarStateIDInfo",
                    "animatorStates": {
                        "FallDie": [
                            "Audio_Loli_Death"
                        ],
                        "NormalDie": [
                            "Die",
                            "Audio_Loli_Death",
                            "Audio_Loli_Foley_Once_Yaoyao"
                        ],
                        "SwimDie": [
                            "Swim_Die",
                            "Audio_Loli_SwimDie"
                        ],
                        "HitGroundDie": [
                            "Die",
                            "Audio_Loli_Death"
                        ]
                    },
                    "animatorTriggerOnLanded": ""
                },
                "Die_RagDoll": {
                    "$type": "ConfigAvatarStateIDInfo",
                    "animatorStates": {
                        "FallDie_AS": []
                    },
                    "enableRagDoll": true,
                    "animatorTriggerOnLanded": ""
                },
                "Attack01": {
                    "$type": "ConfigAvatarStateIDInfo",
                    "animatorStates": {
                        "Attack01": [
                            "Yaoyao_Attack01",
                            "Interaction_Bad",
                            "Audio_Loli_Pole_Yaoyao_Attack01",
                            "Emo_Loli_Pole_Yaoyao_NormalAttack01"
                        ]
                    },
                    "moveType": "combatMove",
                    "canDoSkill": true,
                    "resetAnimatorTriggerOnExit": [
                        "BeHit",
                        "DoSkill",
                        "Jump"
                    ],
                    "setAnimatorBoolean": [
                        {
                            "name": "&CanCancelSkill"
                        }
                    ],
                    "cameraType": "combatNormal",
                    "canChangeAvatar": [
                        {}
                    ],
                    "animatorTriggerOnLanded": "",
                    "battouOnStart": true,
                    "GKLOMJEEFDO": true
                },
                "Attack02": {
                    "$type": "ConfigAvatarStateIDInfo",
                    "animatorStates": {
                        "Attack02": [
                            "Yaoyao_Attack02",
                            "Interaction_Bad",
                            "Audio_Loli_Pole_Yaoyao_Attack02",
                            "Emo_Loli_Pole_Yaoyao_NormalAttack02"
                        ]
                    },
                    "moveType": "combatMove",
                    "canDoSkill": true,
                    "resetAnimatorTriggerOnExit": [
                        "BeHit",
                        "DoSkill",
                        "Jump"
                    ],
                    "setAnimatorBoolean": [
                        {
                            "name": "&CanCancelSkill"
                        }
                    ],
                    "cameraType": "combatNormal",
                    "canChangeAvatar": [
                        {}
                    ],
                    "animatorTriggerOnLanded": "",
                    "battouOnStart": true
                },
                "Attack03": {
                    "$type": "ConfigAvatarStateIDInfo",
                    "animatorStates": {
                        "Attack03": [
                            "Yaoyao_Attack03",
                            "Interaction_Bad",
                            "Audio_Loli_Pole_Yaoyao_Attack03",
                            "Emo_Loli_Pole_Yaoyao_NormalAttack03"
                        ]
                    },
                    "moveType": "combatMove",
                    "canDoSkill": true,
                    "resetAnimatorTriggerOnExit": [
                        "BeHit",
                        "DoSkill",
                        "Jump"
                    ],
                    "setAnimatorBoolean": [
                        {
                            "name": "&CanCancelSkill"
                        }
                    ],
                    "cameraType": "combatNormal",
                    "canChangeAvatar": [
                        {}
                    ],
                    "animatorTriggerOnLanded": "",
                    "battouOnStart": true,
                    "sheatheOnEnd": true
                },
                "Attack04": {
                    "$type": "ConfigAvatarStateIDInfo",
                    "animatorStates": {
                        "Attack04": [
                            "Yaoyao_Attack04",
                            "Interaction_Bad",
                            "Audio_Loli_Pole_Yaoyao_Attack04",
                            "Emo_Loli_Pole_Yaoyao_NormalAttack04"
                        ]
                    },
                    "moveType": "combatMove",
                    "canDoSkill": true,
                    "resetAnimatorTriggerOnExit": [
                        "BeHit",
                        "DoSkill",
                        "Jump"
                    ],
                    "setAnimatorBoolean": [
                        {
                            "name": "&CanCancelSkill"
                        }
                    ],
                    "cameraType": "combatNormal",
                    "canChangeAvatar": [
                        {}
                    ],
                    "animatorTriggerOnLanded": "",
                    "battouOnStart": true,
                    "sheatheOnEnd": true,
                    "GKLOMJEEFDO": true
                },
                "ExtraAttack_BS": {
                    "$type": "ConfigAvatarStateIDInfo",
                    "animatorStates": {
                        "ExtraAttack_BS": [
                            "Yaoyao_ExtraAttack_BS",
                            "Emo_Loli_Pole_Yaoyao_ExtraAttack_BS",
                            "Audio_Loli_Pole_Yaoyao_ExtraAtk_BS"
                        ]
                    },
                    "moveType": "combatMove",
                    "resetAnimatorTriggerOnExit": [
                        "BeHit",
                        "Blink"
                    ],
                    "setAnimatorBoolean": [
                        {
                            "name": "&CanCancelSkill"
                        }
                    ],
                    "cameraType": "combatNormal",
                    "cameraParam": {
                        "radiusSpringRatio": 2.0
                    },
                    "animatorTriggerOnLanded": "",
                    "battouOnStart": true
                },
                "ExtraAttack": {
                    "$type": "ConfigAvatarStateIDInfo",
                    "animatorStates": {
                        "ExtraAttack": [
                            "Yaoyao_ExtraAttack",
                            "Interaction_Bad",
                            "Audio_Loli_Pole_Yaoyao_ExtraAtk",
                            "Emo_Loli_Pole_Yaoyao_ExtraAttack"
                        ]
                    },
                    "moveType": "combatMove",
                    "resetAnimatorTriggerOnExit": [
                        "BeHit",
                        "Blink"
                    ],
                    "setAnimatorBoolean": [
                        {
                            "name": "&CanCancelSkill",
                            "normalizeStart": 0.6800000071525574
                        }
                    ],
                    "enableCCD": true,
                    "cameraType": "combatNormal",
                    "animatorTriggerOnLanded": ""
                },
                "ExtraAttack_AS": {
                    "$type": "ConfigAvatarStateIDInfo",
                    "animatorStates": {
                        "ExtraAttack_AS": [
                            "Yaoyao_ExtraAttack_AS",
                            "Audio_Loli_Pole_Yaoyao_ExtraAtk_AS",
                            "Emo_Loli_Pole_Yaoyao_ExtraAttack_AS"
                        ]
                    },
                    "moveType": "combatMove",
                    "canDoSkill": true,
                    "resetAnimatorTriggerOnExit": [
                        "BeHit"
                    ],
                    "setAnimatorBoolean": [
                        {
                            "name": "&CanCancelSkill"
                        }
                    ],
                    "enableCCD": true,
                    "cameraType": "combatNormal",
                    "canChangeAvatar": [
                        {}
                    ],
                    "animatorTriggerOnLanded": "",
                    "battouOnStart": true
                },
                "Yaoyao_ElementalArt_BS": {
                    "$type": "ConfigAvatarStateIDInfo",
                    "animatorStates": {
                        "Yaoyao_ElementalArt_BS": [
                            "Yaoyao_ElementalArt_BS",
                            "Emo_Loli_Pole_Yaoyao_ElementalArt_BS",
                            "Audio_Loli_Pole_Yaoyao_ElementalArt_BS"
                        ]
                    },
                    "moveType": "combatMove",
                    "addEndure": 0.6000000238418579,
                    "resetAnimatorTriggerOnExit": [
                        "BeHit",
                        "DoSkill",
                        "Jump"
                    ],
                    "cameraType": "combatNormal",
                    "jumpCancelEnd": -1.0,
                    "sprintCancelEnd": -1.0,
                    "animatorTriggerOnLanded": ""
                },
                "Yaoyao_ElementalArt_Loop": {
                    "$type": "ConfigAvatarStateIDInfo",
                    "animatorStates": {
                        "Yaoyao_ElementalArt_Loop": [
                            "Emo_Loli_Pole_Yaoyao_ElementalArt_Loop"
                        ]
                    },
                    "moveType": "combatMove",
                    "addEndure": 0.6000000238418579,
                    "resetAnimatorTriggerOnExit": [
                        "BeHit",
                        "DoSkill",
                        "Jump"
                    ],
                    "cameraType": "combatNormal",
                    "jumpCancelEnd": -1.0,
                    "sprintCancelEnd": -1.0,
                    "animatorTriggerOnLanded": ""
                },
                "Yaoyao_ElementalArt": {
                    "$type": "ConfigAvatarStateIDInfo",
                    "animatorStates": {
                        "Yaoyao_ElementalArt": [
                            "Yaoyao_ElementalArt_Short",
                            "Interaction_Good",
                            "Audio_Loli_Pole_Yaoyao_ElementalArt",
                            "Emo_Loli_Pole_Yaoyao_ElementalArt"
                        ]
                    },
                    "moveType": "combatMove",
                    "canDoSkill": true,
                    "addEndure": 0.6000000238418579,
                    "resetAnimatorTriggerOnExit": [
                        "BeHit",
                        "DoSkill",
                        "Jump"
                    ],
                    "cameraType": "combatNormal",
                    "jumpCancelEnd": -1.0,
                    "sprintCancelEnd": -1.0,
                    "animatorTriggerOnLanded": "",
                    "battouOnStart": true
                },
                "Yaoyao_ElementalArt_Hold": {
                    "$type": "ConfigAvatarStateIDInfo",
                    "animatorStates": {
                        "Yaoyao_ElementalArt_Hold": [
                            "Yaoyao_ElementalArt",
                            "Interaction_Good",
                            "Emo_Loli_Pole_Yaoyao_ElementalArt_Hold",
                            "Audio_Loli_Pole_Yaoyao_ElementalArt"
                        ]
                    },
                    "moveType": "combatMove",
                    "canDoSkill": true,
                    "addEndure": 0.6000000238418579,
                    "resetAnimatorTriggerOnExit": [
                        "BeHit",
                        "DoSkill",
                        "Jump"
                    ],
                    "cameraType": "combatNormal",
                    "jumpCancelEnd": -1.0,
                    "sprintCancelEnd": -1.0,
                    "animatorTriggerOnLanded": "",
                    "battouOnStart": true
                },
                "Yaoyao_ElementalArt_AS": {
                    "$type": "ConfigAvatarStateIDInfo",
                    "animatorStates": {
                        "Yaoyao_ElementalArt_AS": [
                            "Audio_Loli_Pole_Yaoyao_ElementalArt_AS",
                            "Emo_Loli_Pole_Yaoyao_ElementalArt_AS"
                        ]
                    },
                    "moveType": "combatMove",
                    "canDoSkill": true,
                    "resetAnimatorTriggerOnExit": [
                        "BeHit",
                        "DoSkill",
                        "Jump"
                    ],
                    "setAnimatorBoolean": [
                        {
                            "name": "&CanCancelSkill",
                            "normalizeStart": 0.07999999821186066
                        },
                        {
                            "name": "&CanUseSkill",
                            "normalizeStart": 0.07999999821186066
                        }
                    ],
                    "cameraType": "combatNormal",
                    "canChangeAvatar": [
                        {
                            "normalizeStart": 0.07999999821186066
                        }
                    ],
                    "animatorTriggerOnLanded": "",
                    "sheatheOnEnd": true
                },
                "Yaoyao_ElementalBurst": {
                    "$type": "ConfigAvatarStateIDInfo",
                    "animatorStates": {
                        "Yaoyao_ElementalBurst": [
                            "Yaoyao_ElementalBurst",
                            "Interaction_Bad",
                            "Audio_Loli_Pole_Yaoyao_ElementalBurst",
                            "Emo_Loli_Pole_Yaoyao_ElementalBurst"
                        ]
                    },
                    "moveType": "combatMove",
                    "addEndure": 0.0,
                    "resetAnimatorTriggerOnExit": [
                        "BeHit"
                    ],
                    "cameraType": "combatNormal",
                    "jumpCancelEnd": -1.0,
                    "sprintCancelEnd": -1.0,
                    "animatorTriggerOnLanded": "",
                    "battouOnStart": true
                },
                "Yaoyao_ElementalBurst_AS": {
                    "$type": "ConfigAvatarStateIDInfo",
                    "animatorStates": {
                        "Yaoyao_ElementalBurst_AS": [
                            "Audio_Loli_Pole_Yaoyao_ElementalBurst_AS",
                            "Emo_Loli_Pole_Yaoyao_ElementalBurst_AS"
                        ]
                    },
                    "moveType": "combatMove",
                    "canDoSkill": true,
                    "resetAnimatorTriggerOnExit": [
                        "BeHit",
                        "DoSkill",
                        "Jump"
                    ],
                    "setAnimatorBoolean": [
                        {
                            "name": "&CanCancelSkill"
                        },
                        {
                            "name": "&CanUseSkill"
                        }
                    ],
                    "cameraType": "combatNormal",
                    "canChangeAvatar": [
                        {}
                    ],
                    "animatorTriggerOnLanded": "",
                    "sheatheOnEnd": true
                },
                "FallingAnthem_BS": {
                    "$type": "ConfigAvatarStateIDInfo",
                    "animatorStates": {
                        "FallingAnthem_BS_1": [
                            "Audio_Loli_Pole_Yaoyao_FallingAnthem_BS_1",
                            "Emo_Loli_Pole_FallingAttack_BS_01"
                        ],
                        "FallingAnthem_BS_2": [
                            "Emo_Loli_Pole_FallingAttack_BS_02"
                        ]
                    },
                    "moveType": "combatAir",
                    "addEndure": 0.0,
                    "resetAnimatorTriggerOnExit": [
                        "BeHit",
                        "DoSkill",
                        "Jump"
                    ],
                    "cameraType": "combatNormal",
                    "actionPanelState": "Fly",
                    "equipReattach": [
                        {
                            "equip": "equip01",
                            "targetPoint": "WeaponR"
                        }
                    ],
                    "jumpCancelEnd": -1.0,
                    "animatorTriggerOnLanded": "HitAir2HitDrop",
                    "battouOnStart": true
                },
                "FallingAnthem_Loop": {
                    "$type": "ConfigAvatarStateIDInfo",
                    "animatorStates": {
                        "FallingAnthem_Loop": [
                            "Emo_Loli_Pole_FallingAttack_Loop"
                        ],
                        "FallingAnthem_Loop_Low": [
                            "Emo_Loli_Pole_FallingAttack_Loop"
                        ]
                    },
                    "moveType": "combatAir",
                    "addEndure": 0.0,
                    "resetAnimatorTriggerOnExit": [
                        "BeHit",
                        "DoSkill",
                        "Jump"
                    ],
                    "actionPanelState": "Fly",
                    "equipReattach": [
                        {
                            "equip": "equip01",
                            "targetPoint": "WeaponR"
                        }
                    ],
                    "animatorTriggerOnLanded": "HitAir2HitDrop",
                    "battouOnStart": true
                },
                "FallingAnthem_AS_1": {
                    "$type": "ConfigAvatarStateIDInfo",
                    "animatorStates": {
                        "FallingAnthem_AS_1": [
                            "Yaoyao_FallingAnthem_Strike",
                            "Interaction_Bad",
                            "Audio_Loli_Pole_Yaoyao_FallingAnthem_AS_1",
                            "Emo_Loli_Pole_FallingAttack_AS_01"
                        ]
                    },
                    "moveType": "combatMove",
                    "canDoSkill": true,
                    "resetAnimatorTriggerOnExit": [
                        "BeHit",
                        "DoSkill",
                        "Jump"
                    ],
                    "setAnimatorBoolean": [
                        {
                            "name": "&CanUseSkill",
                            "normalizeStart": 0.550000011920929
                        }
                    ],
                    "equipReattach": [
                        {
                            "equip": "equip01",
                            "targetPoint": "WeaponR"
                        }
                    ],
                    "jumpCancelEnd": -1.0,
                    "animatorTriggerOnLanded": "",
                    "battouOnStart": true
                },
                "FallingAnthem_AS_2": {
                    "$type": "ConfigAvatarStateIDInfo",
                    "animatorStates": {
                        "FallingAnthem_AS_2": [
                            "Audio_Loli_Pole_Yaoyao_FallingAnthem_AS_2",
                            "Emo_Loli_Pole_FallingAttack_AS_02"
                        ]
                    },
                    "moveType": "combatMove",
                    "canDoSkill": true,
                    "resetAnimatorTriggerOnExit": [
                        "BeHit",
                        "DoSkill",
                        "Jump"
                    ],
                    "setAnimatorBoolean": [
                        {
                            "name": "&CanUseSkill"
                        }
                    ],
                    "canChangeAvatar": [
                        {}
                    ],
                    "equipReattach": [
                        {
                            "equip": "equip01",
                            "targetPoint": "WeaponR"
                        }
                    ],
                    "jumpCancelStart": 0.10000000149011612,
                    "animatorTriggerOnLanded": "",
                    "battouOnStart": true,
                    "sheatheOnEnd": true
                },
                "Sit": {
                    "$type": "ConfigAvatarStateIDInfo",
                    "animatorStates": {
                        "SitDown": [
                            "Audio_Loli_SitDown",
                            "Audio_Loli_Sit_Yaoyao"
                        ],
                        "SitLoop": [],
                        "SitUp": [
                            "Audio_Loli_SitUp",
                            "Audio_Loli_Sit_Yaoyao"
                        ]
                    },
                    "moveType": "performMove",
                    "massRatio": 100.0,
                    "actionPanelState": "Perform",
                    "animatorTriggerOnLanded": "",
                    "sheatheOnStart": true
                },
                "SitB": {
                    "$type": "ConfigAvatarStateIDInfo",
                    "animatorStates": {
                        "SitBDown": [
                            "Audio_Loli_Sit_Yaoyao"
                        ],
                        "SitBLoop": [],
                        "SitBUp": [
                            "Audio_Loli_Sit_Yaoyao"
                        ]
                    },
                    "moveType": "performMove",
                    "massRatio": 100.0,
                    "actionPanelState": "Perform",
                    "animatorTriggerOnLanded": "",
                    "sheatheOnStart": true
                },
                "StandbyShow": {
                    "$type": "ConfigAvatarStateIDInfo",
                    "animatorStates": {
                        "StandbyVoice": [
                            "Audio_Loli_StandbyVoice"
                        ],
                        "StandbyShow_01": [
                            "Manekin_Yaoyao_Show01",
                            "Audio_Loli_Pole_Yaoyao_StandbyShow_01_SFX"
                        ],
                        "StandbyShow_02": [
                            "Manekin_Yaoyao_Show02",
                            "Audio_Loli_Pole_Yaoyao_StandbyShow_02_SFX"
                        ]
                    },
                    "moveType": "performMove",
                    "canDoSkill": true,
                    "massRatio": 100.0,
                    "setAnimatorBoolean": [
                        {
                            "name": "&CanUseSkill"
                        }
                    ],
                    "canChangeAvatar": [
                        {}
                    ],
                    "equipReattach": [
                        {
                            "equip": "equip01",
                            "targetPoint": "PRIVATE_CatalystR"
                        }
                    ],
                    "animatorTriggerOnLanded": "",
                    "sheatheOnStart": true
                },
                "TakePhotos": {
                    "$type": "ConfigAvatarStateIDInfo",
                    "animatorStates": {
                        "Think01BS": [],
                        "Akimbo02BS": [],
                        "Think01Loop": [],
                        "Akimbo02Loop": [],
                        "Think01AS": [],
                        "Akimbo02AS": []
                    },
                    "animatorTriggerOnLanded": ""
                },
                "Channel_BS": {
                    "$type": "ConfigAvatarStateIDInfo",
                    "animatorStates": {
                        "ChannelBS": [
                            "Emo_Avatar_Common_Manekin_Default"
                        ]
                    },
                    "moveType": "combatMove",
                    "canDoSkill": true,
                    "massRatio": 100.0,
                    "resetAnimatorTriggerOnExit": [
                        "BeHit",
                        "DoSkill",
                        "Jump"
                    ],
                    "setAnimatorBoolean": [
                        {
                            "name": "&CanUseSkill"
                        }
                    ],
                    "canChangeAvatar": [
                        {}
                    ],
                    "animatorTriggerOnLanded": "",
                    "sheatheOnStart": true
                },
                "Channel_Loop": {
                    "$type": "ConfigAvatarStateIDInfo",
                    "animatorStates": {
                        "ChannelLoop": []
                    },
                    "moveType": "combatMove",
                    "canDoSkill": true,
                    "massRatio": 100.0,
                    "resetAnimatorTriggerOnExit": [
                        "BeHit",
                        "DoSkill",
                        "Jump"
                    ],
                    "setAnimatorBoolean": [
                        {
                            "name": "&CanUseSkill"
                        }
                    ],
                    "canChangeAvatar": [
                        {}
                    ],
                    "animatorTriggerOnLanded": "",
                    "sheatheOnStart": true
                },
                "Channel_AS": {
                    "$type": "ConfigAvatarStateIDInfo",
                    "animatorStates": {
                        "ChannelAS": []
                    },
                    "moveType": "combatMove",
                    "canDoSkill": true,
                    "massRatio": 100.0,
                    "resetAnimatorTriggerOnExit": [
                        "BeHit",
                        "DoSkill",
                        "Jump"
                    ],
                    "setAnimatorBoolean": [
                        {
                            "name": "&CanUseSkill"
                        }
                    ],
                    "canChangeAvatar": [
                        {}
                    ],
                    "animatorTriggerOnLanded": "",
                    "sheatheOnStart": true
                },
                "PlayMusic_Lyre": {
                    "$type": "ConfigAvatarStateIDInfo",
                    "animatorStates": {
                        "PlayMusic_Lyre_BS": [
                            "PlayMusic_Lyre_Loli"
                        ],
                        "PlayMusic_Lyre_Loop": []
                    },
                    "moveType": "combatMove",
                    "massRatio": 100.0,
                    "resetAnimatorTriggerOnExit": [
                        "BeHit",
                        "DoSkill",
                        "Jump"
                    ],
                    "animatorTriggerOnLanded": "",
                    "sheatheOnStart": true
                },
                "PlayMusic_Lyre_AS": {
                    "$type": "ConfigAvatarStateIDInfo",
                    "animatorStates": {
                        "PlayMusic_Lyre_AS": [
                            "PlayMusic_Lyre_Loli_AS"
                        ]
                    },
                    "moveType": "combatMove",
                    "canDoSkill": true,
                    "massRatio": 100.0,
                    "resetAnimatorTriggerOnExit": [
                        "BeHit",
                        "DoSkill",
                        "Jump"
                    ],
                    "setAnimatorBoolean": [
                        {
                            "name": "&CanUseSkill"
                        }
                    ],
                    "canChangeAvatar": [
                        {}
                    ],
                    "animatorTriggerOnLanded": "",
                    "sheatheOnStart": true
                },
                "PlayMusic_Qin": {
                    "$type": "ConfigAvatarStateIDInfo",
                    "animatorStates": {
                        "PlayMusic_Qin_BS": [
                            "PlayMusic_Qin_Loli"
                        ],
                        "PlayMusic_Qin_Loop": []
                    },
                    "moveType": "combatMove",
                    "massRatio": 100.0,
                    "resetAnimatorTriggerOnExit": [
                        "BeHit",
                        "DoSkill",
                        "Jump"
                    ],
                    "animatorTriggerOnLanded": "",
                    "sheatheOnStart": true
                },
                "PlayMusic_Qin_AS": {
                    "$type": "ConfigAvatarStateIDInfo",
                    "animatorStates": {
                        "PlayMusic_Qin_AS": [
                            "PlayMusic_Qin_Loli_AS"
                        ]
                    },
                    "moveType": "combatMove",
                    "canDoSkill": true,
                    "massRatio": 100.0,
                    "resetAnimatorTriggerOnExit": [
                        "BeHit",
                        "DoSkill",
                        "Jump"
                    ],
                    "setAnimatorBoolean": [
                        {
                            "name": "&CanUseSkill"
                        }
                    ],
                    "canChangeAvatar": [
                        {}
                    ],
                    "animatorTriggerOnLanded": "",
                    "sheatheOnStart": true
                },
                "PlayMusic_Drum": {
                    "$type": "ConfigAvatarStateIDInfo",
                    "animatorStates": {
                        "PlayMusic_Drum_BS": [
                            "PlayMusic_Drum_Loli"
                        ],
                        "PlayMusic_Drum_Loop": []
                    },
                    "moveType": "combatMove",
                    "massRatio": 100.0,
                    "resetAnimatorTriggerOnExit": [
                        "BeHit",
                        "DoSkill",
                        "Jump"
                    ],
                    "animatorTriggerOnLanded": "",
                    "sheatheOnStart": true
                },
                "PlayMusic_Drum_AS": {
                    "$type": "ConfigAvatarStateIDInfo",
                    "animatorStates": {
                        "PlayMusic_Drum_AS": [
                            "PlayMusic_Drum_Loli_AS"
                        ]
                    },
                    "moveType": "combatMove",
                    "canDoSkill": true,
                    "massRatio": 100.0,
                    "resetAnimatorTriggerOnExit": [
                        "BeHit",
                        "DoSkill",
                        "Jump"
                    ],
                    "setAnimatorBoolean": [
                        {
                            "name": "&CanUseSkill"
                        }
                    ],
                    "canChangeAvatar": [
                        {}
                    ],
                    "animatorTriggerOnLanded": "",
                    "sheatheOnStart": true
                },
                "ActivitySkill_ElectricCoreFly": {
                    "$type": "ConfigAvatarStateIDInfo",
                    "animatorStates": {
                        "ActivitySkill_ElectricCoreFly": []
                    },
                    "moveType": "combatAir",
                    "massRatio": 100.0,
                    "resetAnimatorTriggerOnEnter": [
                        "ElectricCoreFly_End"
                    ],
                    "resetAnimatorTriggerOnExit": [
                        "BeHit",
                        "DoSkill",
                        "Jump",
                        "ElectricCoreFly_End"
                    ],
                    "animatorTriggerOnLanded": "",
                    "sheatheOnStart": true
                },
                "ActivitySkill_GrapplingHook": {
                    "$type": "ConfigAvatarStateIDInfo",
                    "animatorStates": {
                        "ActivitySkill_GrapplingHook": []
                    },
                    "moveType": "combatAir",
                    "massRatio": 100.0,
                    "resetAnimatorTriggerOnEnter": [
                        "GrapplingHook_Drop"
                    ],
                    "resetAnimatorTriggerOnExit": [
                        "BeHit",
                        "DoSkill",
                        "Jump",
                        "GrapplingHook_Drop"
                    ],
                    "animatorTriggerOnLanded": "",
                    "sheatheOnStart": true
                },
                "ActivitySkill_CustomSkill01": {
                    "$type": "ConfigAvatarStateIDInfo",
                    "animatorStates": {
                        "ActivitySkill_CustomSkill01": []
                    },
                    "moveType": "combatAir",
                    "canDoSkill": true,
                    "massRatio": 100.0,
                    "resetAnimatorTriggerOnEnter": [
                        "CustomSkill_End_Fly",
                        "CustomSkill_End_Drop"
                    ],
                    "resetAnimatorTriggerOnExit": [
                        "BeHit",
                        "DoSkill",
                        "Jump",
                        "CustomSkill_End_Fly",
                        "CustomSkill_End_Drop"
                    ],
                    "animatorTriggerOnLanded": "",
                    "sheatheOnStart": true
                },
                "ActivitySkill_CustomSkill02": {
                    "$type": "ConfigAvatarStateIDInfo",
                    "animatorStates": {
                        "ActivitySkill_CustomSkill02": []
                    },
                    "moveType": "combatAir",
                    "canDoSkill": true,
                    "massRatio": 100.0,
                    "resetAnimatorTriggerOnEnter": [
                        "CustomSkill_End_Fly",
                        "CustomSkill_End_Drop"
                    ],
                    "resetAnimatorTriggerOnExit": [
                        "BeHit",
                        "DoSkill",
                        "Jump",
                        "CustomSkill_End_Fly",
                        "CustomSkill_End_Drop"
                    ],
                    "animatorTriggerOnLanded": "",
                    "sheatheOnStart": true
                }
            }
        }
    },
    "audio": {
        "animAudio": {
            "onTransitionIn": [
                {
                    "currentStateName": "SlipFaceWall",
                    "audioEvent": {
                        "text": "Play_sfx_char_slipWall"
                    }
                },
                {
                    "currentStateName": "SlipBackWall",
                    "audioEvent": {
                        "text": "Play_sfx_char_slipWall"
                    }
                },
                {
                    "currentStateName": "NormalDie",
                    "audioEvent": {
                        "text": "Play_sfx_char_land"
                    },
                    "otherStateNames": [
                        "FallOnGround"
                    ],
                    "usage": "InSet"
                },
                {
                    "currentStateName": "SprintBS",
                    "audioEvent": {
                        "text": "Play_sfx_char_foley_flutter_heavy"
                    }
                },
                {
                    "currentStateName": "SwimJumpToWater",
                    "audioEvent": {
                        "text": "Stop_sfx_char_swim_dive"
                    }
                },
                {
                    "currentStateName": "Jump",
                    "audioEvent": {
                        "text": "Stop_sfx_char_ayaka_liquidStrike"
                    }
                },
                {
                    "currentStateName": "Standby",
                    "audioEvent": {
                        "text": "Stop_sfx_char_fly"
                    }
                },
                {
                    "currentStateName": "SprintBS",
                    "audioEvent": {
                        "text": "Play_sfx_char_foley_flutter_heavy"
                    }
                },
                {
                    "currentStateName": "SwimDash",
                    "audioEvent": {
                        "text": "Play_sfx_char_swim_dash"
                    }
                }
            ],
            "onTransitionOut": [
                {
                    "currentStateName": "Attack01",
                    "audioEvent": {
                        "text": "Stop_sfx_char_yaoyao_pole_attack"
                    },
                    "otherStateNames": [
                        "Attack02"
                    ],
                    "usage": "Except"
                },
                {
                    "currentStateName": "Attack02",
                    "audioEvent": {
                        "text": "Stop_sfx_char_yaoyao_pole_attack"
                    }
                },
                {
                    "currentStateName": "Attack03",
                    "audioEvent": {
                        "text": "Stop_sfx_char_yaoyao_pole_attack"
                    }
                },
                {
                    "currentStateName": "Attack04",
                    "audioEvent": {
                        "text": "Stop_sfx_char_yaoyao_pole_attack"
                    }
                },
                {
                    "currentStateName": "ExtraAttack",
                    "audioEvent": {
                        "text": "Stop_sfx_char_yaoyao_pole_extraAtk"
                    },
                    "otherStateNames": [
                        "ExtraAttack_AS"
                    ],
                    "usage": "Except"
                },
                {
                    "currentStateName": "StandbyShow_01",
                    "audioEvent": {
                        "text": "Stop_sfx_standbyShow_yaoyao_01"
                    }
                },
                {
                    "currentStateName": "StandbyShow_02",
                    "audioEvent": {
                        "text": "Stop_sfx_standbyShow_yaoyao_02"
                    }
                },
                {
                    "currentStateName": "StandbyPutaway",
                    "audioEvent": {
                        "text": "Stop_sfx_weapon_pole_loli_putAwayStandby"
                    }
                },
                {
                    "currentStateName": "WalkPutaway",
                    "audioEvent": {
                        "text": "Stop_sfx_weapon_pole_loli_putAwayStandby"
                    }
                },
                {
                    "currentStateName": "RunPutaway",
                    "audioEvent": {
                        "text": "Stop_sfx_weapon_pole_loli_putAwayStandby"
                    }
                },
                {
                    "currentStateName": "SwimJumpDrop",
                    "audioEvent": {
                        "text": "Stop_sfx_char_swim_drop"
                    }
                },
                {
                    "currentStateName": "SwimJump",
                    "audioEvent": {
                        "text": "Stop_sfx_char_swim_drop"
                    },
                    "otherStateNames": [
                        "SwimJumpDrop"
                    ],
                    "usage": "Except"
                },
                {
                    "currentStateName": "SwimJump",
                    "audioEvent": {
                        "text": "Stop_sfx_char_swim_dive"
                    }
                },
                {
                    "currentStateName": "Fly",
                    "audioEvent": {
                        "text": "Play_sfx_char_land_climb"
                    },
                    "otherStateNames": [
                        "ClimbIdle",
                        "ClimbMove0",
                        "ClimbMove1",
                        "ClimbJump"
                    ],
                    "usage": "InSet"
                },
                {
                    "currentStateName": "FlyStart",
                    "audioEvent": {
                        "text": "Play_sfx_char_land_climb"
                    },
                    "otherStateNames": [
                        "ClimbIdle",
                        "ClimbMove0",
                        "ClimbMove1",
                        "ClimbJump"
                    ],
                    "usage": "InSet"
                },
                {
                    "currentStateName": "DropDownLit",
                    "audioEvent": {
                        "text": "Play_sfx_char_land_climb"
                    },
                    "otherStateNames": [
                        "ClimbIdle",
                        "ClimbMove0",
                        "ClimbMove1",
                        "ClimbJump"
                    ],
                    "usage": "InSet"
                },
                {
                    "currentStateName": "DropDown",
                    "audioEvent": {
                        "text": "Play_sfx_char_land_climb"
                    },
                    "otherStateNames": [
                        "ClimbIdle",
                        "ClimbMove0",
                        "ClimbMove1",
                        "ClimbJump"
                    ],
                    "usage": "InSet"
                },
                {
                    "currentStateName": "WalkDropDownLit",
                    "audioEvent": {
                        "text": "Play_sfx_char_land_climb"
                    },
                    "otherStateNames": [
                        "ClimbIdle",
                        "ClimbMove0",
                        "ClimbMove1",
                        "ClimbJump"
                    ],
                    "usage": "InSet"
                },
                {
                    "currentStateName": "Jump",
                    "audioEvent": {
                        "text": "Play_sfx_char_land_climb"
                    },
                    "otherStateNames": [
                        "ClimbIdle",
                        "ClimbMove0",
                        "ClimbMove1",
                        "ClimbJump"
                    ],
                    "usage": "InSet"
                },
                {
                    "currentStateName": "JumpForWalk",
                    "audioEvent": {
                        "text": "Play_sfx_char_land_climb"
                    },
                    "otherStateNames": [
                        "ClimbIdle",
                        "ClimbMove0",
                        "ClimbMove1",
                        "ClimbJump"
                    ],
                    "usage": "InSet"
                },
                {
                    "currentStateName": "JumpForRun",
                    "audioEvent": {
                        "text": "Play_sfx_char_land_climb"
                    },
                    "otherStateNames": [
                        "ClimbIdle",
                        "ClimbMove0",
                        "ClimbMove1",
                        "ClimbJump"
                    ],
                    "usage": "InSet"
                },
                {
                    "currentStateName": "JumpForSprint",
                    "audioEvent": {
                        "text": "Play_sfx_char_land_climb"
                    },
                    "otherStateNames": [
                        "ClimbIdle",
                        "ClimbMove0",
                        "ClimbMove1",
                        "ClimbJump"
                    ],
                    "usage": "InSet"
                },
                {
                    "currentStateName": "JumpWeapon",
                    "audioEvent": {
                        "text": "Play_sfx_char_land_climb"
                    },
                    "otherStateNames": [
                        "ClimbIdle",
                        "ClimbMove0",
                        "ClimbMove1",
                        "ClimbJump"
                    ],
                    "usage": "InSet"
                },
                {
                    "currentStateName": "JumpForWalkWeapon",
                    "audioEvent": {
                        "text": "Play_sfx_char_land_climb"
                    },
                    "otherStateNames": [
                        "ClimbIdle",
                        "ClimbMove0",
                        "ClimbMove1",
                        "ClimbJump"
                    ],
                    "usage": "InSet"
                },
                {
                    "currentStateName": "JumpForRunWeapon",
                    "audioEvent": {
                        "text": "Play_sfx_char_land_climb"
                    },
                    "otherStateNames": [
                        "ClimbIdle",
                        "ClimbMove0",
                        "ClimbMove1",
                        "ClimbJump"
                    ],
                    "usage": "InSet"
                },
                {
                    "currentStateName": "DropDownWeapon",
                    "audioEvent": {
                        "text": "Play_sfx_char_land_climb"
                    },
                    "otherStateNames": [
                        "ClimbIdle",
                        "ClimbMove0",
                        "ClimbMove1",
                        "ClimbJump"
                    ],
                    "usage": "InSet"
                },
                {
                    "currentStateName": "DropDownLitWeapon",
                    "audioEvent": {
                        "text": "Play_sfx_char_land_climb"
                    },
                    "otherStateNames": [
                        "ClimbIdle",
                        "ClimbMove0",
                        "ClimbMove1",
                        "ClimbJump"
                    ],
                    "usage": "InSet"
                },
                {
                    "currentStateName": "SwimMove",
                    "audioEvent": {
                        "text": "Stop_sfx_char_swim"
                    }
                },
                {
                    "currentStateName": "SlipFaceWall",
                    "audioEvent": {
                        "text": "Stop_sfx_char_slipWall"
                    }
                },
                {
                    "currentStateName": "SlipBackWall",
                    "audioEvent": {
                        "text": "Stop_sfx_char_slipWall"
                    }
                }
            ],
            "recurrentSpeeches": {
                "Standby": {
                    "start": {
                        "upper": 60.0,
                        "lower": 50.0
                    },
                    "interval": {
                        "upper": 30.0,
                        "lower": 40.0
                    },
                    "eventName": {
                        "text": "Play_vo_char_explore_idle"
                    }
                },
                "Walk": {
                    "start": {
                        "upper": 16.0,
                        "lower": 13.0
                    },
                    "interval": {
                        "upper": 14.0,
                        "lower": 10.0
                    },
                    "eventName": {
                        "text": ""
                    }
                },
                "Run": {
                    "start": {
                        "upper": 13.0,
                        "lower": 9.0
                    },
                    "interval": {
                        "upper": 11.0,
                        "lower": 8.0
                    },
                    "eventName": {
                        "text": ""
                    }
                },
                "Sprint": {
                    "start": {
                        "upper": 12.0,
                        "lower": 7.0
                    },
                    "interval": {
                        "upper": 9.0,
                        "lower": 6.0
                    },
                    "eventName": {
                        "text": ""
                    }
                }
            }
        },
        "moveStateAudio": {
            "onStateBegin": [
                {
                    "currentStateName": "Fly",
                    "audioEvent": {
                        "text": "Play_sfx_char_fly"
                    }
                },
                {
                    "currentStateName": "Air",
                    "audioEvent": {
                        "text": "Play_sfx_char_drop"
                    },
                    "otherStateNames": [
                        "Fly"
                    ],
                    "usage": "InSet"
                }
            ],
            "onStateEnd": [
                {
                    "currentStateName": "Fly",
                    "audioEvent": {
                        "text": "Stop_sfx_char_fly"
                    }
                },
                {
                    "currentStateName": "Air",
                    "audioEvent": {
                        "text": "Stop_sfx_char_drop"
                    }
                }
            ]
        },
        "voiceSwitch": {
            "text": "Switch_Yaoyao"
        },
        "bodyTypeSwitch": {
            "text": "Switch_Loli"
        },
        "listenerLiftup": 1.5,
        "surfaceProberLiftup": 1.5
    },
    "moveStateEffect": {
        "footprint": {
            "defaultEffectPatternName": "",
            "specialSurfaces": {
                "Snow": {
                    "all": {
                        "effect": "Eff_Character_Snow_Footprint",
                        "deformation": ""
                    },
                    "PCNoTessellation": {
                        "effect": "Eff_Character_Snow_Footprint",
                        "deformation": ""
                    },
                    "pc": {
                        "effect": "Eff_Character_Snow_Footprint_PCPS4",
                        "deformation": "Snow_Footprint"
                    },
                    "ps4": {
                        "effect": "Eff_Character_Snow_Footprint_PCPS4",
                        "deformation": "Snow_Footprint"
                    }
                },
                "SnowRock": {
                    "all": {
                        "effect": "Eff_Character_Snow_Footprint",
                        "deformation": ""
                    },
                    "PCNoTessellation": {
                        "effect": "Eff_Character_Snow_Footprint",
                        "deformation": ""
                    },
                    "pc": {
                        "effect": "Eff_Character_Snow_Footprint_PCPS4",
                        "deformation": "Snow_Footprint"
                    },
                    "ps4": {
                        "effect": "Eff_Character_Snow_Footprint_PCPS4",
                        "deformation": "Snow_Footprint"
                    }
                },
                "Dirt": {
                    "all": {
                        "effect": "Eff_Chacter_Footprint",
                        "deformation": ""
                    }
                },
                "Sand": {
                    "all": {
                        "effect": "Eff_Chacter_Footprint",
                        "deformation": ""
                    }
                },
                "Desert": {
                    "android": {
                        "effect": "Eff_Character_Desert_Footprint",
                        "deformation": ""
                    },
                    "ios": {
                        "effect": "Eff_Character_Desert_Footprint",
                        "deformation": ""
                    }
                },
                "Cloud": {
                    "all": {
                        "effect": "Eff_FootGround_Cloud_01",
                        "deformation": ""
                    }
                },
                "TransparentBrick": {
                    "all": {
                        "effect": "Eff_SceneObj_InvisibleWall_01",
                        "deformation": ""
                    }
                }
            }
        }
    },
    "perform": {
        "standby": {
            "minTime": 10.0,
            "maxTime": 20.0,
            "performIDs": [
                201,
                202,
                200,
                200
            ]
        }
    }
}