{
    "sceneId": 35871,
    "gadgets": [
        {
            "groupId": 235871001,
            "mapInstId": 1001,
            "followMoveAttachPoint": "",
            "uiIndicator": {
                "templateName": "UI_NPCTopIcon_Activity_BrickBreaker"
            },
            "FHNLHBMDPAH": ""
        },
        {
            "groupId": 235871001,
            "mapInstId": 1003,
            "followMoveAttachPoint": "",
            "trigger": {
                "NHCPEFBMPLC": true,
                "triggerFlag": "TeleportWithoutPaimonReminder",
                "EIBECKPGBJD": true,
                "JIKKPDOLFIB": {
                    "$type": "ConfigLocalTriggerMeta",
                    "vectorParam": {
                        "x": 32.5,
                        "y": 4.0,
                        "z": 95.0
                    },
                    "stringParam": "noCurtain"
                }
            },
            "FHNLHBMDPAH": ""
        }
    ]
}