{
    "sceneId": 3,
    "gadgets": [
        {
            "groupId": 133309016,
            "mapInstId": 16002,
            "followMoveAttachPoint": "",
            "uiIndicator": {
                "templateName": "Normal_Chest_Icon"
            },
            "FHNLHBMDPAH": ""
        },
        {
            "groupId": 133309029,
            "mapInstId": 29003,
            "followMoveAttachPoint": "",
            "uiIndicator": {
                "templateName": "Normal_WorldTask_Icon_Platform"
            },
            "FHNLHBMDPAH": ""
        },
        {
            "groupId": 133309029,
            "mapInstId": 29005,
            "followMoveAttachPoint": "",
            "uiIndicator": {
                "templateName": "Normal_WorldTask_Icon_Platform"
            },
            "FHNLHBMDPAH": ""
        },
        {
            "groupId": 133309040,
            "mapInstId": 40001,
            "followMoveAttachPoint": "",
            "uiIndicator": {
                "templateName": "Normal_Chest_Icon"
            },
            "FHNLHBMDPAH": ""
        },
        {
            "groupId": 133309047,
            "mapInstId": 47001,
            "followMoveAttachPoint": "",
            "uiIndicator": {
                "templateName": "Normal_Chest_Icon"
            },
            "FHNLHBMDPAH": ""
        },
        {
            "groupId": 133309052,
            "mapInstId": 52004,
            "followMoveAttachPoint": "",
            "uiIndicator": {
                "templateName": "Normal_Chest_Icon"
            },
            "FHNLHBMDPAH": ""
        },
        {
            "groupId": 133309053,
            "mapInstId": 53002,
            "followMoveAttachPoint": "",
            "uiIndicator": {
                "templateName": "Normal_Chest_Icon"
            },
            "FHNLHBMDPAH": ""
        },
        {
            "groupId": 133309063,
            "mapInstId": 63002,
            "followMoveAttachPoint": "",
            "uiIndicator": {
                "templateName": "Normal_Chest_Icon"
            },
            "FHNLHBMDPAH": ""
        },
        {
            "groupId": 133309064,
            "mapInstId": 64004,
            "followMoveAttachPoint": "",
            "uiIndicator": {
                "templateName": "Normal_Chest_Icon"
            },
            "FHNLHBMDPAH": ""
        },
        {
            "groupId": 133309065,
            "mapInstId": 65003,
            "followMoveAttachPoint": "",
            "uiIndicator": {
                "templateName": "Normal_WorldTask_Icon_Platform"
            },
            "FHNLHBMDPAH": ""
        },
        {
            "groupId": 133309065,
            "mapInstId": 65005,
            "followMoveAttachPoint": "",
            "uiIndicator": {
                "templateName": "Normal_WorldTask_Icon_Platform"
            },
            "FHNLHBMDPAH": ""
        },
        {
            "groupId": 133309065,
            "mapInstId": 65010,
            "followMoveAttachPoint": "",
            "uiIndicator": {
                "templateName": "Normal_WorldTask_Icon_Platform"
            },
            "FHNLHBMDPAH": ""
        },
        {
            "groupId": 133309065,
            "mapInstId": 65012,
            "followMoveAttachPoint": "",
            "uiIndicator": {
                "templateName": "Normal_WorldTask_Icon_Platform"
            },
            "FHNLHBMDPAH": ""
        },
        {
            "groupId": 133309070,
            "mapInstId": 70010,
            "followMoveAttachPoint": "",
            "uiIndicator": {
                "templateName": "Normal_Chest_Icon"
            },
            "FHNLHBMDPAH": ""
        },
        {
            "groupId": 133309079,
            "mapInstId": 79004,
            "followMoveAttachPoint": "",
            "uiIndicator": {
                "templateName": "Normal_Chest_Icon"
            },
            "FHNLHBMDPAH": ""
        },
        {
            "groupId": 133309080,
            "mapInstId": 80002,
            "followMoveAttachPoint": "",
            "uiIndicator": {
                "templateName": "Normal_Chest_Icon"
            },
            "FHNLHBMDPAH": ""
        },
        {
            "groupId": 133309084,
            "mapInstId": 84007,
            "followMoveAttachPoint": "",
            "uiIndicator": {
                "templateName": "Normal_Chest_Icon"
            },
            "FHNLHBMDPAH": ""
        },
        {
            "groupId": 133309087,
            "mapInstId": 87001,
            "followMoveAttachPoint": "",
            "uiIndicator": {
                "templateName": "Normal_Chest_Icon"
            },
            "FHNLHBMDPAH": ""
        },
        {
            "groupId": 133309091,
            "mapInstId": 91004,
            "followMoveAttachPoint": "",
            "uiIndicator": {
                "templateName": "Normal_Chest_Icon"
            },
            "FHNLHBMDPAH": ""
        },
        {
            "groupId": 133309094,
            "mapInstId": 94002,
            "followMoveAttachPoint": "",
            "uiIndicator": {
                "templateName": "Normal_Chest_Icon"
            },
            "FHNLHBMDPAH": ""
        },
        {
            "groupId": 133309100,
            "mapInstId": 100002,
            "followMoveAttachPoint": "",
            "uiIndicator": {
                "templateName": "Normal_Chest_Icon"
            },
            "FHNLHBMDPAH": ""
        },
        {
            "groupId": 133309101,
            "mapInstId": 101002,
            "followMoveAttachPoint": "",
            "uiIndicator": {
                "templateName": "Normal_Chest_Icon"
            },
            "FHNLHBMDPAH": ""
        },
        {
            "groupId": 133309102,
            "mapInstId": 102004,
            "followMoveAttachPoint": "",
            "uiIndicator": {
                "templateName": "Normal_Chest_Icon"
            },
            "FHNLHBMDPAH": ""
        },
        {
            "groupId": 133309107,
            "mapInstId": 107006,
            "followMoveAttachPoint": "",
            "uiIndicator": {
                "templateName": "Normal_Chest_Icon"
            },
            "FHNLHBMDPAH": ""
        },
        {
            "groupId": 133309112,
            "mapInstId": 112004,
            "followMoveAttachPoint": "",
            "uiIndicator": {
                "templateName": "Normal_Chest_Icon"
            },
            "FHNLHBMDPAH": ""
        },
        {
            "groupId": 133309115,
            "mapInstId": 115003,
            "followMoveAttachPoint": "",
            "uiIndicator": {
                "templateName": "Normal_Chest_Icon"
            },
            "FHNLHBMDPAH": ""
        },
        {
            "groupId": 133309117,
            "mapInstId": 117006,
            "followMoveAttachPoint": "",
            "uiIndicator": {
                "templateName": "Normal_Chest_Icon"
            },
            "FHNLHBMDPAH": ""
        },
        {
            "groupId": 133309132,
            "mapInstId": 132010,
            "followMoveAttachPoint": "",
            "uiIndicator": {
                "templateName": "Normal_Chest_Icon"
            },
            "FHNLHBMDPAH": ""
        },
        {
            "groupId": 133309136,
            "mapInstId": 136007,
            "followMoveAttachPoint": "",
            "uiIndicator": {
                "templateName": "Normal_Chest_Icon"
            },
            "FHNLHBMDPAH": ""
        },
        {
            "groupId": 133309137,
            "mapInstId": 137007,
            "followMoveAttachPoint": "",
            "uiIndicator": {
                "templateName": "Normal_Chest_Icon"
            },
            "FHNLHBMDPAH": ""
        },
        {
            "groupId": 133309138,
            "mapInstId": 138009,
            "followMoveAttachPoint": "",
            "uiIndicator": {
                "templateName": "Normal_Chest_Icon"
            },
            "FHNLHBMDPAH": ""
        },
        {
            "groupId": 133309143,
            "mapInstId": 143001,
            "followMoveAttachPoint": "",
            "uiIndicator": {
                "templateName": "GadgetCreate_Icon"
            },
            "FHNLHBMDPAH": ""
        },
        {
            "groupId": 133309143,
            "mapInstId": 143003,
            "followMoveAttachPoint": "",
            "uiIndicator": {
                "templateName": "Normal_Chest_Icon"
            },
            "FHNLHBMDPAH": ""
        },
        {
            "groupId": 133309143,
            "mapInstId": 143004,
            "followMoveAttachPoint": "",
            "uiIndicator": {
                "templateName": "GadgetCreate_Icon"
            },
            "FHNLHBMDPAH": ""
        },
        {
            "groupId": 133309143,
            "mapInstId": 143013,
            "followMoveAttachPoint": "",
            "uiIndicator": {
                "templateName": "GadgetCreate_Icon"
            },
            "FHNLHBMDPAH": ""
        },
        {
            "groupId": 133309143,
            "mapInstId": 143014,
            "followMoveAttachPoint": "",
            "uiIndicator": {
                "templateName": "GadgetCreate_Icon"
            },
            "FHNLHBMDPAH": ""
        },
        {
            "groupId": 133309143,
            "mapInstId": 143015,
            "followMoveAttachPoint": "",
            "uiIndicator": {
                "templateName": "GadgetCreate_Icon"
            },
            "FHNLHBMDPAH": ""
        },
        {
            "groupId": 133309143,
            "mapInstId": 143016,
            "followMoveAttachPoint": "",
            "uiIndicator": {
                "templateName": "GadgetCreate_Icon"
            },
            "FHNLHBMDPAH": ""
        },
        {
            "groupId": 133309145,
            "mapInstId": 145004,
            "followMoveAttachPoint": "",
            "uiIndicator": {
                "templateName": "Normal_Chest_Icon"
            },
            "FHNLHBMDPAH": ""
        },
        {
            "groupId": 133309147,
            "mapInstId": 147002,
            "followMoveAttachPoint": "",
            "uiIndicator": {
                "templateName": "Normal_Chest_Icon"
            },
            "FHNLHBMDPAH": ""
        },
        {
            "groupId": 133309149,
            "mapInstId": 149004,
            "followMoveAttachPoint": "",
            "uiIndicator": {
                "templateName": "Normal_Chest_Icon"
            },
            "FHNLHBMDPAH": ""
        },
        {
            "groupId": 133309151,
            "mapInstId": 151001,
            "followMoveAttachPoint": "",
            "uiIndicator": {
                "templateName": "Normal_Chest_Icon"
            },
            "FHNLHBMDPAH": ""
        },
        {
            "groupId": 133309151,
            "mapInstId": 151006,
            "followMoveAttachPoint": "",
            "uiIndicator": {
                "templateName": "Normal_Chest_Icon"
            },
            "FHNLHBMDPAH": ""
        },
        {
            "groupId": 133309151,
            "mapInstId": 151007,
            "followMoveAttachPoint": "",
            "uiIndicator": {
                "templateName": "Normal_Chest_Icon"
            },
            "FHNLHBMDPAH": ""
        },
        {
            "groupId": 133309155,
            "mapInstId": 155001,
            "followMoveAttachPoint": "",
            "uiIndicator": {
                "templateName": "Normal_Chest_Icon"
            },
            "FHNLHBMDPAH": ""
        },
        {
            "groupId": 133309159,
            "mapInstId": 159004,
            "followMoveAttachPoint": "",
            "uiIndicator": {
                "templateName": "Normal_Chest_Icon"
            },
            "FHNLHBMDPAH": ""
        },
        {
            "groupId": 133309165,
            "mapInstId": 165003,
            "followMoveAttachPoint": "",
            "uiIndicator": {
                "templateName": "Normal_Chest_Icon"
            },
            "FHNLHBMDPAH": ""
        },
        {
            "groupId": 133309170,
            "mapInstId": 170006,
            "followMoveAttachPoint": "",
            "uiIndicator": {
                "templateName": "Normal_Chest_Icon"
            },
            "FHNLHBMDPAH": ""
        },
        {
            "groupId": 133309179,
            "mapInstId": 179001,
            "followMoveAttachPoint": "",
            "uiIndicator": {
                "templateName": "Normal_Chest_Icon"
            },
            "FHNLHBMDPAH": ""
        },
        {
            "groupId": 133309190,
            "mapInstId": 190003,
            "followMoveAttachPoint": "",
            "uiIndicator": {
                "templateName": "Normal_WorldTask_Icon_Platform"
            },
            "FHNLHBMDPAH": ""
        },
        {
            "groupId": 133309191,
            "mapInstId": 191003,
            "followMoveAttachPoint": "",
            "uiIndicator": {
                "templateName": "Normal_WorldTask_Icon_Platform"
            },
            "FHNLHBMDPAH": ""
        },
        {
            "groupId": 133309191,
            "mapInstId": 191005,
            "followMoveAttachPoint": "",
            "uiIndicator": {
                "templateName": "Normal_WorldTask_Icon_Platform"
            },
            "FHNLHBMDPAH": ""
        },
        {
            "groupId": 133309192,
            "mapInstId": 192003,
            "followMoveAttachPoint": "",
            "uiIndicator": {
                "templateName": "Normal_WorldTask_Icon_Platform"
            },
            "FHNLHBMDPAH": ""
        },
        {
            "groupId": 133309192,
            "mapInstId": 192005,
            "followMoveAttachPoint": "",
            "uiIndicator": {
                "templateName": "Normal_WorldTask_Icon_Platform"
            },
            "FHNLHBMDPAH": ""
        },
        {
            "groupId": 133309196,
            "mapInstId": 196004,
            "followMoveAttachPoint": "",
            "uiIndicator": {
                "templateName": "Normal_Chest_Icon"
            },
            "FHNLHBMDPAH": ""
        },
        {
            "groupId": 133309198,
            "mapInstId": 198002,
            "followMoveAttachPoint": "",
            "uiIndicator": {
                "templateName": "Normal_Chest_Icon"
            },
            "FHNLHBMDPAH": ""
        },
        {
            "groupId": 133309200,
            "mapInstId": 200004,
            "followMoveAttachPoint": "",
            "uiIndicator": {
                "templateName": "Normal_Chest_Icon"
            },
            "FHNLHBMDPAH": ""
        },
        {
            "groupId": 133309201,
            "mapInstId": 201001,
            "followMoveAttachPoint": "",
            "uiIndicator": {
                "templateName": "Normal_Chest_Icon"
            },
            "FHNLHBMDPAH": ""
        },
        {
            "groupId": 133309204,
            "mapInstId": 204002,
            "followMoveAttachPoint": "",
            "uiIndicator": {
                "templateName": "Normal_Chest_Icon"
            },
            "FHNLHBMDPAH": ""
        },
        {
            "groupId": 133309205,
            "mapInstId": 205015,
            "followMoveAttachPoint": "",
            "uiIndicator": {
                "templateName": "Normal_Chest_Icon"
            },
            "FHNLHBMDPAH": ""
        },
        {
            "groupId": 133309208,
            "mapInstId": 208002,
            "followMoveAttachPoint": "",
            "uiIndicator": {
                "templateName": "Normal_Chest_Icon"
            },
            "FHNLHBMDPAH": ""
        },
        {
            "groupId": 133309215,
            "mapInstId": 215004,
            "followMoveAttachPoint": "",
            "uiIndicator": {
                "templateName": "Normal_Chest_Icon"
            },
            "FHNLHBMDPAH": ""
        },
        {
            "groupId": 133309218,
            "mapInstId": 218003,
            "followMoveAttachPoint": "",
            "uiIndicator": {
                "templateName": "Normal_WorldTask_Icon_Platform"
            },
            "FHNLHBMDPAH": ""
        },
        {
            "groupId": 133309218,
            "mapInstId": 218005,
            "followMoveAttachPoint": "",
            "uiIndicator": {
                "templateName": "Normal_WorldTask_Icon_Platform"
            },
            "FHNLHBMDPAH": ""
        },
        {
            "groupId": 133309218,
            "mapInstId": 218010,
            "followMoveAttachPoint": "",
            "uiIndicator": {
                "templateName": "Normal_WorldTask_Icon_Platform"
            },
            "FHNLHBMDPAH": ""
        },
        {
            "groupId": 133309219,
            "mapInstId": 219003,
            "followMoveAttachPoint": "",
            "uiIndicator": {
                "templateName": "Normal_WorldTask_Icon_Platform"
            },
            "FHNLHBMDPAH": ""
        },
        {
            "groupId": 133309219,
            "mapInstId": 219005,
            "followMoveAttachPoint": "",
            "uiIndicator": {
                "templateName": "Normal_WorldTask_Icon_Platform"
            },
            "FHNLHBMDPAH": ""
        },
        {
            "groupId": 133309219,
            "mapInstId": 219010,
            "followMoveAttachPoint": "",
            "uiIndicator": {
                "templateName": "Normal_WorldTask_Icon_Platform"
            },
            "FHNLHBMDPAH": ""
        },
        {
            "groupId": 133309220,
            "mapInstId": 220003,
            "followMoveAttachPoint": "",
            "uiIndicator": {
                "templateName": "Normal_WorldTask_Icon_Platform"
            },
            "FHNLHBMDPAH": ""
        },
        {
            "groupId": 133309220,
            "mapInstId": 220005,
            "followMoveAttachPoint": "",
            "uiIndicator": {
                "templateName": "Normal_WorldTask_Icon_Platform"
            },
            "FHNLHBMDPAH": ""
        },
        {
            "groupId": 133309220,
            "mapInstId": 220010,
            "followMoveAttachPoint": "",
            "uiIndicator": {
                "templateName": "Normal_WorldTask_Icon_Platform"
            },
            "FHNLHBMDPAH": ""
        },
        {
            "groupId": 133309229,
            "mapInstId": 229001,
            "followMoveAttachPoint": "",
            "uiIndicator": {
                "templateName": "Desert_HourGlass_Indicator"
            },
            "FHNLHBMDPAH": ""
        },
        {
            "groupId": 133309229,
            "mapInstId": 229002,
            "followMoveAttachPoint": "",
            "uiIndicator": {
                "templateName": "Desert_HourGlass_Indicator"
            },
            "FHNLHBMDPAH": ""
        },
        {
            "groupId": 133309229,
            "mapInstId": 229003,
            "followMoveAttachPoint": "",
            "uiIndicator": {
                "templateName": "Desert_HourGlass_Indicator"
            },
            "FHNLHBMDPAH": ""
        },
        {
            "groupId": 133309229,
            "mapInstId": 229004,
            "followMoveAttachPoint": "",
            "uiIndicator": {
                "templateName": "Normal_Chest_Icon"
            },
            "FHNLHBMDPAH": ""
        },
        {
            "groupId": 133309230,
            "mapInstId": 230004,
            "followMoveAttachPoint": "",
            "uiIndicator": {
                "templateName": "Normal_Chest_Icon"
            },
            "FHNLHBMDPAH": ""
        },
        {
            "groupId": 133309232,
            "mapInstId": 232004,
            "followMoveAttachPoint": "",
            "uiIndicator": {
                "templateName": "Normal_Chest_Icon"
            },
            "FHNLHBMDPAH": ""
        },
        {
            "groupId": 133309235,
            "mapInstId": 235002,
            "followMoveAttachPoint": "",
            "uiIndicator": {
                "templateName": "Normal_Chest_Icon"
            },
            "FHNLHBMDPAH": ""
        },
        {
            "groupId": 133309236,
            "mapInstId": 236002,
            "followMoveAttachPoint": "",
            "uiIndicator": {
                "templateName": "Normal_Chest_Icon"
            },
            "FHNLHBMDPAH": ""
        },
        {
            "groupId": 133309239,
            "mapInstId": 239006,
            "followMoveAttachPoint": "",
            "uiIndicator": {
                "templateName": "Normal_Chest_Icon"
            },
            "FHNLHBMDPAH": ""
        },
        {
            "groupId": 133309241,
            "mapInstId": 241004,
            "followMoveAttachPoint": "",
            "uiIndicator": {
                "templateName": "Normal_Chest_Icon"
            },
            "FHNLHBMDPAH": ""
        },
        {
            "groupId": 133309246,
            "mapInstId": 246002,
            "followMoveAttachPoint": "",
            "uiIndicator": {
                "templateName": "Normal_Chest_Icon"
            },
            "FHNLHBMDPAH": ""
        },
        {
            "groupId": 133309248,
            "mapInstId": 248001,
            "followMoveAttachPoint": "",
            "uiIndicator": {
                "templateName": "Normal_Chest_Icon"
            },
            "FHNLHBMDPAH": ""
        },
        {
            "groupId": 133309251,
            "mapInstId": 251005,
            "followMoveAttachPoint": "",
            "uiIndicator": {
                "templateName": "GadgetCreate_Icon_Follow"
            },
            "FHNLHBMDPAH": ""
        },
        {
            "groupId": 133309252,
            "mapInstId": 252005,
            "followMoveAttachPoint": "",
            "uiIndicator": {
                "templateName": "GadgetCreate_Icon_Follow"
            },
            "FHNLHBMDPAH": ""
        },
        {
            "groupId": 133309253,
            "mapInstId": 253001,
            "followMoveAttachPoint": "",
            "uiIndicator": {
                "templateName": "Normal_Chest_Icon"
            },
            "FHNLHBMDPAH": ""
        },
        {
            "groupId": 133309254,
            "mapInstId": 254005,
            "followMoveAttachPoint": "",
            "uiIndicator": {
                "templateName": "GadgetCreate_Icon_Follow"
            },
            "FHNLHBMDPAH": ""
        },
        {
            "groupId": 133309255,
            "mapInstId": 255005,
            "followMoveAttachPoint": "",
            "uiIndicator": {
                "templateName": "GadgetCreate_Icon_Follow"
            },
            "FHNLHBMDPAH": ""
        },
        {
            "groupId": 133309259,
            "mapInstId": 259003,
            "followMoveAttachPoint": "",
            "uiIndicator": {
                "templateName": "Normal_WorldTask_Icon_Platform"
            },
            "FHNLHBMDPAH": ""
        },
        {
            "groupId": 133309259,
            "mapInstId": 259005,
            "followMoveAttachPoint": "",
            "uiIndicator": {
                "templateName": "Normal_WorldTask_Icon_Platform"
            },
            "FHNLHBMDPAH": ""
        },
        {
            "groupId": 133309259,
            "mapInstId": 259008,
            "followMoveAttachPoint": "",
            "uiIndicator": {
                "templateName": "Normal_WorldTask_Icon_Platform"
            },
            "FHNLHBMDPAH": ""
        },
        {
            "groupId": 133309260,
            "mapInstId": 260003,
            "followMoveAttachPoint": "",
            "uiIndicator": {
                "templateName": "Normal_WorldTask_Icon_Platform"
            },
            "FHNLHBMDPAH": ""
        },
        {
            "groupId": 133309260,
            "mapInstId": 260005,
            "followMoveAttachPoint": "",
            "uiIndicator": {
                "templateName": "Normal_WorldTask_Icon_Platform"
            },
            "FHNLHBMDPAH": ""
        },
        {
            "groupId": 133309261,
            "mapInstId": 261003,
            "followMoveAttachPoint": "",
            "uiIndicator": {
                "templateName": "Normal_WorldTask_Icon_Platform"
            },
            "FHNLHBMDPAH": ""
        },
        {
            "groupId": 133309264,
            "mapInstId": 264004,
            "followMoveAttachPoint": "",
            "uiIndicator": {
                "templateName": "Normal_Chest_Icon"
            },
            "FHNLHBMDPAH": ""
        },
        {
            "groupId": 133309267,
            "mapInstId": 267004,
            "followMoveAttachPoint": "",
            "uiIndicator": {
                "templateName": "Normal_Chest_Icon"
            },
            "FHNLHBMDPAH": ""
        },
        {
            "groupId": 133309271,
            "mapInstId": 271002,
            "followMoveAttachPoint": "",
            "uiIndicator": {
                "templateName": "Normal_Chest_Icon"
            },
            "FHNLHBMDPAH": ""
        },
        {
            "groupId": 133309273,
            "mapInstId": 273006,
            "followMoveAttachPoint": "",
            "uiIndicator": {
                "templateName": "Normal_Chest_Icon"
            },
            "FHNLHBMDPAH": ""
        },
        {
            "groupId": 133309275,
            "mapInstId": 275005,
            "followMoveAttachPoint": "",
            "uiIndicator": {
                "templateName": "Normal_Chest_Icon"
            },
            "FHNLHBMDPAH": ""
        },
        {
            "groupId": 133309278,
            "mapInstId": 278001,
            "followMoveAttachPoint": "",
            "uiIndicator": {
                "templateName": "Normal_Chest_Icon"
            },
            "FHNLHBMDPAH": ""
        },
        {
            "groupId": 133309287,
            "mapInstId": 287001,
            "followMoveAttachPoint": "",
            "uiIndicator": {
                "templateName": "Normal_Chest_Icon"
            },
            "FHNLHBMDPAH": ""
        },
        {
            "groupId": 133309288,
            "mapInstId": 288001,
            "followMoveAttachPoint": "",
            "uiIndicator": {
                "templateName": "Desert_HourGlass_Indicator"
            },
            "FHNLHBMDPAH": ""
        },
        {
            "groupId": 133309288,
            "mapInstId": 288002,
            "followMoveAttachPoint": "",
            "uiIndicator": {
                "templateName": "Desert_HourGlass_Indicator"
            },
            "FHNLHBMDPAH": ""
        },
        {
            "groupId": 133309288,
            "mapInstId": 288003,
            "followMoveAttachPoint": "",
            "uiIndicator": {
                "templateName": "Desert_HourGlass_Indicator"
            },
            "FHNLHBMDPAH": ""
        },
        {
            "groupId": 133309288,
            "mapInstId": 288004,
            "followMoveAttachPoint": "",
            "uiIndicator": {
                "templateName": "Normal_Chest_Icon"
            },
            "FHNLHBMDPAH": ""
        },
        {
            "groupId": 133309291,
            "mapInstId": 291002,
            "followMoveAttachPoint": "",
            "uiIndicator": {
                "templateName": "Normal_Chest_Icon"
            },
            "FHNLHBMDPAH": ""
        },
        {
            "groupId": 133309296,
            "mapInstId": 296002,
            "followMoveAttachPoint": "",
            "uiIndicator": {
                "templateName": "Normal_Chest_Icon"
            },
            "FHNLHBMDPAH": ""
        },
        {
            "groupId": 133309304,
            "mapInstId": 304004,
            "followMoveAttachPoint": "",
            "uiIndicator": {
                "templateName": "Normal_Chest_Icon"
            },
            "FHNLHBMDPAH": ""
        },
        {
            "groupId": 133309310,
            "mapInstId": 310001,
            "followMoveAttachPoint": "",
            "uiIndicator": {
                "templateName": "Normal_Chest_Icon"
            },
            "FHNLHBMDPAH": ""
        },
        {
            "groupId": 133309315,
            "mapInstId": 315002,
            "followMoveAttachPoint": "",
            "uiIndicator": {
                "templateName": "Normal_Chest_Icon"
            },
            "FHNLHBMDPAH": ""
        },
        {
            "groupId": 133309325,
            "mapInstId": 325001,
            "followMoveAttachPoint": "",
            "uiIndicator": {
                "templateName": "GadgetCreate_Icon"
            },
            "FHNLHBMDPAH": ""
        },
        {
            "groupId": 133309325,
            "mapInstId": 325003,
            "followMoveAttachPoint": "",
            "uiIndicator": {
                "templateName": "Normal_Chest_Icon"
            },
            "FHNLHBMDPAH": ""
        },
        {
            "groupId": 133309325,
            "mapInstId": 325004,
            "followMoveAttachPoint": "",
            "uiIndicator": {
                "templateName": "GadgetCreate_Icon"
            },
            "FHNLHBMDPAH": ""
        },
        {
            "groupId": 133309325,
            "mapInstId": 325006,
            "followMoveAttachPoint": "",
            "uiIndicator": {
                "templateName": "GadgetCreate_Icon"
            },
            "FHNLHBMDPAH": ""
        },
        {
            "groupId": 133309325,
            "mapInstId": 325007,
            "followMoveAttachPoint": "",
            "uiIndicator": {
                "templateName": "GadgetCreate_Icon"
            },
            "FHNLHBMDPAH": ""
        },
        {
            "groupId": 133309325,
            "mapInstId": 325008,
            "followMoveAttachPoint": "",
            "uiIndicator": {
                "templateName": "GadgetCreate_Icon"
            },
            "FHNLHBMDPAH": ""
        },
        {
            "groupId": 133309325,
            "mapInstId": 325009,
            "followMoveAttachPoint": "",
            "uiIndicator": {
                "templateName": "GadgetCreate_Icon"
            },
            "FHNLHBMDPAH": ""
        },
        {
            "groupId": 133309325,
            "mapInstId": 325010,
            "followMoveAttachPoint": "",
            "uiIndicator": {
                "templateName": "GadgetCreate_Icon"
            },
            "FHNLHBMDPAH": ""
        },
        {
            "groupId": 133309325,
            "mapInstId": 325011,
            "followMoveAttachPoint": "",
            "uiIndicator": {
                "templateName": "GadgetCreate_Icon"
            },
            "FHNLHBMDPAH": ""
        },
        {
            "groupId": 133309325,
            "mapInstId": 325012,
            "followMoveAttachPoint": "",
            "uiIndicator": {
                "templateName": "GadgetCreate_Icon"
            },
            "FHNLHBMDPAH": ""
        },
        {
            "groupId": 133309325,
            "mapInstId": 325021,
            "followMoveAttachPoint": "",
            "uiIndicator": {
                "templateName": "GadgetCreate_Icon"
            },
            "FHNLHBMDPAH": ""
        },
        {
            "groupId": 133309329,
            "mapInstId": 329006,
            "followMoveAttachPoint": "",
            "uiIndicator": {
                "templateName": "Normal_Chest_Icon"
            },
            "FHNLHBMDPAH": ""
        },
        {
            "groupId": 133309334,
            "mapInstId": 334004,
            "followMoveAttachPoint": "",
            "uiIndicator": {
                "templateName": "Normal_Chest_Icon"
            },
            "FHNLHBMDPAH": ""
        },
        {
            "groupId": 133309341,
            "mapInstId": 341007,
            "followMoveAttachPoint": "",
            "uiIndicator": {
                "templateName": "Normal_Chest_Icon"
            },
            "FHNLHBMDPAH": ""
        },
        {
            "groupId": 133309344,
            "mapInstId": 344009,
            "followMoveAttachPoint": "",
            "uiIndicator": {
                "templateName": "Normal_Chest_Icon"
            },
            "FHNLHBMDPAH": ""
        },
        {
            "groupId": 133309349,
            "mapInstId": 349004,
            "followMoveAttachPoint": "",
            "uiIndicator": {
                "templateName": "Normal_Chest_Icon"
            },
            "FHNLHBMDPAH": ""
        },
        {
            "groupId": 133309354,
            "mapInstId": 354004,
            "followMoveAttachPoint": "",
            "uiIndicator": {
                "templateName": "Normal_Chest_Icon"
            },
            "FHNLHBMDPAH": ""
        },
        {
            "groupId": 133309372,
            "mapInstId": 372001,
            "followMoveAttachPoint": "",
            "uiIndicator": {
                "templateName": "Desert_HourGlass_Indicator"
            },
            "FHNLHBMDPAH": ""
        },
        {
            "groupId": 133309372,
            "mapInstId": 372002,
            "followMoveAttachPoint": "",
            "uiIndicator": {
                "templateName": "Desert_HourGlass_Indicator"
            },
            "FHNLHBMDPAH": ""
        },
        {
            "groupId": 133309372,
            "mapInstId": 372003,
            "followMoveAttachPoint": "",
            "uiIndicator": {
                "templateName": "Desert_HourGlass_Indicator"
            },
            "FHNLHBMDPAH": ""
        },
        {
            "groupId": 133309385,
            "mapInstId": 385001,
            "followMoveAttachPoint": "",
            "uiIndicator": {
                "templateName": "GadgetCreate_Icon"
            },
            "FHNLHBMDPAH": ""
        },
        {
            "groupId": 133309385,
            "mapInstId": 385003,
            "followMoveAttachPoint": "",
            "uiIndicator": {
                "templateName": "Normal_Chest_Icon"
            },
            "FHNLHBMDPAH": ""
        },
        {
            "groupId": 133309385,
            "mapInstId": 385004,
            "followMoveAttachPoint": "",
            "uiIndicator": {
                "templateName": "GadgetCreate_Icon"
            },
            "FHNLHBMDPAH": ""
        },
        {
            "groupId": 133309385,
            "mapInstId": 385013,
            "followMoveAttachPoint": "",
            "uiIndicator": {
                "templateName": "GadgetCreate_Icon"
            },
            "FHNLHBMDPAH": ""
        },
        {
            "groupId": 133309385,
            "mapInstId": 385014,
            "followMoveAttachPoint": "",
            "uiIndicator": {
                "templateName": "GadgetCreate_Icon"
            },
            "FHNLHBMDPAH": ""
        },
        {
            "groupId": 133309389,
            "mapInstId": 389001,
            "followMoveAttachPoint": "",
            "uiIndicator": {
                "templateName": "Normal_Chest_Icon"
            },
            "FHNLHBMDPAH": ""
        },
        {
            "groupId": 133309390,
            "mapInstId": 390002,
            "followMoveAttachPoint": "",
            "uiIndicator": {
                "templateName": "Normal_Chest_Icon"
            },
            "FHNLHBMDPAH": ""
        },
        {
            "groupId": 133309393,
            "mapInstId": 393002,
            "followMoveAttachPoint": "",
            "uiIndicator": {
                "templateName": "Normal_Chest_Icon"
            },
            "FHNLHBMDPAH": ""
        },
        {
            "groupId": 133309394,
            "mapInstId": 394004,
            "followMoveAttachPoint": "",
            "uiIndicator": {
                "templateName": "Normal_Chest_Icon"
            },
            "FHNLHBMDPAH": ""
        },
        {
            "groupId": 133309396,
            "mapInstId": 396002,
            "followMoveAttachPoint": "",
            "uiIndicator": {
                "templateName": "Normal_Chest_Icon"
            },
            "FHNLHBMDPAH": ""
        },
        {
            "groupId": 133309409,
            "mapInstId": 409012,
            "followMoveAttachPoint": "",
            "uiIndicator": {
                "templateName": "Normal_Chest_Icon"
            },
            "FHNLHBMDPAH": ""
        },
        {
            "groupId": 133309433,
            "mapInstId": 433001,
            "followMoveAttachPoint": "",
            "uiIndicator": {
                "templateName": "Normal_Chest_Icon"
            },
            "FHNLHBMDPAH": ""
        },
        {
            "groupId": 133309435,
            "mapInstId": 435001,
            "followMoveAttachPoint": "",
            "uiIndicator": {
                "templateName": "Desert_HourGlass_Indicator"
            },
            "FHNLHBMDPAH": ""
        },
        {
            "groupId": 133309435,
            "mapInstId": 435002,
            "followMoveAttachPoint": "",
            "uiIndicator": {
                "templateName": "Desert_HourGlass_Indicator"
            },
            "FHNLHBMDPAH": ""
        },
        {
            "groupId": 133309435,
            "mapInstId": 435003,
            "followMoveAttachPoint": "",
            "uiIndicator": {
                "templateName": "Desert_HourGlass_Indicator"
            },
            "FHNLHBMDPAH": ""
        },
        {
            "groupId": 133309435,
            "mapInstId": 435004,
            "followMoveAttachPoint": "",
            "uiIndicator": {
                "templateName": "Normal_Chest_Icon"
            },
            "FHNLHBMDPAH": ""
        },
        {
            "groupId": 133309437,
            "mapInstId": 437002,
            "followMoveAttachPoint": "",
            "uiIndicator": {
                "templateName": "Normal_Chest_Icon"
            },
            "FHNLHBMDPAH": ""
        },
        {
            "groupId": 133309440,
            "mapInstId": 440002,
            "followMoveAttachPoint": "",
            "uiIndicator": {
                "templateName": "Normal_Chest_Icon"
            },
            "FHNLHBMDPAH": ""
        },
        {
            "groupId": 133309460,
            "mapInstId": 460001,
            "followMoveAttachPoint": "",
            "uiIndicator": {
                "templateName": "Normal_Chest_Icon"
            },
            "FHNLHBMDPAH": ""
        },
        {
            "groupId": 133309466,
            "mapInstId": 466004,
            "followMoveAttachPoint": "",
            "uiIndicator": {
                "templateName": "Normal_Chest_Icon"
            },
            "FHNLHBMDPAH": ""
        },
        {
            "groupId": 133309473,
            "mapInstId": 473004,
            "followMoveAttachPoint": "",
            "uiIndicator": {
                "templateName": "Normal_Chest_Icon"
            },
            "FHNLHBMDPAH": ""
        },
        {
            "groupId": 133309474,
            "mapInstId": 474001,
            "followMoveAttachPoint": "",
            "uiIndicator": {
                "templateName": "Normal_Chest_Icon"
            },
            "FHNLHBMDPAH": ""
        },
        {
            "groupId": 133309476,
            "mapInstId": 476007,
            "followMoveAttachPoint": "",
            "uiIndicator": {
                "templateName": "Normal_Chest_Icon"
            },
            "FHNLHBMDPAH": ""
        },
        {
            "groupId": 133309484,
            "mapInstId": 484006,
            "followMoveAttachPoint": "",
            "uiIndicator": {
                "templateName": "Normal_Chest_Icon"
            },
            "FHNLHBMDPAH": ""
        },
        {
            "groupId": 133309485,
            "mapInstId": 485006,
            "followMoveAttachPoint": "",
            "uiIndicator": {
                "templateName": "Normal_Chest_Icon"
            },
            "FHNLHBMDPAH": ""
        },
        {
            "groupId": 133309489,
            "mapInstId": 489001,
            "followMoveAttachPoint": "",
            "uiIndicator": {
                "templateName": "Normal_Chest_Icon"
            },
            "FHNLHBMDPAH": ""
        },
        {
            "groupId": 133309520,
            "mapInstId": 520003,
            "followMoveAttachPoint": "",
            "uiIndicator": {
                "templateName": "Normal_Chest_Icon"
            },
            "FHNLHBMDPAH": ""
        },
        {
            "groupId": 133309544,
            "mapInstId": 544001,
            "followMoveAttachPoint": "",
            "uiIndicator": {
                "templateName": "Normal_Chest_Icon"
            },
            "FHNLHBMDPAH": ""
        },
        {
            "groupId": 133309570,
            "mapInstId": 570004,
            "followMoveAttachPoint": "",
            "uiIndicator": {
                "templateName": "Normal_Chest_Icon"
            },
            "FHNLHBMDPAH": ""
        },
        {
            "groupId": 133309578,
            "mapInstId": 578001,
            "followMoveAttachPoint": "",
            "uiIndicator": {
                "templateName": "Normal_Chest_Icon"
            },
            "FHNLHBMDPAH": ""
        },
        {
            "groupId": 133309583,
            "mapInstId": 583001,
            "followMoveAttachPoint": "",
            "uiIndicator": {
                "templateName": "Normal_Chest_Icon"
            },
            "FHNLHBMDPAH": ""
        },
        {
            "groupId": 133309591,
            "mapInstId": 591002,
            "followMoveAttachPoint": "",
            "uiIndicator": {
                "templateName": "Normal_Chest_Icon"
            },
            "FHNLHBMDPAH": ""
        },
        {
            "groupId": 133309600,
            "mapInstId": 600010,
            "followMoveAttachPoint": "",
            "uiIndicator": {
                "templateName": "Normal_Chest_Icon"
            },
            "FHNLHBMDPAH": ""
        },
        {
            "groupId": 133309607,
            "mapInstId": 607001,
            "followMoveAttachPoint": "",
            "uiIndicator": {
                "templateName": "Desert_HourGlass_Indicator"
            },
            "FHNLHBMDPAH": ""
        },
        {
            "groupId": 133309607,
            "mapInstId": 607002,
            "followMoveAttachPoint": "",
            "uiIndicator": {
                "templateName": "Desert_HourGlass_Indicator"
            },
            "FHNLHBMDPAH": ""
        },
        {
            "groupId": 133309607,
            "mapInstId": 607003,
            "followMoveAttachPoint": "",
            "uiIndicator": {
                "templateName": "Desert_HourGlass_Indicator"
            },
            "FHNLHBMDPAH": ""
        },
        {
            "groupId": 133309607,
            "mapInstId": 607004,
            "followMoveAttachPoint": "",
            "uiIndicator": {
                "templateName": "Normal_Chest_Icon"
            },
            "FHNLHBMDPAH": ""
        },
        {
            "groupId": 133309609,
            "mapInstId": 609022,
            "followMoveAttachPoint": "",
            "uiIndicator": {
                "templateName": "Normal_Chest_Icon"
            },
            "FHNLHBMDPAH": ""
        },
        {
            "groupId": 133309612,
            "mapInstId": 612001,
            "followMoveAttachPoint": "",
            "uiIndicator": {
                "templateName": "GadgetCreate_Icon"
            },
            "FHNLHBMDPAH": ""
        },
        {
            "groupId": 133309612,
            "mapInstId": 612003,
            "followMoveAttachPoint": "",
            "uiIndicator": {
                "templateName": "GadgetCreate_Icon"
            },
            "FHNLHBMDPAH": ""
        },
        {
            "groupId": 133309612,
            "mapInstId": 612004,
            "followMoveAttachPoint": "",
            "uiIndicator": {
                "templateName": "GadgetCreate_Icon"
            },
            "FHNLHBMDPAH": ""
        },
        {
            "groupId": 133309612,
            "mapInstId": 612013,
            "followMoveAttachPoint": "",
            "uiIndicator": {
                "templateName": "GadgetCreate_Icon"
            },
            "FHNLHBMDPAH": ""
        },
        {
            "groupId": 133309612,
            "mapInstId": 612014,
            "followMoveAttachPoint": "",
            "uiIndicator": {
                "templateName": "GadgetCreate_Icon"
            },
            "FHNLHBMDPAH": ""
        },
        {
            "groupId": 133309612,
            "mapInstId": 612015,
            "followMoveAttachPoint": "",
            "uiIndicator": {
                "templateName": "GadgetCreate_Icon"
            },
            "FHNLHBMDPAH": ""
        },
        {
            "groupId": 133309623,
            "mapInstId": 623008,
            "followMoveAttachPoint": "",
            "uiIndicator": {
                "templateName": "Normal_Chest_Icon"
            },
            "FHNLHBMDPAH": ""
        },
        {
            "groupId": 133309632,
            "mapInstId": 632001,
            "followMoveAttachPoint": "",
            "uiIndicator": {
                "templateName": "Normal_Chest_Icon"
            },
            "FHNLHBMDPAH": ""
        },
        {
            "groupId": 133309646,
            "mapInstId": 646001,
            "followMoveAttachPoint": "",
            "uiIndicator": {
                "templateName": "Normal_Chest_Icon"
            },
            "FHNLHBMDPAH": ""
        },
        {
            "groupId": 133309668,
            "mapInstId": 668001,
            "followMoveAttachPoint": "",
            "uiIndicator": {
                "templateName": "Normal_Chest_Icon"
            },
            "FHNLHBMDPAH": ""
        },
        {
            "groupId": 133309671,
            "mapInstId": 671010,
            "followMoveAttachPoint": "",
            "uiIndicator": {
                "templateName": "Normal_DailyTask_Icon",
                "paramDatas": {
                    "TaskDummy": "EVENT_32307"
                }
            },
            "FHNLHBMDPAH": ""
        },
        {
            "groupId": 133309671,
            "mapInstId": 671011,
            "followMoveAttachPoint": "",
            "uiIndicator": {
                "templateName": "Normal_DailyTask_Icon",
                "paramDatas": {
                    "TaskDummy": "EVENT_32307"
                }
            },
            "FHNLHBMDPAH": ""
        },
        {
            "groupId": 133309672,
            "mapInstId": 672012,
            "followMoveAttachPoint": "",
            "uiIndicator": {
                "templateName": "Normal_DailyTask_Icon_StateChange"
            },
            "FHNLHBMDPAH": ""
        },
        {
            "groupId": 133309681,
            "mapInstId": 681006,
            "followMoveAttachPoint": "",
            "uiIndicator": {
                "templateName": "Normal_Chest_Icon"
            },
            "FHNLHBMDPAH": ""
        },
        {
            "groupId": 133309704,
            "mapInstId": 704003,
            "followMoveAttachPoint": "",
            "uiIndicator": {
                "templateName": "ChestUnlock_Icon"
            },
            "FHNLHBMDPAH": ""
        },
        {
            "groupId": 133309712,
            "mapInstId": 712006,
            "followMoveAttachPoint": "",
            "uiIndicator": {
                "templateName": "GadgetCreate_Icon_Follow"
            },
            "FHNLHBMDPAH": ""
        },
        {
            "groupId": 133309712,
            "mapInstId": 712007,
            "followMoveAttachPoint": "",
            "uiIndicator": {
                "templateName": "GadgetCreate_Icon_Follow"
            },
            "FHNLHBMDPAH": ""
        },
        {
            "groupId": 133309712,
            "mapInstId": 712008,
            "followMoveAttachPoint": "",
            "uiIndicator": {
                "templateName": "GadgetCreate_Icon_Follow"
            },
            "FHNLHBMDPAH": ""
        },
        {
            "groupId": 133309712,
            "mapInstId": 712009,
            "followMoveAttachPoint": "",
            "uiIndicator": {
                "templateName": "GadgetCreate_Icon_Follow"
            },
            "FHNLHBMDPAH": ""
        },
        {
            "groupId": 133309719,
            "mapInstId": 719007,
            "followMoveAttachPoint": "",
            "uiIndicator": {
                "templateName": "Normal_Chest_Icon"
            },
            "FHNLHBMDPAH": ""
        },
        {
            "groupId": 133309726,
            "mapInstId": 726001,
            "followMoveAttachPoint": "",
            "uiIndicator": {
                "templateName": "Normal_Chest_Icon"
            },
            "FHNLHBMDPAH": ""
        },
        {
            "groupId": 133309739,
            "mapInstId": 739006,
            "followMoveAttachPoint": "",
            "uiIndicator": {
                "templateName": "Normal_Chest_Icon"
            },
            "FHNLHBMDPAH": ""
        },
        {
            "groupId": 133309751,
            "mapInstId": 751005,
            "followMoveAttachPoint": "",
            "uiIndicator": {
                "templateName": "Normal_Chest_Icon"
            },
            "FHNLHBMDPAH": ""
        },
        {
            "groupId": 133309755,
            "mapInstId": 755001,
            "followMoveAttachPoint": "",
            "uiIndicator": {
                "templateName": "Desert_HourGlass_Indicator"
            },
            "FHNLHBMDPAH": ""
        },
        {
            "groupId": 133309755,
            "mapInstId": 755002,
            "followMoveAttachPoint": "",
            "uiIndicator": {
                "templateName": "Desert_HourGlass_Indicator"
            },
            "FHNLHBMDPAH": ""
        },
        {
            "groupId": 133309755,
            "mapInstId": 755003,
            "followMoveAttachPoint": "",
            "uiIndicator": {
                "templateName": "Desert_HourGlass_Indicator"
            },
            "FHNLHBMDPAH": ""
        },
        {
            "groupId": 133309755,
            "mapInstId": 755004,
            "followMoveAttachPoint": "",
            "uiIndicator": {
                "templateName": "Normal_Chest_Icon"
            },
            "FHNLHBMDPAH": ""
        },
        {
            "groupId": 133309763,
            "mapInstId": 763004,
            "followMoveAttachPoint": "",
            "uiIndicator": {
                "templateName": "Normal_Chest_Icon"
            },
            "FHNLHBMDPAH": ""
        },
        {
            "groupId": 133309778,
            "mapInstId": 778006,
            "followMoveAttachPoint": "",
            "uiIndicator": {
                "templateName": "Normal_Chest_Icon"
            },
            "FHNLHBMDPAH": ""
        },
        {
            "groupId": 133309788,
            "mapInstId": 788001,
            "followMoveAttachPoint": "",
            "uiIndicator": {
                "templateName": "Normal_Chest_Icon"
            },
            "FHNLHBMDPAH": ""
        },
        {
            "groupId": 133309811,
            "mapInstId": 811004,
            "followMoveAttachPoint": "",
            "uiIndicator": {
                "templateName": "Normal_Chest_Icon"
            },
            "FHNLHBMDPAH": ""
        }
    ]
}