{
    "sceneId": 40056,
    "gadgets": [
        {
            "groupId": 240056002,
            "mapInstId": 2006,
            "followMoveAttachPoint": "",
            "billboardUIBarNeedEnterCombat": true,
            "FHNLHBMDPAH": ""
        }
    ]
}