[
    {
        "id": 100301,
        "dungeonId": 3050,
        "LAPHKJFJAEO": 100102,
        "limitTime": 600,
        "KBONLOMIOFH": 10,
        "CFDKMHDHJHD": 3,
        "galleryId": 30020,
        "groupId": 235870001,
        "levelTitleTextMapHash": 726960303,
        "levelDescTextMapHash": 3015372015,
        "GEEPALEMABO": 15913525257035013192,
        "JFLOONOAOBB": 12126114470019505751,
        "EFFIIFFKHHJ": [
            1,
            4,
            6
        ],
        "AEPACDKIALH": [
            "None",
            "None",
            "None"
        ],
        "EKKNKNFAIGI": [
            0,
            20,
            3600,
            7,
            50,
            50
        ]
    },
    {
        "id": 200301,
        "dungeonId": 3051,
        "LAPHKJFJAEO": 200102,
        "limitTime": 600,
        "KBONLOMIOFH": 10,
        "CFDKMHDHJHD": 3,
        "galleryId": 30021,
        "groupId": 235871001,
        "levelTitleTextMapHash": 1451610279,
        "levelDescTextMapHash": 3172309743,
        "GEEPALEMABO": 9880884398082813374,
        "JFLOONOAOBB": 12682025959465688809,
        "EFFIIFFKHHJ": [
            1,
            2,
            3,
            4,
            5
        ],
        "AEPACDKIALH": [
            "None",
            "None",
            "None"
        ],
        "EKKNKNFAIGI": [
            0,
            20,
            3500,
            7,
            50,
            50
        ]
    },
    {
        "id": 300301,
        "dungeonId": 3052,
        "LAPHKJFJAEO": 300102,
        "limitTime": 600,
        "KBONLOMIOFH": 10,
        "CFDKMHDHJHD": 3,
        "galleryId": 30022,
        "groupId": 235872001,
        "levelTitleTextMapHash": 2147594071,
        "levelDescTextMapHash": 148629903,
        "GEEPALEMABO": 13663315173880132747,
        "JFLOONOAOBB": 18396662233936505899,
        "EFFIIFFKHHJ": [
            1,
            2,
            3,
            4,
            5,
            6
        ],
        "AEPACDKIALH": [
            "None",
            "None",
            "None"
        ],
        "EKKNKNFAIGI": [
            0,
            20,
            3100,
            7,
            50,
            50
        ]
    }
]