[
    {
        "id": 1,
        "LJBDOJNCJJF": 220101,
        "BDHLNEPKKBM": 220102,
        "unlockCond": "GCG_LEVEL_UNLOCK_LEVEL",
        "GEPDGCLJHDF": 3,
        "DOAEHFLLBAM": 3164478229,
        "OIHPFIOEBLH": 2326899158208528076,
        "GFAPBEIFFFF": 1714,
        "monsterId": 20050101,
        "BJMJHPBMBPM": 1963642889
    },
    {
        "id": 2,
        "LJBDOJNCJJF": 230101,
        "BDHLNEPKKBM": 230102,
        "unlockCond": "GCG_LEVEL_UNLOCK_LEVEL",
        "GEPDGCLJHDF": 4,
        "DOAEHFLLBAM": 3179088397,
        "OIHPFIOEBLH": 12208364490445487815,
        "GFAPBEIFFFF": 1716,
        "monsterId": 23020101,
        "BJMJHPBMBPM": 1254821113
    },
    {
        "id": 3,
        "LJBDOJNCJJF": 220201,
        "BDHLNEPKKBM": 220202,
        "unlockCond": "GCG_LEVEL_UNLOCK_LEVEL",
        "GEPDGCLJHDF": 5,
        "DOAEHFLLBAM": 2087046701,
        "OIHPFIOEBLH": 10880940735865242927,
        "GFAPBEIFFFF": 1717,
        "monsterId": 23050101,
        "BJMJHPBMBPM": 3581442401
    },
    {
        "id": 4,
        "LJBDOJNCJJF": 260101,
        "BDHLNEPKKBM": 260102,
        "unlockCond": "GCG_LEVEL_UNLOCK_LEVEL",
        "GEPDGCLJHDF": 6,
        "DOAEHFLLBAM": 3679383245,
        "OIHPFIOEBLH": 13720127969880027763,
        "GFAPBEIFFFF": 1717,
        "monsterId": 21020501,
        "BJMJHPBMBPM": 480604873
    },
    {
        "id": 5,
        "LJBDOJNCJJF": 250101,
        "BDHLNEPKKBM": 250102,
        "unlockCond": "GCG_LEVEL_UNLOCK_LEVEL",
        "GEPDGCLJHDF": 7,
        "DOAEHFLLBAM": 2571288101,
        "OIHPFIOEBLH": 11413815252643069936,
        "GFAPBEIFFFF": 1715,
        "monsterId": 25090101,
        "BJMJHPBMBPM": 1950946665
    },
    {
        "id": 6,
        "LJBDOJNCJJF": 270101,
        "BDHLNEPKKBM": 270102,
        "unlockCond": "GCG_LEVEL_UNLOCK_LEVEL",
        "GEPDGCLJHDF": 8,
        "DOAEHFLLBAM": 2780089453,
        "OIHPFIOEBLH": 6649256790582179210,
        "GFAPBEIFFFF": 1718,
        "monsterId": 26110101,
        "BJMJHPBMBPM": 429165529
    }
]