[
    {
        "itemId": 339500,
        "nameTextMapHash": 384357012,
        "descTextMapHash": 3962735882,
        "LLHKCKOBCEL": 1908811578,
        "order": 1,
        "GNBKLMFGBIA": 2862788099280328496,
        "MOFKENOMJCP": "ART/System/GCG/Required/Gcg_Proxy/Gcg_Proxy_Table_01",
        "FCFNDLNEFGK": 1,
        "INICJIKCLJO": 2,
        "JJJHINAKHAG": [
            "Eff_UI_Gcg_Checkerboard_Glow_02"
        ],
        "GDPKHAFHLKJ": [
            "Eff_UI_Gcg_Table_Mengde"
        ],
        "CLGICHKGBOP": [
            "Eff_UI_Gcg_Table_Mengde_1"
        ],
        "NLMDGGOFAOJ": "ART/Effect/UI/UI/GCG/Eff_UI_Gcg_Click_Mengde",
        "LIAMEFONLIF": "Data/Environment/EnviroSystemProfile/UI/ESP_UI_GcgCard",
        "MCHNBJCLILF": "State_CardGame_MengDe"
    },
    {
        "id": 101,
        "itemId": 339501,
        "nameTextMapHash": 45426028,
        "descTextMapHash": 2275741714,
        "LLHKCKOBCEL": 363252498,
        "order": 2,
        "GNBKLMFGBIA": 3237775952017223437,
        "MOFKENOMJCP": "ART/System/GCG/Required/Gcg_Proxy/Gcg_Proxy_Table_01",
        "FCFNDLNEFGK": 3,
        "INICJIKCLJO": 4,
        "JJJHINAKHAG": [
            "Eff_UI_Gcg_Checkerboard_Glow"
        ],
        "GDPKHAFHLKJ": [
            "Eff_UI_Gcg_Table_Liyue"
        ],
        "CLGICHKGBOP": [
            "Eff_UI_Gcg_Table_Liyue_1"
        ],
        "NLMDGGOFAOJ": "ART/Effect/UI/UI/GCG/Eff_UI_Gcg_Click_Liyue",
        "LIAMEFONLIF": "Data/Environment/EnviroSystemProfile/UI/ESP_UI_GcgCard",
        "MCHNBJCLILF": "State_CardGame_LiYue"
    },
    {
        "id": 102,
        "itemId": 339502,
        "nameTextMapHash": 2761138860,
        "descTextMapHash": 1856930906,
        "LLHKCKOBCEL": 3847898434,
        "order": 3,
        "GNBKLMFGBIA": 869199178744522539,
        "MOFKENOMJCP": "ART/System/GCG/Required/Gcg_Proxy/Gcg_Proxy_Table_01",
        "FCFNDLNEFGK": 5,
        "INICJIKCLJO": 6,
        "JJJHINAKHAG": [
            "Eff_UI_Gcg_Checkerboard_Glow_01"
        ],
        "GDPKHAFHLKJ": [
            "Eff_UI_Gcg_Table_Daoqi"
        ],
        "CLGICHKGBOP": [
            "Eff_UI_Gcg_Table_Daoqi_1"
        ],
        "NLMDGGOFAOJ": "ART/Effect/UI/UI/GCG/Eff_UI_Gcg_Click_Daoqi",
        "LIAMEFONLIF": "Data/Environment/EnviroSystemProfile/UI/ESP_UI_GcgCard",
        "MCHNBJCLILF": "State_CardGame_DaoQi"
    },
    {
        "id": 103,
        "itemId": 339503,
        "nameTextMapHash": 2172568444,
        "descTextMapHash": 2150118914,
        "LLHKCKOBCEL": 3393081682,
        "order": 4,
        "GNBKLMFGBIA": 2566641660547949665,
        "MOFKENOMJCP": "ART/System/GCG/Required/Gcg_Proxy/Gcg_Proxy_Table_01",
        "FCFNDLNEFGK": 7,
        "INICJIKCLJO": 8,
        "JJJHINAKHAG": [
            "Eff_UI_Gcg_Checkerboard_Glow_03"
        ],
        "GDPKHAFHLKJ": [
            "Eff_UI_Gcg_Table_Xumi"
        ],
        "CLGICHKGBOP": [
            "Eff_UI_Gcg_Table_Xumi_1"
        ],
        "NLMDGGOFAOJ": "ART/Effect/UI/UI/GCG/Eff_UI_Gcg_Click_Xumi",
        "LIAMEFONLIF": "Data/Environment/EnviroSystemProfile/UI/ESP_UI_GcgCard",
        "MCHNBJCLILF": "State_CardGame_XuMi"
    }
]