[
    {
        "BAHNBAOENOB": 111011,
        "EPCOACJIJJP": 1101
    },
    {
        "BAHNBAOENOB": 111023,
        "EPCOACJIJJP": 1102
    },
    {
        "BAHNBAOENOB": 111051,
        "EPCOACJIJJP": 1105
    },
    {
        "BAHNBAOENOB": 112011,
        "EPCOACJIJJP": 1201
    },
    {
        "BAHNBAOENOB": 112031,
        "EPCOACJIJJP": 1203
    },
    {
        "BAHNBAOENOB": 113021,
        "EPCOACJIJJP": 1302
    },
    {
        "BAHNBAOENOB": 114011,
        "EPCOACJIJJP": 1401
    },
    {
        "BAHNBAOENOB": 114031,
        "EPCOACJIJJP": 1403
    },
    {
        "BAHNBAOENOB": 115011,
        "EPCOACJIJJP": 1501
    },
    {
        "BAHNBAOENOB": 115012,
        "EPCOACJIJJP": 1501
    },
    {
        "BAHNBAOENOB": 115021,
        "EPCOACJIJJP": 1502
    },
    {
        "BAHNBAOENOB": 117011,
        "EPCOACJIJJP": 1701
    },
    {
        "BAHNBAOENOB": 122010,
        "EPCOACJIJJP": 2201
    },
    {
        "BAHNBAOENOB": 122014,
        "EPCOACJIJJP": 2201
    },
    {
        "BAHNBAOENOB": 122011,
        "EPCOACJIJJP": 2201
    },
    {
        "BAHNBAOENOB": 122012,
        "EPCOACJIJJP": 2201
    },
    {
        "BAHNBAOENOB": 122013,
        "EPCOACJIJJP": 2201
    },
    {
        "BAHNBAOENOB": 125011,
        "EPCOACJIJJP": 2501
    },
    {
        "BAHNBAOENOB": 125012,
        "EPCOACJIJJP": 2501
    },
    {
        "BAHNBAOENOB": 132021,
        "EPCOACJIJJP": 3202
    },
    {
        "BAHNBAOENOB": 135011,
        "EPCOACJIJJP": 3501
    },
    {
        "BAHNBAOENOB": 303210,
        "EPCOACJIJJP": 332015
    }
]