[
    {
        "id": 1,
        "MBOLNEAALBF": 2561229389,
        "MCEDOPGBHPM": 2,
        "MIJHPKBIOPI": 1,
        "GHDGOBAAJGM": 2,
        "guideName": ""
    },
    {
        "id": 2,
        "MBOLNEAALBF": 4007940741,
        "MCEDOPGBHPM": 2,
        "MIJHPKBIOPI": 2,
        "GHDGOBAAJGM": 1,
        "guideName": ""
    },
    {
        "id": 3,
        "MBOLNEAALBF": 8982629,
        "MCEDOPGBHPM": 2,
        "MIJHPKBIOPI": 3,
        "GHDGOBAAJGM": 4,
        "guideName": ""
    },
    {
        "id": 4,
        "MBOLNEAALBF": 1102306261,
        "MCEDOPGBHPM": 2,
        "MIJHPKBIOPI": 4,
        "GHDGOBAAJGM": 3,
        "guideName": ""
    },
    {
        "id": 5,
        "MBOLNEAALBF": 821298205,
        "MCEDOPGBHPM": 2,
        "MIJHPKBIOPI": 10,
        "GHDGOBAAJGM": 10,
        "guideName": ""
    },
    {
        "id": 6,
        "MBOLNEAALBF": 1299752141,
        "MCEDOPGBHPM": 2,
        "MIJHPKBIOPI": 5,
        "GHDGOBAAJGM": 105,
        "DNMCOPPPNLB": "PVE",
        "GLMOGBIKNFG": "SELF",
        "guideName": ""
    },
    {
        "id": 7,
        "MBOLNEAALBF": 1999732693,
        "MCEDOPGBHPM": 2,
        "GHDGOBAAJGM": 107,
        "DNMCOPPPNLB": "PVE",
        "GLMOGBIKNFG": "SELF",
        "guideName": ""
    },
    {
        "id": 8,
        "MBOLNEAALBF": 4142853013,
        "MCEDOPGBHPM": 2,
        "GHDGOBAAJGM": 9,
        "DNMCOPPPNLB": "AI",
        "GLMOGBIKNFG": "SELF",
        "guideName": ""
    },
    {
        "id": 11,
        "MBOLNEAALBF": 3889275581,
        "MCEDOPGBHPM": 2,
        "MIJHPKBIOPI": 1,
        "GHDGOBAAJGM": 2,
        "DNMCOPPPNLB": "AI",
        "guideName": ""
    },
    {
        "id": 12,
        "MBOLNEAALBF": 296686365,
        "MCEDOPGBHPM": 2,
        "MIJHPKBIOPI": 2,
        "GHDGOBAAJGM": 1,
        "DNMCOPPPNLB": "AI",
        "guideName": ""
    },
    {
        "id": 13,
        "MBOLNEAALBF": 2230581605,
        "MCEDOPGBHPM": 2,
        "MIJHPKBIOPI": 2,
        "GHDGOBAAJGM": 8,
        "DNMCOPPPNLB": "AI",
        "guideName": ""
    },
    {
        "id": 100,
        "MBOLNEAALBF": 3051698261,
        "MCEDOPGBHPM": 2,
        "GHDGOBAAJGM": 100,
        "DNMCOPPPNLB": "PVE",
        "GLMOGBIKNFG": "SELF",
        "guideName": ""
    },
    {
        "id": 101,
        "MBOLNEAALBF": 3446557373,
        "MCEDOPGBHPM": 2,
        "GHDGOBAAJGM": 101,
        "DNMCOPPPNLB": "PVE",
        "GLMOGBIKNFG": "SELF",
        "guideName": ""
    },
    {
        "id": 102,
        "MBOLNEAALBF": 3407696973,
        "MCEDOPGBHPM": 2,
        "GHDGOBAAJGM": 102,
        "DNMCOPPPNLB": "PVE",
        "GLMOGBIKNFG": "SELF",
        "guideName": ""
    },
    {
        "id": 103,
        "MBOLNEAALBF": 3382784773,
        "MCEDOPGBHPM": 2,
        "GHDGOBAAJGM": 103,
        "DNMCOPPPNLB": "PVE",
        "GLMOGBIKNFG": "SELF",
        "guideName": ""
    },
    {
        "id": 104,
        "MBOLNEAALBF": 971492565,
        "MCEDOPGBHPM": 2,
        "GHDGOBAAJGM": 104,
        "DNMCOPPPNLB": "PVE",
        "GLMOGBIKNFG": "SELF",
        "guideName": ""
    },
    {
        "id": 106,
        "MBOLNEAALBF": 830622261,
        "MCEDOPGBHPM": 2,
        "GHDGOBAAJGM": 106,
        "DNMCOPPPNLB": "PVE",
        "GLMOGBIKNFG": "SELF",
        "guideName": ""
    },
    {
        "id": 201,
        "MBOLNEAALBF": 4077042365,
        "MCEDOPGBHPM": 2,
        "GHDGOBAAJGM": 201,
        "DNMCOPPPNLB": "PVE",
        "GLMOGBIKNFG": "SELF",
        "guideName": ""
    },
    {
        "id": 202,
        "MBOLNEAALBF": 2093151469,
        "MCEDOPGBHPM": 2,
        "GHDGOBAAJGM": 202,
        "DNMCOPPPNLB": "PVE",
        "GLMOGBIKNFG": "SELF",
        "guideName": ""
    },
    {
        "id": 203,
        "MBOLNEAALBF": 1153376797,
        "MCEDOPGBHPM": 2,
        "GHDGOBAAJGM": 203,
        "DNMCOPPPNLB": "PVE",
        "GLMOGBIKNFG": "SELF",
        "guideName": ""
    },
    {
        "id": 204,
        "MBOLNEAALBF": 3862222133,
        "MCEDOPGBHPM": 2,
        "GHDGOBAAJGM": 204,
        "DNMCOPPPNLB": "PVE",
        "GLMOGBIKNFG": "SELF",
        "guideName": ""
    },
    {
        "id": 205,
        "MBOLNEAALBF": 727099893,
        "MCEDOPGBHPM": 2,
        "GHDGOBAAJGM": 205,
        "DNMCOPPPNLB": "PVE",
        "GLMOGBIKNFG": "SELF",
        "guideName": ""
    },
    {
        "id": 206,
        "MBOLNEAALBF": 3788477757,
        "MCEDOPGBHPM": 2,
        "GHDGOBAAJGM": 206,
        "DNMCOPPPNLB": "PVE",
        "GLMOGBIKNFG": "SELF",
        "guideName": ""
    },
    {
        "id": 207,
        "MBOLNEAALBF": 1155116093,
        "MCEDOPGBHPM": 2,
        "GHDGOBAAJGM": 207,
        "DNMCOPPPNLB": "PVE",
        "GLMOGBIKNFG": "SELF",
        "guideName": ""
    },
    {
        "id": 208,
        "MBOLNEAALBF": 2403132997,
        "MCEDOPGBHPM": 2,
        "GHDGOBAAJGM": 208,
        "DNMCOPPPNLB": "PVE",
        "GLMOGBIKNFG": "SELF",
        "guideName": ""
    },
    {
        "id": 209,
        "MBOLNEAALBF": 583271341,
        "MCEDOPGBHPM": 2,
        "GHDGOBAAJGM": 209,
        "DNMCOPPPNLB": "PVE",
        "GLMOGBIKNFG": "SELF",
        "guideName": ""
    },
    {
        "id": 210,
        "MBOLNEAALBF": 414176661,
        "MCEDOPGBHPM": 2,
        "GHDGOBAAJGM": 210,
        "DNMCOPPPNLB": "PVE",
        "GLMOGBIKNFG": "SELF",
        "guideName": ""
    },
    {
        "id": 211,
        "MBOLNEAALBF": 2183948405,
        "MCEDOPGBHPM": 2,
        "GHDGOBAAJGM": 211,
        "DNMCOPPPNLB": "PVE",
        "GLMOGBIKNFG": "SELF",
        "guideName": ""
    },
    {
        "id": 10,
        "MBOLNEAALBF": 1218402525,
        "MCEDOPGBHPM": 1,
        "guideName": ""
    },
    {
        "id": 21,
        "MBOLNEAALBF": 1914266557,
        "MCEDOPGBHPM": 1,
        "guideName": "",
        "AFDLJEHJMBM": true,
        "DOIPEHEKFHD": 44,
        "EOKDDNCPBJF": "GCG_FESTIVAL_MODE_TYPE_PAIMON"
    },
    {
        "id": 1011,
        "MBOLNEAALBF": 1181607557,
        "MCEDOPGBHPM": 2,
        "GHDGOBAAJGM": 11105,
        "DNMCOPPPNLB": "AI",
        "GLMOGBIKNFG": "SELF",
        "guideName": ""
    },
    {
        "id": 1012,
        "MBOLNEAALBF": 1108530293,
        "MCEDOPGBHPM": 2,
        "GHDGOBAAJGM": 11105,
        "DNMCOPPPNLB": "AI",
        "GLMOGBIKNFG": "SELF",
        "guideName": ""
    },
    {
        "id": 1013,
        "MBOLNEAALBF": 3551018141,
        "MCEDOPGBHPM": 2,
        "GHDGOBAAJGM": 12004,
        "DNMCOPPPNLB": "PVE",
        "GLMOGBIKNFG": "SELF",
        "guideName": ""
    },
    {
        "id": 1014,
        "MBOLNEAALBF": 804177493,
        "MCEDOPGBHPM": 2,
        "GHDGOBAAJGM": 13002,
        "DNMCOPPPNLB": "PVE",
        "GLMOGBIKNFG": "SELF",
        "guideName": ""
    },
    {
        "id": 1015,
        "MBOLNEAALBF": 3430172837,
        "MCEDOPGBHPM": 2,
        "GHDGOBAAJGM": 14005,
        "DNMCOPPPNLB": "AI",
        "GLMOGBIKNFG": "SELF",
        "guideName": ""
    },
    {
        "id": 1021,
        "MBOLNEAALBF": 2942023405,
        "MCEDOPGBHPM": 2,
        "GHDGOBAAJGM": 11005,
        "DNMCOPPPNLB": "AI",
        "GLMOGBIKNFG": "SELF",
        "guideName": ""
    },
    {
        "id": 1022,
        "MBOLNEAALBF": 2351123381,
        "MCEDOPGBHPM": 2,
        "GHDGOBAAJGM": 11005,
        "DNMCOPPPNLB": "AI",
        "GLMOGBIKNFG": "SELF",
        "guideName": ""
    },
    {
        "id": 1023,
        "MBOLNEAALBF": 3144792333,
        "MCEDOPGBHPM": 2,
        "GHDGOBAAJGM": 12103,
        "DNMCOPPPNLB": "PVE",
        "GLMOGBIKNFG": "SELF",
        "guideName": ""
    },
    {
        "id": 1024,
        "MBOLNEAALBF": 386262221,
        "MCEDOPGBHPM": 2,
        "GHDGOBAAJGM": 13001,
        "DNMCOPPPNLB": "PVE",
        "GLMOGBIKNFG": "SELF",
        "guideName": ""
    },
    {
        "id": 1025,
        "MBOLNEAALBF": 1323203813,
        "MCEDOPGBHPM": 2,
        "GHDGOBAAJGM": 14002,
        "DNMCOPPPNLB": "PVE",
        "GLMOGBIKNFG": "SELF",
        "guideName": ""
    },
    {
        "id": 1031,
        "MBOLNEAALBF": 2154245213,
        "MCEDOPGBHPM": 2,
        "GHDGOBAAJGM": 11002,
        "DNMCOPPPNLB": "PVE",
        "GLMOGBIKNFG": "SELF",
        "guideName": ""
    },
    {
        "id": 1032,
        "MBOLNEAALBF": 230330125,
        "MCEDOPGBHPM": 2,
        "GHDGOBAAJGM": 11002,
        "DNMCOPPPNLB": "PVE",
        "GLMOGBIKNFG": "SELF",
        "guideName": ""
    },
    {
        "id": 1033,
        "MBOLNEAALBF": 3705920253,
        "MCEDOPGBHPM": 2,
        "GHDGOBAAJGM": 12105,
        "DNMCOPPPNLB": "PVE",
        "GLMOGBIKNFG": "SELF",
        "guideName": ""
    },
    {
        "id": 1034,
        "MBOLNEAALBF": 272706029,
        "MCEDOPGBHPM": 2,
        "GHDGOBAAJGM": 13003,
        "DNMCOPPPNLB": "PVE",
        "GLMOGBIKNFG": "SELF",
        "guideName": ""
    },
    {
        "id": 1035,
        "MBOLNEAALBF": 2999491677,
        "MCEDOPGBHPM": 2,
        "GHDGOBAAJGM": 13003,
        "DNMCOPPPNLB": "PVE",
        "GLMOGBIKNFG": "SELF",
        "guideName": ""
    },
    {
        "id": 1041,
        "MBOLNEAALBF": 817977005,
        "MCEDOPGBHPM": 2,
        "GHDGOBAAJGM": 11101,
        "DNMCOPPPNLB": "PVE",
        "GLMOGBIKNFG": "SELF",
        "guideName": ""
    },
    {
        "id": 1042,
        "MBOLNEAALBF": 2515847397,
        "MCEDOPGBHPM": 2,
        "GHDGOBAAJGM": 11101,
        "DNMCOPPPNLB": "PVE",
        "GLMOGBIKNFG": "SELF",
        "guideName": ""
    },
    {
        "id": 1043,
        "MBOLNEAALBF": 1941640365,
        "MCEDOPGBHPM": 2,
        "GHDGOBAAJGM": 12002,
        "DNMCOPPPNLB": "PVE",
        "GLMOGBIKNFG": "SELF",
        "guideName": ""
    },
    {
        "id": 1044,
        "MBOLNEAALBF": 2327150973,
        "MCEDOPGBHPM": 2,
        "GHDGOBAAJGM": 13101,
        "DNMCOPPPNLB": "PVE",
        "GLMOGBIKNFG": "SELF",
        "guideName": ""
    },
    {
        "id": 1045,
        "MBOLNEAALBF": 771056109,
        "MCEDOPGBHPM": 2,
        "GHDGOBAAJGM": 13101,
        "DNMCOPPPNLB": "PVE",
        "GLMOGBIKNFG": "SELF",
        "guideName": ""
    },
    {
        "id": 1051,
        "MBOLNEAALBF": 970872541,
        "MCEDOPGBHPM": 2,
        "GHDGOBAAJGM": 11102,
        "DNMCOPPPNLB": "PVE",
        "GLMOGBIKNFG": "SELF",
        "guideName": ""
    },
    {
        "id": 1052,
        "MBOLNEAALBF": 620778269,
        "MCEDOPGBHPM": 2,
        "GHDGOBAAJGM": 11102,
        "DNMCOPPPNLB": "PVE",
        "GLMOGBIKNFG": "SELF",
        "guideName": ""
    },
    {
        "id": 1053,
        "MBOLNEAALBF": 1910371253,
        "MCEDOPGBHPM": 2,
        "GHDGOBAAJGM": 12003,
        "DNMCOPPPNLB": "PVE",
        "GLMOGBIKNFG": "SELF",
        "guideName": ""
    },
    {
        "id": 1054,
        "MBOLNEAALBF": 3181065357,
        "MCEDOPGBHPM": 2,
        "GHDGOBAAJGM": 13102,
        "DNMCOPPPNLB": "PVE",
        "GLMOGBIKNFG": "SELF",
        "guideName": ""
    },
    {
        "id": 1055,
        "MBOLNEAALBF": 1627986709,
        "MCEDOPGBHPM": 2,
        "GHDGOBAAJGM": 13102,
        "DNMCOPPPNLB": "PVE",
        "GLMOGBIKNFG": "SELF",
        "guideName": ""
    },
    {
        "id": 1061,
        "MBOLNEAALBF": 1807137709,
        "MCEDOPGBHPM": 2,
        "GHDGOBAAJGM": 11004,
        "DNMCOPPPNLB": "PVE",
        "GLMOGBIKNFG": "SELF",
        "guideName": ""
    },
    {
        "id": 1062,
        "MBOLNEAALBF": 3622737301,
        "MCEDOPGBHPM": 2,
        "GHDGOBAAJGM": 11004,
        "DNMCOPPPNLB": "PVE",
        "GLMOGBIKNFG": "SELF",
        "guideName": ""
    },
    {
        "id": 1063,
        "MBOLNEAALBF": 2159870589,
        "MCEDOPGBHPM": 2,
        "GHDGOBAAJGM": 12001,
        "DNMCOPPPNLB": "PVE",
        "GLMOGBIKNFG": "SELF",
        "guideName": ""
    },
    {
        "id": 1064,
        "MBOLNEAALBF": 4164341749,
        "MCEDOPGBHPM": 2,
        "GHDGOBAAJGM": 13004,
        "DNMCOPPPNLB": "PVE",
        "GLMOGBIKNFG": "SELF",
        "guideName": ""
    },
    {
        "id": 1065,
        "MBOLNEAALBF": 2404571885,
        "MCEDOPGBHPM": 2,
        "GHDGOBAAJGM": 14004,
        "DNMCOPPPNLB": "PVE",
        "GLMOGBIKNFG": "SELF",
        "guideName": ""
    },
    {
        "id": 1071,
        "MBOLNEAALBF": 348118525,
        "MCEDOPGBHPM": 2,
        "GHDGOBAAJGM": 11003,
        "DNMCOPPPNLB": "PVE",
        "GLMOGBIKNFG": "SELF",
        "guideName": ""
    },
    {
        "id": 1072,
        "MBOLNEAALBF": 4222322341,
        "MCEDOPGBHPM": 2,
        "GHDGOBAAJGM": 11003,
        "DNMCOPPPNLB": "PVE",
        "GLMOGBIKNFG": "SELF",
        "guideName": ""
    },
    {
        "id": 1073,
        "MBOLNEAALBF": 4022882421,
        "MCEDOPGBHPM": 2,
        "GHDGOBAAJGM": 12104,
        "DNMCOPPPNLB": "PVE",
        "GLMOGBIKNFG": "SELF",
        "guideName": ""
    },
    {
        "id": 1074,
        "MBOLNEAALBF": 1089664661,
        "MCEDOPGBHPM": 2,
        "GHDGOBAAJGM": 13103,
        "DNMCOPPPNLB": "PVE",
        "GLMOGBIKNFG": "SELF",
        "guideName": ""
    },
    {
        "id": 1075,
        "MBOLNEAALBF": 1586604581,
        "MCEDOPGBHPM": 2,
        "GHDGOBAAJGM": 14003,
        "DNMCOPPPNLB": "PVE",
        "GLMOGBIKNFG": "SELF",
        "guideName": ""
    },
    {
        "id": 1081,
        "MBOLNEAALBF": 163696565,
        "MCEDOPGBHPM": 2,
        "GHDGOBAAJGM": 11104,
        "DNMCOPPPNLB": "PVE",
        "GLMOGBIKNFG": "SELF",
        "guideName": ""
    },
    {
        "id": 1082,
        "MBOLNEAALBF": 2259185069,
        "MCEDOPGBHPM": 2,
        "GHDGOBAAJGM": 11104,
        "DNMCOPPPNLB": "PVE",
        "GLMOGBIKNFG": "SELF",
        "guideName": ""
    },
    {
        "id": 1083,
        "MBOLNEAALBF": 1106931765,
        "MCEDOPGBHPM": 2,
        "GHDGOBAAJGM": 12005,
        "DNMCOPPPNLB": "AI",
        "GLMOGBIKNFG": "SELF",
        "guideName": ""
    },
    {
        "id": 1084,
        "MBOLNEAALBF": 3166362941,
        "MCEDOPGBHPM": 2,
        "GHDGOBAAJGM": 13005,
        "DNMCOPPPNLB": "AI",
        "GLMOGBIKNFG": "SELF",
        "guideName": ""
    },
    {
        "id": 1085,
        "MBOLNEAALBF": 1340833557,
        "MCEDOPGBHPM": 2,
        "GHDGOBAAJGM": 13005,
        "DNMCOPPPNLB": "AI",
        "GLMOGBIKNFG": "SELF",
        "guideName": ""
    },
    {
        "id": 1091,
        "MBOLNEAALBF": 2304639309,
        "MCEDOPGBHPM": 2,
        "GHDGOBAAJGM": 11106,
        "DNMCOPPPNLB": "PVE",
        "GLMOGBIKNFG": "SELF",
        "guideName": ""
    },
    {
        "id": 1092,
        "MBOLNEAALBF": 3273205893,
        "MCEDOPGBHPM": 2,
        "GHDGOBAAJGM": 11106,
        "DNMCOPPPNLB": "PVE",
        "GLMOGBIKNFG": "SELF",
        "guideName": ""
    },
    {
        "id": 1093,
        "MBOLNEAALBF": 1442984461,
        "MCEDOPGBHPM": 2,
        "GHDGOBAAJGM": 12106,
        "DNMCOPPPNLB": "PVE",
        "GLMOGBIKNFG": "SELF",
        "guideName": ""
    },
    {
        "id": 1094,
        "MBOLNEAALBF": 1737039821,
        "MCEDOPGBHPM": 2,
        "GHDGOBAAJGM": 13104,
        "DNMCOPPPNLB": "PVE",
        "GLMOGBIKNFG": "SELF",
        "guideName": ""
    },
    {
        "id": 1095,
        "MBOLNEAALBF": 2612490613,
        "MCEDOPGBHPM": 2,
        "GHDGOBAAJGM": 14001,
        "DNMCOPPPNLB": "PVE",
        "GLMOGBIKNFG": "SELF",
        "guideName": ""
    },
    {
        "id": 1101,
        "MBOLNEAALBF": 961036917,
        "MCEDOPGBHPM": 2,
        "GHDGOBAAJGM": 11001,
        "DNMCOPPPNLB": "PVE",
        "GLMOGBIKNFG": "SELF",
        "guideName": ""
    },
    {
        "id": 1102,
        "MBOLNEAALBF": 1710787261,
        "MCEDOPGBHPM": 2,
        "GHDGOBAAJGM": 11001,
        "DNMCOPPPNLB": "PVE",
        "GLMOGBIKNFG": "SELF",
        "guideName": ""
    },
    {
        "id": 1103,
        "MBOLNEAALBF": 3167058109,
        "MCEDOPGBHPM": 2,
        "GHDGOBAAJGM": 12107,
        "DNMCOPPPNLB": "AI",
        "GLMOGBIKNFG": "SELF",
        "guideName": ""
    },
    {
        "id": 1104,
        "MBOLNEAALBF": 4287076533,
        "MCEDOPGBHPM": 2,
        "GHDGOBAAJGM": 13105,
        "DNMCOPPPNLB": "AI",
        "GLMOGBIKNFG": "SELF",
        "guideName": ""
    },
    {
        "id": 1105,
        "MBOLNEAALBF": 1368525461,
        "MCEDOPGBHPM": 2,
        "GHDGOBAAJGM": 13105,
        "DNMCOPPPNLB": "AI",
        "GLMOGBIKNFG": "SELF",
        "guideName": ""
    },
    {
        "id": 2011,
        "MBOLNEAALBF": 107982157,
        "MCEDOPGBHPM": 2,
        "GHDGOBAAJGM": 110101,
        "DNMCOPPPNLB": "AI",
        "GLMOGBIKNFG": "SELF",
        "guideName": ""
    },
    {
        "id": 2012,
        "MBOLNEAALBF": 2130034941,
        "MCEDOPGBHPM": 2,
        "GHDGOBAAJGM": 110102,
        "DNMCOPPPNLB": "AI",
        "GLMOGBIKNFG": "SELF",
        "guideName": ""
    },
    {
        "id": 2013,
        "MBOLNEAALBF": 496596221,
        "MCEDOPGBHPM": 2,
        "GHDGOBAAJGM": 110103,
        "DNMCOPPPNLB": "AI",
        "GLMOGBIKNFG": "SELF",
        "guideName": ""
    },
    {
        "id": 2014,
        "MBOLNEAALBF": 2104163821,
        "MCEDOPGBHPM": 2,
        "GHDGOBAAJGM": 110103,
        "DNMCOPPPNLB": "AI",
        "GLMOGBIKNFG": "SELF",
        "guideName": ""
    },
    {
        "id": 2015,
        "MBOLNEAALBF": 475008157,
        "MCEDOPGBHPM": 2,
        "GHDGOBAAJGM": 110105,
        "DNMCOPPPNLB": "AI",
        "GLMOGBIKNFG": "SELF",
        "guideName": ""
    },
    {
        "id": 2021,
        "MBOLNEAALBF": 1278218829,
        "MCEDOPGBHPM": 2,
        "GHDGOBAAJGM": 110201,
        "DNMCOPPPNLB": "AI",
        "GLMOGBIKNFG": "SELF",
        "guideName": ""
    },
    {
        "id": 2022,
        "MBOLNEAALBF": 2300450205,
        "MCEDOPGBHPM": 2,
        "GHDGOBAAJGM": 110202,
        "DNMCOPPPNLB": "AI",
        "GLMOGBIKNFG": "SELF",
        "guideName": ""
    },
    {
        "id": 2023,
        "MBOLNEAALBF": 3006680869,
        "MCEDOPGBHPM": 2,
        "GHDGOBAAJGM": 110203,
        "DNMCOPPPNLB": "AI",
        "GLMOGBIKNFG": "SELF",
        "guideName": ""
    },
    {
        "id": 2024,
        "MBOLNEAALBF": 243855933,
        "MCEDOPGBHPM": 2,
        "GHDGOBAAJGM": 110203,
        "DNMCOPPPNLB": "AI",
        "GLMOGBIKNFG": "SELF",
        "guideName": ""
    },
    {
        "id": 2025,
        "MBOLNEAALBF": 335945997,
        "MCEDOPGBHPM": 2,
        "GHDGOBAAJGM": 110205,
        "DNMCOPPPNLB": "AI",
        "GLMOGBIKNFG": "SELF",
        "guideName": ""
    },
    {
        "id": 2031,
        "MBOLNEAALBF": 1239320365,
        "MCEDOPGBHPM": 2,
        "GHDGOBAAJGM": 110301,
        "DNMCOPPPNLB": "AI",
        "GLMOGBIKNFG": "SELF",
        "guideName": ""
    },
    {
        "id": 2032,
        "MBOLNEAALBF": 3858058277,
        "MCEDOPGBHPM": 2,
        "GHDGOBAAJGM": 110302,
        "DNMCOPPPNLB": "AI",
        "GLMOGBIKNFG": "SELF",
        "guideName": ""
    },
    {
        "id": 2033,
        "MBOLNEAALBF": 1862652925,
        "MCEDOPGBHPM": 2,
        "GHDGOBAAJGM": 110303,
        "DNMCOPPPNLB": "AI",
        "GLMOGBIKNFG": "SELF",
        "guideName": ""
    },
    {
        "id": 2034,
        "MBOLNEAALBF": 213815117,
        "MCEDOPGBHPM": 2,
        "GHDGOBAAJGM": 110303,
        "DNMCOPPPNLB": "AI",
        "GLMOGBIKNFG": "SELF",
        "guideName": ""
    },
    {
        "id": 2035,
        "MBOLNEAALBF": 474831477,
        "MCEDOPGBHPM": 2,
        "GHDGOBAAJGM": 110305,
        "DNMCOPPPNLB": "AI",
        "GLMOGBIKNFG": "SELF",
        "guideName": ""
    },
    {
        "id": 2041,
        "MBOLNEAALBF": 3053068621,
        "MCEDOPGBHPM": 2,
        "GHDGOBAAJGM": 110401,
        "DNMCOPPPNLB": "AI",
        "GLMOGBIKNFG": "SELF",
        "guideName": ""
    },
    {
        "id": 2042,
        "MBOLNEAALBF": 413068645,
        "MCEDOPGBHPM": 2,
        "GHDGOBAAJGM": 110402,
        "DNMCOPPPNLB": "AI",
        "GLMOGBIKNFG": "SELF",
        "guideName": ""
    },
    {
        "id": 2043,
        "MBOLNEAALBF": 1911027205,
        "MCEDOPGBHPM": 2,
        "GHDGOBAAJGM": 110403,
        "DNMCOPPPNLB": "AI",
        "GLMOGBIKNFG": "SELF",
        "guideName": ""
    },
    {
        "id": 2044,
        "MBOLNEAALBF": 1081161357,
        "MCEDOPGBHPM": 2,
        "GHDGOBAAJGM": 110403,
        "DNMCOPPPNLB": "AI",
        "GLMOGBIKNFG": "SELF",
        "guideName": ""
    },
    {
        "id": 2045,
        "MBOLNEAALBF": 335891549,
        "MCEDOPGBHPM": 2,
        "GHDGOBAAJGM": 110405,
        "DNMCOPPPNLB": "AI",
        "GLMOGBIKNFG": "SELF",
        "guideName": ""
    },
    {
        "id": 2051,
        "MBOLNEAALBF": 3178464085,
        "MCEDOPGBHPM": 2,
        "GHDGOBAAJGM": 110501,
        "DNMCOPPPNLB": "AI",
        "GLMOGBIKNFG": "SELF",
        "guideName": ""
    },
    {
        "id": 2052,
        "MBOLNEAALBF": 1072683933,
        "MCEDOPGBHPM": 2,
        "GHDGOBAAJGM": 110502,
        "DNMCOPPPNLB": "AI",
        "GLMOGBIKNFG": "SELF",
        "guideName": ""
    },
    {
        "id": 2053,
        "MBOLNEAALBF": 1588095973,
        "MCEDOPGBHPM": 2,
        "GHDGOBAAJGM": 110503,
        "DNMCOPPPNLB": "AI",
        "GLMOGBIKNFG": "SELF",
        "guideName": ""
    },
    {
        "id": 2054,
        "MBOLNEAALBF": 3396569813,
        "MCEDOPGBHPM": 2,
        "GHDGOBAAJGM": 110503,
        "DNMCOPPPNLB": "AI",
        "GLMOGBIKNFG": "SELF",
        "guideName": ""
    },
    {
        "id": 2055,
        "MBOLNEAALBF": 4212105125,
        "MCEDOPGBHPM": 2,
        "GHDGOBAAJGM": 110505,
        "DNMCOPPPNLB": "AI",
        "GLMOGBIKNFG": "SELF",
        "guideName": ""
    },
    {
        "id": 2061,
        "MBOLNEAALBF": 535219021,
        "MCEDOPGBHPM": 2,
        "GHDGOBAAJGM": 120101,
        "DNMCOPPPNLB": "AI",
        "GLMOGBIKNFG": "SELF",
        "guideName": ""
    },
    {
        "id": 2062,
        "MBOLNEAALBF": 4228754613,
        "MCEDOPGBHPM": 2,
        "GHDGOBAAJGM": 120102,
        "DNMCOPPPNLB": "AI",
        "GLMOGBIKNFG": "SELF",
        "guideName": ""
    },
    {
        "id": 2063,
        "MBOLNEAALBF": 2778734157,
        "MCEDOPGBHPM": 2,
        "GHDGOBAAJGM": 120103,
        "DNMCOPPPNLB": "AI",
        "GLMOGBIKNFG": "SELF",
        "guideName": ""
    },
    {
        "id": 2064,
        "MBOLNEAALBF": 2401072557,
        "MCEDOPGBHPM": 2,
        "GHDGOBAAJGM": 120103,
        "DNMCOPPPNLB": "AI",
        "GLMOGBIKNFG": "SELF",
        "guideName": ""
    },
    {
        "id": 2065,
        "MBOLNEAALBF": 416098173,
        "MCEDOPGBHPM": 2,
        "GHDGOBAAJGM": 120105,
        "DNMCOPPPNLB": "AI",
        "GLMOGBIKNFG": "SELF",
        "guideName": ""
    },
    {
        "id": 2071,
        "MBOLNEAALBF": 3718429933,
        "MCEDOPGBHPM": 2,
        "GHDGOBAAJGM": 120201,
        "DNMCOPPPNLB": "AI",
        "GLMOGBIKNFG": "SELF",
        "guideName": ""
    },
    {
        "id": 2072,
        "MBOLNEAALBF": 3732255141,
        "MCEDOPGBHPM": 2,
        "GHDGOBAAJGM": 120202,
        "DNMCOPPPNLB": "AI",
        "GLMOGBIKNFG": "SELF",
        "guideName": ""
    },
    {
        "id": 2073,
        "MBOLNEAALBF": 1740575125,
        "MCEDOPGBHPM": 2,
        "GHDGOBAAJGM": 120203,
        "DNMCOPPPNLB": "AI",
        "GLMOGBIKNFG": "SELF",
        "guideName": ""
    },
    {
        "id": 2074,
        "MBOLNEAALBF": 1959520821,
        "MCEDOPGBHPM": 2,
        "GHDGOBAAJGM": 120203,
        "DNMCOPPPNLB": "AI",
        "GLMOGBIKNFG": "SELF",
        "guideName": ""
    },
    {
        "id": 2075,
        "MBOLNEAALBF": 1015648301,
        "MCEDOPGBHPM": 2,
        "GHDGOBAAJGM": 120205,
        "DNMCOPPPNLB": "AI",
        "GLMOGBIKNFG": "SELF",
        "guideName": ""
    },
    {
        "id": 2081,
        "MBOLNEAALBF": 198350973,
        "MCEDOPGBHPM": 2,
        "GHDGOBAAJGM": 120301,
        "DNMCOPPPNLB": "AI",
        "GLMOGBIKNFG": "SELF",
        "guideName": ""
    },
    {
        "id": 2082,
        "MBOLNEAALBF": 743985357,
        "MCEDOPGBHPM": 2,
        "GHDGOBAAJGM": 120302,
        "DNMCOPPPNLB": "AI",
        "GLMOGBIKNFG": "SELF",
        "guideName": ""
    },
    {
        "id": 2083,
        "MBOLNEAALBF": 233283685,
        "MCEDOPGBHPM": 2,
        "GHDGOBAAJGM": 120303,
        "DNMCOPPPNLB": "AI",
        "GLMOGBIKNFG": "SELF",
        "guideName": ""
    },
    {
        "id": 2084,
        "MBOLNEAALBF": 3119060021,
        "MCEDOPGBHPM": 2,
        "GHDGOBAAJGM": 120303,
        "DNMCOPPPNLB": "AI",
        "GLMOGBIKNFG": "SELF",
        "guideName": ""
    },
    {
        "id": 2085,
        "MBOLNEAALBF": 1037143605,
        "MCEDOPGBHPM": 2,
        "GHDGOBAAJGM": 120305,
        "DNMCOPPPNLB": "AI",
        "GLMOGBIKNFG": "SELF",
        "guideName": ""
    },
    {
        "id": 2091,
        "MBOLNEAALBF": 2587612237,
        "MCEDOPGBHPM": 2,
        "GHDGOBAAJGM": 130101,
        "DNMCOPPPNLB": "AI",
        "GLMOGBIKNFG": "SELF",
        "guideName": ""
    },
    {
        "id": 2092,
        "MBOLNEAALBF": 72608773,
        "MCEDOPGBHPM": 2,
        "GHDGOBAAJGM": 130102,
        "DNMCOPPPNLB": "AI",
        "GLMOGBIKNFG": "SELF",
        "guideName": ""
    },
    {
        "id": 2093,
        "MBOLNEAALBF": 1337420381,
        "MCEDOPGBHPM": 2,
        "GHDGOBAAJGM": 130103,
        "DNMCOPPPNLB": "AI",
        "GLMOGBIKNFG": "SELF",
        "guideName": ""
    },
    {
        "id": 2094,
        "MBOLNEAALBF": 4024503085,
        "MCEDOPGBHPM": 2,
        "GHDGOBAAJGM": 130103,
        "DNMCOPPPNLB": "AI",
        "GLMOGBIKNFG": "SELF",
        "guideName": ""
    },
    {
        "id": 2095,
        "MBOLNEAALBF": 4285107893,
        "MCEDOPGBHPM": 2,
        "GHDGOBAAJGM": 130105,
        "DNMCOPPPNLB": "AI",
        "GLMOGBIKNFG": "SELF",
        "guideName": ""
    },
    {
        "id": 2101,
        "MBOLNEAALBF": 1684247061,
        "MCEDOPGBHPM": 2,
        "GHDGOBAAJGM": 130201,
        "DNMCOPPPNLB": "AI",
        "GLMOGBIKNFG": "SELF",
        "guideName": ""
    },
    {
        "id": 2102,
        "MBOLNEAALBF": 14469893,
        "MCEDOPGBHPM": 2,
        "GHDGOBAAJGM": 130202,
        "DNMCOPPPNLB": "AI",
        "GLMOGBIKNFG": "SELF",
        "guideName": ""
    },
    {
        "id": 2103,
        "MBOLNEAALBF": 237216541,
        "MCEDOPGBHPM": 2,
        "GHDGOBAAJGM": 130203,
        "DNMCOPPPNLB": "AI",
        "GLMOGBIKNFG": "SELF",
        "guideName": ""
    },
    {
        "id": 2104,
        "MBOLNEAALBF": 113268245,
        "MCEDOPGBHPM": 2,
        "GHDGOBAAJGM": 130203,
        "DNMCOPPPNLB": "AI",
        "GLMOGBIKNFG": "SELF",
        "guideName": ""
    },
    {
        "id": 2105,
        "MBOLNEAALBF": 553645405,
        "MCEDOPGBHPM": 2,
        "GHDGOBAAJGM": 130205,
        "DNMCOPPPNLB": "AI",
        "GLMOGBIKNFG": "SELF",
        "guideName": ""
    },
    {
        "id": 2111,
        "MBOLNEAALBF": 842121461,
        "MCEDOPGBHPM": 2,
        "GHDGOBAAJGM": 130301,
        "DNMCOPPPNLB": "AI",
        "GLMOGBIKNFG": "SELF",
        "guideName": ""
    },
    {
        "id": 2112,
        "MBOLNEAALBF": 2911549437,
        "MCEDOPGBHPM": 2,
        "GHDGOBAAJGM": 130302,
        "DNMCOPPPNLB": "AI",
        "GLMOGBIKNFG": "SELF",
        "guideName": ""
    },
    {
        "id": 2113,
        "MBOLNEAALBF": 2576206869,
        "MCEDOPGBHPM": 2,
        "GHDGOBAAJGM": 130303,
        "DNMCOPPPNLB": "AI",
        "GLMOGBIKNFG": "SELF",
        "guideName": ""
    },
    {
        "id": 2114,
        "MBOLNEAALBF": 750197797,
        "MCEDOPGBHPM": 2,
        "GHDGOBAAJGM": 130303,
        "DNMCOPPPNLB": "AI",
        "GLMOGBIKNFG": "SELF",
        "guideName": ""
    },
    {
        "id": 2115,
        "MBOLNEAALBF": 688048877,
        "MCEDOPGBHPM": 2,
        "GHDGOBAAJGM": 130305,
        "DNMCOPPPNLB": "AI",
        "GLMOGBIKNFG": "SELF",
        "guideName": ""
    },
    {
        "id": 2121,
        "MBOLNEAALBF": 3020002757,
        "MCEDOPGBHPM": 2,
        "GHDGOBAAJGM": 130501,
        "DNMCOPPPNLB": "AI",
        "GLMOGBIKNFG": "SELF",
        "guideName": ""
    },
    {
        "id": 2122,
        "MBOLNEAALBF": 3606800917,
        "MCEDOPGBHPM": 2,
        "GHDGOBAAJGM": 130502,
        "DNMCOPPPNLB": "AI",
        "GLMOGBIKNFG": "SELF",
        "guideName": ""
    },
    {
        "id": 2123,
        "MBOLNEAALBF": 47080109,
        "MCEDOPGBHPM": 2,
        "GHDGOBAAJGM": 130503,
        "DNMCOPPPNLB": "AI",
        "GLMOGBIKNFG": "SELF",
        "guideName": ""
    },
    {
        "id": 2124,
        "MBOLNEAALBF": 1864869453,
        "MCEDOPGBHPM": 2,
        "GHDGOBAAJGM": 130503,
        "DNMCOPPPNLB": "AI",
        "GLMOGBIKNFG": "SELF",
        "guideName": ""
    },
    {
        "id": 2125,
        "MBOLNEAALBF": 1091002813,
        "MCEDOPGBHPM": 2,
        "GHDGOBAAJGM": 130505,
        "DNMCOPPPNLB": "AI",
        "GLMOGBIKNFG": "SELF",
        "guideName": ""
    },
    {
        "id": 2131,
        "MBOLNEAALBF": 2012288685,
        "MCEDOPGBHPM": 2,
        "GHDGOBAAJGM": 140101,
        "DNMCOPPPNLB": "AI",
        "GLMOGBIKNFG": "SELF",
        "guideName": ""
    },
    {
        "id": 2132,
        "MBOLNEAALBF": 1862842917,
        "MCEDOPGBHPM": 2,
        "GHDGOBAAJGM": 140102,
        "DNMCOPPPNLB": "AI",
        "GLMOGBIKNFG": "SELF",
        "guideName": ""
    },
    {
        "id": 2133,
        "MBOLNEAALBF": 3037766909,
        "MCEDOPGBHPM": 2,
        "GHDGOBAAJGM": 140103,
        "DNMCOPPPNLB": "AI",
        "GLMOGBIKNFG": "SELF",
        "guideName": ""
    },
    {
        "id": 2134,
        "MBOLNEAALBF": 505059021,
        "MCEDOPGBHPM": 2,
        "GHDGOBAAJGM": 140103,
        "DNMCOPPPNLB": "AI",
        "GLMOGBIKNFG": "SELF",
        "guideName": ""
    },
    {
        "id": 2135,
        "MBOLNEAALBF": 3845795629,
        "MCEDOPGBHPM": 2,
        "GHDGOBAAJGM": 140105,
        "DNMCOPPPNLB": "AI",
        "GLMOGBIKNFG": "SELF",
        "guideName": ""
    },
    {
        "id": 2141,
        "MBOLNEAALBF": 2019895525,
        "MCEDOPGBHPM": 2,
        "GHDGOBAAJGM": 140201,
        "DNMCOPPPNLB": "AI",
        "GLMOGBIKNFG": "SELF",
        "guideName": ""
    },
    {
        "id": 2142,
        "MBOLNEAALBF": 2611205189,
        "MCEDOPGBHPM": 2,
        "GHDGOBAAJGM": 140202,
        "DNMCOPPPNLB": "AI",
        "GLMOGBIKNFG": "SELF",
        "guideName": ""
    },
    {
        "id": 2143,
        "MBOLNEAALBF": 4087343501,
        "MCEDOPGBHPM": 2,
        "GHDGOBAAJGM": 140203,
        "DNMCOPPPNLB": "AI",
        "GLMOGBIKNFG": "SELF",
        "guideName": ""
    },
    {
        "id": 2144,
        "MBOLNEAALBF": 1119143181,
        "MCEDOPGBHPM": 2,
        "GHDGOBAAJGM": 140203,
        "DNMCOPPPNLB": "AI",
        "GLMOGBIKNFG": "SELF",
        "guideName": ""
    },
    {
        "id": 2145,
        "MBOLNEAALBF": 2476472317,
        "MCEDOPGBHPM": 2,
        "GHDGOBAAJGM": 140205,
        "DNMCOPPPNLB": "AI",
        "GLMOGBIKNFG": "SELF",
        "guideName": ""
    },
    {
        "id": 2151,
        "MBOLNEAALBF": 531371677,
        "MCEDOPGBHPM": 2,
        "GHDGOBAAJGM": 140301,
        "DNMCOPPPNLB": "AI",
        "GLMOGBIKNFG": "SELF",
        "guideName": ""
    },
    {
        "id": 2152,
        "MBOLNEAALBF": 1216960349,
        "MCEDOPGBHPM": 2,
        "GHDGOBAAJGM": 140302,
        "DNMCOPPPNLB": "AI",
        "GLMOGBIKNFG": "SELF",
        "guideName": ""
    },
    {
        "id": 2153,
        "MBOLNEAALBF": 127528189,
        "MCEDOPGBHPM": 2,
        "GHDGOBAAJGM": 140303,
        "DNMCOPPPNLB": "AI",
        "GLMOGBIKNFG": "SELF",
        "guideName": ""
    },
    {
        "id": 2154,
        "MBOLNEAALBF": 886628981,
        "MCEDOPGBHPM": 2,
        "GHDGOBAAJGM": 140303,
        "DNMCOPPPNLB": "AI",
        "GLMOGBIKNFG": "SELF",
        "guideName": ""
    },
    {
        "id": 2155,
        "MBOLNEAALBF": 1288807485,
        "MCEDOPGBHPM": 2,
        "GHDGOBAAJGM": 140305,
        "DNMCOPPPNLB": "AI",
        "GLMOGBIKNFG": "SELF",
        "guideName": ""
    },
    {
        "id": 2161,
        "MBOLNEAALBF": 3984930445,
        "MCEDOPGBHPM": 2,
        "GHDGOBAAJGM": 140401,
        "DNMCOPPPNLB": "AI",
        "GLMOGBIKNFG": "SELF",
        "guideName": ""
    },
    {
        "id": 2162,
        "MBOLNEAALBF": 434858045,
        "MCEDOPGBHPM": 2,
        "GHDGOBAAJGM": 140402,
        "DNMCOPPPNLB": "AI",
        "GLMOGBIKNFG": "SELF",
        "guideName": ""
    },
    {
        "id": 2163,
        "MBOLNEAALBF": 429918525,
        "MCEDOPGBHPM": 2,
        "GHDGOBAAJGM": 140403,
        "DNMCOPPPNLB": "AI",
        "GLMOGBIKNFG": "SELF",
        "guideName": ""
    },
    {
        "id": 2164,
        "MBOLNEAALBF": 3999542405,
        "MCEDOPGBHPM": 2,
        "GHDGOBAAJGM": 140403,
        "DNMCOPPPNLB": "AI",
        "GLMOGBIKNFG": "SELF",
        "guideName": ""
    },
    {
        "id": 2165,
        "MBOLNEAALBF": 2670958949,
        "MCEDOPGBHPM": 2,
        "GHDGOBAAJGM": 140405,
        "DNMCOPPPNLB": "AI",
        "GLMOGBIKNFG": "SELF",
        "guideName": ""
    },
    {
        "id": 2171,
        "MBOLNEAALBF": 2863456981,
        "MCEDOPGBHPM": 2,
        "GHDGOBAAJGM": 150101,
        "DNMCOPPPNLB": "AI",
        "GLMOGBIKNFG": "SELF",
        "guideName": ""
    },
    {
        "id": 2172,
        "MBOLNEAALBF": 2021654701,
        "MCEDOPGBHPM": 2,
        "GHDGOBAAJGM": 150102,
        "DNMCOPPPNLB": "AI",
        "GLMOGBIKNFG": "SELF",
        "guideName": ""
    },
    {
        "id": 2173,
        "MBOLNEAALBF": 3415410725,
        "MCEDOPGBHPM": 2,
        "GHDGOBAAJGM": 150103,
        "DNMCOPPPNLB": "AI",
        "GLMOGBIKNFG": "SELF",
        "guideName": ""
    },
    {
        "id": 2174,
        "MBOLNEAALBF": 2252018333,
        "MCEDOPGBHPM": 2,
        "GHDGOBAAJGM": 150103,
        "DNMCOPPPNLB": "AI",
        "GLMOGBIKNFG": "SELF",
        "guideName": ""
    },
    {
        "id": 2175,
        "MBOLNEAALBF": 3533854349,
        "MCEDOPGBHPM": 2,
        "GHDGOBAAJGM": 150105,
        "DNMCOPPPNLB": "AI",
        "GLMOGBIKNFG": "SELF",
        "guideName": ""
    },
    {
        "id": 2181,
        "MBOLNEAALBF": 2877837269,
        "MCEDOPGBHPM": 2,
        "GHDGOBAAJGM": 150201,
        "DNMCOPPPNLB": "AI",
        "GLMOGBIKNFG": "SELF",
        "guideName": ""
    },
    {
        "id": 2182,
        "MBOLNEAALBF": 2156580549,
        "MCEDOPGBHPM": 2,
        "GHDGOBAAJGM": 150202,
        "DNMCOPPPNLB": "AI",
        "GLMOGBIKNFG": "SELF",
        "guideName": ""
    },
    {
        "id": 2183,
        "MBOLNEAALBF": 2625737941,
        "MCEDOPGBHPM": 2,
        "GHDGOBAAJGM": 150203,
        "DNMCOPPPNLB": "AI",
        "GLMOGBIKNFG": "SELF",
        "guideName": ""
    },
    {
        "id": 2184,
        "MBOLNEAALBF": 2480849005,
        "MCEDOPGBHPM": 2,
        "GHDGOBAAJGM": 150203,
        "DNMCOPPPNLB": "AI",
        "GLMOGBIKNFG": "SELF",
        "guideName": ""
    },
    {
        "id": 2185,
        "MBOLNEAALBF": 986473741,
        "MCEDOPGBHPM": 2,
        "GHDGOBAAJGM": 150205,
        "DNMCOPPPNLB": "AI",
        "GLMOGBIKNFG": "SELF",
        "guideName": ""
    },
    {
        "id": 2191,
        "MBOLNEAALBF": 2558753621,
        "MCEDOPGBHPM": 2,
        "GHDGOBAAJGM": 160101,
        "DNMCOPPPNLB": "AI",
        "GLMOGBIKNFG": "SELF",
        "guideName": ""
    },
    {
        "id": 2192,
        "MBOLNEAALBF": 925018773,
        "MCEDOPGBHPM": 2,
        "GHDGOBAAJGM": 160102,
        "DNMCOPPPNLB": "AI",
        "GLMOGBIKNFG": "SELF",
        "guideName": ""
    },
    {
        "id": 2193,
        "MBOLNEAALBF": 126139301,
        "MCEDOPGBHPM": 2,
        "GHDGOBAAJGM": 160103,
        "DNMCOPPPNLB": "AI",
        "GLMOGBIKNFG": "SELF",
        "guideName": ""
    },
    {
        "id": 2194,
        "MBOLNEAALBF": 538248797,
        "MCEDOPGBHPM": 2,
        "GHDGOBAAJGM": 160103,
        "DNMCOPPPNLB": "AI",
        "GLMOGBIKNFG": "SELF",
        "guideName": ""
    },
    {
        "id": 2195,
        "MBOLNEAALBF": 3766786701,
        "MCEDOPGBHPM": 2,
        "GHDGOBAAJGM": 160105,
        "DNMCOPPPNLB": "AI",
        "GLMOGBIKNFG": "SELF",
        "guideName": ""
    },
    {
        "id": 2201,
        "MBOLNEAALBF": 571633845,
        "MCEDOPGBHPM": 2,
        "GHDGOBAAJGM": 160201,
        "DNMCOPPPNLB": "AI",
        "GLMOGBIKNFG": "SELF",
        "guideName": ""
    },
    {
        "id": 2202,
        "MBOLNEAALBF": 1277567757,
        "MCEDOPGBHPM": 2,
        "GHDGOBAAJGM": 160202,
        "DNMCOPPPNLB": "AI",
        "GLMOGBIKNFG": "SELF",
        "guideName": ""
    },
    {
        "id": 2203,
        "MBOLNEAALBF": 274017781,
        "MCEDOPGBHPM": 2,
        "GHDGOBAAJGM": 160203,
        "DNMCOPPPNLB": "AI",
        "GLMOGBIKNFG": "SELF",
        "guideName": ""
    },
    {
        "id": 2204,
        "MBOLNEAALBF": 2770553829,
        "MCEDOPGBHPM": 2,
        "GHDGOBAAJGM": 160203,
        "DNMCOPPPNLB": "AI",
        "GLMOGBIKNFG": "SELF",
        "guideName": ""
    },
    {
        "id": 2205,
        "MBOLNEAALBF": 2635767637,
        "MCEDOPGBHPM": 2,
        "GHDGOBAAJGM": 160205,
        "DNMCOPPPNLB": "AI",
        "GLMOGBIKNFG": "SELF",
        "guideName": ""
    },
    {
        "id": 2211,
        "MBOLNEAALBF": 276607597,
        "MCEDOPGBHPM": 2,
        "GHDGOBAAJGM": 170101,
        "DNMCOPPPNLB": "AI",
        "GLMOGBIKNFG": "SELF",
        "guideName": ""
    },
    {
        "id": 2212,
        "MBOLNEAALBF": 710681605,
        "MCEDOPGBHPM": 2,
        "GHDGOBAAJGM": 170102,
        "DNMCOPPPNLB": "AI",
        "GLMOGBIKNFG": "SELF",
        "guideName": ""
    },
    {
        "id": 2213,
        "MBOLNEAALBF": 2020735317,
        "MCEDOPGBHPM": 2,
        "GHDGOBAAJGM": 170103,
        "DNMCOPPPNLB": "AI",
        "GLMOGBIKNFG": "SELF",
        "guideName": ""
    },
    {
        "id": 2214,
        "MBOLNEAALBF": 2348216261,
        "MCEDOPGBHPM": 2,
        "GHDGOBAAJGM": 170103,
        "DNMCOPPPNLB": "AI",
        "GLMOGBIKNFG": "SELF",
        "guideName": ""
    },
    {
        "id": 2215,
        "MBOLNEAALBF": 2607324965,
        "MCEDOPGBHPM": 2,
        "GHDGOBAAJGM": 170105,
        "DNMCOPPPNLB": "AI",
        "GLMOGBIKNFG": "SELF",
        "guideName": ""
    },
    {
        "id": 2221,
        "MBOLNEAALBF": 1806225189,
        "MCEDOPGBHPM": 2,
        "GHDGOBAAJGM": 130601,
        "DNMCOPPPNLB": "AI",
        "GLMOGBIKNFG": "SELF",
        "guideName": ""
    },
    {
        "id": 2222,
        "MBOLNEAALBF": 2585749853,
        "MCEDOPGBHPM": 2,
        "GHDGOBAAJGM": 130602,
        "DNMCOPPPNLB": "AI",
        "GLMOGBIKNFG": "SELF",
        "guideName": ""
    },
    {
        "id": 2223,
        "MBOLNEAALBF": 3257726877,
        "MCEDOPGBHPM": 2,
        "GHDGOBAAJGM": 130603,
        "DNMCOPPPNLB": "AI",
        "GLMOGBIKNFG": "SELF",
        "guideName": ""
    },
    {
        "id": 2224,
        "MBOLNEAALBF": 2489365821,
        "MCEDOPGBHPM": 2,
        "GHDGOBAAJGM": 130603,
        "DNMCOPPPNLB": "AI",
        "GLMOGBIKNFG": "SELF",
        "guideName": ""
    },
    {
        "id": 2225,
        "MBOLNEAALBF": 2922268565,
        "MCEDOPGBHPM": 2,
        "GHDGOBAAJGM": 130605,
        "DNMCOPPPNLB": "AI",
        "GLMOGBIKNFG": "SELF",
        "guideName": ""
    },
    {
        "id": 2231,
        "MBOLNEAALBF": 3487640533,
        "MCEDOPGBHPM": 2,
        "GHDGOBAAJGM": 140501,
        "DNMCOPPPNLB": "AI",
        "GLMOGBIKNFG": "SELF",
        "guideName": ""
    },
    {
        "id": 2232,
        "MBOLNEAALBF": 2030374269,
        "MCEDOPGBHPM": 2,
        "GHDGOBAAJGM": 140502,
        "DNMCOPPPNLB": "AI",
        "GLMOGBIKNFG": "SELF",
        "guideName": ""
    },
    {
        "id": 2233,
        "MBOLNEAALBF": 1877558637,
        "MCEDOPGBHPM": 2,
        "GHDGOBAAJGM": 140503,
        "DNMCOPPPNLB": "AI",
        "GLMOGBIKNFG": "SELF",
        "guideName": ""
    },
    {
        "id": 2234,
        "MBOLNEAALBF": 3479823829,
        "MCEDOPGBHPM": 2,
        "GHDGOBAAJGM": 140503,
        "DNMCOPPPNLB": "AI",
        "GLMOGBIKNFG": "SELF",
        "guideName": ""
    },
    {
        "id": 2235,
        "MBOLNEAALBF": 3955671981,
        "MCEDOPGBHPM": 2,
        "GHDGOBAAJGM": 140505,
        "DNMCOPPPNLB": "AI",
        "GLMOGBIKNFG": "SELF",
        "guideName": ""
    },
    {
        "id": 11001,
        "MBOLNEAALBF": 1389750725,
        "MCEDOPGBHPM": 2,
        "GHDGOBAAJGM": 11001,
        "DNMCOPPPNLB": "PVE",
        "GLMOGBIKNFG": "SELF",
        "guideName": "Tutorial_2_2"
    },
    {
        "id": 11002,
        "MBOLNEAALBF": 58314365,
        "MCEDOPGBHPM": 2,
        "GHDGOBAAJGM": 11002,
        "DNMCOPPPNLB": "PVE",
        "GLMOGBIKNFG": "SELF",
        "guideName": ""
    },
    {
        "id": 11003,
        "MBOLNEAALBF": 3909811677,
        "MCEDOPGBHPM": 2,
        "GHDGOBAAJGM": 11003,
        "DNMCOPPPNLB": "PVE",
        "GLMOGBIKNFG": "SELF",
        "guideName": ""
    },
    {
        "id": 11004,
        "MBOLNEAALBF": 772913885,
        "MCEDOPGBHPM": 2,
        "GHDGOBAAJGM": 11004,
        "DNMCOPPPNLB": "PVE",
        "GLMOGBIKNFG": "SELF",
        "guideName": ""
    },
    {
        "id": 11005,
        "MBOLNEAALBF": 3257636109,
        "MCEDOPGBHPM": 2,
        "GHDGOBAAJGM": 11005,
        "DNMCOPPPNLB": "AI",
        "GLMOGBIKNFG": "SELF",
        "guideName": ""
    },
    {
        "id": 11101,
        "MBOLNEAALBF": 4185681933,
        "MCEDOPGBHPM": 2,
        "GHDGOBAAJGM": 11101,
        "DNMCOPPPNLB": "PVE",
        "GLMOGBIKNFG": "SELF",
        "guideName": ""
    },
    {
        "id": 11102,
        "MBOLNEAALBF": 1896064485,
        "MCEDOPGBHPM": 2,
        "GHDGOBAAJGM": 11102,
        "DNMCOPPPNLB": "PVE",
        "GLMOGBIKNFG": "SELF",
        "guideName": ""
    },
    {
        "id": 11104,
        "MBOLNEAALBF": 3231065317,
        "MCEDOPGBHPM": 2,
        "GHDGOBAAJGM": 11104,
        "DNMCOPPPNLB": "PVE",
        "GLMOGBIKNFG": "SELF",
        "guideName": ""
    },
    {
        "id": 11105,
        "MBOLNEAALBF": 1862694709,
        "MCEDOPGBHPM": 2,
        "GHDGOBAAJGM": 11105,
        "DNMCOPPPNLB": "AI",
        "GLMOGBIKNFG": "SELF",
        "guideName": ""
    },
    {
        "id": 11106,
        "MBOLNEAALBF": 3732609285,
        "MCEDOPGBHPM": 2,
        "GHDGOBAAJGM": 11106,
        "DNMCOPPPNLB": "PVE",
        "GLMOGBIKNFG": "SELF",
        "guideName": ""
    },
    {
        "id": 11203,
        "MBOLNEAALBF": 2684288629,
        "MCEDOPGBHPM": 2,
        "GHDGOBAAJGM": 11203,
        "DNMCOPPPNLB": "AI",
        "GLMOGBIKNFG": "SELF",
        "guideName": ""
    },
    {
        "id": 12001,
        "MBOLNEAALBF": 1685325317,
        "MCEDOPGBHPM": 2,
        "GHDGOBAAJGM": 12001,
        "DNMCOPPPNLB": "PVE",
        "GLMOGBIKNFG": "SELF",
        "guideName": ""
    },
    {
        "id": 12002,
        "MBOLNEAALBF": 2162811317,
        "MCEDOPGBHPM": 2,
        "GHDGOBAAJGM": 12002,
        "DNMCOPPPNLB": "PVE",
        "GLMOGBIKNFG": "SELF",
        "guideName": ""
    },
    {
        "id": 12003,
        "MBOLNEAALBF": 6781189,
        "MCEDOPGBHPM": 2,
        "GHDGOBAAJGM": 12003,
        "DNMCOPPPNLB": "PVE",
        "GLMOGBIKNFG": "SELF",
        "guideName": ""
    },
    {
        "id": 12004,
        "MBOLNEAALBF": 1587545445,
        "MCEDOPGBHPM": 2,
        "GHDGOBAAJGM": 12004,
        "DNMCOPPPNLB": "PVE",
        "GLMOGBIKNFG": "SELF",
        "guideName": ""
    },
    {
        "id": 12005,
        "MBOLNEAALBF": 1521084469,
        "MCEDOPGBHPM": 2,
        "GHDGOBAAJGM": 12005,
        "DNMCOPPPNLB": "AI",
        "GLMOGBIKNFG": "SELF",
        "guideName": ""
    },
    {
        "id": 12103,
        "MBOLNEAALBF": 1244251325,
        "MCEDOPGBHPM": 2,
        "GHDGOBAAJGM": 12103,
        "DNMCOPPPNLB": "PVE",
        "GLMOGBIKNFG": "SELF",
        "guideName": ""
    },
    {
        "id": 12104,
        "MBOLNEAALBF": 282898157,
        "MCEDOPGBHPM": 2,
        "GHDGOBAAJGM": 12104,
        "DNMCOPPPNLB": "PVE",
        "GLMOGBIKNFG": "SELF",
        "guideName": ""
    },
    {
        "id": 12105,
        "MBOLNEAALBF": 1280705885,
        "MCEDOPGBHPM": 2,
        "GHDGOBAAJGM": 12105,
        "DNMCOPPPNLB": "PVE",
        "GLMOGBIKNFG": "SELF",
        "guideName": ""
    },
    {
        "id": 12106,
        "MBOLNEAALBF": 2959521557,
        "MCEDOPGBHPM": 2,
        "GHDGOBAAJGM": 12106,
        "DNMCOPPPNLB": "PVE",
        "GLMOGBIKNFG": "SELF",
        "guideName": ""
    },
    {
        "id": 12107,
        "MBOLNEAALBF": 3877220245,
        "MCEDOPGBHPM": 2,
        "GHDGOBAAJGM": 12107,
        "DNMCOPPPNLB": "AI",
        "GLMOGBIKNFG": "SELF",
        "guideName": ""
    },
    {
        "id": 12202,
        "MBOLNEAALBF": 2422815461,
        "MCEDOPGBHPM": 2,
        "GHDGOBAAJGM": 12202,
        "DNMCOPPPNLB": "AI",
        "GLMOGBIKNFG": "SELF",
        "guideName": ""
    },
    {
        "id": 13001,
        "MBOLNEAALBF": 2532881429,
        "MCEDOPGBHPM": 2,
        "GHDGOBAAJGM": 13001,
        "DNMCOPPPNLB": "PVE",
        "GLMOGBIKNFG": "SELF",
        "guideName": ""
    },
    {
        "id": 13002,
        "MBOLNEAALBF": 1790830029,
        "MCEDOPGBHPM": 2,
        "GHDGOBAAJGM": 13002,
        "DNMCOPPPNLB": "PVE",
        "GLMOGBIKNFG": "SELF",
        "guideName": ""
    },
    {
        "id": 13003,
        "MBOLNEAALBF": 477284965,
        "MCEDOPGBHPM": 2,
        "GHDGOBAAJGM": 13003,
        "DNMCOPPPNLB": "PVE",
        "GLMOGBIKNFG": "SELF",
        "guideName": ""
    },
    {
        "id": 13004,
        "MBOLNEAALBF": 191161565,
        "MCEDOPGBHPM": 2,
        "GHDGOBAAJGM": 13004,
        "DNMCOPPPNLB": "PVE",
        "GLMOGBIKNFG": "SELF",
        "guideName": ""
    },
    {
        "id": 13005,
        "MBOLNEAALBF": 1334069469,
        "MCEDOPGBHPM": 2,
        "GHDGOBAAJGM": 13005,
        "DNMCOPPPNLB": "AI",
        "GLMOGBIKNFG": "SELF",
        "guideName": ""
    },
    {
        "id": 13101,
        "MBOLNEAALBF": 2650551853,
        "MCEDOPGBHPM": 2,
        "GHDGOBAAJGM": 13101,
        "DNMCOPPPNLB": "PVE",
        "GLMOGBIKNFG": "SELF",
        "guideName": ""
    },
    {
        "id": 13102,
        "MBOLNEAALBF": 1195203493,
        "MCEDOPGBHPM": 2,
        "GHDGOBAAJGM": 13102,
        "DNMCOPPPNLB": "PVE",
        "GLMOGBIKNFG": "SELF",
        "guideName": ""
    },
    {
        "id": 13103,
        "MBOLNEAALBF": 3023874117,
        "MCEDOPGBHPM": 2,
        "GHDGOBAAJGM": 13103,
        "DNMCOPPPNLB": "PVE",
        "GLMOGBIKNFG": "SELF",
        "guideName": ""
    },
    {
        "id": 13104,
        "MBOLNEAALBF": 420948261,
        "MCEDOPGBHPM": 2,
        "GHDGOBAAJGM": 13104,
        "DNMCOPPPNLB": "PVE",
        "GLMOGBIKNFG": "SELF",
        "guideName": ""
    },
    {
        "id": 13105,
        "MBOLNEAALBF": 2039053269,
        "MCEDOPGBHPM": 2,
        "GHDGOBAAJGM": 13105,
        "DNMCOPPPNLB": "AI",
        "GLMOGBIKNFG": "SELF",
        "guideName": ""
    },
    {
        "id": 13201,
        "MBOLNEAALBF": 1744581149,
        "MCEDOPGBHPM": 2,
        "GHDGOBAAJGM": 13201,
        "DNMCOPPPNLB": "AI",
        "GLMOGBIKNFG": "SELF",
        "guideName": ""
    },
    {
        "id": 14001,
        "MBOLNEAALBF": 188382469,
        "MCEDOPGBHPM": 2,
        "GHDGOBAAJGM": 14001,
        "DNMCOPPPNLB": "PVE",
        "GLMOGBIKNFG": "SELF",
        "guideName": ""
    },
    {
        "id": 14002,
        "MBOLNEAALBF": 2568842093,
        "MCEDOPGBHPM": 2,
        "GHDGOBAAJGM": 14002,
        "DNMCOPPPNLB": "PVE",
        "GLMOGBIKNFG": "SELF",
        "guideName": ""
    },
    {
        "id": 14003,
        "MBOLNEAALBF": 272858245,
        "MCEDOPGBHPM": 2,
        "GHDGOBAAJGM": 14003,
        "DNMCOPPPNLB": "PVE",
        "GLMOGBIKNFG": "SELF",
        "guideName": ""
    },
    {
        "id": 14004,
        "MBOLNEAALBF": 2561382909,
        "MCEDOPGBHPM": 2,
        "GHDGOBAAJGM": 14004,
        "DNMCOPPPNLB": "PVE",
        "GLMOGBIKNFG": "SELF",
        "guideName": ""
    },
    {
        "id": 14005,
        "MBOLNEAALBF": 4103958341,
        "MCEDOPGBHPM": 2,
        "GHDGOBAAJGM": 14005,
        "DNMCOPPPNLB": "AI",
        "GLMOGBIKNFG": "SELF",
        "guideName": ""
    },
    {
        "id": 14101,
        "MBOLNEAALBF": 3401002949,
        "MCEDOPGBHPM": 2,
        "GHDGOBAAJGM": 14101,
        "DNMCOPPPNLB": "PVE",
        "GLMOGBIKNFG": "SELF",
        "guideName": ""
    },
    {
        "id": 14102,
        "MBOLNEAALBF": 3321796981,
        "MCEDOPGBHPM": 2,
        "GHDGOBAAJGM": 14102,
        "DNMCOPPPNLB": "PVE",
        "GLMOGBIKNFG": "SELF",
        "guideName": ""
    },
    {
        "id": 14103,
        "MBOLNEAALBF": 842430373,
        "MCEDOPGBHPM": 2,
        "GHDGOBAAJGM": 14103,
        "DNMCOPPPNLB": "PVE",
        "GLMOGBIKNFG": "SELF",
        "guideName": ""
    },
    {
        "id": 14104,
        "MBOLNEAALBF": 583022069,
        "MCEDOPGBHPM": 2,
        "GHDGOBAAJGM": 14104,
        "DNMCOPPPNLB": "PVE",
        "GLMOGBIKNFG": "SELF",
        "guideName": ""
    },
    {
        "id": 14105,
        "MBOLNEAALBF": 2389553405,
        "MCEDOPGBHPM": 2,
        "GHDGOBAAJGM": 14105,
        "DNMCOPPPNLB": "AI",
        "GLMOGBIKNFG": "SELF",
        "guideName": ""
    },
    {
        "id": 14201,
        "MBOLNEAALBF": 2335592501,
        "MCEDOPGBHPM": 2,
        "GHDGOBAAJGM": 14201,
        "DNMCOPPPNLB": "PVE",
        "GLMOGBIKNFG": "SELF",
        "guideName": ""
    },
    {
        "id": 14202,
        "MBOLNEAALBF": 66104373,
        "MCEDOPGBHPM": 2,
        "GHDGOBAAJGM": 14202,
        "DNMCOPPPNLB": "PVE",
        "GLMOGBIKNFG": "SELF",
        "guideName": ""
    },
    {
        "id": 14203,
        "MBOLNEAALBF": 1332986973,
        "MCEDOPGBHPM": 2,
        "GHDGOBAAJGM": 14203,
        "DNMCOPPPNLB": "PVE",
        "GLMOGBIKNFG": "SELF",
        "guideName": ""
    },
    {
        "id": 14204,
        "MBOLNEAALBF": 1473624285,
        "MCEDOPGBHPM": 2,
        "GHDGOBAAJGM": 14204,
        "DNMCOPPPNLB": "PVE",
        "GLMOGBIKNFG": "SELF",
        "guideName": ""
    },
    {
        "id": 14205,
        "MBOLNEAALBF": 3519120749,
        "MCEDOPGBHPM": 2,
        "GHDGOBAAJGM": 14205,
        "DNMCOPPPNLB": "AI",
        "GLMOGBIKNFG": "SELF",
        "guideName": ""
    },
    {
        "id": 14301,
        "MBOLNEAALBF": 3444407805,
        "MCEDOPGBHPM": 2,
        "GHDGOBAAJGM": 14301,
        "DNMCOPPPNLB": "AI",
        "GLMOGBIKNFG": "SELF",
        "guideName": ""
    },
    {
        "id": 14302,
        "MBOLNEAALBF": 2407743589,
        "MCEDOPGBHPM": 2,
        "GHDGOBAAJGM": 14302,
        "DNMCOPPPNLB": "AI",
        "GLMOGBIKNFG": "SELF",
        "guideName": ""
    },
    {
        "id": 14303,
        "MBOLNEAALBF": 1102282701,
        "MCEDOPGBHPM": 2,
        "GHDGOBAAJGM": 14303,
        "DNMCOPPPNLB": "AI",
        "GLMOGBIKNFG": "SELF",
        "guideName": ""
    },
    {
        "id": 20001,
        "MBOLNEAALBF": 938133973,
        "MCEDOPGBHPM": 2,
        "GHDGOBAAJGM": 20001,
        "DNMCOPPPNLB": "PVE",
        "GLMOGBIKNFG": "SELF",
        "guideName": ""
    },
    {
        "id": 20002,
        "MBOLNEAALBF": 219887757,
        "MCEDOPGBHPM": 2,
        "GHDGOBAAJGM": 20002,
        "DNMCOPPPNLB": "PVE",
        "GLMOGBIKNFG": "SELF",
        "guideName": ""
    },
    {
        "id": 20003,
        "MBOLNEAALBF": 295397997,
        "MCEDOPGBHPM": 2,
        "GHDGOBAAJGM": 20003,
        "DNMCOPPPNLB": "PVE",
        "GLMOGBIKNFG": "SELF",
        "guideName": ""
    },
    {
        "id": 20004,
        "MBOLNEAALBF": 3971786493,
        "MCEDOPGBHPM": 2,
        "GHDGOBAAJGM": 20004,
        "DNMCOPPPNLB": "PVE",
        "GLMOGBIKNFG": "SELF",
        "guideName": ""
    },
    {
        "id": 30101,
        "MBOLNEAALBF": 453472109,
        "MCEDOPGBHPM": 2,
        "MIJHPKBIOPI": 30001,
        "GHDGOBAAJGM": 30101,
        "DNMCOPPPNLB": "PVE",
        "GLMOGBIKNFG": "SELF",
        "guideName": "Tutorial_1_1"
    },
    {
        "id": 30102,
        "MBOLNEAALBF": 3091116557,
        "MCEDOPGBHPM": 2,
        "MIJHPKBIOPI": 30002,
        "GHDGOBAAJGM": 30102,
        "DNMCOPPPNLB": "PVE",
        "GLMOGBIKNFG": "SELF",
        "guideName": "Tutorial_1_2"
    },
    {
        "id": 30104,
        "MBOLNEAALBF": 884211717,
        "MCEDOPGBHPM": 2,
        "MIJHPKBIOPI": 30004,
        "GHDGOBAAJGM": 30104,
        "DNMCOPPPNLB": "PVE",
        "GLMOGBIKNFG": "SELF",
        "guideName": "Tutorial_1_4"
    },
    {
        "id": 30105,
        "MBOLNEAALBF": 3949406157,
        "MCEDOPGBHPM": 2,
        "MIJHPKBIOPI": 30005,
        "GHDGOBAAJGM": 30105,
        "DNMCOPPPNLB": "PVE",
        "GLMOGBIKNFG": "SELF",
        "guideName": "Tutorial_1_5"
    },
    {
        "id": 30111,
        "MBOLNEAALBF": 2472247453,
        "MCEDOPGBHPM": 2,
        "MIJHPKBIOPI": 7,
        "GHDGOBAAJGM": 30111,
        "DNMCOPPPNLB": "AI",
        "GLMOGBIKNFG": "SELF",
        "guideName": "Tutorial_2_1"
    },
    {
        "id": 30112,
        "MBOLNEAALBF": 4109747493,
        "MCEDOPGBHPM": 2,
        "GHDGOBAAJGM": 30112,
        "DNMCOPPPNLB": "AI",
        "GLMOGBIKNFG": "SELF",
        "guideName": "Tutorial_2_2"
    },
    {
        "id": 40001,
        "MBOLNEAALBF": 2091527805,
        "MCEDOPGBHPM": 2,
        "GHDGOBAAJGM": 40001,
        "DNMCOPPPNLB": "AI",
        "GLMOGBIKNFG": "SELF",
        "guideName": ""
    },
    {
        "id": 40002,
        "MBOLNEAALBF": 1229100117,
        "MCEDOPGBHPM": 2,
        "GHDGOBAAJGM": 40002,
        "DNMCOPPPNLB": "AI",
        "GLMOGBIKNFG": "SELF",
        "guideName": ""
    },
    {
        "id": 40003,
        "MBOLNEAALBF": 3613227757,
        "MCEDOPGBHPM": 2,
        "GHDGOBAAJGM": 40003,
        "DNMCOPPPNLB": "AI",
        "GLMOGBIKNFG": "SELF",
        "guideName": ""
    },
    {
        "id": 40004,
        "MBOLNEAALBF": 3633096173,
        "MCEDOPGBHPM": 2,
        "GHDGOBAAJGM": 40004,
        "DNMCOPPPNLB": "AI",
        "GLMOGBIKNFG": "SELF",
        "guideName": ""
    },
    {
        "id": 40005,
        "MBOLNEAALBF": 1774135589,
        "MCEDOPGBHPM": 2,
        "GHDGOBAAJGM": 40005,
        "DNMCOPPPNLB": "AI",
        "GLMOGBIKNFG": "SELF",
        "guideName": ""
    },
    {
        "id": 50101,
        "MBOLNEAALBF": 237374989,
        "MCEDOPGBHPM": 2,
        "GHDGOBAAJGM": 50101,
        "DNMCOPPPNLB": "PVE",
        "GLMOGBIKNFG": "SELF",
        "guideName": ""
    },
    {
        "id": 50102,
        "MBOLNEAALBF": 2891405517,
        "MCEDOPGBHPM": 2,
        "GHDGOBAAJGM": 50102,
        "DNMCOPPPNLB": "PVE",
        "GLMOGBIKNFG": "SELF",
        "guideName": ""
    },
    {
        "id": 50103,
        "MBOLNEAALBF": 1231912709,
        "MCEDOPGBHPM": 2,
        "GHDGOBAAJGM": 50103,
        "DNMCOPPPNLB": "PVE",
        "GLMOGBIKNFG": "SELF",
        "guideName": ""
    },
    {
        "id": 50104,
        "MBOLNEAALBF": 2588060461,
        "MCEDOPGBHPM": 2,
        "GHDGOBAAJGM": 50102,
        "DNMCOPPPNLB": "PVE",
        "GLMOGBIKNFG": "SELF",
        "guideName": ""
    },
    {
        "id": 50105,
        "MBOLNEAALBF": 2941089061,
        "MCEDOPGBHPM": 2,
        "GHDGOBAAJGM": 50101,
        "DNMCOPPPNLB": "PVE",
        "GLMOGBIKNFG": "SELF",
        "guideName": ""
    },
    {
        "id": 50111,
        "MBOLNEAALBF": 4139090701,
        "MCEDOPGBHPM": 2,
        "GHDGOBAAJGM": 50101,
        "DNMCOPPPNLB": "PVE",
        "GLMOGBIKNFG": "SELF",
        "guideName": ""
    },
    {
        "id": 50112,
        "MBOLNEAALBF": 1685248685,
        "MCEDOPGBHPM": 2,
        "GHDGOBAAJGM": 50102,
        "DNMCOPPPNLB": "PVE",
        "GLMOGBIKNFG": "SELF",
        "guideName": ""
    },
    {
        "id": 50113,
        "MBOLNEAALBF": 2369014277,
        "MCEDOPGBHPM": 2,
        "GHDGOBAAJGM": 50103,
        "DNMCOPPPNLB": "PVE",
        "GLMOGBIKNFG": "SELF",
        "guideName": ""
    },
    {
        "id": 110101,
        "MBOLNEAALBF": 3050254245,
        "MCEDOPGBHPM": 2,
        "GHDGOBAAJGM": 110101,
        "DNMCOPPPNLB": "AI",
        "GLMOGBIKNFG": "SELF",
        "guideName": ""
    },
    {
        "id": 110102,
        "MBOLNEAALBF": 2973149805,
        "MCEDOPGBHPM": 2,
        "GHDGOBAAJGM": 110102,
        "DNMCOPPPNLB": "AI",
        "GLMOGBIKNFG": "SELF",
        "guideName": ""
    },
    {
        "id": 110103,
        "MBOLNEAALBF": 2465497437,
        "MCEDOPGBHPM": 2,
        "GHDGOBAAJGM": 110103,
        "DNMCOPPPNLB": "AI",
        "GLMOGBIKNFG": "SELF",
        "guideName": ""
    },
    {
        "id": 110104,
        "MBOLNEAALBF": 3251679973,
        "MCEDOPGBHPM": 2,
        "GHDGOBAAJGM": 110104,
        "DNMCOPPPNLB": "AI",
        "GLMOGBIKNFG": "SELF",
        "guideName": ""
    },
    {
        "id": 110201,
        "MBOLNEAALBF": 1051780005,
        "MCEDOPGBHPM": 2,
        "GHDGOBAAJGM": 110201,
        "DNMCOPPPNLB": "AI",
        "GLMOGBIKNFG": "SELF",
        "guideName": ""
    },
    {
        "id": 110202,
        "MBOLNEAALBF": 2324366085,
        "MCEDOPGBHPM": 2,
        "GHDGOBAAJGM": 110202,
        "DNMCOPPPNLB": "AI",
        "GLMOGBIKNFG": "SELF",
        "guideName": ""
    },
    {
        "id": 110203,
        "MBOLNEAALBF": 3228863053,
        "MCEDOPGBHPM": 2,
        "GHDGOBAAJGM": 110203,
        "DNMCOPPPNLB": "AI",
        "GLMOGBIKNFG": "SELF",
        "guideName": ""
    },
    {
        "id": 110204,
        "MBOLNEAALBF": 491465365,
        "MCEDOPGBHPM": 2,
        "GHDGOBAAJGM": 110204,
        "DNMCOPPPNLB": "AI",
        "GLMOGBIKNFG": "SELF",
        "guideName": ""
    },
    {
        "id": 110301,
        "MBOLNEAALBF": 3665097741,
        "MCEDOPGBHPM": 2,
        "GHDGOBAAJGM": 110301,
        "DNMCOPPPNLB": "AI",
        "GLMOGBIKNFG": "SELF",
        "guideName": ""
    },
    {
        "id": 110302,
        "MBOLNEAALBF": 2676450829,
        "MCEDOPGBHPM": 2,
        "GHDGOBAAJGM": 110302,
        "DNMCOPPPNLB": "AI",
        "GLMOGBIKNFG": "SELF",
        "guideName": ""
    },
    {
        "id": 110303,
        "MBOLNEAALBF": 1354763885,
        "MCEDOPGBHPM": 2,
        "GHDGOBAAJGM": 110303,
        "DNMCOPPPNLB": "AI",
        "GLMOGBIKNFG": "SELF",
        "guideName": ""
    },
    {
        "id": 110304,
        "MBOLNEAALBF": 13702413,
        "MCEDOPGBHPM": 2,
        "GHDGOBAAJGM": 110304,
        "DNMCOPPPNLB": "AI",
        "GLMOGBIKNFG": "SELF",
        "guideName": ""
    },
    {
        "id": 110401,
        "MBOLNEAALBF": 3322356565,
        "MCEDOPGBHPM": 2,
        "GHDGOBAAJGM": 110401,
        "DNMCOPPPNLB": "AI",
        "GLMOGBIKNFG": "SELF",
        "guideName": ""
    },
    {
        "id": 110402,
        "MBOLNEAALBF": 1003569589,
        "MCEDOPGBHPM": 2,
        "GHDGOBAAJGM": 110402,
        "DNMCOPPPNLB": "AI",
        "GLMOGBIKNFG": "SELF",
        "guideName": ""
    },
    {
        "id": 110403,
        "MBOLNEAALBF": 917452789,
        "MCEDOPGBHPM": 2,
        "GHDGOBAAJGM": 110403,
        "DNMCOPPPNLB": "AI",
        "GLMOGBIKNFG": "SELF",
        "guideName": ""
    },
    {
        "id": 110404,
        "MBOLNEAALBF": 2701551301,
        "MCEDOPGBHPM": 2,
        "GHDGOBAAJGM": 110404,
        "DNMCOPPPNLB": "AI",
        "GLMOGBIKNFG": "SELF",
        "guideName": ""
    },
    {
        "id": 110501,
        "MBOLNEAALBF": 1372249685,
        "MCEDOPGBHPM": 2,
        "GHDGOBAAJGM": 110501,
        "DNMCOPPPNLB": "AI",
        "GLMOGBIKNFG": "SELF",
        "guideName": ""
    },
    {
        "id": 110502,
        "MBOLNEAALBF": 1958746589,
        "MCEDOPGBHPM": 2,
        "GHDGOBAAJGM": 110502,
        "DNMCOPPPNLB": "AI",
        "GLMOGBIKNFG": "SELF",
        "guideName": ""
    },
    {
        "id": 110503,
        "MBOLNEAALBF": 3998165037,
        "MCEDOPGBHPM": 2,
        "GHDGOBAAJGM": 110503,
        "DNMCOPPPNLB": "AI",
        "GLMOGBIKNFG": "SELF",
        "guideName": ""
    },
    {
        "id": 110504,
        "MBOLNEAALBF": 3072420853,
        "MCEDOPGBHPM": 2,
        "GHDGOBAAJGM": 110504,
        "DNMCOPPPNLB": "AI",
        "GLMOGBIKNFG": "SELF",
        "guideName": ""
    },
    {
        "id": 120101,
        "MBOLNEAALBF": 3253223725,
        "MCEDOPGBHPM": 2,
        "GHDGOBAAJGM": 120101,
        "DNMCOPPPNLB": "AI",
        "GLMOGBIKNFG": "SELF",
        "guideName": ""
    },
    {
        "id": 120102,
        "MBOLNEAALBF": 2256777061,
        "MCEDOPGBHPM": 2,
        "GHDGOBAAJGM": 120102,
        "DNMCOPPPNLB": "AI",
        "GLMOGBIKNFG": "SELF",
        "guideName": ""
    },
    {
        "id": 120103,
        "MBOLNEAALBF": 3967887925,
        "MCEDOPGBHPM": 2,
        "GHDGOBAAJGM": 120103,
        "DNMCOPPPNLB": "AI",
        "GLMOGBIKNFG": "SELF",
        "guideName": ""
    },
    {
        "id": 120104,
        "MBOLNEAALBF": 2171606757,
        "MCEDOPGBHPM": 2,
        "GHDGOBAAJGM": 120104,
        "DNMCOPPPNLB": "AI",
        "GLMOGBIKNFG": "SELF",
        "guideName": ""
    },
    {
        "id": 120201,
        "MBOLNEAALBF": 1876068213,
        "MCEDOPGBHPM": 2,
        "GHDGOBAAJGM": 120201,
        "DNMCOPPPNLB": "AI",
        "GLMOGBIKNFG": "SELF",
        "guideName": ""
    },
    {
        "id": 120202,
        "MBOLNEAALBF": 1736358557,
        "MCEDOPGBHPM": 2,
        "GHDGOBAAJGM": 120202,
        "DNMCOPPPNLB": "AI",
        "GLMOGBIKNFG": "SELF",
        "guideName": ""
    },
    {
        "id": 120203,
        "MBOLNEAALBF": 3125031877,
        "MCEDOPGBHPM": 2,
        "GHDGOBAAJGM": 120203,
        "DNMCOPPPNLB": "AI",
        "GLMOGBIKNFG": "SELF",
        "guideName": ""
    },
    {
        "id": 120204,
        "MBOLNEAALBF": 600726317,
        "MCEDOPGBHPM": 2,
        "GHDGOBAAJGM": 120204,
        "DNMCOPPPNLB": "AI",
        "GLMOGBIKNFG": "SELF",
        "guideName": ""
    },
    {
        "id": 120301,
        "MBOLNEAALBF": 2308883413,
        "MCEDOPGBHPM": 2,
        "GHDGOBAAJGM": 120301,
        "DNMCOPPPNLB": "AI",
        "GLMOGBIKNFG": "SELF",
        "guideName": ""
    },
    {
        "id": 120302,
        "MBOLNEAALBF": 1211354509,
        "MCEDOPGBHPM": 2,
        "GHDGOBAAJGM": 120302,
        "DNMCOPPPNLB": "AI",
        "GLMOGBIKNFG": "SELF",
        "guideName": ""
    },
    {
        "id": 120303,
        "MBOLNEAALBF": 1025202237,
        "MCEDOPGBHPM": 2,
        "GHDGOBAAJGM": 120303,
        "DNMCOPPPNLB": "AI",
        "GLMOGBIKNFG": "SELF",
        "guideName": ""
    },
    {
        "id": 120304,
        "MBOLNEAALBF": 792414853,
        "MCEDOPGBHPM": 2,
        "GHDGOBAAJGM": 120304,
        "DNMCOPPPNLB": "AI",
        "GLMOGBIKNFG": "SELF",
        "guideName": ""
    },
    {
        "id": 130101,
        "MBOLNEAALBF": 2149138637,
        "MCEDOPGBHPM": 2,
        "GHDGOBAAJGM": 130101,
        "DNMCOPPPNLB": "AI",
        "GLMOGBIKNFG": "SELF",
        "guideName": ""
    },
    {
        "id": 130102,
        "MBOLNEAALBF": 1802729613,
        "MCEDOPGBHPM": 2,
        "GHDGOBAAJGM": 130102,
        "DNMCOPPPNLB": "AI",
        "GLMOGBIKNFG": "SELF",
        "guideName": ""
    },
    {
        "id": 130103,
        "MBOLNEAALBF": 2372012477,
        "MCEDOPGBHPM": 2,
        "GHDGOBAAJGM": 130103,
        "DNMCOPPPNLB": "AI",
        "GLMOGBIKNFG": "SELF",
        "guideName": ""
    },
    {
        "id": 130104,
        "MBOLNEAALBF": 1398282677,
        "MCEDOPGBHPM": 2,
        "GHDGOBAAJGM": 130104,
        "DNMCOPPPNLB": "AI",
        "GLMOGBIKNFG": "SELF",
        "guideName": ""
    },
    {
        "id": 130201,
        "MBOLNEAALBF": 422874101,
        "MCEDOPGBHPM": 2,
        "GHDGOBAAJGM": 130201,
        "DNMCOPPPNLB": "AI",
        "GLMOGBIKNFG": "SELF",
        "guideName": ""
    },
    {
        "id": 130202,
        "MBOLNEAALBF": 3206179517,
        "MCEDOPGBHPM": 2,
        "GHDGOBAAJGM": 130202,
        "DNMCOPPPNLB": "AI",
        "GLMOGBIKNFG": "SELF",
        "guideName": ""
    },
    {
        "id": 130203,
        "MBOLNEAALBF": 3168666485,
        "MCEDOPGBHPM": 2,
        "GHDGOBAAJGM": 130203,
        "DNMCOPPPNLB": "AI",
        "GLMOGBIKNFG": "SELF",
        "guideName": ""
    },
    {
        "id": 130204,
        "MBOLNEAALBF": 1152798341,
        "MCEDOPGBHPM": 2,
        "GHDGOBAAJGM": 130204,
        "DNMCOPPPNLB": "AI",
        "GLMOGBIKNFG": "SELF",
        "guideName": ""
    },
    {
        "id": 130301,
        "MBOLNEAALBF": 2406330581,
        "MCEDOPGBHPM": 2,
        "GHDGOBAAJGM": 130301,
        "DNMCOPPPNLB": "AI",
        "GLMOGBIKNFG": "SELF",
        "guideName": ""
    },
    {
        "id": 130302,
        "MBOLNEAALBF": 4205947821,
        "MCEDOPGBHPM": 2,
        "GHDGOBAAJGM": 130302,
        "DNMCOPPPNLB": "AI",
        "GLMOGBIKNFG": "SELF",
        "guideName": ""
    },
    {
        "id": 130303,
        "MBOLNEAALBF": 3933288061,
        "MCEDOPGBHPM": 2,
        "GHDGOBAAJGM": 130303,
        "DNMCOPPPNLB": "AI",
        "GLMOGBIKNFG": "SELF",
        "guideName": ""
    },
    {
        "id": 130304,
        "MBOLNEAALBF": 1833322013,
        "MCEDOPGBHPM": 2,
        "GHDGOBAAJGM": 130304,
        "DNMCOPPPNLB": "AI",
        "GLMOGBIKNFG": "SELF",
        "guideName": ""
    },
    {
        "id": 130501,
        "MBOLNEAALBF": 1033304853,
        "MCEDOPGBHPM": 2,
        "GHDGOBAAJGM": 130501,
        "DNMCOPPPNLB": "AI",
        "GLMOGBIKNFG": "SELF",
        "guideName": ""
    },
    {
        "id": 130502,
        "MBOLNEAALBF": 916206373,
        "MCEDOPGBHPM": 2,
        "GHDGOBAAJGM": 130502,
        "DNMCOPPPNLB": "AI",
        "GLMOGBIKNFG": "SELF",
        "guideName": ""
    },
    {
        "id": 130503,
        "MBOLNEAALBF": 360222869,
        "MCEDOPGBHPM": 2,
        "GHDGOBAAJGM": 130503,
        "DNMCOPPPNLB": "AI",
        "GLMOGBIKNFG": "SELF",
        "guideName": ""
    },
    {
        "id": 130504,
        "MBOLNEAALBF": 256981701,
        "MCEDOPGBHPM": 2,
        "GHDGOBAAJGM": 130504,
        "DNMCOPPPNLB": "AI",
        "GLMOGBIKNFG": "SELF",
        "guideName": ""
    },
    {
        "id": 140101,
        "MBOLNEAALBF": 1445394749,
        "MCEDOPGBHPM": 2,
        "GHDGOBAAJGM": 140101,
        "DNMCOPPPNLB": "AI",
        "GLMOGBIKNFG": "SELF",
        "guideName": ""
    },
    {
        "id": 140102,
        "MBOLNEAALBF": 601396245,
        "MCEDOPGBHPM": 2,
        "GHDGOBAAJGM": 140102,
        "DNMCOPPPNLB": "AI",
        "GLMOGBIKNFG": "SELF",
        "guideName": ""
    },
    {
        "id": 140103,
        "MBOLNEAALBF": 3066288029,
        "MCEDOPGBHPM": 2,
        "GHDGOBAAJGM": 140103,
        "DNMCOPPPNLB": "AI",
        "GLMOGBIKNFG": "SELF",
        "guideName": ""
    },
    {
        "id": 140104,
        "MBOLNEAALBF": 3109065805,
        "MCEDOPGBHPM": 2,
        "GHDGOBAAJGM": 140104,
        "DNMCOPPPNLB": "AI",
        "GLMOGBIKNFG": "SELF",
        "guideName": ""
    },
    {
        "id": 140201,
        "MBOLNEAALBF": 2373711805,
        "MCEDOPGBHPM": 2,
        "GHDGOBAAJGM": 140201,
        "DNMCOPPPNLB": "AI",
        "GLMOGBIKNFG": "SELF",
        "guideName": ""
    },
    {
        "id": 140202,
        "MBOLNEAALBF": 1761297165,
        "MCEDOPGBHPM": 2,
        "GHDGOBAAJGM": 140202,
        "DNMCOPPPNLB": "AI",
        "GLMOGBIKNFG": "SELF",
        "guideName": ""
    },
    {
        "id": 140203,
        "MBOLNEAALBF": 2158122621,
        "MCEDOPGBHPM": 2,
        "GHDGOBAAJGM": 140203,
        "DNMCOPPPNLB": "AI",
        "GLMOGBIKNFG": "SELF",
        "guideName": ""
    },
    {
        "id": 140204,
        "MBOLNEAALBF": 3899668829,
        "MCEDOPGBHPM": 2,
        "GHDGOBAAJGM": 140204,
        "DNMCOPPPNLB": "AI",
        "GLMOGBIKNFG": "SELF",
        "guideName": ""
    },
    {
        "id": 140301,
        "MBOLNEAALBF": 2930748869,
        "MCEDOPGBHPM": 2,
        "GHDGOBAAJGM": 140301,
        "DNMCOPPPNLB": "AI",
        "GLMOGBIKNFG": "SELF",
        "guideName": ""
    },
    {
        "id": 140302,
        "MBOLNEAALBF": 579954077,
        "MCEDOPGBHPM": 2,
        "GHDGOBAAJGM": 140302,
        "DNMCOPPPNLB": "AI",
        "GLMOGBIKNFG": "SELF",
        "guideName": ""
    },
    {
        "id": 140303,
        "MBOLNEAALBF": 1205215333,
        "MCEDOPGBHPM": 2,
        "GHDGOBAAJGM": 140303,
        "DNMCOPPPNLB": "AI",
        "GLMOGBIKNFG": "SELF",
        "guideName": ""
    },
    {
        "id": 140304,
        "MBOLNEAALBF": 3261855445,
        "MCEDOPGBHPM": 2,
        "GHDGOBAAJGM": 140304,
        "DNMCOPPPNLB": "AI",
        "GLMOGBIKNFG": "SELF",
        "guideName": ""
    },
    {
        "id": 140401,
        "MBOLNEAALBF": 1780075637,
        "MCEDOPGBHPM": 2,
        "GHDGOBAAJGM": 140401,
        "DNMCOPPPNLB": "AI",
        "GLMOGBIKNFG": "SELF",
        "guideName": ""
    },
    {
        "id": 140402,
        "MBOLNEAALBF": 612489117,
        "MCEDOPGBHPM": 2,
        "GHDGOBAAJGM": 140402,
        "DNMCOPPPNLB": "AI",
        "GLMOGBIKNFG": "SELF",
        "guideName": ""
    },
    {
        "id": 140403,
        "MBOLNEAALBF": 3785947349,
        "MCEDOPGBHPM": 2,
        "GHDGOBAAJGM": 140403,
        "DNMCOPPPNLB": "AI",
        "GLMOGBIKNFG": "SELF",
        "guideName": ""
    },
    {
        "id": 140404,
        "MBOLNEAALBF": 4167085973,
        "MCEDOPGBHPM": 2,
        "GHDGOBAAJGM": 140404,
        "DNMCOPPPNLB": "AI",
        "GLMOGBIKNFG": "SELF",
        "guideName": ""
    },
    {
        "id": 150101,
        "MBOLNEAALBF": 3337793829,
        "MCEDOPGBHPM": 2,
        "GHDGOBAAJGM": 150101,
        "DNMCOPPPNLB": "AI",
        "GLMOGBIKNFG": "SELF",
        "guideName": ""
    },
    {
        "id": 150102,
        "MBOLNEAALBF": 3241593901,
        "MCEDOPGBHPM": 2,
        "GHDGOBAAJGM": 150102,
        "DNMCOPPPNLB": "AI",
        "GLMOGBIKNFG": "SELF",
        "guideName": ""
    },
    {
        "id": 150103,
        "MBOLNEAALBF": 3439462821,
        "MCEDOPGBHPM": 2,
        "GHDGOBAAJGM": 150103,
        "DNMCOPPPNLB": "AI",
        "GLMOGBIKNFG": "SELF",
        "guideName": ""
    },
    {
        "id": 150104,
        "MBOLNEAALBF": 3904252597,
        "MCEDOPGBHPM": 2,
        "GHDGOBAAJGM": 150104,
        "DNMCOPPPNLB": "AI",
        "GLMOGBIKNFG": "SELF",
        "guideName": ""
    },
    {
        "id": 150201,
        "MBOLNEAALBF": 2842930845,
        "MCEDOPGBHPM": 2,
        "GHDGOBAAJGM": 150201,
        "DNMCOPPPNLB": "AI",
        "GLMOGBIKNFG": "SELF",
        "guideName": ""
    },
    {
        "id": 150202,
        "MBOLNEAALBF": 4026855405,
        "MCEDOPGBHPM": 2,
        "GHDGOBAAJGM": 150202,
        "DNMCOPPPNLB": "AI",
        "GLMOGBIKNFG": "SELF",
        "guideName": ""
    },
    {
        "id": 150203,
        "MBOLNEAALBF": 1386222053,
        "MCEDOPGBHPM": 2,
        "GHDGOBAAJGM": 150203,
        "DNMCOPPPNLB": "AI",
        "GLMOGBIKNFG": "SELF",
        "guideName": ""
    },
    {
        "id": 150204,
        "MBOLNEAALBF": 835185901,
        "MCEDOPGBHPM": 2,
        "GHDGOBAAJGM": 150204,
        "DNMCOPPPNLB": "AI",
        "GLMOGBIKNFG": "SELF",
        "guideName": ""
    },
    {
        "id": 160101,
        "MBOLNEAALBF": 2302515117,
        "MCEDOPGBHPM": 2,
        "GHDGOBAAJGM": 160101,
        "DNMCOPPPNLB": "AI",
        "GLMOGBIKNFG": "SELF",
        "guideName": ""
    },
    {
        "id": 160102,
        "MBOLNEAALBF": 1051555669,
        "MCEDOPGBHPM": 2,
        "GHDGOBAAJGM": 160102,
        "DNMCOPPPNLB": "AI",
        "GLMOGBIKNFG": "SELF",
        "guideName": ""
    },
    {
        "id": 160103,
        "MBOLNEAALBF": 2681547869,
        "MCEDOPGBHPM": 2,
        "GHDGOBAAJGM": 160103,
        "DNMCOPPPNLB": "AI",
        "GLMOGBIKNFG": "SELF",
        "guideName": ""
    },
    {
        "id": 160104,
        "MBOLNEAALBF": 1152091605,
        "MCEDOPGBHPM": 2,
        "GHDGOBAAJGM": 160104,
        "DNMCOPPPNLB": "AI",
        "GLMOGBIKNFG": "SELF",
        "guideName": ""
    },
    {
        "id": 160201,
        "MBOLNEAALBF": 2652058525,
        "MCEDOPGBHPM": 2,
        "GHDGOBAAJGM": 160201,
        "DNMCOPPPNLB": "AI",
        "GLMOGBIKNFG": "SELF",
        "guideName": ""
    },
    {
        "id": 160202,
        "MBOLNEAALBF": 104483717,
        "MCEDOPGBHPM": 2,
        "GHDGOBAAJGM": 160202,
        "DNMCOPPPNLB": "AI",
        "GLMOGBIKNFG": "SELF",
        "guideName": ""
    },
    {
        "id": 160203,
        "MBOLNEAALBF": 2661431877,
        "MCEDOPGBHPM": 2,
        "GHDGOBAAJGM": 160203,
        "DNMCOPPPNLB": "AI",
        "GLMOGBIKNFG": "SELF",
        "guideName": ""
    },
    {
        "id": 160204,
        "MBOLNEAALBF": 2055026549,
        "MCEDOPGBHPM": 2,
        "GHDGOBAAJGM": 160204,
        "DNMCOPPPNLB": "AI",
        "GLMOGBIKNFG": "SELF",
        "guideName": ""
    },
    {
        "id": 170101,
        "MBOLNEAALBF": 3713496757,
        "MCEDOPGBHPM": 2,
        "GHDGOBAAJGM": 170101,
        "DNMCOPPPNLB": "AI",
        "GLMOGBIKNFG": "SELF",
        "guideName": ""
    },
    {
        "id": 170102,
        "MBOLNEAALBF": 3829051517,
        "MCEDOPGBHPM": 2,
        "GHDGOBAAJGM": 170102,
        "DNMCOPPPNLB": "AI",
        "GLMOGBIKNFG": "SELF",
        "guideName": ""
    },
    {
        "id": 170103,
        "MBOLNEAALBF": 2661716021,
        "MCEDOPGBHPM": 2,
        "GHDGOBAAJGM": 170103,
        "DNMCOPPPNLB": "AI",
        "GLMOGBIKNFG": "SELF",
        "guideName": ""
    },
    {
        "id": 170104,
        "MBOLNEAALBF": 3338870229,
        "MCEDOPGBHPM": 2,
        "GHDGOBAAJGM": 170104,
        "DNMCOPPPNLB": "AI",
        "GLMOGBIKNFG": "SELF",
        "guideName": ""
    },
    {
        "id": 130601,
        "MBOLNEAALBF": 2286506933,
        "MCEDOPGBHPM": 2,
        "GHDGOBAAJGM": 130601,
        "DNMCOPPPNLB": "AI",
        "GLMOGBIKNFG": "SELF",
        "guideName": ""
    },
    {
        "id": 130602,
        "MBOLNEAALBF": 40815125,
        "MCEDOPGBHPM": 2,
        "GHDGOBAAJGM": 130602,
        "DNMCOPPPNLB": "AI",
        "GLMOGBIKNFG": "SELF",
        "guideName": ""
    },
    {
        "id": 130603,
        "MBOLNEAALBF": 867182197,
        "MCEDOPGBHPM": 2,
        "GHDGOBAAJGM": 130603,
        "DNMCOPPPNLB": "AI",
        "GLMOGBIKNFG": "SELF",
        "guideName": ""
    },
    {
        "id": 130604,
        "MBOLNEAALBF": 2106729261,
        "MCEDOPGBHPM": 2,
        "GHDGOBAAJGM": 130604,
        "DNMCOPPPNLB": "AI",
        "GLMOGBIKNFG": "SELF",
        "guideName": ""
    },
    {
        "id": 140501,
        "MBOLNEAALBF": 885688581,
        "MCEDOPGBHPM": 2,
        "GHDGOBAAJGM": 140501,
        "DNMCOPPPNLB": "AI",
        "GLMOGBIKNFG": "SELF",
        "guideName": ""
    },
    {
        "id": 140502,
        "MBOLNEAALBF": 3756412805,
        "MCEDOPGBHPM": 2,
        "GHDGOBAAJGM": 140502,
        "DNMCOPPPNLB": "AI",
        "GLMOGBIKNFG": "SELF",
        "guideName": ""
    },
    {
        "id": 140503,
        "MBOLNEAALBF": 598094893,
        "MCEDOPGBHPM": 2,
        "GHDGOBAAJGM": 140503,
        "DNMCOPPPNLB": "AI",
        "GLMOGBIKNFG": "SELF",
        "guideName": ""
    },
    {
        "id": 140504,
        "MBOLNEAALBF": 1871656221,
        "MCEDOPGBHPM": 2,
        "GHDGOBAAJGM": 140504,
        "DNMCOPPPNLB": "AI",
        "GLMOGBIKNFG": "SELF",
        "guideName": ""
    },
    {
        "id": 220101,
        "MBOLNEAALBF": 1973279021,
        "MCEDOPGBHPM": 2,
        "GHDGOBAAJGM": 220101,
        "DNMCOPPPNLB": "PVE",
        "GLMOGBIKNFG": "SELF",
        "guideName": ""
    },
    {
        "id": 220102,
        "MBOLNEAALBF": 495062333,
        "MCEDOPGBHPM": 2,
        "GHDGOBAAJGM": 220102,
        "DNMCOPPPNLB": "PVE",
        "GLMOGBIKNFG": "SELF",
        "guideName": ""
    },
    {
        "id": 230101,
        "MBOLNEAALBF": 2101417957,
        "MCEDOPGBHPM": 2,
        "GHDGOBAAJGM": 230101,
        "DNMCOPPPNLB": "PVE",
        "GLMOGBIKNFG": "SELF",
        "guideName": ""
    },
    {
        "id": 230102,
        "MBOLNEAALBF": 966712453,
        "MCEDOPGBHPM": 2,
        "GHDGOBAAJGM": 230102,
        "DNMCOPPPNLB": "PVE",
        "GLMOGBIKNFG": "SELF",
        "guideName": ""
    },
    {
        "id": 220201,
        "MBOLNEAALBF": 2810536101,
        "MCEDOPGBHPM": 2,
        "GHDGOBAAJGM": 220201,
        "DNMCOPPPNLB": "PVE",
        "GLMOGBIKNFG": "SELF",
        "guideName": ""
    },
    {
        "id": 220202,
        "MBOLNEAALBF": 2225269645,
        "MCEDOPGBHPM": 2,
        "GHDGOBAAJGM": 220202,
        "DNMCOPPPNLB": "PVE",
        "GLMOGBIKNFG": "SELF",
        "guideName": ""
    },
    {
        "id": 260101,
        "MBOLNEAALBF": 2246851045,
        "MCEDOPGBHPM": 2,
        "GHDGOBAAJGM": 260101,
        "DNMCOPPPNLB": "PVE",
        "GLMOGBIKNFG": "SELF",
        "guideName": ""
    },
    {
        "id": 260102,
        "MBOLNEAALBF": 3143378109,
        "MCEDOPGBHPM": 2,
        "GHDGOBAAJGM": 260102,
        "DNMCOPPPNLB": "PVE",
        "GLMOGBIKNFG": "SELF",
        "guideName": ""
    },
    {
        "id": 250101,
        "MBOLNEAALBF": 1662955493,
        "MCEDOPGBHPM": 2,
        "GHDGOBAAJGM": 250101,
        "DNMCOPPPNLB": "PVE",
        "GLMOGBIKNFG": "SELF",
        "guideName": ""
    },
    {
        "id": 250102,
        "MBOLNEAALBF": 2881379701,
        "MCEDOPGBHPM": 2,
        "GHDGOBAAJGM": 250102,
        "DNMCOPPPNLB": "PVE",
        "GLMOGBIKNFG": "SELF",
        "guideName": ""
    },
    {
        "id": 270101,
        "MBOLNEAALBF": 3924870893,
        "MCEDOPGBHPM": 2,
        "GHDGOBAAJGM": 270101,
        "DNMCOPPPNLB": "PVE",
        "GLMOGBIKNFG": "SELF",
        "guideName": ""
    },
    {
        "id": 270102,
        "MBOLNEAALBF": 1966780613,
        "MCEDOPGBHPM": 2,
        "GHDGOBAAJGM": 270102,
        "DNMCOPPPNLB": "PVE",
        "GLMOGBIKNFG": "SELF",
        "guideName": ""
    }
]