[
    {
        "BAHNBAOENOB": 1101,
        "DLCFPKLGMLL": [
            {
                "MPKFDACCEBK": 10,
                "rewardId": 4202001
            },
            {},
            {}
        ]
    },
    {
        "BAHNBAOENOB": 1102,
        "DLCFPKLGMLL": [
            {
                "MPKFDACCEBK": 10,
                "rewardId": 4202024
            },
            {},
            {}
        ]
    },
    {
        "BAHNBAOENOB": 1103,
        "DLCFPKLGMLL": [
            {
                "MPKFDACCEBK": 10,
                "rewardId": 4202002
            },
            {},
            {}
        ]
    },
    {
        "BAHNBAOENOB": 1104,
        "DLCFPKLGMLL": [
            {
                "MPKFDACCEBK": 10,
                "rewardId": 4202003
            },
            {},
            {}
        ]
    },
    {
        "BAHNBAOENOB": 1105,
        "DLCFPKLGMLL": [
            {
                "MPKFDACCEBK": 10,
                "rewardId": 4202004
            },
            {},
            {}
        ]
    },
    {
        "BAHNBAOENOB": 1201,
        "DLCFPKLGMLL": [
            {
                "MPKFDACCEBK": 10,
                "rewardId": 4202026
            },
            {},
            {}
        ]
    },
    {
        "BAHNBAOENOB": 1202,
        "DLCFPKLGMLL": [
            {
                "MPKFDACCEBK": 10,
                "rewardId": 4202005
            },
            {},
            {}
        ]
    },
    {
        "BAHNBAOENOB": 1203,
        "DLCFPKLGMLL": [
            {
                "MPKFDACCEBK": 10,
                "rewardId": 4202006
            },
            {},
            {}
        ]
    },
    {
        "BAHNBAOENOB": 1301,
        "DLCFPKLGMLL": [
            {
                "MPKFDACCEBK": 10,
                "rewardId": 4202007
            },
            {},
            {}
        ]
    },
    {
        "BAHNBAOENOB": 1302,
        "DLCFPKLGMLL": [
            {
                "MPKFDACCEBK": 10,
                "rewardId": 4202008
            },
            {},
            {}
        ]
    },
    {
        "BAHNBAOENOB": 1303,
        "DLCFPKLGMLL": [
            {
                "MPKFDACCEBK": 10,
                "rewardId": 4202009
            },
            {},
            {}
        ]
    },
    {
        "BAHNBAOENOB": 1305,
        "DLCFPKLGMLL": [
            {
                "MPKFDACCEBK": 10,
                "rewardId": 4202011
            },
            {},
            {}
        ]
    },
    {
        "BAHNBAOENOB": 1306,
        "DLCFPKLGMLL": [
            {
                "MPKFDACCEBK": 10,
                "rewardId": 4202030
            },
            {},
            {}
        ]
    },
    {
        "BAHNBAOENOB": 1401,
        "DLCFPKLGMLL": [
            {
                "MPKFDACCEBK": 10,
                "rewardId": 4202012
            },
            {},
            {}
        ]
    },
    {
        "BAHNBAOENOB": 1402,
        "DLCFPKLGMLL": [
            {
                "MPKFDACCEBK": 10,
                "rewardId": 4202013
            },
            {},
            {}
        ]
    },
    {
        "BAHNBAOENOB": 1403,
        "DLCFPKLGMLL": [
            {
                "MPKFDACCEBK": 10,
                "rewardId": 4202014
            },
            {},
            {}
        ]
    },
    {
        "BAHNBAOENOB": 1404,
        "DLCFPKLGMLL": [
            {
                "MPKFDACCEBK": 10,
                "rewardId": 4202025
            },
            {},
            {}
        ]
    },
    {
        "BAHNBAOENOB": 1405,
        "DLCFPKLGMLL": [
            {
                "MPKFDACCEBK": 10,
                "rewardId": 4202029
            },
            {},
            {}
        ]
    },
    {
        "BAHNBAOENOB": 1501,
        "DLCFPKLGMLL": [
            {
                "MPKFDACCEBK": 10,
                "rewardId": 4202015
            },
            {},
            {}
        ]
    },
    {
        "BAHNBAOENOB": 1502,
        "DLCFPKLGMLL": [
            {
                "MPKFDACCEBK": 10,
                "rewardId": 4202016
            },
            {},
            {}
        ]
    },
    {
        "BAHNBAOENOB": 1601,
        "DLCFPKLGMLL": [
            {
                "MPKFDACCEBK": 10,
                "rewardId": 4202017
            },
            {},
            {}
        ]
    },
    {
        "BAHNBAOENOB": 1602,
        "DLCFPKLGMLL": [
            {
                "MPKFDACCEBK": 10,
                "rewardId": 4202018
            },
            {},
            {}
        ]
    },
    {
        "BAHNBAOENOB": 1701,
        "DLCFPKLGMLL": [
            {
                "MPKFDACCEBK": 10,
                "rewardId": 4202019
            },
            {},
            {}
        ]
    },
    {
        "BAHNBAOENOB": 2201,
        "DLCFPKLGMLL": [
            {
                "MPKFDACCEBK": 10,
                "rewardId": 4202020
            },
            {},
            {}
        ]
    },
    {
        "BAHNBAOENOB": 2202,
        "DLCFPKLGMLL": [
            {
                "MPKFDACCEBK": 10,
                "rewardId": 4202027
            },
            {},
            {}
        ]
    },
    {
        "BAHNBAOENOB": 2301,
        "DLCFPKLGMLL": [
            {
                "MPKFDACCEBK": 10,
                "rewardId": 4202021
            },
            {},
            {}
        ]
    },
    {
        "BAHNBAOENOB": 2501,
        "DLCFPKLGMLL": [
            {
                "MPKFDACCEBK": 10,
                "rewardId": 4202022
            },
            {},
            {}
        ]
    },
    {
        "BAHNBAOENOB": 2601,
        "DLCFPKLGMLL": [
            {
                "MPKFDACCEBK": 10,
                "rewardId": 4202023
            },
            {},
            {}
        ]
    },
    {
        "BAHNBAOENOB": 2701,
        "DLCFPKLGMLL": [
            {
                "MPKFDACCEBK": 10,
                "rewardId": 4202028
            },
            {},
            {}
        ]
    }
]