[
    {
        "id": 1,
        "FIPJDCAAPMN": 5,
        "AIINDDJJDHK": 5,
        "ABJPBHJALIA": 2,
        "JIDJDPLHEDH": [
            101,
            102,
            103,
            104,
            105,
            106,
            107,
            108,
            109,
            110,
            111,
            112,
            113,
            114,
            115,
            116,
            117
        ],
        "KPCPGJMMOLP": 10,
        "AEPPNIMGLOH": 45,
        "GHJMLCGJKGF": 40,
        "IOHAGFNNJPA": 60,
        "FJILGLBGIGN": 25,
        "JECPPPIKEJA": 120,
        "NOOHONBCOPJ": 100,
        "GBCCFKIEOHF": 21,
        "BOLIKCKOAMN": 10,
        "LIJAHDLDMIJ": 15,
        "GKMPFCHGILN": 25,
        "GKNJABFKJKD": 0.5
    },
    {
        "id": 2,
        "FIPJDCAAPMN": 5,
        "AIINDDJJDHK": 5,
        "ABJPBHJALIA": 2,
        "JIDJDPLHEDH": [
            101,
            102,
            103,
            104,
            105,
            106,
            107,
            108,
            109,
            110,
            111,
            112,
            113,
            114,
            115,
            116,
            117
        ],
        "KPCPGJMMOLP": 10
    }
]