[
    {
        "HJHGFEBNPLL": 233311922,
        "ID": 1,
        "nameTextMapHash": 1621292683,
        "subTabList": [
            1,
            2,
            3
        ],
        "shopType": "SHOP_TYPE_GCG_CARD",
        "icon": "UI_BtnIcon_GcgKaMian_Nal",
        "order": 1
    },
    {
        "HJHGFEBNPLL": 2332201106,
        "ID": 2,
        "nameTextMapHash": 3867267395,
        "subTabList": [
            4,
            5,
            6,
            7
        ],
        "shopType": "SHOP_TYPE_GCG_CARD_FACE",
        "icon": "UI_BtnIcon_GcgKaMian_HuangJin",
        "order": 3
    },
    {
        "HJHGFEBNPLL": 272330722,
        "ID": 3,
        "nameTextMapHash": 2846926723,
        "subTabList": [
            11,
            8
        ],
        "shopType": "SHOP_TYPE_GCG_APPEARANCE",
        "icon": "UI_BtnIcon_GcgKaMian_WaiGuan",
        "order": 2
    }
]