[
    {
        "IALGDAFBNHF": 11,
        "OMJJPIGOFJH": 1,
        "FFPPAGKEDNG": 1,
        "IKJPPHIBDDE": 2,
        "BAABJIIICGP": 1,
        "MELFLPPNACG": 3,
        "FBCGHHLFBOB": 1,
        "APJKAFFMOFP": 4,
        "DDOEDECBNNL": 1
    },
    {
        "IALGDAFBNHF": 12,
        "OMJJPIGOFJH": 1,
        "FFPPAGKEDNG": 1,
        "IKJPPHIBDDE": 2,
        "BAABJIIICGP": 2,
        "MELFLPPNACG": 3,
        "FBCGHHLFBOB": 2,
        "APJKAFFMOFP": 4,
        "DDOEDECBNNL": 2
    },
    {
        "IALGDAFBNHF": 140101,
        "OMJJPIGOFJH": 14010101,
        "FFPPAGKEDNG": 1,
        "IKJPPHIBDDE": 14010102,
        "BAABJIIICGP": 1,
        "MELFLPPNACG": 14010103,
        "FBCGHHLFBOB": 1,
        "APJKAFFMOFP": 14010104,
        "DDOEDECBNNL": 1
    },
    {
        "IALGDAFBNHF": 140102,
        "OMJJPIGOFJH": 14010101,
        "FFPPAGKEDNG": 1,
        "IKJPPHIBDDE": 14010102,
        "BAABJIIICGP": 1,
        "MELFLPPNACG": 14010103,
        "FBCGHHLFBOB": 1,
        "APJKAFFMOFP": 14010104,
        "DDOEDECBNNL": 1
    },
    {
        "IALGDAFBNHF": 140103,
        "OMJJPIGOFJH": 14010101,
        "FFPPAGKEDNG": 1,
        "IKJPPHIBDDE": 14010102,
        "BAABJIIICGP": 1,
        "MELFLPPNACG": 14010103,
        "FBCGHHLFBOB": 1,
        "APJKAFFMOFP": 14010104,
        "DDOEDECBNNL": 1
    },
    {
        "IALGDAFBNHF": 140104,
        "OMJJPIGOFJH": 14010111,
        "FFPPAGKEDNG": 1,
        "IKJPPHIBDDE": 14010112,
        "BAABJIIICGP": 1,
        "MELFLPPNACG": 14010113,
        "FBCGHHLFBOB": 1,
        "APJKAFFMOFP": 14010114,
        "DDOEDECBNNL": 1
    },
    {
        "IALGDAFBNHF": 110101,
        "OMJJPIGOFJH": 11010101,
        "FFPPAGKEDNG": 1,
        "IKJPPHIBDDE": 11010102,
        "BAABJIIICGP": 1,
        "MELFLPPNACG": 11010103,
        "FBCGHHLFBOB": 1,
        "APJKAFFMOFP": 11010104,
        "DDOEDECBNNL": 1
    },
    {
        "IALGDAFBNHF": 110102,
        "OMJJPIGOFJH": 11010101,
        "FFPPAGKEDNG": 1,
        "IKJPPHIBDDE": 11010102,
        "BAABJIIICGP": 1,
        "MELFLPPNACG": 11010103,
        "FBCGHHLFBOB": 1,
        "APJKAFFMOFP": 11010104,
        "DDOEDECBNNL": 1
    },
    {
        "IALGDAFBNHF": 110103,
        "OMJJPIGOFJH": 11010101,
        "FFPPAGKEDNG": 1,
        "IKJPPHIBDDE": 11010102,
        "BAABJIIICGP": 1,
        "MELFLPPNACG": 11010103,
        "FBCGHHLFBOB": 1,
        "APJKAFFMOFP": 11010104,
        "DDOEDECBNNL": 1
    },
    {
        "IALGDAFBNHF": 110104,
        "OMJJPIGOFJH": 11010111,
        "FFPPAGKEDNG": 1,
        "IKJPPHIBDDE": 11010112,
        "BAABJIIICGP": 1,
        "MELFLPPNACG": 11010113,
        "FBCGHHLFBOB": 1,
        "APJKAFFMOFP": 11010114,
        "DDOEDECBNNL": 1
    },
    {
        "IALGDAFBNHF": 110201,
        "OMJJPIGOFJH": 11020101,
        "FFPPAGKEDNG": 1,
        "IKJPPHIBDDE": 11020102,
        "BAABJIIICGP": 1,
        "MELFLPPNACG": 11020103,
        "FBCGHHLFBOB": 1,
        "APJKAFFMOFP": 11020104,
        "DDOEDECBNNL": 1
    },
    {
        "IALGDAFBNHF": 110202,
        "OMJJPIGOFJH": 11020101,
        "FFPPAGKEDNG": 1,
        "IKJPPHIBDDE": 11020102,
        "BAABJIIICGP": 1,
        "MELFLPPNACG": 11020103,
        "FBCGHHLFBOB": 1,
        "APJKAFFMOFP": 11020104,
        "DDOEDECBNNL": 1
    },
    {
        "IALGDAFBNHF": 110203,
        "OMJJPIGOFJH": 11020101,
        "FFPPAGKEDNG": 1,
        "IKJPPHIBDDE": 11020102,
        "BAABJIIICGP": 1,
        "MELFLPPNACG": 11020103,
        "FBCGHHLFBOB": 1,
        "APJKAFFMOFP": 11020104,
        "DDOEDECBNNL": 1
    },
    {
        "IALGDAFBNHF": 110204,
        "OMJJPIGOFJH": 11020111,
        "FFPPAGKEDNG": 1,
        "IKJPPHIBDDE": 11020112,
        "BAABJIIICGP": 1,
        "MELFLPPNACG": 11020113,
        "FBCGHHLFBOB": 1,
        "APJKAFFMOFP": 11020114,
        "DDOEDECBNNL": 1
    },
    {
        "IALGDAFBNHF": 110301,
        "OMJJPIGOFJH": 11030101,
        "FFPPAGKEDNG": 1,
        "IKJPPHIBDDE": 11030102,
        "BAABJIIICGP": 1,
        "MELFLPPNACG": 11030103,
        "FBCGHHLFBOB": 1,
        "APJKAFFMOFP": 11030104,
        "DDOEDECBNNL": 1
    },
    {
        "IALGDAFBNHF": 110302,
        "OMJJPIGOFJH": 11030101,
        "FFPPAGKEDNG": 1,
        "IKJPPHIBDDE": 11030102,
        "BAABJIIICGP": 1,
        "MELFLPPNACG": 11030103,
        "FBCGHHLFBOB": 1,
        "APJKAFFMOFP": 11030104,
        "DDOEDECBNNL": 1
    },
    {
        "IALGDAFBNHF": 110303,
        "OMJJPIGOFJH": 11030101,
        "FFPPAGKEDNG": 1,
        "IKJPPHIBDDE": 11030102,
        "BAABJIIICGP": 1,
        "MELFLPPNACG": 11030103,
        "FBCGHHLFBOB": 1,
        "APJKAFFMOFP": 11030104,
        "DDOEDECBNNL": 1
    },
    {
        "IALGDAFBNHF": 110304,
        "OMJJPIGOFJH": 11030111,
        "FFPPAGKEDNG": 1,
        "IKJPPHIBDDE": 11030112,
        "BAABJIIICGP": 1,
        "MELFLPPNACG": 11030113,
        "FBCGHHLFBOB": 1,
        "APJKAFFMOFP": 11030114,
        "DDOEDECBNNL": 1
    },
    {
        "IALGDAFBNHF": 110401,
        "OMJJPIGOFJH": 11040101,
        "FFPPAGKEDNG": 1,
        "IKJPPHIBDDE": 11040102,
        "BAABJIIICGP": 1,
        "MELFLPPNACG": 11040103,
        "FBCGHHLFBOB": 1,
        "APJKAFFMOFP": 11040104,
        "DDOEDECBNNL": 1
    },
    {
        "IALGDAFBNHF": 110402,
        "OMJJPIGOFJH": 11040101,
        "FFPPAGKEDNG": 1,
        "IKJPPHIBDDE": 11040102,
        "BAABJIIICGP": 1,
        "MELFLPPNACG": 11040103,
        "FBCGHHLFBOB": 1,
        "APJKAFFMOFP": 11040104,
        "DDOEDECBNNL": 1
    },
    {
        "IALGDAFBNHF": 110403,
        "OMJJPIGOFJH": 11040101,
        "FFPPAGKEDNG": 1,
        "IKJPPHIBDDE": 11040102,
        "BAABJIIICGP": 1,
        "MELFLPPNACG": 11040103,
        "FBCGHHLFBOB": 1,
        "APJKAFFMOFP": 11040104,
        "DDOEDECBNNL": 1
    },
    {
        "IALGDAFBNHF": 110404,
        "OMJJPIGOFJH": 11040111,
        "FFPPAGKEDNG": 1,
        "IKJPPHIBDDE": 11040112,
        "BAABJIIICGP": 1,
        "MELFLPPNACG": 11040113,
        "FBCGHHLFBOB": 1,
        "APJKAFFMOFP": 11040114,
        "DDOEDECBNNL": 1
    },
    {
        "IALGDAFBNHF": 110501,
        "OMJJPIGOFJH": 11050101,
        "FFPPAGKEDNG": 1,
        "IKJPPHIBDDE": 11050102,
        "BAABJIIICGP": 1,
        "MELFLPPNACG": 11050103,
        "FBCGHHLFBOB": 1,
        "APJKAFFMOFP": 11050104,
        "DDOEDECBNNL": 1
    },
    {
        "IALGDAFBNHF": 110502,
        "OMJJPIGOFJH": 11050101,
        "FFPPAGKEDNG": 1,
        "IKJPPHIBDDE": 11050102,
        "BAABJIIICGP": 1,
        "MELFLPPNACG": 11050103,
        "FBCGHHLFBOB": 1,
        "APJKAFFMOFP": 11050104,
        "DDOEDECBNNL": 1
    },
    {
        "IALGDAFBNHF": 110503,
        "OMJJPIGOFJH": 11050101,
        "FFPPAGKEDNG": 1,
        "IKJPPHIBDDE": 11050102,
        "BAABJIIICGP": 1,
        "MELFLPPNACG": 11050103,
        "FBCGHHLFBOB": 1,
        "APJKAFFMOFP": 11050104,
        "DDOEDECBNNL": 1
    },
    {
        "IALGDAFBNHF": 110504,
        "OMJJPIGOFJH": 11050111,
        "FFPPAGKEDNG": 1,
        "IKJPPHIBDDE": 11050112,
        "BAABJIIICGP": 1,
        "MELFLPPNACG": 11050113,
        "FBCGHHLFBOB": 1,
        "APJKAFFMOFP": 11050114,
        "DDOEDECBNNL": 1
    },
    {
        "IALGDAFBNHF": 120101,
        "OMJJPIGOFJH": 12010101,
        "FFPPAGKEDNG": 1,
        "IKJPPHIBDDE": 12010102,
        "BAABJIIICGP": 1,
        "MELFLPPNACG": 12010103,
        "FBCGHHLFBOB": 1,
        "APJKAFFMOFP": 12010104,
        "DDOEDECBNNL": 1
    },
    {
        "IALGDAFBNHF": 120102,
        "OMJJPIGOFJH": 12010101,
        "FFPPAGKEDNG": 1,
        "IKJPPHIBDDE": 12010102,
        "BAABJIIICGP": 1,
        "MELFLPPNACG": 12010103,
        "FBCGHHLFBOB": 1,
        "APJKAFFMOFP": 12010104,
        "DDOEDECBNNL": 1
    },
    {
        "IALGDAFBNHF": 120103,
        "OMJJPIGOFJH": 12010101,
        "FFPPAGKEDNG": 1,
        "IKJPPHIBDDE": 12010102,
        "BAABJIIICGP": 1,
        "MELFLPPNACG": 12010103,
        "FBCGHHLFBOB": 1,
        "APJKAFFMOFP": 12010104,
        "DDOEDECBNNL": 1
    },
    {
        "IALGDAFBNHF": 120104,
        "OMJJPIGOFJH": 12010111,
        "FFPPAGKEDNG": 1,
        "IKJPPHIBDDE": 12010112,
        "BAABJIIICGP": 1,
        "MELFLPPNACG": 12010113,
        "FBCGHHLFBOB": 1,
        "APJKAFFMOFP": 12010114,
        "DDOEDECBNNL": 1
    },
    {
        "IALGDAFBNHF": 120201,
        "OMJJPIGOFJH": 12020101,
        "FFPPAGKEDNG": 1,
        "IKJPPHIBDDE": 12020102,
        "BAABJIIICGP": 1,
        "MELFLPPNACG": 12020103,
        "FBCGHHLFBOB": 1,
        "APJKAFFMOFP": 12020104,
        "DDOEDECBNNL": 1
    },
    {
        "IALGDAFBNHF": 120202,
        "OMJJPIGOFJH": 12020101,
        "FFPPAGKEDNG": 1,
        "IKJPPHIBDDE": 12020102,
        "BAABJIIICGP": 1,
        "MELFLPPNACG": 12020103,
        "FBCGHHLFBOB": 1,
        "APJKAFFMOFP": 12020104,
        "DDOEDECBNNL": 1
    },
    {
        "IALGDAFBNHF": 120203,
        "OMJJPIGOFJH": 12020101,
        "FFPPAGKEDNG": 1,
        "IKJPPHIBDDE": 12020102,
        "BAABJIIICGP": 1,
        "MELFLPPNACG": 12020103,
        "FBCGHHLFBOB": 1,
        "APJKAFFMOFP": 12020104,
        "DDOEDECBNNL": 1
    },
    {
        "IALGDAFBNHF": 120204,
        "OMJJPIGOFJH": 12020111,
        "FFPPAGKEDNG": 1,
        "IKJPPHIBDDE": 12020112,
        "BAABJIIICGP": 1,
        "MELFLPPNACG": 12020113,
        "FBCGHHLFBOB": 1,
        "APJKAFFMOFP": 12020114,
        "DDOEDECBNNL": 1
    },
    {
        "IALGDAFBNHF": 120301,
        "OMJJPIGOFJH": 12030101,
        "FFPPAGKEDNG": 1,
        "IKJPPHIBDDE": 12030102,
        "BAABJIIICGP": 1,
        "MELFLPPNACG": 12030103,
        "FBCGHHLFBOB": 1,
        "APJKAFFMOFP": 12030104,
        "DDOEDECBNNL": 1
    },
    {
        "IALGDAFBNHF": 120302,
        "OMJJPIGOFJH": 12030101,
        "FFPPAGKEDNG": 1,
        "IKJPPHIBDDE": 12030102,
        "BAABJIIICGP": 1,
        "MELFLPPNACG": 12030103,
        "FBCGHHLFBOB": 1,
        "APJKAFFMOFP": 12030104,
        "DDOEDECBNNL": 1
    },
    {
        "IALGDAFBNHF": 120303,
        "OMJJPIGOFJH": 12030101,
        "FFPPAGKEDNG": 1,
        "IKJPPHIBDDE": 12030102,
        "BAABJIIICGP": 1,
        "MELFLPPNACG": 12030103,
        "FBCGHHLFBOB": 1,
        "APJKAFFMOFP": 12030104,
        "DDOEDECBNNL": 1
    },
    {
        "IALGDAFBNHF": 120304,
        "OMJJPIGOFJH": 12030111,
        "FFPPAGKEDNG": 1,
        "IKJPPHIBDDE": 12030112,
        "BAABJIIICGP": 1,
        "MELFLPPNACG": 12030113,
        "FBCGHHLFBOB": 1,
        "APJKAFFMOFP": 12030114,
        "DDOEDECBNNL": 1
    },
    {
        "IALGDAFBNHF": 130101,
        "OMJJPIGOFJH": 13010101,
        "FFPPAGKEDNG": 1,
        "IKJPPHIBDDE": 13010102,
        "BAABJIIICGP": 1,
        "MELFLPPNACG": 13010103,
        "FBCGHHLFBOB": 1,
        "APJKAFFMOFP": 13010104,
        "DDOEDECBNNL": 1
    },
    {
        "IALGDAFBNHF": 130102,
        "OMJJPIGOFJH": 13010101,
        "FFPPAGKEDNG": 1,
        "IKJPPHIBDDE": 13010102,
        "BAABJIIICGP": 1,
        "MELFLPPNACG": 13010103,
        "FBCGHHLFBOB": 1,
        "APJKAFFMOFP": 13010104,
        "DDOEDECBNNL": 1
    },
    {
        "IALGDAFBNHF": 130103,
        "OMJJPIGOFJH": 13010101,
        "FFPPAGKEDNG": 1,
        "IKJPPHIBDDE": 13010102,
        "BAABJIIICGP": 1,
        "MELFLPPNACG": 13010103,
        "FBCGHHLFBOB": 1,
        "APJKAFFMOFP": 13010104,
        "DDOEDECBNNL": 1
    },
    {
        "IALGDAFBNHF": 130104,
        "OMJJPIGOFJH": 13010111,
        "FFPPAGKEDNG": 1,
        "IKJPPHIBDDE": 13010112,
        "BAABJIIICGP": 1,
        "MELFLPPNACG": 13010113,
        "FBCGHHLFBOB": 1,
        "APJKAFFMOFP": 13010114,
        "DDOEDECBNNL": 1
    },
    {
        "IALGDAFBNHF": 130201,
        "OMJJPIGOFJH": 13020101,
        "FFPPAGKEDNG": 1,
        "IKJPPHIBDDE": 13020102,
        "BAABJIIICGP": 1,
        "MELFLPPNACG": 13020103,
        "FBCGHHLFBOB": 1,
        "APJKAFFMOFP": 13020104,
        "DDOEDECBNNL": 1
    },
    {
        "IALGDAFBNHF": 130202,
        "OMJJPIGOFJH": 13020101,
        "FFPPAGKEDNG": 1,
        "IKJPPHIBDDE": 13020102,
        "BAABJIIICGP": 1,
        "MELFLPPNACG": 13020103,
        "FBCGHHLFBOB": 1,
        "APJKAFFMOFP": 13020104,
        "DDOEDECBNNL": 1
    },
    {
        "IALGDAFBNHF": 130203,
        "OMJJPIGOFJH": 13020101,
        "FFPPAGKEDNG": 1,
        "IKJPPHIBDDE": 13020102,
        "BAABJIIICGP": 1,
        "MELFLPPNACG": 13020103,
        "FBCGHHLFBOB": 1,
        "APJKAFFMOFP": 13020104,
        "DDOEDECBNNL": 1
    },
    {
        "IALGDAFBNHF": 130204,
        "OMJJPIGOFJH": 13020111,
        "FFPPAGKEDNG": 1,
        "IKJPPHIBDDE": 13020112,
        "BAABJIIICGP": 1,
        "MELFLPPNACG": 13020113,
        "FBCGHHLFBOB": 1,
        "APJKAFFMOFP": 13020114,
        "DDOEDECBNNL": 1
    },
    {
        "IALGDAFBNHF": 130301,
        "OMJJPIGOFJH": 13030101,
        "FFPPAGKEDNG": 1,
        "IKJPPHIBDDE": 13030102,
        "BAABJIIICGP": 1,
        "MELFLPPNACG": 13030103,
        "FBCGHHLFBOB": 1,
        "APJKAFFMOFP": 13030104,
        "DDOEDECBNNL": 1
    },
    {
        "IALGDAFBNHF": 130302,
        "OMJJPIGOFJH": 13030101,
        "FFPPAGKEDNG": 1,
        "IKJPPHIBDDE": 13030102,
        "BAABJIIICGP": 1,
        "MELFLPPNACG": 13030103,
        "FBCGHHLFBOB": 1,
        "APJKAFFMOFP": 13030104,
        "DDOEDECBNNL": 1
    },
    {
        "IALGDAFBNHF": 130303,
        "OMJJPIGOFJH": 13030101,
        "FFPPAGKEDNG": 1,
        "IKJPPHIBDDE": 13030102,
        "BAABJIIICGP": 1,
        "MELFLPPNACG": 13030103,
        "FBCGHHLFBOB": 1,
        "APJKAFFMOFP": 13030104,
        "DDOEDECBNNL": 1
    },
    {
        "IALGDAFBNHF": 130304,
        "OMJJPIGOFJH": 13030111,
        "FFPPAGKEDNG": 1,
        "IKJPPHIBDDE": 13030112,
        "BAABJIIICGP": 1,
        "MELFLPPNACG": 13030113,
        "FBCGHHLFBOB": 1,
        "APJKAFFMOFP": 13030114,
        "DDOEDECBNNL": 1
    },
    {
        "IALGDAFBNHF": 130501,
        "OMJJPIGOFJH": 13050101,
        "FFPPAGKEDNG": 1,
        "IKJPPHIBDDE": 13050102,
        "BAABJIIICGP": 1,
        "MELFLPPNACG": 13050103,
        "FBCGHHLFBOB": 1,
        "APJKAFFMOFP": 13050104,
        "DDOEDECBNNL": 1
    },
    {
        "IALGDAFBNHF": 130502,
        "OMJJPIGOFJH": 13050101,
        "FFPPAGKEDNG": 1,
        "IKJPPHIBDDE": 13050102,
        "BAABJIIICGP": 1,
        "MELFLPPNACG": 13050103,
        "FBCGHHLFBOB": 1,
        "APJKAFFMOFP": 13050104,
        "DDOEDECBNNL": 1
    },
    {
        "IALGDAFBNHF": 130503,
        "OMJJPIGOFJH": 13050101,
        "FFPPAGKEDNG": 1,
        "IKJPPHIBDDE": 13050102,
        "BAABJIIICGP": 1,
        "MELFLPPNACG": 13050103,
        "FBCGHHLFBOB": 1,
        "APJKAFFMOFP": 13050104,
        "DDOEDECBNNL": 1
    },
    {
        "IALGDAFBNHF": 130504,
        "OMJJPIGOFJH": 13050111,
        "FFPPAGKEDNG": 1,
        "IKJPPHIBDDE": 13050112,
        "BAABJIIICGP": 1,
        "MELFLPPNACG": 13050113,
        "FBCGHHLFBOB": 1,
        "APJKAFFMOFP": 13050114,
        "DDOEDECBNNL": 1
    },
    {
        "IALGDAFBNHF": 140201,
        "OMJJPIGOFJH": 14020101,
        "FFPPAGKEDNG": 1,
        "IKJPPHIBDDE": 14020102,
        "BAABJIIICGP": 1,
        "MELFLPPNACG": 14020103,
        "FBCGHHLFBOB": 1,
        "APJKAFFMOFP": 14020104,
        "DDOEDECBNNL": 1
    },
    {
        "IALGDAFBNHF": 140202,
        "OMJJPIGOFJH": 14020101,
        "FFPPAGKEDNG": 1,
        "IKJPPHIBDDE": 14020102,
        "BAABJIIICGP": 1,
        "MELFLPPNACG": 14020103,
        "FBCGHHLFBOB": 1,
        "APJKAFFMOFP": 14020104,
        "DDOEDECBNNL": 1
    },
    {
        "IALGDAFBNHF": 140203,
        "OMJJPIGOFJH": 14020101,
        "FFPPAGKEDNG": 1,
        "IKJPPHIBDDE": 14020102,
        "BAABJIIICGP": 1,
        "MELFLPPNACG": 14020103,
        "FBCGHHLFBOB": 1,
        "APJKAFFMOFP": 14020104,
        "DDOEDECBNNL": 1
    },
    {
        "IALGDAFBNHF": 140204,
        "OMJJPIGOFJH": 14020111,
        "FFPPAGKEDNG": 1,
        "IKJPPHIBDDE": 14020112,
        "BAABJIIICGP": 1,
        "MELFLPPNACG": 14020113,
        "FBCGHHLFBOB": 1,
        "APJKAFFMOFP": 14020114,
        "DDOEDECBNNL": 1
    },
    {
        "IALGDAFBNHF": 140301,
        "OMJJPIGOFJH": 14030101,
        "FFPPAGKEDNG": 1,
        "IKJPPHIBDDE": 14030102,
        "BAABJIIICGP": 1,
        "MELFLPPNACG": 14030103,
        "FBCGHHLFBOB": 1,
        "APJKAFFMOFP": 14030104,
        "DDOEDECBNNL": 1
    },
    {
        "IALGDAFBNHF": 140302,
        "OMJJPIGOFJH": 14030101,
        "FFPPAGKEDNG": 1,
        "IKJPPHIBDDE": 14030102,
        "BAABJIIICGP": 1,
        "MELFLPPNACG": 14030103,
        "FBCGHHLFBOB": 1,
        "APJKAFFMOFP": 14030104,
        "DDOEDECBNNL": 1
    },
    {
        "IALGDAFBNHF": 140303,
        "OMJJPIGOFJH": 14030101,
        "FFPPAGKEDNG": 1,
        "IKJPPHIBDDE": 14030102,
        "BAABJIIICGP": 1,
        "MELFLPPNACG": 14030103,
        "FBCGHHLFBOB": 1,
        "APJKAFFMOFP": 14030104,
        "DDOEDECBNNL": 1
    },
    {
        "IALGDAFBNHF": 140304,
        "OMJJPIGOFJH": 14030111,
        "FFPPAGKEDNG": 1,
        "IKJPPHIBDDE": 14030112,
        "BAABJIIICGP": 1,
        "MELFLPPNACG": 14030113,
        "FBCGHHLFBOB": 1,
        "APJKAFFMOFP": 14030114,
        "DDOEDECBNNL": 1
    },
    {
        "IALGDAFBNHF": 140401,
        "OMJJPIGOFJH": 14040101,
        "FFPPAGKEDNG": 1,
        "IKJPPHIBDDE": 14040102,
        "BAABJIIICGP": 1,
        "MELFLPPNACG": 14040103,
        "FBCGHHLFBOB": 1,
        "APJKAFFMOFP": 14040104,
        "DDOEDECBNNL": 1
    },
    {
        "IALGDAFBNHF": 140402,
        "OMJJPIGOFJH": 14040101,
        "FFPPAGKEDNG": 1,
        "IKJPPHIBDDE": 14040102,
        "BAABJIIICGP": 1,
        "MELFLPPNACG": 14040103,
        "FBCGHHLFBOB": 1,
        "APJKAFFMOFP": 14040104,
        "DDOEDECBNNL": 1
    },
    {
        "IALGDAFBNHF": 140403,
        "OMJJPIGOFJH": 14040101,
        "FFPPAGKEDNG": 1,
        "IKJPPHIBDDE": 14040102,
        "BAABJIIICGP": 1,
        "MELFLPPNACG": 14040103,
        "FBCGHHLFBOB": 1,
        "APJKAFFMOFP": 14040104,
        "DDOEDECBNNL": 1
    },
    {
        "IALGDAFBNHF": 140404,
        "OMJJPIGOFJH": 14040111,
        "FFPPAGKEDNG": 1,
        "IKJPPHIBDDE": 14040112,
        "BAABJIIICGP": 1,
        "MELFLPPNACG": 14040113,
        "FBCGHHLFBOB": 1,
        "APJKAFFMOFP": 14040114,
        "DDOEDECBNNL": 1
    },
    {
        "IALGDAFBNHF": 150101,
        "OMJJPIGOFJH": 15010101,
        "FFPPAGKEDNG": 1,
        "IKJPPHIBDDE": 15010102,
        "BAABJIIICGP": 1,
        "MELFLPPNACG": 15010103,
        "FBCGHHLFBOB": 1,
        "APJKAFFMOFP": 15010104,
        "DDOEDECBNNL": 1
    },
    {
        "IALGDAFBNHF": 150102,
        "OMJJPIGOFJH": 15010101,
        "FFPPAGKEDNG": 1,
        "IKJPPHIBDDE": 15010102,
        "BAABJIIICGP": 1,
        "MELFLPPNACG": 15010103,
        "FBCGHHLFBOB": 1,
        "APJKAFFMOFP": 15010104,
        "DDOEDECBNNL": 1
    },
    {
        "IALGDAFBNHF": 150103,
        "OMJJPIGOFJH": 15010101,
        "FFPPAGKEDNG": 1,
        "IKJPPHIBDDE": 15010102,
        "BAABJIIICGP": 1,
        "MELFLPPNACG": 15010103,
        "FBCGHHLFBOB": 1,
        "APJKAFFMOFP": 15010104,
        "DDOEDECBNNL": 1
    },
    {
        "IALGDAFBNHF": 150104,
        "OMJJPIGOFJH": 15010111,
        "FFPPAGKEDNG": 1,
        "IKJPPHIBDDE": 15010112,
        "BAABJIIICGP": 1,
        "MELFLPPNACG": 15010113,
        "FBCGHHLFBOB": 1,
        "APJKAFFMOFP": 15010114,
        "DDOEDECBNNL": 1
    },
    {
        "IALGDAFBNHF": 150201,
        "OMJJPIGOFJH": 15020101,
        "FFPPAGKEDNG": 1,
        "IKJPPHIBDDE": 15020102,
        "BAABJIIICGP": 1,
        "MELFLPPNACG": 15020103,
        "FBCGHHLFBOB": 1,
        "APJKAFFMOFP": 15020104,
        "DDOEDECBNNL": 1
    },
    {
        "IALGDAFBNHF": 150202,
        "OMJJPIGOFJH": 15020101,
        "FFPPAGKEDNG": 1,
        "IKJPPHIBDDE": 15020102,
        "BAABJIIICGP": 1,
        "MELFLPPNACG": 15020103,
        "FBCGHHLFBOB": 1,
        "APJKAFFMOFP": 15020104,
        "DDOEDECBNNL": 1
    },
    {
        "IALGDAFBNHF": 150203,
        "OMJJPIGOFJH": 15020101,
        "FFPPAGKEDNG": 1,
        "IKJPPHIBDDE": 15020102,
        "BAABJIIICGP": 1,
        "MELFLPPNACG": 15020103,
        "FBCGHHLFBOB": 1,
        "APJKAFFMOFP": 15020104,
        "DDOEDECBNNL": 1
    },
    {
        "IALGDAFBNHF": 150204,
        "OMJJPIGOFJH": 15020111,
        "FFPPAGKEDNG": 1,
        "IKJPPHIBDDE": 15020112,
        "BAABJIIICGP": 1,
        "MELFLPPNACG": 15020113,
        "FBCGHHLFBOB": 1,
        "APJKAFFMOFP": 15020114,
        "DDOEDECBNNL": 1
    },
    {
        "IALGDAFBNHF": 160101,
        "OMJJPIGOFJH": 16010101,
        "FFPPAGKEDNG": 1,
        "IKJPPHIBDDE": 16010102,
        "BAABJIIICGP": 1,
        "MELFLPPNACG": 16010103,
        "FBCGHHLFBOB": 1,
        "APJKAFFMOFP": 16010104,
        "DDOEDECBNNL": 1
    },
    {
        "IALGDAFBNHF": 160102,
        "OMJJPIGOFJH": 16010101,
        "FFPPAGKEDNG": 1,
        "IKJPPHIBDDE": 16010102,
        "BAABJIIICGP": 1,
        "MELFLPPNACG": 16010103,
        "FBCGHHLFBOB": 1,
        "APJKAFFMOFP": 16010104,
        "DDOEDECBNNL": 1
    },
    {
        "IALGDAFBNHF": 160103,
        "OMJJPIGOFJH": 16010101,
        "FFPPAGKEDNG": 1,
        "IKJPPHIBDDE": 16010102,
        "BAABJIIICGP": 1,
        "MELFLPPNACG": 16010103,
        "FBCGHHLFBOB": 1,
        "APJKAFFMOFP": 16010104,
        "DDOEDECBNNL": 1
    },
    {
        "IALGDAFBNHF": 160104,
        "OMJJPIGOFJH": 16010111,
        "FFPPAGKEDNG": 1,
        "IKJPPHIBDDE": 16010112,
        "BAABJIIICGP": 1,
        "MELFLPPNACG": 16010113,
        "FBCGHHLFBOB": 1,
        "APJKAFFMOFP": 16010114,
        "DDOEDECBNNL": 1
    },
    {
        "IALGDAFBNHF": 160201,
        "OMJJPIGOFJH": 16020101,
        "FFPPAGKEDNG": 1,
        "IKJPPHIBDDE": 16020102,
        "BAABJIIICGP": 1,
        "MELFLPPNACG": 16020103,
        "FBCGHHLFBOB": 1,
        "APJKAFFMOFP": 16020104,
        "DDOEDECBNNL": 1
    },
    {
        "IALGDAFBNHF": 160202,
        "OMJJPIGOFJH": 16020101,
        "FFPPAGKEDNG": 1,
        "IKJPPHIBDDE": 16020102,
        "BAABJIIICGP": 1,
        "MELFLPPNACG": 16020103,
        "FBCGHHLFBOB": 1,
        "APJKAFFMOFP": 16020104,
        "DDOEDECBNNL": 1
    },
    {
        "IALGDAFBNHF": 160203,
        "OMJJPIGOFJH": 16020101,
        "FFPPAGKEDNG": 1,
        "IKJPPHIBDDE": 16020102,
        "BAABJIIICGP": 1,
        "MELFLPPNACG": 16020103,
        "FBCGHHLFBOB": 1,
        "APJKAFFMOFP": 16020104,
        "DDOEDECBNNL": 1
    },
    {
        "IALGDAFBNHF": 160204,
        "OMJJPIGOFJH": 16020111,
        "FFPPAGKEDNG": 1,
        "IKJPPHIBDDE": 16020112,
        "BAABJIIICGP": 1,
        "MELFLPPNACG": 16020113,
        "FBCGHHLFBOB": 1,
        "APJKAFFMOFP": 16020114,
        "DDOEDECBNNL": 1
    },
    {
        "IALGDAFBNHF": 170101,
        "OMJJPIGOFJH": 17010101,
        "FFPPAGKEDNG": 1,
        "IKJPPHIBDDE": 17010102,
        "BAABJIIICGP": 1,
        "MELFLPPNACG": 17010103,
        "FBCGHHLFBOB": 1,
        "APJKAFFMOFP": 17010104,
        "DDOEDECBNNL": 1
    },
    {
        "IALGDAFBNHF": 170102,
        "OMJJPIGOFJH": 17010101,
        "FFPPAGKEDNG": 1,
        "IKJPPHIBDDE": 17010102,
        "BAABJIIICGP": 1,
        "MELFLPPNACG": 17010103,
        "FBCGHHLFBOB": 1,
        "APJKAFFMOFP": 17010104,
        "DDOEDECBNNL": 1
    },
    {
        "IALGDAFBNHF": 170103,
        "OMJJPIGOFJH": 17010101,
        "FFPPAGKEDNG": 1,
        "IKJPPHIBDDE": 17010102,
        "BAABJIIICGP": 1,
        "MELFLPPNACG": 17010103,
        "FBCGHHLFBOB": 1,
        "APJKAFFMOFP": 17010104,
        "DDOEDECBNNL": 1
    },
    {
        "IALGDAFBNHF": 170104,
        "OMJJPIGOFJH": 17010111,
        "FFPPAGKEDNG": 1,
        "IKJPPHIBDDE": 17010112,
        "BAABJIIICGP": 1,
        "MELFLPPNACG": 17010113,
        "FBCGHHLFBOB": 1,
        "APJKAFFMOFP": 17010114,
        "DDOEDECBNNL": 1
    },
    {
        "IALGDAFBNHF": 20001,
        "OMJJPIGOFJH": 2000101,
        "FFPPAGKEDNG": 1,
        "IKJPPHIBDDE": 2000102,
        "BAABJIIICGP": 1,
        "MELFLPPNACG": 2000103,
        "FBCGHHLFBOB": 1,
        "APJKAFFMOFP": 2000104,
        "DDOEDECBNNL": 1
    },
    {
        "IALGDAFBNHF": 20002,
        "OMJJPIGOFJH": 2000201,
        "FFPPAGKEDNG": 1,
        "IKJPPHIBDDE": 2000202,
        "BAABJIIICGP": 1,
        "MELFLPPNACG": 2000203,
        "FBCGHHLFBOB": 1,
        "APJKAFFMOFP": 2000204,
        "DDOEDECBNNL": 1
    },
    {
        "IALGDAFBNHF": 20003,
        "OMJJPIGOFJH": 2000301,
        "FFPPAGKEDNG": 1,
        "IKJPPHIBDDE": 2000302,
        "BAABJIIICGP": 1,
        "MELFLPPNACG": 2000303,
        "FBCGHHLFBOB": 1,
        "APJKAFFMOFP": 2000304,
        "DDOEDECBNNL": 1
    },
    {
        "IALGDAFBNHF": 20004,
        "OMJJPIGOFJH": 2000401,
        "FFPPAGKEDNG": 1,
        "IKJPPHIBDDE": 2000402,
        "BAABJIIICGP": 1,
        "MELFLPPNACG": 2000403,
        "FBCGHHLFBOB": 1,
        "APJKAFFMOFP": 2000404,
        "DDOEDECBNNL": 1
    },
    {
        "IALGDAFBNHF": 220101,
        "OMJJPIGOFJH": 22010101,
        "FFPPAGKEDNG": 1,
        "APJKAFFMOFP": 22010104,
        "DDOEDECBNNL": 1,
        "MKMFFGDENCG": 22010103,
        "GGBDJLJDEMA": 1,
        "KFEAIHMFJIB": 8,
        "BJINAMOEDKB": 4201,
        "OMDHNHFIJJB": 22010102,
        "FDLFAOPEHEP": 1,
        "DGOIGMOKHHN": 16,
        "KFNLOBJLIKH": 4201
    },
    {
        "IALGDAFBNHF": 220102,
        "OMJJPIGOFJH": 22010111,
        "FFPPAGKEDNG": 1,
        "APJKAFFMOFP": 22010114,
        "DDOEDECBNNL": 1,
        "MKMFFGDENCG": 22010113,
        "GGBDJLJDEMA": 1,
        "KFEAIHMFJIB": 8,
        "BJINAMOEDKB": 4202,
        "OMDHNHFIJJB": 22010112,
        "FDLFAOPEHEP": 1,
        "DGOIGMOKHHN": 24,
        "KFNLOBJLIKH": 4202
    },
    {
        "IALGDAFBNHF": 220201,
        "OMJJPIGOFJH": 22020101,
        "FFPPAGKEDNG": 1,
        "IKJPPHIBDDE": 22020102,
        "BAABJIIICGP": 1,
        "APJKAFFMOFP": 22020104,
        "DDOEDECBNNL": 1,
        "OMDHNHFIJJB": 22020103,
        "FDLFAOPEHEP": 1,
        "DGOIGMOKHHN": 4
    },
    {
        "IALGDAFBNHF": 220202,
        "OMJJPIGOFJH": 22020111,
        "FFPPAGKEDNG": 1,
        "IKJPPHIBDDE": 22020112,
        "BAABJIIICGP": 1,
        "MELFLPPNACG": 22020113,
        "FBCGHHLFBOB": 1,
        "APJKAFFMOFP": 22020114,
        "DDOEDECBNNL": 1
    },
    {
        "IALGDAFBNHF": 230101,
        "OMJJPIGOFJH": 23010101,
        "FFPPAGKEDNG": 1,
        "IKJPPHIBDDE": 23010102,
        "BAABJIIICGP": 1,
        "APJKAFFMOFP": 23010104,
        "DDOEDECBNNL": 1,
        "OMDHNHFIJJB": 23010103,
        "FDLFAOPEHEP": 1,
        "DGOIGMOKHHN": 4
    },
    {
        "IALGDAFBNHF": 230102,
        "OMJJPIGOFJH": 23010111,
        "FFPPAGKEDNG": 1,
        "IKJPPHIBDDE": 23010112,
        "BAABJIIICGP": 1,
        "MELFLPPNACG": 23010113,
        "FBCGHHLFBOB": 1,
        "APJKAFFMOFP": 23010114,
        "DDOEDECBNNL": 1
    },
    {
        "IALGDAFBNHF": 250101,
        "OMJJPIGOFJH": 25010101,
        "FFPPAGKEDNG": 1,
        "APJKAFFMOFP": 25010104,
        "DDOEDECBNNL": 1,
        "MKMFFGDENCG": 25010103,
        "GGBDJLJDEMA": 1,
        "KFEAIHMFJIB": 8,
        "OMDHNHFIJJB": 25010102,
        "FDLFAOPEHEP": 1,
        "DGOIGMOKHHN": 16
    },
    {
        "IALGDAFBNHF": 250102,
        "OMJJPIGOFJH": 25010111,
        "FFPPAGKEDNG": 1,
        "APJKAFFMOFP": 25010114,
        "DDOEDECBNNL": 1,
        "MKMFFGDENCG": 25010113,
        "GGBDJLJDEMA": 1,
        "KFEAIHMFJIB": 8,
        "OMDHNHFIJJB": 25010112,
        "FDLFAOPEHEP": 1,
        "DGOIGMOKHHN": 24
    },
    {
        "IALGDAFBNHF": 260101,
        "OMJJPIGOFJH": 26010101,
        "FFPPAGKEDNG": 1,
        "APJKAFFMOFP": 26010104,
        "DDOEDECBNNL": 1,
        "MKMFFGDENCG": 26010103,
        "GGBDJLJDEMA": 1,
        "KFEAIHMFJIB": 5,
        "BJINAMOEDKB": 4602,
        "OMDHNHFIJJB": 26010102,
        "FDLFAOPEHEP": 1,
        "DGOIGMOKHHN": 9,
        "KFNLOBJLIKH": 4602
    },
    {
        "IALGDAFBNHF": 260102,
        "OMJJPIGOFJH": 26010111,
        "FFPPAGKEDNG": 1,
        "APJKAFFMOFP": 26010114,
        "DDOEDECBNNL": 1,
        "MKMFFGDENCG": 26010113,
        "GGBDJLJDEMA": 1,
        "KFEAIHMFJIB": 8,
        "BJINAMOEDKB": 4603,
        "OMDHNHFIJJB": 26010112,
        "FDLFAOPEHEP": 1,
        "DGOIGMOKHHN": 14,
        "KFNLOBJLIKH": 4603
    },
    {
        "IALGDAFBNHF": 270101,
        "OMJJPIGOFJH": 27010101,
        "FFPPAGKEDNG": 1,
        "APJKAFFMOFP": 27010104,
        "DDOEDECBNNL": 1,
        "MKMFFGDENCG": 27010103,
        "GGBDJLJDEMA": 1,
        "KFEAIHMFJIB": 8,
        "BJINAMOEDKB": 4701,
        "OMDHNHFIJJB": 27010102,
        "FDLFAOPEHEP": 1,
        "DGOIGMOKHHN": 16,
        "KFNLOBJLIKH": 4701
    },
    {
        "IALGDAFBNHF": 270102,
        "OMJJPIGOFJH": 27010111,
        "FFPPAGKEDNG": 1,
        "APJKAFFMOFP": 27010114,
        "DDOEDECBNNL": 1,
        "MKMFFGDENCG": 27010113,
        "GGBDJLJDEMA": 1,
        "KFEAIHMFJIB": 8,
        "BJINAMOEDKB": 4702,
        "OMDHNHFIJJB": 27010112,
        "FDLFAOPEHEP": 1,
        "DGOIGMOKHHN": 24,
        "KFNLOBJLIKH": 4702
    },
    {
        "IALGDAFBNHF": 30111,
        "OMJJPIGOFJH": 3011101,
        "FFPPAGKEDNG": 1,
        "IKJPPHIBDDE": 3011102,
        "BAABJIIICGP": 1,
        "MELFLPPNACG": 3011103,
        "FBCGHHLFBOB": 1,
        "APJKAFFMOFP": 3011104,
        "DDOEDECBNNL": 1
    },
    {
        "IALGDAFBNHF": 30112,
        "OMJJPIGOFJH": 3011201,
        "FFPPAGKEDNG": 1,
        "IKJPPHIBDDE": 3011202,
        "BAABJIIICGP": 1,
        "MELFLPPNACG": 3011203,
        "FBCGHHLFBOB": 1,
        "APJKAFFMOFP": 3011204,
        "DDOEDECBNNL": 1
    },
    {
        "IALGDAFBNHF": 130601,
        "OMJJPIGOFJH": 13060101,
        "FFPPAGKEDNG": 1,
        "IKJPPHIBDDE": 13060102,
        "BAABJIIICGP": 1,
        "MELFLPPNACG": 13060103,
        "FBCGHHLFBOB": 1,
        "APJKAFFMOFP": 13060104,
        "DDOEDECBNNL": 1
    },
    {
        "IALGDAFBNHF": 130602,
        "OMJJPIGOFJH": 13060101,
        "FFPPAGKEDNG": 1,
        "IKJPPHIBDDE": 13060102,
        "BAABJIIICGP": 1,
        "MELFLPPNACG": 13060103,
        "FBCGHHLFBOB": 1,
        "APJKAFFMOFP": 13060104,
        "DDOEDECBNNL": 1
    },
    {
        "IALGDAFBNHF": 130603,
        "OMJJPIGOFJH": 13060101,
        "FFPPAGKEDNG": 1,
        "IKJPPHIBDDE": 13060102,
        "BAABJIIICGP": 1,
        "MELFLPPNACG": 13060103,
        "FBCGHHLFBOB": 1,
        "APJKAFFMOFP": 13060104,
        "DDOEDECBNNL": 1
    },
    {
        "IALGDAFBNHF": 130604,
        "OMJJPIGOFJH": 13060111,
        "FFPPAGKEDNG": 1,
        "IKJPPHIBDDE": 13060112,
        "BAABJIIICGP": 1,
        "MELFLPPNACG": 13060113,
        "FBCGHHLFBOB": 1,
        "APJKAFFMOFP": 13060114,
        "DDOEDECBNNL": 1
    },
    {
        "IALGDAFBNHF": 140501,
        "OMJJPIGOFJH": 14050101,
        "FFPPAGKEDNG": 1,
        "IKJPPHIBDDE": 14050102,
        "BAABJIIICGP": 1,
        "MELFLPPNACG": 14050103,
        "FBCGHHLFBOB": 1,
        "APJKAFFMOFP": 14050104,
        "DDOEDECBNNL": 1
    },
    {
        "IALGDAFBNHF": 140502,
        "OMJJPIGOFJH": 14050101,
        "FFPPAGKEDNG": 1,
        "IKJPPHIBDDE": 14050102,
        "BAABJIIICGP": 1,
        "MELFLPPNACG": 14050103,
        "FBCGHHLFBOB": 1,
        "APJKAFFMOFP": 14050104,
        "DDOEDECBNNL": 1
    },
    {
        "IALGDAFBNHF": 140503,
        "OMJJPIGOFJH": 14050101,
        "FFPPAGKEDNG": 1,
        "IKJPPHIBDDE": 14050102,
        "BAABJIIICGP": 1,
        "MELFLPPNACG": 14050103,
        "FBCGHHLFBOB": 1,
        "APJKAFFMOFP": 14050104,
        "DDOEDECBNNL": 1
    },
    {
        "IALGDAFBNHF": 140504,
        "OMJJPIGOFJH": 14050111,
        "FFPPAGKEDNG": 1,
        "IKJPPHIBDDE": 14050112,
        "BAABJIIICGP": 1,
        "MELFLPPNACG": 14050113,
        "FBCGHHLFBOB": 1,
        "APJKAFFMOFP": 14050114,
        "DDOEDECBNNL": 1
    },
    {
        "IALGDAFBNHF": 50101,
        "OMJJPIGOFJH": 5010101,
        "FFPPAGKEDNG": 1,
        "IKJPPHIBDDE": 5010102,
        "BAABJIIICGP": 1,
        "APJKAFFMOFP": 5010104,
        "DDOEDECBNNL": 1,
        "OMDHNHFIJJB": 5010103,
        "FDLFAOPEHEP": 1,
        "DGOIGMOKHHN": 4
    },
    {
        "IALGDAFBNHF": 50102,
        "OMJJPIGOFJH": 5010201,
        "FFPPAGKEDNG": 1,
        "IKJPPHIBDDE": 5010202,
        "BAABJIIICGP": 1,
        "MELFLPPNACG": 5010203,
        "FBCGHHLFBOB": 1,
        "APJKAFFMOFP": 5010204,
        "DDOEDECBNNL": 1
    },
    {
        "IALGDAFBNHF": 50103,
        "OMJJPIGOFJH": 5010301,
        "FFPPAGKEDNG": 1,
        "IKJPPHIBDDE": 5010302,
        "BAABJIIICGP": 1,
        "MELFLPPNACG": 5010303,
        "FBCGHHLFBOB": 1,
        "APJKAFFMOFP": 5010304,
        "DDOEDECBNNL": 1
    },
    {
        "IALGDAFBNHF": 50104,
        "OMJJPIGOFJH": 5010401,
        "FFPPAGKEDNG": 1,
        "IKJPPHIBDDE": 5010402,
        "BAABJIIICGP": 1,
        "MELFLPPNACG": 5010403,
        "FBCGHHLFBOB": 1,
        "APJKAFFMOFP": 5010404,
        "DDOEDECBNNL": 1
    },
    {
        "IALGDAFBNHF": 50111,
        "OMJJPIGOFJH": 5011101,
        "FFPPAGKEDNG": 1,
        "IKJPPHIBDDE": 5011102,
        "BAABJIIICGP": 1,
        "APJKAFFMOFP": 5011104,
        "DDOEDECBNNL": 1,
        "OMDHNHFIJJB": 5011103,
        "FDLFAOPEHEP": 1,
        "DGOIGMOKHHN": 4
    },
    {
        "IALGDAFBNHF": 50112,
        "OMJJPIGOFJH": 5011201,
        "FFPPAGKEDNG": 1,
        "IKJPPHIBDDE": 5011202,
        "BAABJIIICGP": 1,
        "MELFLPPNACG": 5011203,
        "FBCGHHLFBOB": 1,
        "APJKAFFMOFP": 5011204,
        "DDOEDECBNNL": 1
    },
    {
        "IALGDAFBNHF": 50113,
        "OMJJPIGOFJH": 5011301,
        "FFPPAGKEDNG": 1,
        "IKJPPHIBDDE": 5011302,
        "BAABJIIICGP": 1,
        "MELFLPPNACG": 5011303,
        "FBCGHHLFBOB": 1,
        "APJKAFFMOFP": 5011304,
        "DDOEDECBNNL": 1
    },
    {
        "IALGDAFBNHF": 50105,
        "OMJJPIGOFJH": 5010101,
        "FFPPAGKEDNG": 1,
        "IKJPPHIBDDE": 5010102,
        "BAABJIIICGP": 1,
        "APJKAFFMOFP": 5010104,
        "DDOEDECBNNL": 1,
        "OMDHNHFIJJB": 5010103,
        "FDLFAOPEHEP": 1,
        "DGOIGMOKHHN": 4
    }
]