[
    {
        "PDPEMMHJDPI": 1,
        "KPLEGMKBBPN": 4,
        "OEGEABHJJHB": 1,
        "AJHPOGFNJEK": [
            {
                "DKIDEHDPCAI": [
                    1,
                    0,
                    0,
                    0
                ],
                "weight": 20
            },
            {
                "DKIDEHDPCAI": [
                    1,
                    0,
                    0,
                    0
                ],
                "weight": 20
            },
            {
                "DKIDEHDPCAI": []
            }
        ]
    },
    {
        "PDPEMMHJDPI": 4,
        "KPLEGMKBBPN": 1,
        "OEGEABHJJHB": 4,
        "AJHPOGFNJEK": [
            {
                "DKIDEHDPCAI": [
                    1
                ],
                "weight": 20
            },
            {
                "DKIDEHDPCAI": []
            },
            {
                "DKIDEHDPCAI": []
            }
        ]
    }
]