{
    "HBPGBNCBOMP": "",
    "KENGMFPNLEP": "",
    "group": [
        [
            {
                "$type": "ConfigRequestMsgAction",
                "type": "REQUEST_MSG",
                "msgName": "UIInteractOpenPage",
                "param": ""
            },
            {
                "$type": "ConfigCameraMoveInterAction",
                "type": "CAMERA_MOVE",
                "duration": 1.5,
                "camPosOffset": {
                    "x": -136.12399291992188,
                    "y": 186.49000549316406,
                    "z": 5373.0009765625
                },
                "nearLength": 5.0,
                "camTargetType": "TO_INTEE",
                "camFov": 30.0,
                "lerpRatio": 5.0,
                "targetNpcAlias": ""
            }
        ],
        [
            {
                "$type": "ConfigUITriggerInterAction",
                "type": "UI_TRIGGER",
                "contextName": "RobotControlPage",
                "param": ""
            }
        ],
        [
            {
                "$type": "ConfigRequestMsgAction",
                "type": "REQUEST_MSG",
                "msgName": "UIInteractClosePage",
                "param": ""
            },
            {
                "$type": "ConfigCameraMoveInterAction",
                "type": "CAMERA_MOVE",
                "duration": 0.5,
                "cameraPosType": "EXIT",
                "camTargetType": "TO_INTEE",
                "lerpRatio": 5.0,
                "targetNpcAlias": ""
            }
        ]
    ]
}