{
    "HBPGBNCBOMP": "",
    "KENGMFPNLEP": "",
    "group": [
        [
            {
                "$type": "ConfigCutsceneInterAction",
                "type": "CUTSCENE",
                "cutsceneCfg": {
                    "$type": "ConfigTimeline",
                    "type": "TIME_LINE_PREFAB",
                    "luaDataPath": "",
                    "resPath": "ART/Cutscene/Cs_EQ_Rongcaiji_FencingChallenge",
                    "castListPath": "",
                    "entityBan": "",
                    "keepCamera": true,
                    "fadeInDuration": 0.5,
                    "fadeOutDuration": 0.5
                }
            }
        ]
    ]
}