{
    "HBPGBNCBOMP": "",
    "KENGMFPNLEP": "",
    "group": [
        [
            {
                "$type": "ConfigUITriggerInterAction",
                "type": "UI_TRIGGER",
                "contextName": "BounceConjuringDraftPage",
                "param": ""
            },
            {
                "$type": "ConfigCameraMoveInterAction",
                "type": "CAMERA_MOVE",
                "duration": 1.5,
                "cameraPosType": "RELATIVE_TO_INTEE_ONLY",
                "camPosOffset": {
                    "x": 1.0,
                    "y": 2.4000000953674316,
                    "z": 3.859999895095825
                },
                "nearLength": 5.0,
                "camTargetType": "RELATIVE_TO_INTEE_FORWARD",
                "camForwardTargetOffset": {
                    "x": -1.0700000524520874,
                    "y": 0.8799999952316284
                },
                "camFov": 30.0,
                "lerpRatio": 5.0,
                "targetNpcAlias": ""
            }
        ],
        [
            {
                "$type": "ConfigCameraMoveInterAction",
                "type": "CAMERA_MOVE",
                "duration": 1.5,
                "cameraPosType": "EXIT",
                "camTargetType": "TO_INTEE",
                "lerpRatio": 5.0,
                "targetNpcAlias": ""
            }
        ]
    ]
}