{
    "HBPGBNCBOMP": "",
    "KENGMFPNLEP": "",
    "group": [
        [
            {
                "$type": "ConfigUITriggerInterAction",
                "type": "UI_TRIGGER",
                "contextName": "VanasaraPageFirstTime",
                "param": ""
            }
        ],
        [
            {
                "$type": "ConfigUITriggerInterAction",
                "type": "UI_TRIGGER",
                "contextName": "VanasaraPage",
                "param": ""
            },
            {
                "$type": "ConfigCameraMoveInterAction",
                "type": "CAMERA_MOVE",
                "duration": 1.0,
                "camPosOffset": {
                    "x": -66.61100006103516,
                    "y": 225.6540069580078,
                    "z": 3293.882080078125
                },
                "nearLength": 5.0,
                "camForwardTargetOffset": {
                    "x": -67.65384674072266,
                    "y": 227.95919799804688,
                    "z": 3287.819091796875
                },
                "camFov": 55.0,
                "lerpRatio": 5.0,
                "targetNpcAlias": ""
            }
        ],
        [
            {
                "$type": "ConfigCameraMoveInterAction",
                "type": "CAMERA_MOVE",
                "duration": 1.0,
                "cameraPosType": "EXIT",
                "camTargetType": "TO_INTEE",
                "lerpRatio": 5.0,
                "targetNpcAlias": ""
            }
        ]
    ]
}