{
    "HBPGBNCBOMP": "",
    "KENGMFPNLEP": "",
    "group": [
        [
            {
                "$type": "ConfigUITriggerInterAction",
                "type": "UI_TRIGGER",
                "contextName": "HomeworldCoopFramePage",
                "param": ""
            },
            {
                "$type": "ConfigCameraMoveInterAction",
                "type": "CAMERA_MOVE",
                "duration": 0.75,
                "cameraPosType": "RELATIVE_TO_INTEE_ONLY",
                "camPosOffset": {
                    "x": -0.6200000047683716,
                    "z": 2.5
                },
                "nearLength": 5.0,
                "camTargetType": "RELATIVE_TO_INTEE_FORWARD",
                "camForwardTargetOffset": {
                    "x": -0.6200000047683716
                },
                "camFov": 37.0,
                "lerpRatio": 1.0,
                "cameraBlendType": "EaseOutQuad",
                "cutFrameTrans": {},
                "targetNpcAlias": ""
            }
        ],
        [
            {
                "$type": "ConfigCameraMoveInterAction",
                "type": "CAMERA_MOVE",
                "duration": 0.75,
                "cameraPosType": "EXIT",
                "camTargetType": "TO_INTEE",
                "lerpRatio": 5.0,
                "targetNpcAlias": ""
            }
        ]
    ]
}