{
    "HBPGBNCBOMP": "",
    "KENGMFPNLEP": "",
    "group": [
        [
            {
                "$type": "ConfigUITriggerInterAction",
                "type": "UI_TRIGGER",
                "contextName": "InLevelTimeShiftPage",
                "param": ""
            },
            {
                "$type": "ConfigCameraMoveInterAction",
                "type": "CAMERA_MOVE",
                "duration": 1.0,
                "cameraPosType": "RELATIVE_TO_INTEE_ONLY",
                "camPosOffset": {
                    "x": 3.0,
                    "y": 3.0,
                    "z": 9.0
                },
                "nearLength": 8.0,
                "camTargetType": "TO_INTEE",
                "camForwardTargetOffset": {
                    "y": 3.0
                },
                "lerpRatio": 5.0,
                "targetNpcAlias": ""
            }
        ],
        [
            {
                "$type": "ConfigCameraMoveInterAction",
                "type": "CAMERA_MOVE",
                "duration": 1.0,
                "cameraPosType": "EXIT",
                "camTargetType": "TO_INTEE",
                "lerpRatio": 5.0,
                "lerpPattern": 6,
                "targetNpcAlias": ""
            }
        ]
    ]
}