{
    "HBPGBNCBOMP": "",
    "KENGMFPNLEP": "",
    "group": [
        [
            {
                "$type": "ConfigUITriggerInterAction",
                "type": "UI_TRIGGER",
                "contextName": "GcgPVPMatchEntryPage",
                "param": ""
            },
            {
                "$type": "ConfigCameraMoveInterAction",
                "type": "CAMERA_MOVE",
                "duration": 1.0,
                "camPosOffset": {
                    "x": 0.4169999957084656,
                    "y": 2.9159998893737793,
                    "z": 8.654999732971191
                },
                "camForwardTargetOffset": {
                    "x": -0.5820000171661377,
                    "y": 2.878999948501587,
                    "z": 8.654999732971191
                },
                "camFov": 30.0,
                "lerpRatio": 1.0,
                "lerpPattern": 2,
                "cameraBlendType": "EaseInOutCubic",
                "cutFrameTrans": {},
                "rotateAngle": 4.0,
                "targetNpcAlias": ""
            }
        ],
        [
            {
                "$type": "ConfigCameraMoveInterAction",
                "type": "CAMERA_MOVE",
                "duration": 1.0,
                "cameraPosType": "EXIT",
                "camTargetType": "TO_INTEE",
                "lerpRatio": 5.0,
                "targetNpcAlias": ""
            }
        ]
    ]
}