{
    "HBPGBNCBOMP": "",
    "KENGMFPNLEP": "",
    "isKeyInteraction": false,
    "group": [
        [
            {
                "$type": "ConfigUITriggerInterAction",
                "type": "UI_TRIGGER",
                "contextName": "CookingPage",
                "param": ""
            }
        ]
    ]
}