{
    "HBPGBNCBOMP": "",
    "startBlackKeepTime": 0.4000000059604645,
    "KENGMFPNLEP": "",
    "disableNpcLod": true,
    "startFade": {
        "startFadeInDuration": 0.30000001192092896,
        "startFadeOutDuration": 0.30000001192092896
    },
    "endFade": {
        "startFadeOutDuration": 0.0
    },
    "actors": [
        {
            "alias": "Avatar",
            "visible": true,
            "bornPointName": "Q7280407PLAYER",
            "relativePosNpcAlias": ""
        },
        {
            "configID": 3060,
            "alias": "3060",
            "visible": true,
            "bornPointName": "Q7280407NPC3060",
            "relativePosNpcAlias": ""
        }
    ],
    "group": [
        [
            {
                "$type": "ConfigDialogSelectAction",
                "type": "DIALOG_SELECT",
                "delayTime": 0.4000000059604645,
                "aliasList": [
                    "Avatar"
                ],
                "dialogIDList": [
                    728040402
                ],
                "grpIDList": [
                    2333078422
                ],
                "useGrpId": true
            },
            {
                "$type": "ConfigDialogInterAction",
                "type": "DIALOG",
                "aliasList": [
                    "3060"
                ],
                "dialogID": 728040401,
                "protectTime": 0.5
            }
        ],
        [
            {
                "$type": "ConfigDialogInterAction",
                "type": "DIALOG",
                "aliasList": [
                    "3060"
                ],
                "dialogID": 728040403,
                "protectTime": 0.5
            }
        ],
        [
            {
                "$type": "ConfigDialogInterAction",
                "type": "DIALOG",
                "aliasList": [
                    "3060"
                ],
                "dialogID": 728040404,
                "protectTime": 0.5
            }
        ],
        [
            {
                "$type": "ConfigSimpleBlackScreenAction",
                "type": "SIMPLE_BLACK_SCREEN",
                "durationToBlack": 0.5,
                "durationKeepBlack": 1.0,
                "durationFromBlack": 0.5,
                "textMapID": ""
            },
            {
                "$type": "ConfigTimeProtectAction",
                "type": "TIME_PROTECT",
                "duration": 0.699999988079071
            }
        ]
    ],
    "groupId": [
        {
            "grpId": 2333078421,
            "nextGrpId": 2333078422
        },
        {
            "index": 1,
            "grpId": 2333078422,
            "nextGrpId": 2333078423
        },
        {
            "index": 2,
            "grpId": 2333078423,
            "nextGrpId": 2333078424
        },
        {
            "index": 3,
            "grpId": 2333078424,
            "nextGrpId": 2333078425
        }
    ],
    "freeStyleDic": {
        "3060": []
    }
}