{
    "HBPGBNCBOMP": "",
    "isSimpleTalk": true,
    "KENGMFPNLEP": "",
    "disableNpcLod": true,
    "startFade": {
        "startFadeOutDuration": 0.0
    },
    "endFade": {
        "startFadeOutDuration": 0.0
    },
    "actors": [
        {
            "alias": "Avatar",
            "visible": true,
            "bornPointName": "",
            "relativePosNpcAlias": ""
        },
        {
            "configID": 20298,
            "alias": "20298",
            "visible": true,
            "bornPointName": "",
            "relativePosNpcAlias": ""
        },
        {
            "configID": 20299,
            "alias": "20299",
            "visible": true,
            "bornPointName": "",
            "relativePosNpcAlias": ""
        }
    ],
    "group": [
        [
            {
                "$type": "ConfigCameraMoveInterAction",
                "type": "CAMERA_FOCUS",
                "duration": 0.10000000149011612,
                "targetNpcAlias": ""
            },
            {
                "$type": "ConfigTimeProtectAction",
                "type": "TIME_PROTECT",
                "duration": 0.10000000149011612
            }
        ],
        [
            {
                "$type": "ConfigDialogInterAction",
                "type": "DIALOG",
                "aliasList": [
                    "20298"
                ],
                "dialogID": 721100201,
                "protectTime": 0.5
            }
        ],
        [
            {
                "$type": "ConfigDialogInterAction",
                "type": "DIALOG",
                "aliasList": [
                    "20298"
                ],
                "dialogID": 721100202,
                "protectTime": 0.5
            }
        ],
        [
            {
                "$type": "ConfigDialogInterAction",
                "type": "DIALOG",
                "aliasList": [
                    "20299"
                ],
                "dialogID": 721100203,
                "protectTime": 0.5
            }
        ],
        [
            {
                "$type": "ConfigDialogInterAction",
                "type": "DIALOG",
                "aliasList": [
                    "20298"
                ],
                "dialogID": 721100204,
                "protectTime": 0.5
            }
        ],
        [
            {
                "$type": "ConfigDialogInterAction",
                "type": "DIALOG",
                "aliasList": [
                    "20299"
                ],
                "dialogID": 721100205,
                "protectTime": 0.5
            }
        ],
        [
            {
                "$type": "ConfigDialogInterAction",
                "type": "DIALOG",
                "aliasList": [
                    "20298"
                ],
                "dialogID": 721100206,
                "protectTime": 0.5
            }
        ],
        [
            {
                "$type": "ConfigDialogInterAction",
                "type": "DIALOG",
                "aliasList": [
                    "20298"
                ],
                "dialogID": 721100207,
                "protectTime": 0.5
            }
        ],
        [
            {
                "$type": "ConfigDialogInterAction",
                "type": "DIALOG",
                "aliasList": [
                    "20298"
                ],
                "dialogID": 721100208,
                "protectTime": 0.5
            }
        ],
        [
            {
                "$type": "ConfigTimeProtectAction",
                "type": "TIME_PROTECT",
                "duration": 0.10000000149011612
            }
        ]
    ],
    "groupId": [
        {
            "grpId": 329809769,
            "nextGrpId": 329809770
        },
        {
            "index": 1,
            "grpId": 329809770,
            "nextGrpId": 329809771
        },
        {
            "index": 2,
            "grpId": 329809771,
            "nextGrpId": 329809772
        },
        {
            "index": 3,
            "grpId": 329809772,
            "nextGrpId": 329809773
        },
        {
            "index": 4,
            "grpId": 329809773,
            "nextGrpId": 329809774
        },
        {
            "index": 5,
            "grpId": 329809774,
            "nextGrpId": 329809775
        },
        {
            "index": 6,
            "grpId": 329809775,
            "nextGrpId": 329809776
        },
        {
            "index": 7,
            "grpId": 329809776,
            "nextGrpId": 329809777
        },
        {
            "index": 8,
            "grpId": 329809777,
            "nextGrpId": 1634168295
        },
        {
            "index": 9,
            "grpId": 1634168295,
            "nextGrpId": 1634168296
        }
    ],
    "freeStyleDic": {
        "20298": [],
        "20299": []
    }
}