{
    "HBPGBNCBOMP": "",
    "isSimpleTalk": true,
    "KENGMFPNLEP": "",
    "disableNpcLod": true,
    "startFade": {
        "startFadeOutDuration": 0.0
    },
    "endFade": {
        "startFadeOutDuration": 0.0
    },
    "actors": [
        {
            "alias": "Avatar",
            "visible": true,
            "bornPointName": "",
            "relativePosNpcAlias": ""
        },
        {
            "configID": 30108,
            "alias": "30108",
            "visible": true,
            "bornPointName": "",
            "relativePosNpcAlias": ""
        },
        {
            "configID": 1005,
            "alias": "1005",
            "visible": true,
            "bornPointName": "",
            "useRelativePos": true,
            "relativePos": {
                "x": -0.5,
                "y": 0.5,
                "z": -0.5
            },
            "removeActorType": "REMOVE_WITH_DISAPPEAR",
            "relativePosNpcAlias": ""
        }
    ],
    "group": [
        [
            {
                "$type": "ConfigTimeProtectAction",
                "type": "TIME_PROTECT",
                "duration": 0.10000000149011612
            },
            {
                "$type": "ConfigCameraMoveInterAction",
                "type": "CAMERA_FOCUS",
                "duration": 0.10000000149011612,
                "targetNpcAlias": ""
            },
            {
                "$type": "ConfigSteerInterAction",
                "type": "STEER_TO",
                "delayTime": 0.30000001192092896,
                "duration": 0.800000011920929,
                "aliasList": [
                    "30108"
                ],
                "steerType": "TO_LOCAL_AVATAR_ADVANCED",
                "useSteerAnim": true,
                "interruptFreestyle": true,
                "forceSteer": true,
                "targetNpcAlias": ""
            },
            {
                "$type": "ConfigSteerInterAction",
                "type": "STEER_TO",
                "delayTime": 0.30000001192092896,
                "duration": 0.800000011920929,
                "aliasList": [
                    "Avatar"
                ],
                "steerType": "TO_TARGET_ADVANCED",
                "useSteerAnim": true,
                "interruptFreestyle": true,
                "forceSteer": true,
                "targetNpcAlias": "30108"
            }
        ],
        [
            {
                "$type": "ConfigDialogInterAction",
                "type": "DIALOG",
                "aliasList": [
                    "30108"
                ],
                "dialogID": 722761201,
                "protectTime": 0.5
            }
        ],
        [
            {
                "$type": "ConfigTimeProtectAction",
                "type": "TIME_PROTECT",
                "duration": 0.10000000149011612
            }
        ]
    ],
    "groupId": [
        {
            "grpId": 1995295318,
            "nextGrpId": 1995295319
        },
        {
            "index": 1,
            "grpId": 1995295319,
            "nextGrpId": 1995295320
        },
        {
            "index": 2,
            "grpId": 1995295320,
            "nextGrpId": 1995295321
        }
    ],
    "freeStyleDic": {
        "30108": []
    }
}