{
    "HBPGBNCBOMP": "",
    "KENGMFPNLEP": "",
    "disableNpcLod": true,
    "NIHBFFCCJJN": true,
    "MCGPBLEHELN": true,
    "AGMGHOIPEIH": true,
    "startFade": {
        "startFadeOutDuration": 0.0
    },
    "endFade": {
        "startFadeOutDuration": 0.0
    },
    "actors": [
        {
            "alias": "Avatar",
            "visible": true,
            "bornPointName": "",
            "relativePosType": "AVATAR_NEW",
            "relativePosNpcAlias": ""
        },
        {
            "configID": 1005,
            "alias": "1005",
            "visible": true,
            "bornPointName": "",
            "useRelativePos": true,
            "relativePos": {
                "x": -0.5,
                "z": 0.5
            },
            "removeActorType": "REMOVE_WITH_DISAPPEAR",
            "relativePosType": "AVATAR_NEW",
            "relativePosNpcAlias": ""
        },
        {
            "configID": 20646,
            "alias": "20646",
            "visible": true,
            "bornPointName": "",
            "relativePosType": "AVATAR_NEW",
            "relativePosNpcAlias": ""
        },
        {
            "configID": 20648,
            "alias": "20648",
            "visible": true,
            "bornPointName": "",
            "relativePosType": "AVATAR_NEW",
            "relativePosNpcAlias": ""
        }
    ],
    "group": [
        [
            {
                "$type": "ConfigTimeProtectAction",
                "type": "TIME_PROTECT",
                "duration": 0.10000000149011612
            },
            {
                "$type": "ConfigCameraMoveInterAction",
                "type": "CAMERA_FOCUS",
                "duration": 1.0,
                "actionId": 123,
                "targetNpcAlias": ""
            },
            {
                "$type": "ConfigSteerInterAction",
                "type": "STEER_TO",
                "duration": 1.0,
                "aliasList": [
                    "Avatar"
                ],
                "actionId": 124,
                "steerType": "TO_TARGET_ADVANCED",
                "useSteerAnim": true,
                "targetNpcAlias": "20648"
            },
            {
                "$type": "ConfigLookAtInterAction",
                "type": "LOOK_AT",
                "aliasList": [
                    "Avatar"
                ],
                "actionId": 129,
                "enableHead": true,
                "headTurnTime": 0.5,
                "targetNpcAlias": "20648",
                "openBackProtect": true
            },
            {
                "$type": "ConfigSteerInterAction",
                "type": "STEER_TO",
                "duration": 1.0,
                "aliasList": [
                    "1005"
                ],
                "actionId": 125,
                "steerType": "TO_TARGET_ADVANCED",
                "useSteerAnim": true,
                "targetNpcAlias": "20648"
            },
            {
                "$type": "ConfigLookAtInterAction",
                "type": "LOOK_AT",
                "aliasList": [
                    "1005"
                ],
                "actionId": 128,
                "enableHead": true,
                "headTurnTime": 0.5,
                "targetNpcAlias": "20648",
                "openBackProtect": true
            },
            {
                "$type": "ConfigBodyLangInterAction",
                "type": "BODY_LANG",
                "aliasList": [
                    "20646"
                ],
                "actionId": 156,
                "isContinue": true,
                "forceDoFreeStyle": true,
                "canDoRepeatFreeStyle": false,
                "cantBackToIdleWhenSitLoop": true
            },
            {
                "$type": "ConfigBodyLangInterAction",
                "type": "BODY_LANG",
                "aliasList": [
                    "20648"
                ],
                "actionId": 157,
                "isContinue": true,
                "forceDoFreeStyle": true,
                "canDoRepeatFreeStyle": false,
                "cantBackToIdleWhenSitLoop": true
            }
        ],
        [
            {
                "$type": "ConfigDialogInterAction",
                "type": "DIALOG",
                "aliasList": [
                    "1005"
                ],
                "dialogID": 730310101,
                "protectTime": 0.5
            },
            {
                "$type": "ConfigBodyLangInterAction",
                "type": "BODY_LANG",
                "aliasList": [
                    "1005"
                ],
                "actionId": 132,
                "bodyLangParam": 1200,
                "forceDoFreeStyle": true,
                "canDoRepeatFreeStyle": false,
                "cantBackToIdleWhenSitLoop": true
            },
            {
                "$type": "ConfigEmoSyncInterAction",
                "type": "EMO_SYNC",
                "aliasList": [
                    "1005"
                ],
                "actionId": 163,
                "dataPath": "",
                "phonemePath": "Cs_Emo_Pet_Common/Cs_Emo_Paimon_None",
                "emotionPath": "Cs_Emo_Pet_Common/Cs_Emo_Paimon_Happy01",
                "mateDataPath": "",
                "matePhonemePath": "",
                "mateEmotionPath": "",
                "enableBlink": false,
                "phonemePathHashList": [
                    1796869206626684908,
                    2049648015653630001,
                    14015965774222061559,
                    873259039409222856
                ],
                "emotionPathHashList": [
                    11795538569676462054,
                    5514455715760618983,
                    6871647363300542652,
                    8381196293596717205
                ]
            },
            {
                "$type": "ConfigCameraMoveInterAction",
                "type": "CAMERA_FOCUS",
                "duration": 1.0,
                "aliasList": [
                    "20646"
                ],
                "actionId": 162,
                "targetNpcAlias": ""
            },
            {
                "$type": "ConfigSteerInterAction",
                "type": "STEER_TO",
                "duration": 1.0,
                "aliasList": [
                    "20646"
                ],
                "actionId": 168,
                "steerType": "TO_TARGET_ADVANCED",
                "useSteerAnim": true,
                "targetNpcAlias": "Avatar"
            },
            {
                "$type": "ConfigSteerInterAction",
                "type": "STEER_TO",
                "duration": 1.0,
                "aliasList": [
                    "20648"
                ],
                "actionId": 169,
                "steerType": "TO_TARGET_ADVANCED",
                "useSteerAnim": true,
                "targetNpcAlias": "Avatar"
            },
            {
                "$type": "ConfigEmoSyncInterAction",
                "type": "EMO_SYNC",
                "delayTime": 1.6160000562667847,
                "aliasList": [
                    "1005"
                ],
                "actionId": 164,
                "dataPath": "",
                "phonemePath": "Cs_Emo_Pet_Common/Cs_Emo_Paimon_None",
                "emotionPath": "Cs_Emo_Pet_Common/Cs_Emo_Paimon_Normal01",
                "mateDataPath": "",
                "matePhonemePath": "",
                "mateEmotionPath": "",
                "phonemePathHashList": [
                    1796869206626684908,
                    2049648015653630001,
                    14015965774222061559,
                    873259039409222856
                ],
                "emotionPathHashList": [
                    312453201720762420,
                    9562322946389574798,
                    18422542724361145117,
                    17949024460815132449
                ]
            }
        ],
        [
            {
                "$type": "ConfigLookAtInterAction",
                "type": "LOOK_AT",
                "aliasList": [
                    "Avatar"
                ],
                "actionId": 144,
                "enableHead": true,
                "headTurnTime": 0.5,
                "targetNpcAlias": "20646",
                "openBackProtect": true
            },
            {
                "$type": "ConfigLookAtInterAction",
                "type": "LOOK_AT",
                "aliasList": [
                    "1005"
                ],
                "actionId": 143,
                "enableHead": true,
                "headTurnTime": 0.5,
                "targetNpcAlias": "20646",
                "openBackProtect": true
            },
            {
                "$type": "ConfigEmoSyncInterAction",
                "type": "EMO_SYNC",
                "aliasList": [
                    "1005"
                ],
                "actionId": 165,
                "dataPath": "",
                "phonemePath": "Cs_Emo_Pet_Common/Cs_Emo_Paimon_None",
                "emotionPath": "Cs_Emo_Pet_Common/Cs_Emo_Paimon_Normal01",
                "mateDataPath": "",
                "matePhonemePath": "",
                "mateEmotionPath": "",
                "phonemePathHashList": [
                    1796869206626684908,
                    2049648015653630001,
                    14015965774222061559,
                    873259039409222856
                ],
                "emotionPathHashList": [
                    312453201720762420,
                    9562322946389574798,
                    18422542724361145117,
                    17949024460815132449
                ]
            },
            {
                "$type": "ConfigDialogInterAction",
                "type": "DIALOG",
                "aliasList": [
                    "20646"
                ],
                "dialogID": 730310102,
                "protectTime": 0.5
            },
            {
                "$type": "ConfigBodyLangInterAction",
                "type": "BODY_LANG",
                "aliasList": [
                    "20646"
                ],
                "actionId": 135,
                "bodyLangParam": 1080,
                "forceDoFreeStyle": true,
                "canDoRepeatFreeStyle": false,
                "cantBackToIdleWhenSitLoop": true
            }
        ],
        [
            {
                "$type": "ConfigLookAtInterAction",
                "type": "LOOK_AT",
                "aliasList": [
                    "Avatar"
                ],
                "actionId": 146,
                "enableHead": true,
                "headTurnTime": 0.5,
                "targetNpcAlias": "20648",
                "openBackProtect": true
            },
            {
                "$type": "ConfigLookAtInterAction",
                "type": "LOOK_AT",
                "aliasList": [
                    "1005"
                ],
                "actionId": 145,
                "enableHead": true,
                "headTurnTime": 0.5,
                "targetNpcAlias": "20648",
                "openBackProtect": true
            },
            {
                "$type": "ConfigDialogInterAction",
                "type": "DIALOG",
                "aliasList": [
                    "20648"
                ],
                "dialogID": 730310103,
                "protectTime": 0.5
            }
        ],
        [
            {
                "$type": "ConfigDialogInterAction",
                "type": "DIALOG",
                "aliasList": [
                    "1005"
                ],
                "dialogID": 730310104,
                "protectTime": 0.5
            },
            {
                "$type": "ConfigBodyLangInterAction",
                "type": "BODY_LANG",
                "aliasList": [
                    "1005"
                ],
                "actionId": 137,
                "bodyLangParam": 1090,
                "forceDoFreeStyle": true,
                "canDoRepeatFreeStyle": false,
                "cantBackToIdleWhenSitLoop": true
            },
            {
                "$type": "ConfigDialogSelectAction",
                "type": "DIALOG_SELECT",
                "delayTime": 0.4000000059604645,
                "aliasList": [
                    "Avatar"
                ],
                "dialogIDList": [
                    730310105,
                    730310106
                ],
                "grpIDList": [
                    2107837611,
                    2107837611
                ],
                "useGrpId": true
            },
            {
                "$type": "ConfigLookAtInterAction",
                "type": "LOOK_AT",
                "delayTime": 1.4500000476837158,
                "aliasList": [
                    "1005"
                ],
                "actionId": 138,
                "enableHead": true,
                "headTurnTime": 0.5,
                "targetNpcAlias": "Avatar",
                "openBackProtect": true
            },
            {
                "$type": "ConfigLookAtInterAction",
                "type": "LOOK_AT",
                "delayTime": 1.6670000553131104,
                "aliasList": [
                    "Avatar"
                ],
                "actionId": 139,
                "enableHead": true,
                "headTurnTime": 0.5,
                "targetNpcAlias": "1005",
                "openBackProtect": true
            }
        ],
        [
            {
                "$type": "ConfigLookAtInterAction",
                "type": "LOOK_AT",
                "aliasList": [
                    "Avatar"
                ],
                "actionId": 141,
                "enableHead": true,
                "headTurnTime": 0.5,
                "targetNpcAlias": "20648",
                "openBackProtect": true
            },
            {
                "$type": "ConfigLookAtInterAction",
                "type": "LOOK_AT",
                "aliasList": [
                    "1005"
                ],
                "actionId": 142,
                "enableHead": true,
                "headTurnTime": 0.5,
                "targetNpcAlias": "20648",
                "openBackProtect": true
            },
            {
                "$type": "ConfigDialogInterAction",
                "type": "DIALOG",
                "aliasList": [
                    "20648"
                ],
                "dialogID": 730310107,
                "protectTime": 0.5
            },
            {
                "$type": "ConfigSteerInterAction",
                "type": "STEER_TO",
                "duration": 1.0,
                "aliasList": [
                    "20648"
                ],
                "actionId": 147,
                "steerType": "TO_TARGET_ADVANCED",
                "useSteerAnim": true,
                "targetNpcAlias": "1005"
            }
        ],
        [
            {
                "$type": "ConfigDialogInterAction",
                "type": "DIALOG",
                "aliasList": [
                    "1005"
                ],
                "dialogID": 730310108,
                "protectTime": 0.5
            },
            {
                "$type": "ConfigBodyLangInterAction",
                "type": "BODY_LANG",
                "aliasList": [
                    "1005"
                ],
                "actionId": 148,
                "isContinue": true,
                "forceDoFreeStyle": true,
                "canDoRepeatFreeStyle": false,
                "cantBackToIdleWhenSitLoop": true
            }
        ],
        [
            {
                "$type": "ConfigLookAtInterAction",
                "type": "LOOK_AT",
                "aliasList": [
                    "Avatar"
                ],
                "actionId": 154,
                "enableHead": true,
                "headTurnTime": 0.5,
                "targetNpcAlias": "20646",
                "openBackProtect": true
            },
            {
                "$type": "ConfigLookAtInterAction",
                "type": "LOOK_AT",
                "aliasList": [
                    "1005"
                ],
                "actionId": 155,
                "enableHead": true,
                "headTurnTime": 0.5,
                "targetNpcAlias": "20646",
                "openBackProtect": true
            },
            {
                "$type": "ConfigDialogInterAction",
                "type": "DIALOG",
                "aliasList": [
                    "20646"
                ],
                "dialogID": 730310109,
                "protectTime": 0.5
            },
            {
                "$type": "ConfigBodyLangInterAction",
                "type": "BODY_LANG",
                "aliasList": [
                    "20646"
                ],
                "actionId": 152,
                "bodyLangParam": 1040,
                "forceDoFreeStyle": true,
                "canDoRepeatFreeStyle": false,
                "cantBackToIdleWhenSitLoop": true
            },
            {
                "$type": "ConfigBodyLangInterAction",
                "type": "BODY_LANG",
                "delayTime": 1.4919999837875366,
                "aliasList": [
                    "20646"
                ],
                "actionId": 153,
                "isContinue": true,
                "forceDoFreeStyle": true,
                "canDoRepeatFreeStyle": false,
                "cantBackToIdleWhenSitLoop": true
            }
        ],
        [
            {
                "$type": "ConfigLookAtInterAction",
                "type": "LOOK_AT",
                "aliasList": [
                    "Avatar"
                ],
                "actionId": 161,
                "enableHead": true,
                "headTurnTime": 0.5,
                "targetNpcAlias": "20648",
                "openBackProtect": true
            },
            {
                "$type": "ConfigLookAtInterAction",
                "type": "LOOK_AT",
                "aliasList": [
                    "1005"
                ],
                "actionId": 160,
                "enableHead": true,
                "headTurnTime": 0.5,
                "targetNpcAlias": "20648",
                "openBackProtect": true
            },
            {
                "$type": "ConfigBodyLangInterAction",
                "type": "BODY_LANG",
                "aliasList": [
                    "20646"
                ],
                "actionId": 172,
                "isContinue": true,
                "forceDoFreeStyle": true,
                "canDoRepeatFreeStyle": false,
                "cantBackToIdleWhenSitLoop": true
            },
            {
                "$type": "ConfigDialogInterAction",
                "type": "DIALOG",
                "aliasList": [
                    "20648"
                ],
                "dialogID": 730310110,
                "protectTime": 0.5
            },
            {
                "$type": "ConfigSteerInterAction",
                "type": "STEER_TO",
                "duration": 1.0,
                "aliasList": [
                    "20648"
                ],
                "actionId": 151,
                "steerType": "TO_TARGET_ADVANCED",
                "useSteerAnim": true,
                "targetNpcAlias": "Avatar"
            }
        ],
        [
            {
                "$type": "ConfigTimeProtectAction",
                "type": "TIME_PROTECT",
                "duration": 0.10000000149011612
            },
            {
                "$type": "ConfigSteerInterAction",
                "type": "STEER_TO",
                "duration": 1.0,
                "aliasList": [
                    "20646"
                ],
                "actionId": 159,
                "steerType": "RETURN",
                "useSteerAnim": true,
                "targetNpcAlias": "Avatar"
            },
            {
                "$type": "ConfigSteerInterAction",
                "type": "STEER_TO",
                "duration": 1.0,
                "aliasList": [
                    "20648"
                ],
                "actionId": 158,
                "steerType": "RETURN",
                "useSteerAnim": true,
                "targetNpcAlias": "Avatar"
            }
        ]
    ],
    "groupId": [
        {
            "grpId": 2107837606,
            "nextGrpId": 2107837607
        },
        {
            "index": 1,
            "grpId": 2107837607,
            "nextGrpId": 2107837608
        },
        {
            "index": 2,
            "grpId": 2107837608,
            "nextGrpId": 2107837609
        },
        {
            "index": 3,
            "grpId": 2107837609,
            "nextGrpId": 2107837610
        },
        {
            "index": 4,
            "grpId": 2107837610,
            "nextGrpId": 2107837611
        },
        {
            "index": 5,
            "grpId": 2107837611,
            "nextGrpId": 2107837612
        },
        {
            "index": 6,
            "grpId": 2107837612,
            "nextGrpId": 2107837613
        },
        {
            "index": 7,
            "grpId": 2107837613,
            "nextGrpId": 2107837614
        },
        {
            "index": 8,
            "grpId": 2107837614,
            "nextGrpId": 918456394
        },
        {
            "index": 9,
            "grpId": 918456394,
            "nextGrpId": 918456395
        }
    ],
    "freeStyleDic": {
        "20648": []
    }
}