{
    "HBPGBNCBOMP": "",
    "startBlackKeepTime": 0.5,
    "KENGMFPNLEP": "",
    "disableNpcLod": true,
    "NIHBFFCCJJN": true,
    "startFade": {
        "startFadeInDuration": 0.5,
        "startFadeOutDuration": 0.5
    },
    "endFade": {
        "startFadeOutDuration": 0.0
    },
    "actors": [
        {
            "alias": "Avatar",
            "visible": true,
            "bornPointName": "7228706_player",
            "relativePosNpcAlias": ""
        },
        {
            "configID": 20718,
            "alias": "20718",
            "visible": true,
            "bornPointName": "7228706_tiy",
            "removeActorType": "REMOVE",
            "relativePosNpcAlias": ""
        },
        {
            "configID": 20721,
            "alias": "20721",
            "visible": true,
            "bornPointName": "7228706_hei",
            "removeActorType": "REMOVE",
            "relativePosNpcAlias": ""
        },
        {
            "configID": 20719,
            "alias": "20719",
            "visible": true,
            "bornPointName": "7228706_xiaoc",
            "removeActorType": "REMOVE",
            "relativePosNpcAlias": ""
        },
        {
            "configID": 3162,
            "alias": "3162",
            "visible": true,
            "bornPointName": "",
            "relativePosNpcAlias": ""
        }
    ],
    "group": [
        [
            {
                "$type": "ConfigTimeProtectAction",
                "type": "TIME_PROTECT",
                "duration": 0.10000000149011612
            }
        ],
        [
            {
                "$type": "ConfigDialogInterAction",
                "type": "DIALOG",
                "aliasList": [
                    "20718"
                ],
                "dialogID": 722872801,
                "protectTime": 0.5
            }
        ],
        [
            {
                "$type": "ConfigDialogInterAction",
                "type": "DIALOG",
                "aliasList": [
                    "20718"
                ],
                "dialogID": 722872802,
                "protectTime": 0.5
            }
        ],
        [
            {
                "$type": "ConfigDialogInterAction",
                "type": "DIALOG",
                "aliasList": [
                    "20718"
                ],
                "dialogID": 722872803,
                "protectTime": 0.5
            },
            {
                "$type": "ConfigDialogSelectAction",
                "type": "DIALOG_SELECT",
                "delayTime": 0.4000000059604645,
                "aliasList": [
                    "Avatar"
                ],
                "dialogIDList": [
                    722872804,
                    722872805,
                    722872806
                ],
                "grpIDList": [
                    2608266683,
                    3546855839,
                    3546855839
                ],
                "useGrpId": true
            }
        ],
        [
            {
                "$type": "ConfigDialogInterAction",
                "type": "DIALOG",
                "aliasList": [
                    "20718"
                ],
                "dialogID": 722872807,
                "protectTime": 0.5
            }
        ],
        [
            {
                "$type": "ConfigDialogInterAction",
                "type": "DIALOG",
                "aliasList": [
                    "20718"
                ],
                "dialogID": 722872808,
                "protectTime": 0.5
            }
        ],
        [
            {
                "$type": "ConfigDialogInterAction",
                "type": "DIALOG",
                "aliasList": [
                    "20718"
                ],
                "dialogID": 722872809,
                "protectTime": 0.5
            }
        ],
        [
            {
                "$type": "ConfigDialogInterAction",
                "type": "DIALOG",
                "aliasList": [
                    "20718"
                ],
                "dialogID": 722872810,
                "protectTime": 0.5
            }
        ],
        [
            {
                "$type": "ConfigDialogInterAction",
                "type": "DIALOG",
                "aliasList": [
                    "20718"
                ],
                "dialogID": 722872811,
                "protectTime": 0.5
            }
        ],
        [
            {
                "$type": "ConfigDialogInterAction",
                "type": "DIALOG",
                "aliasList": [
                    "20718"
                ],
                "dialogID": 722872812,
                "protectTime": 0.5
            }
        ],
        [
            {
                "$type": "ConfigDialogInterAction",
                "type": "DIALOG",
                "aliasList": [
                    "20721"
                ],
                "dialogID": 722872813,
                "protectTime": 0.5
            }
        ],
        [
            {
                "$type": "ConfigDialogInterAction",
                "type": "DIALOG",
                "aliasList": [
                    "20718"
                ],
                "dialogID": 722872814,
                "protectTime": 0.5
            },
            {
                "$type": "ConfigDialogSelectAction",
                "type": "DIALOG_SELECT",
                "delayTime": 0.4000000059604645,
                "aliasList": [
                    "Avatar"
                ],
                "dialogIDList": [
                    722872815,
                    722872816,
                    722872817
                ],
                "grpIDList": [
                    3546855772,
                    3546855839,
                    3546855839
                ],
                "useGrpId": true
            }
        ],
        [
            {
                "$type": "ConfigDialogInterAction",
                "type": "DIALOG",
                "aliasList": [
                    "20718"
                ],
                "dialogID": 722872818,
                "protectTime": 0.5
            }
        ],
        [
            {
                "$type": "ConfigDialogInterAction",
                "type": "DIALOG",
                "aliasList": [
                    "20719"
                ],
                "dialogID": 722872819,
                "protectTime": 0.5
            }
        ],
        [
            {
                "$type": "ConfigDialogInterAction",
                "type": "DIALOG",
                "aliasList": [
                    "20719"
                ],
                "dialogID": 722872820,
                "protectTime": 0.5
            }
        ],
        [
            {
                "$type": "ConfigDialogInterAction",
                "type": "DIALOG",
                "aliasList": [
                    "20718"
                ],
                "dialogID": 722872821,
                "protectTime": 0.5
            }
        ],
        [
            {
                "$type": "ConfigDialogInterAction",
                "type": "DIALOG",
                "aliasList": [
                    "20718"
                ],
                "dialogID": 722872822,
                "protectTime": 0.5
            }
        ],
        [
            {
                "$type": "ConfigDialogInterAction",
                "type": "DIALOG",
                "aliasList": [
                    "20719"
                ],
                "dialogID": 722872823,
                "protectTime": 0.5
            }
        ],
        [
            {
                "$type": "ConfigDialogInterAction",
                "type": "DIALOG",
                "aliasList": [
                    "20718"
                ],
                "dialogID": 722872824,
                "protectTime": 0.5
            }
        ],
        [
            {
                "$type": "ConfigDialogInterAction",
                "type": "DIALOG",
                "aliasList": [
                    "20718"
                ],
                "dialogID": 722872825,
                "protectTime": 0.5
            },
            {
                "$type": "ConfigDialogSelectAction",
                "type": "DIALOG_SELECT",
                "delayTime": 0.4000000059604645,
                "aliasList": [
                    "Avatar"
                ],
                "dialogIDList": [
                    722872826,
                    722872827,
                    722872828
                ],
                "grpIDList": [
                    3546855801,
                    3546855839,
                    3546855839
                ],
                "useGrpId": true
            }
        ],
        [
            {
                "$type": "ConfigDialogInterAction",
                "type": "DIALOG",
                "aliasList": [
                    "20718"
                ],
                "dialogID": 722872829,
                "protectTime": 0.5
            }
        ],
        [
            {
                "$type": "ConfigDialogInterAction",
                "type": "DIALOG",
                "aliasList": [
                    "20718"
                ],
                "dialogID": 722872830,
                "protectTime": 0.5
            }
        ],
        [
            {
                "$type": "ConfigDialogInterAction",
                "type": "DIALOG",
                "aliasList": [
                    "20718"
                ],
                "dialogID": 722872831,
                "protectTime": 0.5
            }
        ],
        [
            {
                "$type": "ConfigDialogInterAction",
                "type": "DIALOG",
                "aliasList": [
                    "20718"
                ],
                "dialogID": 722872832,
                "protectTime": 0.5
            }
        ],
        [
            {
                "$type": "ConfigDialogInterAction",
                "type": "DIALOG",
                "aliasList": [
                    "20718"
                ],
                "dialogID": 722872833,
                "protectTime": 0.5
            }
        ],
        [
            {
                "$type": "ConfigDialogInterAction",
                "type": "DIALOG",
                "aliasList": [
                    "20718"
                ],
                "dialogID": 722872834,
                "protectTime": 0.5
            }
        ],
        [
            {
                "$type": "ConfigDialogInterAction",
                "type": "DIALOG",
                "aliasList": [
                    "20718"
                ],
                "dialogID": 722872835,
                "protectTime": 0.5
            }
        ],
        [
            {
                "$type": "ConfigDialogInterAction",
                "type": "DIALOG",
                "aliasList": [
                    "20718"
                ],
                "dialogID": 722872836,
                "protectTime": 0.5
            }
        ],
        [
            {
                "$type": "ConfigDialogInterAction",
                "type": "DIALOG",
                "aliasList": [
                    "20721"
                ],
                "dialogID": 722872837,
                "protectTime": 0.5
            }
        ],
        [
            {
                "$type": "ConfigDialogInterAction",
                "type": "DIALOG",
                "aliasList": [
                    "20721"
                ],
                "dialogID": 722872838,
                "protectTime": 0.5
            }
        ],
        [
            {
                "$type": "ConfigDialogInterAction",
                "type": "DIALOG",
                "aliasList": [
                    "20721"
                ],
                "dialogID": 722872839,
                "protectTime": 0.5
            }
        ],
        [
            {
                "$type": "ConfigDialogInterAction",
                "type": "DIALOG",
                "aliasList": [
                    "20721"
                ],
                "dialogID": 722872840,
                "protectTime": 0.5
            }
        ],
        [
            {
                "$type": "ConfigDialogInterAction",
                "type": "DIALOG",
                "aliasList": [
                    "20718"
                ],
                "dialogID": 722872841,
                "protectTime": 0.5
            },
            {
                "$type": "ConfigDialogSelectAction",
                "type": "DIALOG_SELECT",
                "delayTime": 0.4000000059604645,
                "aliasList": [
                    "Avatar"
                ],
                "dialogIDList": [
                    722872845,
                    722872846
                ],
                "grpIDList": [
                    3546855835,
                    3546855839
                ],
                "useGrpId": true
            }
        ],
        [
            {
                "$type": "ConfigDialogInterAction",
                "type": "DIALOG",
                "aliasList": [
                    "20721"
                ],
                "dialogID": 722872847,
                "protectTime": 0.5
            }
        ],
        [
            {
                "$type": "ConfigDialogInterAction",
                "type": "DIALOG",
                "aliasList": [
                    "20718"
                ],
                "dialogID": 722872848,
                "protectTime": 0.5
            }
        ],
        [
            {
                "$type": "ConfigDialogInterAction",
                "type": "DIALOG",
                "aliasList": [
                    "20718"
                ],
                "dialogID": 722872849,
                "protectTime": 0.5
            }
        ],
        [
            {
                "$type": "ConfigLuaAction",
                "type": "LUA_ACTION",
                "duration": 0.10000000149011612,
                "invoke": true,
                "invokeAlias": "72287",
                "invokeParam": 701
            }
        ],
        [
            {
                "$type": "ConfigDialogInterAction",
                "type": "DIALOG",
                "aliasList": [
                    "3162"
                ],
                "dialogID": 722872850,
                "protectTime": 0.5
            }
        ],
        [
            {
                "$type": "ConfigDialogInterAction",
                "type": "DIALOG",
                "aliasList": [
                    "3162"
                ],
                "dialogID": 722872851,
                "protectTime": 0.5
            }
        ],
        [
            {
                "$type": "ConfigLuaAction",
                "type": "LUA_ACTION",
                "duration": 0.10000000149011612,
                "invoke": true,
                "invokeAlias": "72287",
                "invokeParam": 702
            }
        ],
        [
            {
                "$type": "ConfigTimeProtectAction",
                "type": "TIME_PROTECT",
                "duration": 0.10000000149011612
            }
        ],
        [
            {
                "$type": "ConfigTimeProtectAction",
                "type": "TIME_PROTECT",
                "duration": 0.10000000149011612
            },
            {
                "$type": "ConfigSimpleBlackScreenAction",
                "type": "SIMPLE_BLACK_SCREEN",
                "durationToBlack": 0.5,
                "durationKeepBlack": 1.0,
                "durationFromBlack": 0.5,
                "textMapID": ""
            },
            {
                "$type": "ConfigTimeProtectAction",
                "type": "TIME_PROTECT",
                "duration": 0.699999988079071
            }
        ]
    ],
    "groupId": [
        {
            "grpId": 2608266679,
            "nextGrpId": 2608266680
        },
        {
            "index": 1,
            "grpId": 2608266680,
            "nextGrpId": 2608266681
        },
        {
            "index": 2,
            "grpId": 2608266681,
            "nextGrpId": 2608266682
        },
        {
            "index": 3,
            "grpId": 2608266682,
            "nextGrpId": 2608266683
        },
        {
            "index": 4,
            "grpId": 2608266683,
            "nextGrpId": 2608266684
        },
        {
            "index": 5,
            "grpId": 2608266684,
            "nextGrpId": 2608266685
        },
        {
            "index": 6,
            "grpId": 2608266685,
            "nextGrpId": 2608266686
        },
        {
            "index": 7,
            "grpId": 2608266686,
            "nextGrpId": 2608266687
        },
        {
            "index": 8,
            "grpId": 2608266687,
            "nextGrpId": 3546855769
        },
        {
            "index": 9,
            "grpId": 3546855769,
            "nextGrpId": 3546855770
        },
        {
            "index": 10,
            "grpId": 3546855770,
            "nextGrpId": 3546855771
        },
        {
            "index": 11,
            "grpId": 3546855771,
            "nextGrpId": 3546855772
        },
        {
            "index": 12,
            "grpId": 3546855772,
            "nextGrpId": 3546855773
        },
        {
            "index": 13,
            "grpId": 3546855773,
            "nextGrpId": 3546855774
        },
        {
            "index": 14,
            "grpId": 3546855774,
            "nextGrpId": 3546855775
        },
        {
            "index": 15,
            "grpId": 3546855775,
            "nextGrpId": 3546855776
        },
        {
            "index": 16,
            "grpId": 3546855776,
            "nextGrpId": 3546855777
        },
        {
            "index": 17,
            "grpId": 3546855777,
            "nextGrpId": 3546855778
        },
        {
            "index": 18,
            "grpId": 3546855778,
            "nextGrpId": 3546855800
        },
        {
            "index": 19,
            "grpId": 3546855800,
            "nextGrpId": 3546855801
        },
        {
            "index": 20,
            "grpId": 3546855801,
            "nextGrpId": 3546855802
        },
        {
            "index": 21,
            "grpId": 3546855802,
            "nextGrpId": 3546855803
        },
        {
            "index": 22,
            "grpId": 3546855803,
            "nextGrpId": 3546855804
        },
        {
            "index": 23,
            "grpId": 3546855804,
            "nextGrpId": 3546855805
        },
        {
            "index": 24,
            "grpId": 3546855805,
            "nextGrpId": 3546855806
        },
        {
            "index": 25,
            "grpId": 3546855806,
            "nextGrpId": 3546855807
        },
        {
            "index": 26,
            "grpId": 3546855807,
            "nextGrpId": 3546855808
        },
        {
            "index": 27,
            "grpId": 3546855808,
            "nextGrpId": 3546855809
        },
        {
            "index": 28,
            "grpId": 3546855809,
            "nextGrpId": 3546855831
        },
        {
            "index": 29,
            "grpId": 3546855831,
            "nextGrpId": 3546855832
        },
        {
            "index": 30,
            "grpId": 3546855832,
            "nextGrpId": 3546855833
        },
        {
            "index": 31,
            "grpId": 3546855833,
            "nextGrpId": 3546855834
        },
        {
            "index": 32,
            "grpId": 3546855834,
            "nextGrpId": 3546855835
        },
        {
            "index": 33,
            "grpId": 3546855835,
            "nextGrpId": 3546855836
        },
        {
            "index": 34,
            "grpId": 3546855836,
            "nextGrpId": 3546855837
        },
        {
            "index": 35,
            "grpId": 3546855837,
            "nextGrpId": 3546855838
        },
        {
            "index": 36,
            "grpId": 3546855838,
            "nextGrpId": 3546855863
        },
        {
            "index": 37,
            "grpId": 3546855839,
            "nextGrpId": 3546855840
        },
        {
            "index": 38,
            "grpId": 3546855840,
            "nextGrpId": 3546855862
        },
        {
            "index": 39,
            "grpId": 3546855862,
            "nextGrpId": 3546855863
        },
        {
            "index": 40,
            "grpId": 3546855863,
            "nextGrpId": 3546855864
        },
        {
            "index": 41,
            "grpId": 3546855864,
            "nextGrpId": 3546855865
        }
    ],
    "freeStyleDic": {
        "20718": [],
        "20721": [],
        "20719": [],
        "3162": []
    }
}