{
    "HBPGBNCBOMP": "",
    "KENGMFPNLEP": "",
    "disableNpcLod": true,
    "startFade": {
        "startFadeOutDuration": 0.0
    },
    "endFade": {
        "startFadeOutDuration": 0.0
    },
    "actors": [
        {
            "alias": "Avatar",
            "visible": true,
            "bornPointName": "",
            "relativePosNpcAlias": ""
        },
        {
            "configID": 1005,
            "alias": "1005",
            "visible": true,
            "bornPointName": "",
            "useRelativePos": true,
            "relativePos": {
                "x": -0.5,
                "z": 0.5
            },
            "removeActorType": "REMOVE_WITH_DISAPPEAR",
            "relativePosNpcAlias": ""
        }
    ],
    "group": [
        [
            {
                "$type": "ConfigTimeProtectAction",
                "type": "TIME_PROTECT",
                "duration": 0.10000000149011612
            }
        ],
        [
            {
                "$type": "ConfigDialogInterAction",
                "type": "DIALOG",
                "aliasList": [
                    "1005"
                ],
                "dialogID": 730320901,
                "protectTime": 0.5
            }
        ],
        [
            {
                "$type": "ConfigDialogInterAction",
                "type": "DIALOG",
                "aliasList": [
                    "1005"
                ],
                "dialogID": 730320902,
                "protectTime": 0.5
            },
            {
                "$type": "ConfigDialogSelectAction",
                "type": "DIALOG_SELECT",
                "delayTime": 0.4000000059604645,
                "aliasList": [
                    "Avatar"
                ],
                "dialogIDList": [
                    730320903,
                    730320904
                ],
                "grpIDList": [
                    2237851537,
                    2237851538
                ],
                "useGrpId": true
            }
        ],
        [
            {
                "$type": "ConfigLuaAction",
                "type": "LUA_ACTION",
                "delayTime": 0.10000000149011612,
                "duration": 0.10000000149011612,
                "checkNextImmediately": true,
                "invoke": true,
                "invokeAlias": "73032",
                "invokeParam": 1
            }
        ],
        [
            {
                "$type": "ConfigTimeProtectAction",
                "type": "TIME_PROTECT",
                "duration": 0.10000000149011612
            }
        ],
        [
            {
                "$type": "ConfigTimeProtectAction",
                "type": "TIME_PROTECT",
                "duration": 0.10000000149011612
            }
        ]
    ],
    "groupId": [
        {
            "grpId": 2237851534,
            "nextGrpId": 2237851535
        },
        {
            "index": 1,
            "grpId": 2237851535,
            "nextGrpId": 2237851536
        },
        {
            "index": 2,
            "grpId": 2237851536,
            "nextGrpId": 2237851537
        },
        {
            "index": 3,
            "grpId": 2237851537,
            "nextGrpId": 2237851538
        },
        {
            "index": 4,
            "grpId": 2237851538,
            "nextGrpId": 2237851539
        },
        {
            "index": 5,
            "grpId": 2237851539,
            "nextGrpId": 2237851540
        }
    ]
}