{
    "HBPGBNCBOMP": "",
    "isSimpleTalk": true,
    "KENGMFPNLEP": "",
    "disableNpcLod": true,
    "startFade": {
        "startFadeOutDuration": 0.0
    },
    "endFade": {
        "startFadeOutDuration": 0.0
    },
    "actors": [
        {
            "alias": "Avatar",
            "visible": true,
            "bornPointName": "Q11120_Player_Katherine_Pos",
            "relativePosNpcAlias": ""
        },
        {
            "configID": 2078,
            "alias": "2078",
            "visible": true,
            "bornPointName": "Q11120_Katherine_Pos",
            "relativePosNpcAlias": ""
        },
        {
            "configID": 2440,
            "alias": "2440",
            "visible": true,
            "bornPointName": "Q8000Ganyu",
            "removeActorType": "REMOVE",
            "relativePosNpcAlias": ""
        },
        {
            "configID": 1005,
            "alias": "1005",
            "visible": true,
            "bornPointName": "Q11120_Paimon_Katherine_Pos",
            "removeActorType": "REMOVE_WITH_DISAPPEAR",
            "relativePosNpcAlias": ""
        }
    ],
    "group": [
        [
            {
                "$type": "ConfigCameraMoveInterAction",
                "type": "CAMERA_FOCUS",
                "delayTime": 0.30000001192092896,
                "duration": 0.10000000149011612,
                "targetNpcAlias": ""
            },
            {
                "$type": "ConfigTimeProtectAction",
                "type": "TIME_PROTECT",
                "duration": 0.4000000059604645
            }
        ],
        [
            {
                "$type": "ConfigDialogSelectAction",
                "type": "DIALOG_SELECT",
                "delayTime": 0.4000000059604645,
                "aliasList": [
                    "Avatar"
                ],
                "dialogIDList": [
                    20110102,
                    20110103
                ],
                "grpIDList": [
                    2711904333,
                    2711904333
                ],
                "useGrpId": true
            },
            {
                "$type": "ConfigDialogInterAction",
                "type": "DIALOG",
                "aliasList": [
                    "2078"
                ],
                "dialogID": 20110101,
                "protectTime": 0.5
            }
        ],
        [
            {
                "$type": "ConfigDialogInterAction",
                "type": "DIALOG",
                "aliasList": [
                    "2078"
                ],
                "dialogID": 20110104,
                "protectTime": 0.5
            }
        ],
        [
            {
                "$type": "ConfigDialogInterAction",
                "type": "DIALOG",
                "aliasList": [
                    "2078"
                ],
                "dialogID": 20110105,
                "protectTime": 0.5
            }
        ],
        [
            {
                "$type": "ConfigDialogSelectAction",
                "type": "DIALOG_SELECT",
                "delayTime": 0.4000000059604645,
                "aliasList": [
                    "Avatar"
                ],
                "dialogIDList": [
                    20110107,
                    20110109
                ],
                "grpIDList": [
                    2711904336,
                    2711904337
                ],
                "useGrpId": true
            },
            {
                "$type": "ConfigDialogInterAction",
                "type": "DIALOG",
                "aliasList": [
                    "2440"
                ],
                "dialogID": 20110106,
                "protectTime": 0.5
            }
        ],
        [
            {
                "$type": "ConfigDialogInterAction",
                "type": "DIALOG",
                "aliasList": [
                    "2440"
                ],
                "dialogID": 20110108,
                "protectTime": 0.5
            }
        ],
        [
            {
                "$type": "ConfigDialogInterAction",
                "type": "DIALOG",
                "aliasList": [
                    "2440"
                ],
                "dialogID": 20110110,
                "protectTime": 0.5
            }
        ],
        [
            {
                "$type": "ConfigDialogInterAction",
                "type": "DIALOG",
                "aliasList": [
                    "2440"
                ],
                "dialogID": 20110111,
                "protectTime": 0.5
            }
        ],
        [
            {
                "$type": "ConfigDialogInterAction",
                "type": "DIALOG",
                "aliasList": [
                    "1005"
                ],
                "dialogID": 20110112,
                "protectTime": 0.5
            }
        ],
        [
            {
                "$type": "ConfigDialogInterAction",
                "type": "DIALOG",
                "aliasList": [
                    "2440"
                ],
                "dialogID": 20110113,
                "protectTime": 0.5
            }
        ],
        [
            {
                "$type": "ConfigDialogInterAction",
                "type": "DIALOG",
                "aliasList": [
                    "2078"
                ],
                "dialogID": 20110114,
                "protectTime": 0.5
            }
        ],
        [
            {
                "$type": "ConfigDialogInterAction",
                "type": "DIALOG",
                "aliasList": [
                    "2078"
                ],
                "dialogID": 20110115,
                "protectTime": 0.5
            }
        ],
        [
            {
                "$type": "ConfigDialogSelectAction",
                "type": "DIALOG_SELECT",
                "delayTime": 0.4000000059604645,
                "aliasList": [
                    "Avatar"
                ],
                "dialogIDList": [
                    20110117,
                    20110118
                ],
                "grpIDList": [
                    2464655689,
                    2464655689
                ],
                "useGrpId": true
            },
            {
                "$type": "ConfigDialogInterAction",
                "type": "DIALOG",
                "aliasList": [
                    "2078"
                ],
                "dialogID": 20110116,
                "protectTime": 0.5
            }
        ],
        [
            {
                "$type": "ConfigDialogInterAction",
                "type": "DIALOG",
                "aliasList": [
                    "1005"
                ],
                "dialogID": 20110119,
                "protectTime": 0.5
            }
        ],
        [
            {
                "$type": "ConfigDialogSelectAction",
                "type": "DIALOG_SELECT",
                "delayTime": 0.4000000059604645,
                "aliasList": [
                    "Avatar"
                ],
                "dialogIDList": [
                    20110121,
                    20110122
                ],
                "grpIDList": [
                    2464655691,
                    2464655691
                ],
                "useGrpId": true
            },
            {
                "$type": "ConfigDialogInterAction",
                "type": "DIALOG",
                "aliasList": [
                    "2078"
                ],
                "dialogID": 20110120,
                "protectTime": 0.5
            }
        ],
        [
            {
                "$type": "ConfigDialogInterAction",
                "type": "DIALOG",
                "aliasList": [
                    "1005"
                ],
                "dialogID": 20110123,
                "protectTime": 0.5
            }
        ],
        [
            {
                "$type": "ConfigDialogInterAction",
                "type": "DIALOG",
                "aliasList": [
                    "2440"
                ],
                "dialogID": 20110124,
                "protectTime": 0.5
            }
        ],
        [
            {
                "$type": "ConfigDialogInterAction",
                "type": "DIALOG",
                "aliasList": [
                    "1005"
                ],
                "dialogID": 20110125,
                "protectTime": 0.5
            }
        ],
        [
            {
                "$type": "ConfigDialogInterAction",
                "type": "DIALOG",
                "aliasList": [
                    "2440"
                ],
                "dialogID": 20110126,
                "protectTime": 0.5
            }
        ],
        [
            {
                "$type": "ConfigTimeProtectAction",
                "type": "TIME_PROTECT",
                "duration": 0.10000000149011612
            },
            {
                "$type": "ConfigSimpleBlackScreenAction",
                "type": "SIMPLE_BLACK_SCREEN",
                "durationToBlack": 0.5,
                "durationKeepBlack": 1.0,
                "durationFromBlack": 0.5,
                "textMapID": ""
            },
            {
                "$type": "ConfigTimeProtectAction",
                "type": "TIME_PROTECT",
                "duration": 0.699999988079071
            },
            {
                "$type": "ConfigVisibleInterAction",
                "type": "VISIBLE",
                "delayTime": 0.6000000238418579,
                "aliasList": [
                    "2440"
                ]
            },
            {
                "$type": "ConfigVisibleInterAction",
                "type": "VISIBLE",
                "delayTime": 0.6000000238418579,
                "aliasList": [
                    "1005"
                ]
            }
        ]
    ],
    "groupId": [
        {
            "grpId": 2711904331,
            "nextGrpId": 2711904332
        },
        {
            "index": 1,
            "grpId": 2711904332,
            "nextGrpId": 2711904333
        },
        {
            "index": 2,
            "grpId": 2711904333,
            "nextGrpId": 2711904334
        },
        {
            "index": 3,
            "grpId": 2711904334,
            "nextGrpId": 2711904335
        },
        {
            "index": 4,
            "grpId": 2711904335,
            "nextGrpId": 2711904336
        },
        {
            "index": 5,
            "grpId": 2711904336,
            "nextGrpId": 2711904337
        },
        {
            "index": 6,
            "grpId": 2711904337,
            "nextGrpId": 2711904338
        },
        {
            "index": 7,
            "grpId": 2711904338,
            "nextGrpId": 2711904339
        },
        {
            "index": 8,
            "grpId": 2711904339,
            "nextGrpId": 2464655685
        },
        {
            "index": 9,
            "grpId": 2464655685,
            "nextGrpId": 2464655686
        },
        {
            "index": 10,
            "grpId": 2464655686,
            "nextGrpId": 2464655687
        },
        {
            "index": 11,
            "grpId": 2464655687,
            "nextGrpId": 2464655688
        },
        {
            "index": 12,
            "grpId": 2464655688,
            "nextGrpId": 2464655689
        },
        {
            "index": 13,
            "grpId": 2464655689,
            "nextGrpId": 2464655690
        },
        {
            "index": 14,
            "grpId": 2464655690,
            "nextGrpId": 2464655691
        },
        {
            "index": 15,
            "grpId": 2464655691,
            "nextGrpId": 2464655692
        },
        {
            "index": 16,
            "grpId": 2464655692,
            "nextGrpId": 2464655693
        },
        {
            "index": 17,
            "grpId": 2464655693,
            "nextGrpId": 2464655694
        },
        {
            "index": 18,
            "grpId": 2464655694,
            "nextGrpId": 2464655716
        },
        {
            "index": 19,
            "grpId": 2464655716,
            "nextGrpId": 2464655717
        }
    ],
    "freeStyleDic": {
        "2078": [],
        "2440": []
    }
}