{
    "HBPGBNCBOMP": "",
    "startBlackKeepTime": 1.0,
    "KENGMFPNLEP": "",
    "disableNpcLod": true,
    "NIHBFFCCJJN": true,
    "startFade": {
        "startFadeInDuration": 0.5,
        "startFadeOutDuration": 0.5
    },
    "endFade": {
        "startFadeInDuration": 0.5,
        "startFadeOutDuration": 0.5
    },
    "actors": [
        {
            "alias": "Avatar",
            "visible": true,
            "bornPointName": "Q1914501_C1914501_N10000005",
            "relativePosNpcAlias": ""
        },
        {
            "configID": 12503,
            "alias": "12503",
            "visible": true,
            "bornPointName": "Q1914501_C1914501_N12503",
            "relativePosNpcAlias": ""
        },
        {
            "configID": 510,
            "alias": "510",
            "visible": true,
            "bornPointName": "Q1914501_C1914501_N510",
            "removeActorType": "REMOVE",
            "relativePosNpcAlias": ""
        }
    ],
    "group": [
        [
            {
                "$type": "ConfigTimeProtectAction",
                "type": "TIME_PROTECT",
                "duration": 1.0
            },
            {
                "$type": "ConfigBlackScreenAction",
                "type": "BLACK_SCREEN",
                "blackScreenType": "KEEP_BLACK",
                "durationKeepBlack": 0.5,
                "inteePos": "",
                "textMapID": "",
                "useTextFade": true
            },
            {
                "$type": "ConfigVisibleInterAction",
                "type": "VISIBLE",
                "aliasList": [
                    "Avatar"
                ]
            },
            {
                "$type": "ConfigTeleportToAction",
                "type": "TELEPORT_TO",
                "aliasList": [
                    "12503"
                ],
                "position": {
                    "x": -2467.14306640625,
                    "y": 446.5899963378906,
                    "z": -4399.32080078125
                },
                "forward": {
                    "x": -1.444000005722046,
                    "z": -0.949999988079071
                },
                "openLongDisTeleport": true
            },
            {
                "$type": "ConfigLookAtInterAction",
                "type": "LOOK_AT",
                "aliasList": [
                    "12503"
                ],
                "headTurnTime": 0.5,
                "targetNpcAlias": ""
            },
            {
                "$type": "ConfigLookAtEyeCtrlInterAction",
                "type": "LOOK_AT_EYECTRL",
                "aliasList": [
                    "12503"
                ],
                "useTargetPos": false,
                "eyeRotateVecLeft": {
                    "z": 2.0
                },
                "eyeRotateVecRight": {
                    "z": 2.0
                },
                "turnTime": 1.0,
                "targetNpcAlias": "",
                "targetPoint": "Face"
            },
            {
                "$type": "ConfigEmotionTemplateAction",
                "type": "EMOTION_TEMPLATE",
                "aliasList": [
                    "510"
                ],
                "emoTemplateID": 10100
            },
            {
                "$type": "ConfigLookAtInterAction",
                "type": "LOOK_AT",
                "aliasList": [
                    "510"
                ],
                "headTurnTime": 0.5,
                "targetNpcAlias": ""
            }
        ],
        [
            {
                "$type": "ConfigCameraMoveInterAction",
                "type": "CAMERA_MOVE",
                "duration": 1.0,
                "cameraPosType": "RELATIVE_TO_TARGET_ENTITY",
                "camTargetType": "RELATIVE_TO_TARGET_ENTITY",
                "camFov": 30.0,
                "lerpPattern": 6,
                "cameraBlendType": "EaseInOutCubic",
                "cutFrameTrans": {},
                "openCameraDither": false,
                "targetNpcAlias": "12503",
                "closeTreeLeafDither": true
            },
            {
                "$type": "ConfigBlackScreenAction",
                "type": "BLACK_SCREEN",
                "blackScreenType": "FROM_BLACK",
                "durationFromBlack": 0.5,
                "inteePos": "",
                "textMapID": "",
                "useTextFade": true
            },
            {
                "$type": "ConfigDialogInterAction",
                "type": "DIALOG",
                "aliasList": [
                    "12503"
                ],
                "dialogID": 191450101,
                "protectTime": 0.5
            },
            {
                "$type": "ConfigEmoSyncInterAction",
                "type": "EMO_SYNC",
                "aliasList": [
                    "12503"
                ],
                "dataPath": "Cs_Emo_Avatar_Simple_Common_Set/Cs_Emo_Avatar_Talk/Cs_Emo_Coop_Common/Cs_Emo_Coop_Shinobu_01/Cs_Emo_191450101",
                "phonemePath": "",
                "emotionPath": "",
                "mateDataPath": "",
                "matePhonemePath": "",
                "mateEmotionPath": "",
                "dataPathHashList": [
                    16939880619357430029,
                    1157225224443158915,
                    18136225777205490049,
                    10448895778041836418
                ]
            },
            {
                "$type": "ConfigBodyLangInterAction",
                "type": "BODY_LANG",
                "aliasList": [
                    "12503"
                ],
                "bodyLangParam": 1190,
                "forceDoFreeStyle": true,
                "canDoRepeatFreeStyle": false
            },
            {
                "$type": "ConfigDialogSelectAction",
                "type": "DIALOG_SELECT",
                "delayTime": 0.4000000059604645,
                "aliasList": [
                    "Avatar"
                ],
                "dialogIDList": [
                    191450102,
                    191450103
                ],
                "grpIDList": [
                    319852727,
                    319852727
                ],
                "useGrpId": true
            },
            {
                "$type": "ConfigBodyLangInterAction",
                "type": "BODY_LANG",
                "delayTime": 0.4050000011920929,
                "aliasList": [
                    "12503"
                ],
                "bodyLangParam": 4040,
                "forceDoFreeStyle": true,
                "canDoRepeatFreeStyle": false
            },
            {
                "$type": "ConfigLookAtEyeCtrlInterAction",
                "type": "LOOK_AT_EYECTRL",
                "delayTime": 3.3480000495910645,
                "aliasList": [
                    "12503"
                ],
                "useTargetPos": false,
                "eyeRotateVecLeft": {
                    "z": 6.0
                },
                "eyeRotateVecRight": {
                    "z": 6.0
                },
                "turnTime": 0.10000000149011612,
                "targetNpcAlias": "",
                "targetPoint": "Face"
            },
            {
                "$type": "ConfigBodyLangInterAction",
                "type": "BODY_LANG",
                "delayTime": 4.113999843597412,
                "aliasList": [
                    "12503"
                ],
                "isContinue": true,
                "forceDoFreeStyle": true,
                "canDoRepeatFreeStyle": false
            },
            {
                "$type": "ConfigBodyLangInterAction",
                "type": "BODY_LANG",
                "delayTime": 5.146999835968018,
                "aliasList": [
                    "12503"
                ],
                "bodyLangParam": 1040,
                "forceDoFreeStyle": true,
                "canDoRepeatFreeStyle": false
            },
            {
                "$type": "ConfigLookAtEyeCtrlInterAction",
                "type": "LOOK_AT_EYECTRL",
                "delayTime": 5.550000190734863,
                "aliasList": [
                    "12503"
                ],
                "useTargetPos": false,
                "eyeRotateVecLeft": {
                    "z": 4.0
                },
                "eyeRotateVecRight": {
                    "z": 4.0
                },
                "turnTime": 0.10000000149011612,
                "targetNpcAlias": "",
                "targetPoint": "Face"
            }
        ],
        [
            {
                "$type": "ConfigDialogInterAction",
                "type": "DIALOG",
                "aliasList": [
                    "12503"
                ],
                "dialogID": 191450104,
                "protectTime": 0.5
            },
            {
                "$type": "ConfigEmoSyncInterAction",
                "type": "EMO_SYNC",
                "aliasList": [
                    "12503"
                ],
                "dataPath": "Cs_Emo_Avatar_Simple_Common_Set/Cs_Emo_Avatar_Talk/Cs_Emo_Coop_Common/Cs_Emo_Coop_Shinobu_01/Cs_Emo_191450104",
                "phonemePath": "",
                "emotionPath": "",
                "mateDataPath": "",
                "matePhonemePath": "",
                "mateEmotionPath": "",
                "enableBlink": false,
                "dataPathHashList": [
                    16947900603659070169,
                    11931444465962423818,
                    56460316696058708,
                    13124292734470846147
                ]
            },
            {
                "$type": "ConfigBodyLangInterAction",
                "type": "BODY_LANG",
                "aliasList": [
                    "12503"
                ],
                "isContinue": true,
                "forceDoFreeStyle": true,
                "canDoRepeatFreeStyle": false
            },
            {
                "$type": "ConfigBodyLangInterAction",
                "type": "BODY_LANG",
                "delayTime": 1.4299999475479126,
                "aliasList": [
                    "12503"
                ],
                "bodyLangParam": 1173,
                "forceDoFreeStyle": true,
                "canDoRepeatFreeStyle": false
            },
            {
                "$type": "ConfigBodyLangInterAction",
                "type": "BODY_LANG",
                "delayTime": 5.519999980926514,
                "aliasList": [
                    "12503"
                ],
                "bodyLangParam": 4030,
                "forceDoFreeStyle": true,
                "canDoRepeatFreeStyle": false
            }
        ],
        [
            {
                "$type": "ConfigDialogInterAction",
                "type": "DIALOG",
                "aliasList": [
                    "12503"
                ],
                "dialogID": 191450105,
                "protectTime": 0.5
            },
            {
                "$type": "ConfigEmoSyncInterAction",
                "type": "EMO_SYNC",
                "aliasList": [
                    "12503"
                ],
                "dataPath": "Cs_Emo_Avatar_Simple_Common_Set/Cs_Emo_Avatar_Talk/Cs_Emo_Coop_Common/Cs_Emo_Coop_Shinobu_01/Cs_Emo_191450105",
                "phonemePath": "",
                "emotionPath": "",
                "mateDataPath": "",
                "matePhonemePath": "",
                "mateEmotionPath": "",
                "dataPathHashList": [
                    11185620065902266159,
                    5621664692776694503,
                    12320500539443136188,
                    18331630626383053644
                ]
            },
            {
                "$type": "ConfigBodyLangInterAction",
                "type": "BODY_LANG",
                "aliasList": [
                    "12503"
                ],
                "bodyLangParam": 1171,
                "forceDoFreeStyle": true,
                "canDoRepeatFreeStyle": false
            },
            {
                "$type": "ConfigBodyLangInterAction",
                "type": "BODY_LANG",
                "delayTime": 4.638999938964844,
                "aliasList": [
                    "12503"
                ],
                "bodyLangParam": 1172,
                "forceDoFreeStyle": true,
                "canDoRepeatFreeStyle": false
            }
        ],
        [
            {
                "$type": "ConfigDialogInterAction",
                "type": "DIALOG",
                "aliasList": [
                    "12503"
                ],
                "dialogID": 191450106,
                "protectTime": 0.5
            },
            {
                "$type": "ConfigEmoSyncInterAction",
                "type": "EMO_SYNC",
                "aliasList": [
                    "12503"
                ],
                "dataPath": "Cs_Emo_Avatar_Simple_Common_Set/Cs_Emo_Avatar_Talk/Cs_Emo_Coop_Common/Cs_Emo_Coop_Shinobu_01/Cs_Emo_191450106",
                "phonemePath": "",
                "emotionPath": "",
                "mateDataPath": "",
                "matePhonemePath": "",
                "mateEmotionPath": "",
                "dataPathHashList": [
                    10621025770524636021,
                    3266775401986434334,
                    7967665008302333271,
                    12587571900161923399
                ]
            },
            {
                "$type": "ConfigBodyLangInterAction",
                "type": "BODY_LANG",
                "aliasList": [
                    "12503"
                ],
                "bodyLangParam": 1173,
                "forceDoFreeStyle": true,
                "canDoRepeatFreeStyle": false
            }
        ],
        [
            {
                "$type": "ConfigDialogInterAction",
                "type": "DIALOG",
                "aliasList": [
                    "12503"
                ],
                "dialogID": 191450107,
                "protectTime": 0.5
            },
            {
                "$type": "ConfigEmoSyncInterAction",
                "type": "EMO_SYNC",
                "aliasList": [
                    "12503"
                ],
                "dataPath": "Cs_Emo_Avatar_Simple_Common_Set/Cs_Emo_Avatar_Talk/Cs_Emo_Coop_Common/Cs_Emo_Coop_Shinobu_01/Cs_Emo_191450107",
                "phonemePath": "",
                "emotionPath": "",
                "mateDataPath": "",
                "matePhonemePath": "",
                "mateEmotionPath": "",
                "dataPathHashList": [
                    18136896622465692647,
                    4820433964520512578,
                    7132277079788849387,
                    3465618337501342087
                ]
            },
            {
                "$type": "ConfigBodyLangInterAction",
                "type": "BODY_LANG",
                "aliasList": [
                    "12503"
                ],
                "bodyLangParam": 1130,
                "forceDoFreeStyle": true,
                "canDoRepeatFreeStyle": false
            },
            {
                "$type": "ConfigBodyLangInterAction",
                "type": "BODY_LANG",
                "delayTime": 3.3519999980926514,
                "aliasList": [
                    "12503"
                ],
                "isContinue": true,
                "forceDoFreeStyle": true,
                "canDoRepeatFreeStyle": false
            },
            {
                "$type": "ConfigBodyLangInterAction",
                "type": "BODY_LANG",
                "delayTime": 4.205999851226807,
                "aliasList": [
                    "12503"
                ],
                "bodyLangParam": 1060,
                "forceDoFreeStyle": true,
                "canDoRepeatFreeStyle": false
            },
            {
                "$type": "ConfigBodyLangInterAction",
                "type": "BODY_LANG",
                "delayTime": 6.36299991607666,
                "aliasList": [
                    "12503"
                ],
                "isContinue": true,
                "forceDoFreeStyle": true,
                "canDoRepeatFreeStyle": false
            }
        ],
        [
            {
                "$type": "ConfigDialogInterAction",
                "type": "DIALOG",
                "aliasList": [
                    "12503"
                ],
                "dialogID": 191450108,
                "protectTime": 0.5
            },
            {
                "$type": "ConfigEmoSyncInterAction",
                "type": "EMO_SYNC",
                "aliasList": [
                    "12503"
                ],
                "dataPath": "Cs_Emo_Avatar_Simple_Common_Set/Cs_Emo_Avatar_Talk/Cs_Emo_Coop_Common/Cs_Emo_Coop_Shinobu_01/Cs_Emo_191450108",
                "phonemePath": "",
                "emotionPath": "",
                "mateDataPath": "",
                "matePhonemePath": "",
                "mateEmotionPath": "",
                "dataPathHashList": [
                    5620550360819978712,
                    14905975585624644552,
                    2652356398102617024,
                    12917789416654925331
                ]
            },
            {
                "$type": "ConfigBodyLangInterAction",
                "type": "BODY_LANG",
                "aliasList": [
                    "12503"
                ],
                "isContinue": true,
                "forceDoFreeStyle": true,
                "canDoRepeatFreeStyle": false
            },
            {
                "$type": "ConfigBodyLangInterAction",
                "type": "BODY_LANG",
                "delayTime": 1.1230000257492065,
                "aliasList": [
                    "12503"
                ],
                "bodyLangParam": 1050,
                "forceDoFreeStyle": true,
                "canDoRepeatFreeStyle": false
            },
            {
                "$type": "ConfigBodyLangInterAction",
                "type": "BODY_LANG",
                "delayTime": 5.169000148773193,
                "aliasList": [
                    "12503"
                ],
                "isContinue": true,
                "forceDoFreeStyle": true,
                "canDoRepeatFreeStyle": false
            }
        ],
        [
            {
                "$type": "ConfigCameraMoveInterAction",
                "type": "CAMERA_MOVE",
                "duration": 1.0,
                "cameraPosType": "RELATIVE_TO_TARGET_ENTITY",
                "camTargetType": "RELATIVE_TO_TARGET_ENTITY",
                "camFov": 30.0,
                "lerpPattern": 6,
                "cameraBlendType": "EaseInOutCubic",
                "cutFrameTrans": {},
                "openCameraDither": false,
                "targetNpcAlias": "510",
                "closeTreeLeafDither": true
            },
            {
                "$type": "ConfigBodyLangInterAction",
                "type": "BODY_LANG",
                "aliasList": [
                    "12503"
                ],
                "isContinue": true,
                "forceDoFreeStyle": true,
                "canDoRepeatFreeStyle": false
            },
            {
                "$type": "ConfigDialogInterAction",
                "type": "DIALOG",
                "aliasList": [
                    "510"
                ],
                "dialogID": 191450109,
                "protectTime": 0.5
            },
            {
                "$type": "ConfigEmotionTemplateAction",
                "type": "EMOTION_TEMPLATE",
                "aliasList": [
                    "510"
                ],
                "emoTemplateID": 10100
            }
        ],
        [
            {
                "$type": "ConfigCameraMoveInterAction",
                "type": "CAMERA_MOVE",
                "duration": 1.0,
                "cameraPosType": "RELATIVE_TO_TARGET_ENTITY",
                "camTargetType": "RELATIVE_TO_TARGET_ENTITY",
                "camFov": 30.0,
                "lerpPattern": 6,
                "cameraBlendType": "EaseInOutCubic",
                "cutFrameTrans": {},
                "openCameraDither": false,
                "targetNpcAlias": "12503",
                "closeTreeLeafDither": true
            },
            {
                "$type": "ConfigDialogInterAction",
                "type": "DIALOG",
                "aliasList": [
                    "12503"
                ],
                "dialogID": 191450110,
                "protectTime": 0.5
            },
            {
                "$type": "ConfigEmoSyncInterAction",
                "type": "EMO_SYNC",
                "aliasList": [
                    "12503"
                ],
                "dataPath": "Cs_Emo_Avatar_Simple_Common_Set/Cs_Emo_Avatar_Talk/Cs_Emo_Coop_Common/Cs_Emo_Coop_Shinobu_01/Cs_Emo_191450110",
                "phonemePath": "",
                "emotionPath": "",
                "mateDataPath": "",
                "matePhonemePath": "",
                "mateEmotionPath": "",
                "dataPathHashList": [
                    540932918844599343,
                    5117603424786223137,
                    4677565305860838412,
                    12091761908172485130
                ]
            },
            {
                "$type": "ConfigBodyLangInterAction",
                "type": "BODY_LANG",
                "aliasList": [
                    "12503"
                ],
                "bodyLangParam": 1190,
                "forceDoFreeStyle": true,
                "canDoRepeatFreeStyle": false
            },
            {
                "$type": "ConfigDialogSelectAction",
                "type": "DIALOG_SELECT",
                "delayTime": 0.4000000059604645,
                "aliasList": [
                    "Avatar"
                ],
                "dialogIDList": [
                    191450111,
                    191450112
                ],
                "grpIDList": [
                    1325499931,
                    1325499931
                ],
                "useGrpId": true
            },
            {
                "$type": "ConfigLookAtEyeCtrlInterAction",
                "type": "LOOK_AT_EYECTRL",
                "delayTime": 0.8550000190734863,
                "aliasList": [
                    "12503"
                ],
                "useTargetPos": false,
                "eyeRotateVecLeft": {
                    "z": 6.0
                },
                "eyeRotateVecRight": {
                    "z": 6.0
                },
                "turnTime": 0.10000000149011612,
                "targetNpcAlias": "",
                "targetPoint": "Face"
            },
            {
                "$type": "ConfigLookAtEyeCtrlInterAction",
                "type": "LOOK_AT_EYECTRL",
                "delayTime": 2.984999895095825,
                "aliasList": [
                    "12503"
                ],
                "useTargetPos": false,
                "eyeRotateVecLeft": {
                    "z": 4.0
                },
                "eyeRotateVecRight": {
                    "z": 4.0
                },
                "turnTime": 0.10000000149011612,
                "targetNpcAlias": "",
                "targetPoint": "Face"
            },
            {
                "$type": "ConfigBodyLangInterAction",
                "type": "BODY_LANG",
                "delayTime": 3.000999927520752,
                "aliasList": [
                    "12503"
                ],
                "isContinue": true,
                "forceDoFreeStyle": true,
                "canDoRepeatFreeStyle": false
            },
            {
                "$type": "ConfigBodyLangInterAction",
                "type": "BODY_LANG",
                "delayTime": 3.7200000286102295,
                "aliasList": [
                    "12503"
                ],
                "bodyLangParam": 1171,
                "forceDoFreeStyle": true,
                "canDoRepeatFreeStyle": false
            }
        ],
        [
            {
                "$type": "ConfigCameraMoveInterAction",
                "type": "CAMERA_MOVE",
                "duration": 1.0,
                "cameraPosType": "RELATIVE_TO_TARGET_ENTITY",
                "camTargetType": "RELATIVE_TO_TARGET_ENTITY",
                "camFov": 30.0,
                "lerpPattern": 6,
                "cameraBlendType": "EaseInOutCubic",
                "cutFrameTrans": {},
                "openCameraDither": false,
                "targetNpcAlias": "510",
                "closeTreeLeafDither": true
            },
            {
                "$type": "ConfigDialogInterAction",
                "type": "DIALOG",
                "aliasList": [
                    "510"
                ],
                "dialogID": 191450113,
                "protectTime": 0.5
            },
            {
                "$type": "ConfigEmotionTemplateAction",
                "type": "EMOTION_TEMPLATE",
                "aliasList": [
                    "510"
                ],
                "emoTemplateID": 10601
            }
        ],
        [
            {
                "$type": "ConfigDialogInterAction",
                "type": "DIALOG",
                "aliasList": [
                    "510"
                ],
                "dialogID": 191450114,
                "protectTime": 0.5
            },
            {
                "$type": "ConfigEmotionTemplateAction",
                "type": "EMOTION_TEMPLATE",
                "aliasList": [
                    "510"
                ],
                "emoTemplateID": 10100
            }
        ],
        [
            {
                "$type": "ConfigDialogInterAction",
                "type": "DIALOG",
                "aliasList": [
                    "510"
                ],
                "dialogID": 191450115,
                "protectTime": 0.5
            },
            {
                "$type": "ConfigEmotionTemplateAction",
                "type": "EMOTION_TEMPLATE",
                "aliasList": [
                    "510"
                ],
                "emoTemplateID": 10301
            }
        ],
        [
            {
                "$type": "ConfigDialogInterAction",
                "type": "DIALOG",
                "aliasList": [
                    "510"
                ],
                "dialogID": 191450116,
                "protectTime": 0.5
            },
            {
                "$type": "ConfigEmotionTemplateAction",
                "type": "EMOTION_TEMPLATE",
                "aliasList": [
                    "510"
                ],
                "emoTemplateID": 10100
            }
        ],
        [
            {
                "$type": "ConfigCameraMoveInterAction",
                "type": "CAMERA_MOVE",
                "duration": 1.0,
                "cameraPosType": "RELATIVE_TO_TARGET_ENTITY",
                "camTargetType": "RELATIVE_TO_TARGET_ENTITY",
                "camFov": 30.0,
                "lerpPattern": 6,
                "cameraBlendType": "EaseInOutCubic",
                "cutFrameTrans": {},
                "openCameraDither": false,
                "targetNpcAlias": "12503",
                "closeTreeLeafDither": true
            },
            {
                "$type": "ConfigDialogInterAction",
                "type": "DIALOG",
                "aliasList": [
                    "12503"
                ],
                "dialogID": 191450117,
                "protectTime": 0.5
            },
            {
                "$type": "ConfigEmoSyncInterAction",
                "type": "EMO_SYNC",
                "aliasList": [
                    "12503"
                ],
                "dataPath": "Cs_Emo_Avatar_Simple_Common_Set/Cs_Emo_Avatar_Talk/Cs_Emo_Coop_Common/Cs_Emo_Coop_Shinobu_01/Cs_Emo_191450117",
                "phonemePath": "",
                "emotionPath": "",
                "mateDataPath": "",
                "matePhonemePath": "",
                "mateEmotionPath": "",
                "dataPathHashList": [
                    17568832229495426361,
                    1410293089138472584,
                    6883770646753635448,
                    7608666434877877055
                ]
            },
            {
                "$type": "ConfigBodyLangInterAction",
                "type": "BODY_LANG",
                "aliasList": [
                    "12503"
                ],
                "bodyLangParam": 1040,
                "forceDoFreeStyle": true,
                "canDoRepeatFreeStyle": false
            },
            {
                "$type": "ConfigBodyLangInterAction",
                "type": "BODY_LANG",
                "delayTime": 2.2200000286102295,
                "aliasList": [
                    "12503"
                ],
                "isContinue": true,
                "forceDoFreeStyle": true,
                "canDoRepeatFreeStyle": false
            },
            {
                "$type": "ConfigLookAtEyeCtrlInterAction",
                "type": "LOOK_AT_EYECTRL",
                "delayTime": 2.9609999656677246,
                "aliasList": [
                    "12503"
                ],
                "useTargetPos": false,
                "eyeRotateVecLeft": {
                    "z": 6.0
                },
                "eyeRotateVecRight": {
                    "z": 6.0
                },
                "turnTime": 0.10000000149011612,
                "targetNpcAlias": "",
                "targetPoint": "Face"
            },
            {
                "$type": "ConfigBodyLangInterAction",
                "type": "BODY_LANG",
                "delayTime": 3.253999948501587,
                "aliasList": [
                    "12503"
                ],
                "bodyLangParam": 1050,
                "forceDoFreeStyle": true,
                "canDoRepeatFreeStyle": false
            },
            {
                "$type": "ConfigBodyLangInterAction",
                "type": "BODY_LANG",
                "delayTime": 6.445000171661377,
                "aliasList": [
                    "12503"
                ],
                "isContinue": true,
                "forceDoFreeStyle": true,
                "canDoRepeatFreeStyle": false
            }
        ],
        [
            {
                "$type": "ConfigCameraMoveInterAction",
                "type": "CAMERA_MOVE",
                "duration": 1.0,
                "cameraPosType": "RELATIVE_TO_TARGET_ENTITY",
                "camTargetType": "RELATIVE_TO_TARGET_ENTITY",
                "camFov": 30.0,
                "lerpPattern": 6,
                "cameraBlendType": "EaseInOutCubic",
                "cutFrameTrans": {},
                "openCameraDither": false,
                "targetNpcAlias": "510",
                "closeTreeLeafDither": true
            },
            {
                "$type": "ConfigBodyLangInterAction",
                "type": "BODY_LANG",
                "aliasList": [
                    "12503"
                ],
                "isContinue": true,
                "forceDoFreeStyle": true,
                "canDoRepeatFreeStyle": false
            },
            {
                "$type": "ConfigLookAtEyeCtrlInterAction",
                "type": "LOOK_AT_EYECTRL",
                "aliasList": [
                    "12503"
                ],
                "useTargetPos": false,
                "eyeRotateVecLeft": {
                    "z": 4.0
                },
                "eyeRotateVecRight": {
                    "z": 4.0
                },
                "turnTime": 0.10000000149011612,
                "targetNpcAlias": "",
                "targetPoint": "Face"
            },
            {
                "$type": "ConfigDialogInterAction",
                "type": "DIALOG",
                "aliasList": [
                    "510"
                ],
                "dialogID": 191450118,
                "protectTime": 0.5
            },
            {
                "$type": "ConfigEmotionTemplateAction",
                "type": "EMOTION_TEMPLATE",
                "aliasList": [
                    "510"
                ],
                "emoTemplateID": 10601
            }
        ],
        [
            {
                "$type": "ConfigCameraMoveInterAction",
                "type": "CAMERA_MOVE",
                "duration": 1.0,
                "cameraPosType": "RELATIVE_TO_TARGET_ENTITY",
                "camTargetType": "RELATIVE_TO_TARGET_ENTITY",
                "camFov": 30.0,
                "lerpPattern": 6,
                "cameraBlendType": "EaseInOutCubic",
                "cutFrameTrans": {},
                "openCameraDither": false,
                "targetNpcAlias": "12503",
                "closeTreeLeafDither": true
            },
            {
                "$type": "ConfigDialogInterAction",
                "type": "DIALOG",
                "aliasList": [
                    "12503"
                ],
                "dialogID": 191450119,
                "protectTime": 0.5
            },
            {
                "$type": "ConfigEmoSyncInterAction",
                "type": "EMO_SYNC",
                "aliasList": [
                    "12503"
                ],
                "dataPath": "Cs_Emo_Avatar_Simple_Common_Set/Cs_Emo_Avatar_Talk/Cs_Emo_Coop_Common/Cs_Emo_Coop_Shinobu_01/Cs_Emo_191450119",
                "phonemePath": "",
                "emotionPath": "",
                "mateDataPath": "",
                "matePhonemePath": "",
                "mateEmotionPath": "",
                "dataPathHashList": [
                    16624968721935035461,
                    7569159795768274999,
                    5836777597556823838,
                    16047632478854237818
                ]
            },
            {
                "$type": "ConfigBodyLangInterAction",
                "type": "BODY_LANG",
                "aliasList": [
                    "12503"
                ],
                "bodyLangParam": 4030,
                "forceDoFreeStyle": true,
                "canDoRepeatFreeStyle": false
            },
            {
                "$type": "ConfigDialogSelectAction",
                "type": "DIALOG_SELECT",
                "delayTime": 0.4000000059604645,
                "aliasList": [
                    "Avatar"
                ],
                "dialogIDList": [
                    191450120,
                    191450121
                ],
                "grpIDList": [
                    1325499938,
                    1325499938
                ],
                "useGrpId": true
            },
            {
                "$type": "ConfigBodyLangInterAction",
                "type": "BODY_LANG",
                "delayTime": 1.9259999990463257,
                "aliasList": [
                    "12503"
                ],
                "bodyLangParam": 1130,
                "forceDoFreeStyle": true,
                "canDoRepeatFreeStyle": false
            },
            {
                "$type": "ConfigBodyLangInterAction",
                "type": "BODY_LANG",
                "delayTime": 5.835999965667725,
                "aliasList": [
                    "12503"
                ],
                "isContinue": true,
                "forceDoFreeStyle": true,
                "canDoRepeatFreeStyle": false
            }
        ],
        [
            {
                "$type": "ConfigDialogInterAction",
                "type": "DIALOG",
                "aliasList": [
                    "12503"
                ],
                "dialogID": 191450122,
                "protectTime": 0.5
            },
            {
                "$type": "ConfigEmoSyncInterAction",
                "type": "EMO_SYNC",
                "aliasList": [
                    "12503"
                ],
                "dataPath": "Cs_Emo_Avatar_Simple_Common_Set/Cs_Emo_Avatar_Talk/Cs_Emo_Coop_Common/Cs_Emo_Coop_Shinobu_01/Cs_Emo_191450122",
                "phonemePath": "",
                "emotionPath": "",
                "mateDataPath": "",
                "matePhonemePath": "",
                "mateEmotionPath": "",
                "dataPathHashList": [
                    1072534861302945238,
                    18193749988914891321,
                    8613902491041623769,
                    9422822984579372896
                ]
            },
            {
                "$type": "ConfigBodyLangInterAction",
                "type": "BODY_LANG",
                "aliasList": [
                    "12503"
                ],
                "bodyLangParam": 4030,
                "forceDoFreeStyle": true,
                "canDoRepeatFreeStyle": false
            }
        ],
        [
            {
                "$type": "ConfigDialogInterAction",
                "type": "DIALOG",
                "aliasList": [
                    "12503"
                ],
                "dialogID": 191450123,
                "protectTime": 0.5
            },
            {
                "$type": "ConfigEmoSyncInterAction",
                "type": "EMO_SYNC",
                "aliasList": [
                    "12503"
                ],
                "dataPath": "Cs_Emo_Avatar_Simple_Common_Set/Cs_Emo_Avatar_Talk/Cs_Emo_Coop_Common/Cs_Emo_Coop_Shinobu_01/Cs_Emo_191450123",
                "phonemePath": "",
                "emotionPath": "",
                "mateDataPath": "",
                "matePhonemePath": "",
                "mateEmotionPath": "",
                "dataPathHashList": [
                    18256610673939310202,
                    6319277640483240216,
                    16663649729870856039,
                    13547387600877670683
                ]
            },
            {
                "$type": "ConfigBodyLangInterAction",
                "type": "BODY_LANG",
                "delayTime": 0.8539999723434448,
                "aliasList": [
                    "12503"
                ],
                "bodyLangParam": 1173,
                "forceDoFreeStyle": true,
                "canDoRepeatFreeStyle": false
            }
        ],
        [
            {
                "$type": "ConfigDialogInterAction",
                "type": "DIALOG",
                "aliasList": [
                    "12503"
                ],
                "dialogID": 191450124,
                "protectTime": 0.5
            },
            {
                "$type": "ConfigEmoSyncInterAction",
                "type": "EMO_SYNC",
                "aliasList": [
                    "12503"
                ],
                "dataPath": "Cs_Emo_Avatar_Simple_Common_Set/Cs_Emo_Avatar_Talk/Cs_Emo_Coop_Common/Cs_Emo_Coop_Shinobu_01/Cs_Emo_191450124",
                "phonemePath": "",
                "emotionPath": "",
                "mateDataPath": "",
                "matePhonemePath": "",
                "mateEmotionPath": "",
                "dataPathHashList": [
                    13858053475435293868,
                    1860535809035400760,
                    1666715001640437103,
                    4155595096011292015
                ]
            },
            {
                "$type": "ConfigEmotionTemplateAction",
                "type": "EMOTION_TEMPLATE",
                "aliasList": [
                    "510"
                ],
                "emoTemplateID": 10100
            },
            {
                "$type": "ConfigBodyLangInterAction",
                "type": "BODY_LANG",
                "delayTime": 1.1239999532699585,
                "aliasList": [
                    "12503"
                ],
                "bodyLangParam": 4040,
                "forceDoFreeStyle": true,
                "canDoRepeatFreeStyle": false
            }
        ],
        [
            {
                "$type": "ConfigCameraMoveInterAction",
                "type": "CAMERA_MOVE",
                "duration": 1.0,
                "cameraPosType": "RELATIVE_TO_TARGET_ENTITY",
                "camTargetType": "RELATIVE_TO_TARGET_ENTITY",
                "camFov": 30.0,
                "lerpPattern": 6,
                "cameraBlendType": "EaseInOutCubic",
                "cutFrameTrans": {},
                "openCameraDither": false,
                "targetNpcAlias": "510",
                "closeTreeLeafDither": true
            },
            {
                "$type": "ConfigDialogInterAction",
                "type": "DIALOG",
                "aliasList": [
                    "510"
                ],
                "dialogID": 191450125,
                "protectTime": 0.5
            },
            {
                "$type": "ConfigEmotionTemplateAction",
                "type": "EMOTION_TEMPLATE",
                "aliasList": [
                    "510"
                ],
                "emoTemplateID": 10100
            }
        ],
        [
            {
                "$type": "ConfigCameraMoveInterAction",
                "type": "CAMERA_MOVE",
                "duration": 1.0,
                "cameraPosType": "RELATIVE_TO_TARGET_ENTITY",
                "camTargetType": "RELATIVE_TO_TARGET_ENTITY",
                "camFov": 30.0,
                "lerpPattern": 6,
                "cameraBlendType": "EaseInOutCubic",
                "cutFrameTrans": {},
                "openCameraDither": false,
                "targetNpcAlias": "12503",
                "closeTreeLeafDither": true
            },
            {
                "$type": "ConfigDialogInterAction",
                "type": "DIALOG",
                "aliasList": [
                    "12503"
                ],
                "dialogID": 191450126,
                "protectTime": 0.5
            },
            {
                "$type": "ConfigEmoSyncInterAction",
                "type": "EMO_SYNC",
                "aliasList": [
                    "12503"
                ],
                "dataPath": "Cs_Emo_Avatar_Simple_Common_Set/Cs_Emo_Avatar_Talk/Cs_Emo_Coop_Common/Cs_Emo_Coop_Shinobu_01/Cs_Emo_191450126",
                "phonemePath": "",
                "emotionPath": "",
                "mateDataPath": "",
                "matePhonemePath": "",
                "mateEmotionPath": "",
                "dataPathHashList": [
                    10651349350446950350,
                    7118453006622345290,
                    7463885471611776223,
                    9861915268928343799
                ]
            },
            {
                "$type": "ConfigBodyLangInterAction",
                "type": "BODY_LANG",
                "aliasList": [
                    "12503"
                ],
                "bodyLangParam": 1060,
                "forceDoFreeStyle": true,
                "canDoRepeatFreeStyle": false
            },
            {
                "$type": "ConfigBodyLangInterAction",
                "type": "BODY_LANG",
                "delayTime": 0.9390000104904175,
                "aliasList": [
                    "12503"
                ],
                "bodyLangParam": 4030,
                "forceDoFreeStyle": true,
                "canDoRepeatFreeStyle": false
            },
            {
                "$type": "ConfigBodyLangInterAction",
                "type": "BODY_LANG",
                "delayTime": 2.7820000648498535,
                "aliasList": [
                    "12503"
                ],
                "isContinue": true,
                "forceDoFreeStyle": true,
                "canDoRepeatFreeStyle": false
            }
        ],
        [
            {
                "$type": "ConfigTimeProtectAction",
                "type": "TIME_PROTECT",
                "duration": 0.699999988079071
            },
            {
                "$type": "ConfigSimpleBlackScreenAction",
                "type": "SIMPLE_BLACK_SCREEN",
                "durationToBlack": 0.5,
                "durationKeepBlack": 2.0,
                "durationFromBlack": 0.5,
                "textMapID": "",
                "useTextFade": true
            },
            {
                "$type": "ConfigDialogInterAction",
                "type": "DIALOG_CLEAR",
                "dialogID": 191450126
            },
            {
                "$type": "ConfigEmotionTemplateAction",
                "type": "EMOTION_TEMPLATE",
                "aliasList": [
                    "510"
                ],
                "emoTemplateID": 10100
            },
            {
                "$type": "ConfigCameraMoveInterAction",
                "type": "CAMERA_MOVE",
                "delayTime": 0.5,
                "duration": 0.10000000149011612,
                "camPosOffset": {
                    "x": -2467.9189453125,
                    "y": 448.20098876953125,
                    "z": -4405.26806640625
                },
                "camForwardTargetOffset": {
                    "x": -2467.952880859375,
                    "y": 447.947998046875,
                    "z": -4404.30078125
                },
                "lerpPattern": 6,
                "cameraBlendType": "EaseInOutCubic",
                "cutFrameTrans": {},
                "needZAxisRotate": true,
                "openCameraDither": false,
                "targetNpcAlias": "",
                "closeTreeLeafDither": true
            },
            {
                "$type": "ConfigVisibleInterAction",
                "type": "VISIBLE",
                "delayTime": 0.5,
                "aliasList": [
                    "Avatar"
                ],
                "isVisible": true
            },
            {
                "$type": "ConfigVisibleInterAction",
                "type": "VISIBLE",
                "delayTime": 0.5,
                "aliasList": [
                    "510"
                ]
            }
        ]
    ],
    "groupId": [
        {
            "grpId": 319852725,
            "nextGrpId": 319852726
        },
        {
            "index": 1,
            "grpId": 319852726,
            "nextGrpId": 319852727
        },
        {
            "index": 2,
            "grpId": 319852727,
            "nextGrpId": 319852728
        },
        {
            "index": 3,
            "grpId": 319852728,
            "nextGrpId": 319852729
        },
        {
            "index": 4,
            "grpId": 319852729,
            "nextGrpId": 319852730
        },
        {
            "index": 5,
            "grpId": 319852730,
            "nextGrpId": 319852731
        },
        {
            "index": 6,
            "grpId": 319852731,
            "nextGrpId": 319852732
        },
        {
            "index": 7,
            "grpId": 319852732,
            "nextGrpId": 319852733
        },
        {
            "index": 8,
            "grpId": 319852733,
            "nextGrpId": 1325499931
        },
        {
            "index": 9,
            "grpId": 1325499931,
            "nextGrpId": 1325499932
        },
        {
            "index": 10,
            "grpId": 1325499932,
            "nextGrpId": 1325499933
        },
        {
            "index": 11,
            "grpId": 1325499933,
            "nextGrpId": 1325499934
        },
        {
            "index": 12,
            "grpId": 1325499934,
            "nextGrpId": 1325499935
        },
        {
            "index": 13,
            "grpId": 1325499935,
            "nextGrpId": 1325499936
        },
        {
            "index": 14,
            "grpId": 1325499936,
            "nextGrpId": 1325499937
        },
        {
            "index": 15,
            "grpId": 1325499937,
            "nextGrpId": 1325499938
        },
        {
            "index": 16,
            "grpId": 1325499938,
            "nextGrpId": 1325499939
        },
        {
            "index": 17,
            "grpId": 1325499939,
            "nextGrpId": 1325499940
        },
        {
            "index": 18,
            "grpId": 1325499940,
            "nextGrpId": 1325499962
        },
        {
            "index": 19,
            "grpId": 1325499962,
            "nextGrpId": 1325499963
        },
        {
            "index": 20,
            "grpId": 1325499963,
            "nextGrpId": 1325499964
        },
        {
            "index": 21,
            "grpId": 1325499964,
            "nextGrpId": 1325499965
        }
    ],
    "freeStyleDic": {
        "12503": [
            1190,
            4040,
            1040,
            1173,
            4030,
            1171,
            1172,
            1130,
            1060,
            1050
        ],
        "510": [
            10100,
            10601,
            10301
        ]
    }
}