{
    "HBPGBNCBOMP": "",
    "startBlackKeepTime": 1.0,
    "KENGMFPNLEP": "",
    "disableNpcLod": true,
    "startFade": {
        "startFadeInDuration": 0.5,
        "startFadeOutDuration": 0.5
    },
    "endFade": {
        "startFadeOutDuration": 0.0
    },
    "actors": [
        {
            "alias": "Avatar",
            "visible": true,
            "bornPointName": "",
            "relativePosNpcAlias": ""
        },
        {
            "configID": 507,
            "alias": "507",
            "visible": true,
            "bornPointName": "Q1913709_C1913711Ningguang",
            "removeActorType": "REMOVE",
            "relativePosNpcAlias": ""
        },
        {
            "configID": 12307,
            "alias": "12307",
            "visible": true,
            "bornPointName": "Q1913709_C1913711FakeB",
            "relativePosNpcAlias": ""
        },
        {
            "configID": 12309,
            "alias": "12309",
            "visible": true,
            "bornPointName": "Q1913709_C1913711FakeC",
            "relativePosNpcAlias": ""
        },
        {
            "configID": 12306,
            "alias": "12306",
            "visible": true,
            "bornPointName": "Q1913709_C1913711Stalker",
            "relativePosNpcAlias": ""
        }
    ],
    "group": [
        [
            {
                "$type": "ConfigLookAtInterAction",
                "type": "LOOK_AT",
                "aliasList": [
                    "12309"
                ],
                "headTurnTime": 0.5,
                "targetNpcAlias": ""
            },
            {
                "$type": "ConfigTeleportToAction",
                "type": "TELEPORT_TO",
                "aliasList": [
                    "12309"
                ],
                "position": {
                    "x": -614.7930297851562,
                    "y": 223.70599365234375,
                    "z": 296.9670104980469
                },
                "forward": {
                    "x": 0.1899999976158142,
                    "z": -0.9819999933242798
                },
                "openLongDisTeleport": true
            },
            {
                "$type": "ConfigLookAtInterAction",
                "type": "LOOK_AT",
                "aliasList": [
                    "12307"
                ],
                "headTurnTime": 0.5,
                "targetNpcAlias": ""
            },
            {
                "$type": "ConfigBodyLangInterAction",
                "type": "BODY_LANG",
                "aliasList": [
                    "12309"
                ],
                "isContinue": true,
                "forceDoFreeStyle": true,
                "canDoRepeatFreeStyle": false
            },
            {
                "$type": "ConfigBodyLangInterAction",
                "type": "BODY_LANG",
                "aliasList": [
                    "12306"
                ],
                "isContinue": true,
                "forceDoFreeStyle": true,
                "canDoRepeatFreeStyle": false
            },
            {
                "$type": "ConfigLookAtInterAction",
                "type": "LOOK_AT",
                "aliasList": [
                    "12306"
                ],
                "headTurnTime": 0.5,
                "targetNpcAlias": ""
            },
            {
                "$type": "ConfigLookAtEyeCtrlInterAction",
                "type": "LOOK_AT_EYECTRL",
                "aliasList": [
                    "12309"
                ],
                "useTargetPos": false,
                "eyeRotateVecLeft": {
                    "z": 4.0
                },
                "eyeRotateVecRight": {
                    "z": 4.0
                },
                "turnTime": 1.0,
                "targetNpcAlias": "",
                "targetPoint": "Face"
            },
            {
                "$type": "ConfigTeleportToAction",
                "type": "TELEPORT_TO",
                "aliasList": [
                    "12306"
                ],
                "position": {
                    "x": -599.1959838867188,
                    "y": 225.46400451660156,
                    "z": 303.9339904785156
                },
                "forward": {
                    "x": -0.7179999947547913,
                    "z": -0.6959999799728394
                },
                "openLongDisTeleport": true
            },
            {
                "$type": "ConfigBodyLangInterAction",
                "type": "BODY_LANG",
                "aliasList": [
                    "12307"
                ],
                "isContinue": true,
                "forceDoFreeStyle": true,
                "canDoRepeatFreeStyle": false
            },
            {
                "$type": "ConfigCameraDOFAction",
                "type": "CAMERA_DOF",
                "enabled": true,
                "focusDistance": 3.119999885559082,
                "focusRange": 0.23999999463558197,
                "nearFocalDistance": -0.20000000298023224,
                "nearFocalTransDistance": 0.09000000357627869,
                "dofBlurAmount": 1.0,
                "quality": 3
            },
            {
                "$type": "ConfigCameraMoveInterAction",
                "type": "CAMERA_MOVE",
                "duration": 0.5,
                "camPosOffset": {
                    "x": -615.6069946289062,
                    "y": 225.19900512695312,
                    "z": 296.20599365234375
                },
                "camForwardTargetOffset": {
                    "x": -615.02099609375,
                    "y": 225.32200622558594,
                    "z": 297.0069885253906
                },
                "camFov": 25.0,
                "lerpPattern": 6,
                "cameraBlendType": "EaseInOutCubic",
                "cutFrameTrans": {},
                "needZAxisRotate": true,
                "openCameraDither": false,
                "targetNpcAlias": "",
                "closeTreeLeafDither": true
            },
            {
                "$type": "ConfigCameraMoveInterAction",
                "type": "CAMERA_FOCUS",
                "duration": 0.10000000149011612,
                "targetNpcAlias": ""
            },
            {
                "$type": "ConfigTimeProtectAction",
                "type": "TIME_PROTECT",
                "duration": 0.10000000149011612
            },
            {
                "$type": "ConfigEmotionTemplateAction",
                "type": "EMOTION_TEMPLATE",
                "aliasList": [
                    "507"
                ],
                "emoTemplateID": 10100
            },
            {
                "$type": "ConfigLookAtInterAction",
                "type": "LOOK_AT",
                "aliasList": [
                    "507"
                ],
                "headTurnTime": 0.5,
                "targetNpcAlias": ""
            },
            {
                "$type": "ConfigTeleportToAction",
                "type": "TELEPORT_TO",
                "aliasList": [
                    "Avatar"
                ],
                "position": {
                    "x": -609.5460205078125,
                    "y": 225.5019989013672,
                    "z": 302.4460144042969
                },
                "forward": {
                    "x": -0.6880000233650208,
                    "z": 0.7260000109672546
                },
                "openLongDisTeleport": true
            },
            {
                "$type": "ConfigLookAtInterAction",
                "type": "LOOK_AT",
                "aliasList": [
                    "Avatar"
                ],
                "enableHead": true,
                "headTurnTime": 0.5,
                "targetNpcAlias": "507"
            }
        ],
        [
            {
                "$type": "ConfigLookAtInterAction",
                "type": "LOOK_AT",
                "aliasList": [
                    "12309"
                ],
                "enableHead": true,
                "useTargetPos": true,
                "enableAbsolute": true,
                "targetPosition": {
                    "x": -614.72900390625,
                    "y": 225.23800659179688,
                    "z": 296.72198486328125
                },
                "headTurnTime": 0.5,
                "targetNpcAlias": "",
                "lookAtTargetType": "NONE"
            },
            {
                "$type": "ConfigTeleportToAction",
                "type": "TELEPORT_TO",
                "aliasList": [
                    "Avatar"
                ],
                "position": {
                    "x": -610.7890014648438,
                    "y": 225.50599670410156,
                    "z": 303.7330017089844
                },
                "forward": {
                    "x": -0.0949999988079071,
                    "y": -0.0010000000474974513,
                    "z": 0.09700000286102295
                },
                "openLongDisTeleport": true
            },
            {
                "$type": "ConfigDialogInterAction",
                "type": "DIALOG",
                "aliasList": [
                    "507"
                ],
                "dialogID": 191371101,
                "protectTime": 1.225000023841858
            },
            {
                "$type": "ConfigBodyLangInterAction",
                "type": "BODY_LANG",
                "aliasList": [
                    "12309"
                ],
                "bodyLangParam": 1190,
                "forceDoFreeStyle": true,
                "canDoRepeatFreeStyle": false
            },
            {
                "$type": "ConfigEmoSyncInterAction",
                "type": "EMO_SYNC",
                "aliasList": [
                    "507"
                ],
                "dataPath": "Cs_Emo_Avatar_Simple_Common_Set/Cs_Emo_Avatar_Talk/Cs_Emo_Coop_Common/Cs_Emo_Coop_Ningguang_01/Cs_Emo_191371101",
                "phonemePath": "",
                "emotionPath": "",
                "mateDataPath": "",
                "matePhonemePath": "",
                "mateEmotionPath": "",
                "dataPathHashList": [
                    649526825267502351,
                    5653640356690207928,
                    2886846885228495835,
                    10986719120218763909
                ]
            },
            {
                "$type": "ConfigCameraDOFAction",
                "type": "CAMERA_DOF",
                "enabled": true,
                "focusDistance": 3.119999885559082,
                "focusRange": 0.23999999463558197,
                "nearFocalDistance": -0.20000000298023224,
                "nearFocalTransDistance": 0.09000000357627869,
                "dofBlurAmount": 1.0,
                "quality": 3
            },
            {
                "$type": "ConfigCameraMoveInterAction",
                "type": "CAMERA_MOVE",
                "duration": 0.5,
                "camPosOffset": {
                    "x": -615.6069946289062,
                    "y": 225.19900512695312,
                    "z": 296.20599365234375
                },
                "camForwardTargetOffset": {
                    "x": -615.02099609375,
                    "y": 225.32200622558594,
                    "z": 297.0069885253906
                },
                "camFov": 25.0,
                "lerpPattern": 6,
                "cameraBlendType": "EaseInOutCubic",
                "cutFrameTrans": {},
                "needZAxisRotate": true,
                "openCameraDither": false,
                "targetNpcAlias": "",
                "closeTreeLeafDither": true
            },
            {
                "$type": "ConfigEmoSyncInterAction",
                "type": "EMO_SYNC",
                "aliasList": [
                    "12309"
                ],
                "dataPath": "",
                "phonemePath": "Cs_Emo_NPC_Common/Cs_Emo_NPC_Normal01",
                "emotionPath": "Cs_Emo_NPC_Common/Cs_Emo_NPC_Angry01",
                "mateDataPath": "",
                "matePhonemePath": "",
                "mateEmotionPath": "",
                "phonemePathHashList": [
                    12803840960998583578,
                    3437050431160283015,
                    6548526936325855136,
                    1274732080047098512
                ],
                "emotionPathHashList": [
                    5555574328354538894,
                    6902058826788250658,
                    16686799597816672641,
                    13665732757931042568
                ]
            },
            {
                "$type": "ConfigCameraMoveInterAction",
                "type": "CAMERA_MOVE",
                "delayTime": 0.10000000149011612,
                "duration": 4.0329999923706055,
                "camPosOffset": {
                    "x": -615.6519775390625,
                    "y": 225.197998046875,
                    "z": 296.239013671875
                },
                "camForwardTargetOffset": {
                    "x": -615.0659790039062,
                    "y": 225.3209991455078,
                    "z": 297.0400085449219
                },
                "camFov": 25.0,
                "cameraBlendType": "EaseOutQuad",
                "cutFrameTrans": {},
                "needZAxisRotate": true,
                "openCameraDither": false,
                "targetNpcAlias": "",
                "closeTreeLeafDither": true
            },
            {
                "$type": "ConfigCameraDOFAction",
                "type": "CAMERA_DOF",
                "delayTime": 0.6169999837875366,
                "duration": 0.5,
                "enabled": true,
                "focusDistance": 0.10000000149011612,
                "focusRange": -0.07999999821186066,
                "nearFocalDistance": 4.039999961853027,
                "nearFocalTransDistance": 0.09000000357627869,
                "dofBlurAmount": 1.0,
                "quality": 3
            },
            {
                "$type": "ConfigBodyLangInterAction",
                "type": "BODY_LANG",
                "delayTime": 0.6830000281333923,
                "aliasList": [
                    "Avatar"
                ],
                "bodyLangParam": 4030,
                "forceDoFreeStyle": true,
                "canDoRepeatFreeStyle": false
            },
            {
                "$type": "ConfigLookAtEyeCtrlInterAction",
                "type": "LOOK_AT_EYECTRL",
                "delayTime": 0.699999988079071,
                "aliasList": [
                    "12309"
                ],
                "useTargetPos": false,
                "eyeRotateVecLeft": {
                    "x": -0.800000011920929,
                    "z": 4.5
                },
                "eyeRotateVecRight": {
                    "x": -0.800000011920929,
                    "z": 4.5
                },
                "turnTime": 0.20000000298023224,
                "targetNpcAlias": "",
                "targetPoint": "Face"
            },
            {
                "$type": "ConfigDialogSelectAction",
                "type": "DIALOG_SELECT",
                "delayTime": 1.1330000162124634,
                "aliasList": [
                    "Avatar"
                ],
                "dialogIDList": [
                    191371102
                ],
                "grpIDList": [
                    1841710515
                ],
                "useGrpId": true
            },
            {
                "$type": "ConfigLookAtEyeCtrlInterAction",
                "type": "LOOK_AT_EYECTRL",
                "delayTime": 1.2000000476837158,
                "aliasList": [
                    "12309"
                ],
                "useTargetPos": false,
                "eyeRotateVecLeft": {
                    "x": 1.0,
                    "z": 5.0
                },
                "eyeRotateVecRight": {
                    "x": 1.0,
                    "z": 5.0
                },
                "turnTime": 0.20000000298023224,
                "targetNpcAlias": "",
                "targetPoint": "Face"
            }
        ],
        [
            {
                "$type": "ConfigEmotionTemplateAction",
                "type": "EMOTION_TEMPLATE",
                "aliasList": [
                    "507"
                ],
                "emoTemplateID": 10601
            },
            {
                "$type": "ConfigTeleportToAction",
                "type": "TELEPORT_TO",
                "aliasList": [
                    "12309"
                ],
                "position": {
                    "x": -614.7930297851562,
                    "y": 223.70599365234375,
                    "z": 296.9670104980469
                },
                "forward": {
                    "x": 0.1899999976158142,
                    "z": -0.9819999933242798
                },
                "openLongDisTeleport": true
            },
            {
                "$type": "ConfigLookAtInterAction",
                "type": "LOOK_AT",
                "aliasList": [
                    "12306"
                ],
                "enableHead": true,
                "headTurnTime": 0.5,
                "targetNpcAlias": "Avatar"
            },
            {
                "$type": "ConfigCameraMoveInterAction",
                "type": "CAMERA_MOVE",
                "duration": 1.684000015258789,
                "camPosOffset": {
                    "x": -610.7429809570312,
                    "y": 226.9239959716797,
                    "z": 305.6659851074219
                },
                "camForwardTargetOffset": {
                    "x": -611.6680297851562,
                    "y": 226.93600463867188,
                    "z": 305.2860107421875
                },
                "camFov": 25.0,
                "lerpPattern": 6,
                "cameraBlendType": "EaseInOutCubic",
                "cutFrameTrans": {},
                "openCameraDither": false,
                "targetNpcAlias": "",
                "closeTreeLeafDither": true
            },
            {
                "$type": "ConfigTimeProtectAction",
                "type": "TIME_PROTECT",
                "duration": 1.5329999923706055
            },
            {
                "$type": "ConfigCameraDOFAction",
                "type": "CAMERA_DOF",
                "enabled": true,
                "dofBlurAmount": 1.0,
                "quality": 3
            }
        ],
        [
            {
                "$type": "ConfigCameraMoveInterAction",
                "type": "CAMERA_MOVE",
                "duration": 0.5,
                "camPosOffset": {
                    "x": -610.9530029296875,
                    "y": 226.85299682617188,
                    "z": 305.59100341796875
                },
                "camForwardTargetOffset": {
                    "x": -610.2429809570312,
                    "y": 226.82400512695312,
                    "z": 306.2950134277344
                },
                "camFov": 20.0,
                "lerpPattern": 6,
                "cameraBlendType": "EaseInOutCubic",
                "cutFrameTrans": {},
                "needZAxisRotate": true,
                "rotateAngle": 0.39399999380111694,
                "openCameraDither": false,
                "targetNpcAlias": "",
                "closeTreeLeafDither": true
            },
            {
                "$type": "ConfigCameraMoveInterAction",
                "type": "CAMERA_MOVE",
                "delayTime": 0.10000000149011612,
                "duration": 1.0,
                "camPosOffset": {
                    "x": -610.9530029296875,
                    "y": 226.85299682617188,
                    "z": 305.59100341796875
                },
                "camForwardTargetOffset": {
                    "x": -610.6829833984375,
                    "y": 226.82400512695312,
                    "z": 306.5539855957031
                },
                "camFov": 20.0,
                "lerpPattern": 1,
                "cameraBlendType": "EaseInOutQuad",
                "cutFrameTrans": {},
                "needZAxisRotate": true,
                "rotateAngle": 359.5140075683594,
                "openCameraDither": false,
                "targetNpcAlias": "",
                "closeTreeLeafDither": true
            },
            {
                "$type": "ConfigBodyLangInterAction",
                "type": "BODY_LANG",
                "delayTime": 0.6330000162124634,
                "aliasList": [
                    "12307"
                ],
                "bodyLangParam": 1050,
                "forceDoFreeStyle": true,
                "canDoRepeatFreeStyle": false
            },
            {
                "$type": "ConfigCameraMoveInterAction",
                "type": "CAMERA_MOVE",
                "delayTime": 1.0829999446868896,
                "duration": 1.600000023841858,
                "camPosOffset": {
                    "x": -610.9530029296875,
                    "y": 226.85299682617188,
                    "z": 305.59100341796875
                },
                "camForwardTargetOffset": {
                    "x": -610.7020263671875,
                    "y": 226.82400512695312,
                    "z": 306.5589904785156
                },
                "camFov": 20.0,
                "lerpPattern": 1,
                "cameraBlendType": "EaseOutQuad",
                "cutFrameTrans": {},
                "needZAxisRotate": true,
                "rotateAngle": 359.48199462890625,
                "openCameraDither": false,
                "targetNpcAlias": "",
                "closeTreeLeafDither": true
            },
            {
                "$type": "ConfigCameraMoveInterAction",
                "type": "CAMERA_MOVE",
                "delayTime": 2.691999912261963,
                "duration": 1.0,
                "camPosOffset": {
                    "x": -610.9530029296875,
                    "y": 226.85299682617188,
                    "z": 305.59100341796875
                },
                "camForwardTargetOffset": {
                    "x": -609.958984375,
                    "y": 226.82200622558594,
                    "z": 305.489013671875
                },
                "camFov": 20.0,
                "cameraBlendType": "EaseInOutQuad",
                "cutFrameTrans": {},
                "needZAxisRotate": true,
                "rotateAngle": 1.562999963760376,
                "openCameraDither": false,
                "targetNpcAlias": "",
                "closeTreeLeafDither": true
            },
            {
                "$type": "ConfigLookAtInterAction",
                "type": "LOOK_AT",
                "delayTime": 3.674999952316284,
                "aliasList": [
                    "12306"
                ],
                "enableHead": true,
                "useTargetPos": true,
                "enableAbsolute": true,
                "targetPosition": {
                    "x": -599.1950073242188,
                    "y": 227.1649932861328,
                    "z": 303.4729919433594
                },
                "headTurnTime": 0.5,
                "targetNpcAlias": "",
                "lookAtTargetType": "NONE"
            },
            {
                "$type": "ConfigSteerInterAction",
                "type": "STEER_TO",
                "delayTime": 3.674999952316284,
                "duration": 0.800000011920929,
                "aliasList": [
                    "12306"
                ],
                "steerType": "ABSOLUTE",
                "steerDir": {
                    "x": -599.1240234375,
                    "y": 225.46400451660156,
                    "z": 303.2380065917969
                },
                "useSteerAnim": true,
                "targetNpcAlias": ""
            },
            {
                "$type": "ConfigCameraMoveInterAction",
                "type": "CAMERA_MOVE",
                "delayTime": 3.684000015258789,
                "duration": 1.600000023841858,
                "camPosOffset": {
                    "x": -610.9530029296875,
                    "y": 226.85299682617188,
                    "z": 305.59100341796875
                },
                "camForwardTargetOffset": {
                    "x": -609.9600219726562,
                    "y": 226.82200622558594,
                    "z": 305.47601318359375
                },
                "camFov": 20.0,
                "cameraBlendType": "EaseOutQuad",
                "cutFrameTrans": {},
                "needZAxisRotate": true,
                "rotateAngle": 1.5850000381469727,
                "openCameraDither": false,
                "targetNpcAlias": "",
                "closeTreeLeafDither": true
            }
        ],
        [
            {
                "$type": "ConfigEmoSyncInterAction",
                "type": "EMO_SYNC",
                "aliasList": [
                    "507"
                ],
                "dataPath": "Cs_Emo_Avatar_Simple_Common_Set/Cs_Emo_Avatar_Talk/Cs_Emo_Coop_Common/Cs_Emo_Coop_Ningguang_01/Cs_Emo_191371103",
                "phonemePath": "",
                "emotionPath": "",
                "mateDataPath": "",
                "matePhonemePath": "",
                "mateEmotionPath": "",
                "dataPathHashList": [
                    10425254953910686402,
                    17594435990066355512,
                    3065736205415004831,
                    9733044090379123629
                ]
            },
            {
                "$type": "ConfigEmotionTemplateAction",
                "type": "EMOTION_TEMPLATE",
                "aliasList": [
                    "507"
                ],
                "emoTemplateID": 10100
            },
            {
                "$type": "ConfigTeleportToAction",
                "type": "TELEPORT_TO",
                "aliasList": [
                    "12306"
                ],
                "position": {
                    "x": -599.1959838867188,
                    "y": 225.46400451660156,
                    "z": 303.9339904785156
                },
                "forward": {
                    "x": -0.7179999947547913,
                    "z": -0.6959999799728394
                },
                "openLongDisTeleport": true
            },
            {
                "$type": "ConfigCameraMoveInterAction",
                "type": "CAMERA_MOVE",
                "duration": 1.0,
                "cameraPosType": "RELATIVE_TO_TARGET_ENTITY",
                "camTargetType": "RELATIVE_TO_TARGET_ENTITY",
                "camFov": 30.0,
                "lerpPattern": 6,
                "cameraBlendType": "EaseInOutCubic",
                "cutFrameTrans": {},
                "openCameraDither": false,
                "targetNpcAlias": "507",
                "closeTreeLeafDither": true
            },
            {
                "$type": "ConfigTeleportToAction",
                "type": "TELEPORT_TO",
                "aliasList": [
                    "Avatar"
                ],
                "position": {
                    "x": -609.5460205078125,
                    "y": 225.5019989013672,
                    "z": 302.4460144042969
                },
                "forward": {
                    "x": -0.6880000233650208,
                    "z": 0.7260000109672546
                },
                "openLongDisTeleport": true
            },
            {
                "$type": "ConfigDialogInterAction",
                "type": "DIALOG",
                "aliasList": [
                    "507"
                ],
                "dialogID": 191371103,
                "protectTime": 0.5
            }
        ],
        [
            {
                "$type": "ConfigEmoSyncInterAction",
                "type": "EMO_SYNC",
                "aliasList": [
                    "507"
                ],
                "dataPath": "Cs_Emo_Avatar_Simple_Common_Set/Cs_Emo_Avatar_Talk/Cs_Emo_Coop_Common/Cs_Emo_Coop_Ningguang_01/Cs_Emo_191371104",
                "phonemePath": "",
                "emotionPath": "",
                "mateDataPath": "",
                "matePhonemePath": "",
                "mateEmotionPath": "",
                "dataPathHashList": [
                    17110646529746352643,
                    7244749792644132846,
                    9225833037298198600,
                    5342067779539449281
                ]
            },
            {
                "$type": "ConfigDialogInterAction",
                "type": "DIALOG",
                "aliasList": [
                    "507"
                ],
                "dialogID": 191371104,
                "protectTime": 0.5
            }
        ],
        [
            {
                "$type": "ConfigSimpleBlackScreenAction",
                "type": "SIMPLE_BLACK_SCREEN",
                "durationToBlack": 0.5,
                "durationKeepBlack": 1.0,
                "durationFromBlack": 0.5,
                "textMapID": "",
                "useTextFade": true
            },
            {
                "$type": "ConfigBodyLangInterAction",
                "type": "BODY_LANG",
                "aliasList": [
                    "12307"
                ],
                "isContinue": true,
                "forceDoFreeStyle": true,
                "canDoRepeatFreeStyle": false
            },
            {
                "$type": "ConfigBodyLangInterAction",
                "type": "BODY_LANG",
                "aliasList": [
                    "12309"
                ],
                "isContinue": true,
                "forceDoFreeStyle": true,
                "canDoRepeatFreeStyle": false
            },
            {
                "$type": "ConfigTimeProtectAction",
                "type": "TIME_PROTECT",
                "duration": 0.699999988079071
            },
            {
                "$type": "ConfigDialogInterAction",
                "type": "DIALOG_CLEAR",
                "dialogID": 191371104
            },
            {
                "$type": "ConfigCameraMoveInterAction",
                "type": "CAMERA_MOVE",
                "delayTime": 0.6000000238418579,
                "duration": 0.10000000149011612,
                "camPosOffset": {
                    "x": -607.375,
                    "y": 226.8040008544922,
                    "z": 300.2900085449219
                },
                "camForwardTargetOffset": {
                    "x": -608.0880126953125,
                    "y": 226.69900512695312,
                    "z": 300.9830017089844
                },
                "lerpPattern": 6,
                "cameraBlendType": "EaseInOutCubic",
                "cutFrameTrans": {},
                "needZAxisRotate": true,
                "openCameraDither": false,
                "targetNpcAlias": "",
                "closeTreeLeafDither": true
            },
            {
                "$type": "ConfigVisibleInterAction",
                "type": "VISIBLE",
                "delayTime": 0.6000000238418579,
                "aliasList": [
                    "507"
                ]
            }
        ]
    ],
    "groupId": [
        {
            "grpId": 1841710513,
            "nextGrpId": 1841710514
        },
        {
            "index": 1,
            "grpId": 1841710514,
            "nextGrpId": 1841710515
        },
        {
            "index": 2,
            "grpId": 1841710515,
            "nextGrpId": 1841710516
        },
        {
            "index": 3,
            "grpId": 1841710516,
            "nextGrpId": 1841710517
        },
        {
            "index": 4,
            "grpId": 1841710517,
            "nextGrpId": 1841710518
        },
        {
            "index": 5,
            "grpId": 1841710518,
            "nextGrpId": 1841710519
        },
        {
            "index": 6,
            "grpId": 1841710519,
            "nextGrpId": 1841710520
        }
    ],
    "freeStyleDic": {
        "507": [
            10100,
            10601
        ],
        "12307": [
            1050
        ],
        "12309": [
            1190
        ],
        "12306": []
    }
}