{
    "HBPGBNCBOMP": "",
    "KENGMFPNLEP": "",
    "disableNpcLod": true,
    "AGMGHOIPEIH": true,
    "startFade": {
        "startFadeOutDuration": 0.0
    },
    "endFade": {
        "startFadeOutDuration": 0.0
    },
    "actors": [
        {
            "alias": "Avatar",
            "visible": true,
            "bornPointName": "",
            "relativePosType": "AVATAR_NEW",
            "relativePosNpcAlias": ""
        },
        {
            "configID": 1050,
            "alias": "1050",
            "visible": true,
            "bornPointName": "Q1917303_N1050",
            "relativePosType": "AVATAR_NEW",
            "relativePosNpcAlias": ""
        },
        {
            "configID": 1051,
            "alias": "1051",
            "visible": true,
            "bornPointName": "Q1917303_N1051",
            "relativePosType": "AVATAR_NEW",
            "relativePosNpcAlias": ""
        },
        {
            "configID": 4234,
            "alias": "4234",
            "visible": true,
            "bornPointName": "Q1917303_N4234",
            "relativePosType": "AVATAR_NEW",
            "relativePosNpcAlias": ""
        }
    ],
    "group": [
        [
            {
                "$type": "ConfigSimpleBlackScreenAction",
                "type": "SIMPLE_BLACK_SCREEN",
                "actionId": 106,
                "durationToBlack": 0.5,
                "durationKeepBlack": 3.0,
                "durationFromBlack": 0.5,
                "textMapID": "",
                "useTextFade": true,
                "dialogID": 191731601
            },
            {
                "$type": "ConfigDialogInterAction",
                "type": "DIALOG_CLEAR",
                "actionId": 107
            }
        ],
        [
            {
                "$type": "ConfigCameraMoveInterAction",
                "type": "CAMERA_MOVE",
                "duration": 1.0,
                "actionId": 118,
                "cameraPosType": "RELATIVE_TO_TARGET_ENTITY",
                "camTargetType": "RELATIVE_TO_TARGET_ENTITY",
                "camFov": 30.0,
                "lerpPattern": 6,
                "cameraBlendType": "EaseInOutCubic",
                "cutFrameTrans": {},
                "openCameraDither": false,
                "targetNpcAlias": "1050",
                "closeTreeLeafDither": true
            },
            {
                "$type": "ConfigDialogInterAction",
                "type": "DIALOG",
                "aliasList": [
                    "1050"
                ],
                "actionId": 109,
                "dialogID": 191731602,
                "protectTime": 0.5
            }
        ],
        [
            {
                "$type": "ConfigCameraMoveInterAction",
                "type": "CAMERA_MOVE",
                "duration": 1.0,
                "actionId": 119,
                "cameraPosType": "RELATIVE_TO_TARGET_ENTITY",
                "camTargetType": "RELATIVE_TO_TARGET_ENTITY",
                "camFov": 30.0,
                "lerpPattern": 6,
                "cameraBlendType": "EaseInOutCubic",
                "cutFrameTrans": {},
                "openCameraDither": false,
                "targetNpcAlias": "1051",
                "closeTreeLeafDither": true
            },
            {
                "$type": "ConfigDialogInterAction",
                "type": "DIALOG",
                "aliasList": [
                    "1051"
                ],
                "actionId": 111,
                "dialogID": 191731603,
                "protectTime": 0.5
            }
        ],
        [
            {
                "$type": "ConfigCameraMoveInterAction",
                "type": "CAMERA_MOVE",
                "duration": 0.5,
                "actionId": 121,
                "camPosOffset": {
                    "x": -1058.5059814453125,
                    "y": 295.5169982910156,
                    "z": 3212.47509765625
                },
                "camForwardTargetOffset": {
                    "x": -1057.77099609375,
                    "y": 295.23199462890625,
                    "z": 3213.090087890625
                },
                "camFov": 51.457000732421875,
                "lerpPattern": 6,
                "cameraBlendType": "EaseInOutCubic",
                "cutFrameTrans": {},
                "needZAxisRotate": true,
                "openCameraDither": false,
                "targetNpcAlias": "",
                "closeTreeLeafDither": true
            },
            {
                "$type": "ConfigDialogInterAction",
                "type": "DIALOG",
                "aliasList": [
                    "4234"
                ],
                "actionId": 113,
                "dialogID": 191731604,
                "protectTime": 0.5
            }
        ],
        [
            {
                "$type": "ConfigDialogInterAction",
                "type": "DIALOG",
                "aliasList": [
                    "Avatar"
                ],
                "actionId": 115,
                "dialogID": 191731605,
                "protectTime": 0.5
            }
        ],
        [
            {
                "$type": "ConfigDialogInterAction",
                "type": "DIALOG",
                "aliasList": [
                    "Avatar"
                ],
                "actionId": 117,
                "dialogID": 191731606,
                "protectTime": 0.5
            }
        ],
        [
            {
                "$type": "ConfigSimpleBlackScreenAction",
                "type": "SIMPLE_BLACK_SCREEN",
                "actionId": 102,
                "durationToBlack": 0.5,
                "durationKeepBlack": 2.0,
                "durationFromBlack": 0.5,
                "textMapID": ""
            },
            {
                "$type": "ConfigDialogInterAction",
                "type": "DIALOG_CLEAR",
                "actionId": 103
            },
            {
                "$type": "ConfigVisibleInterAction",
                "type": "VISIBLE",
                "delayTime": 0.6000000238418579,
                "aliasList": [
                    "Avatar"
                ],
                "actionId": 104,
                "isVisible": true
            }
        ]
    ],
    "groupId": [
        {
            "grpId": 1405920916,
            "nextGrpId": 1405920917
        },
        {
            "index": 1,
            "grpId": 1405920917,
            "nextGrpId": 1405920918
        },
        {
            "index": 2,
            "grpId": 1405920918,
            "nextGrpId": 1405920919
        },
        {
            "index": 3,
            "grpId": 1405920919,
            "nextGrpId": 1405920920
        },
        {
            "index": 4,
            "grpId": 1405920920,
            "nextGrpId": 1405920921
        },
        {
            "index": 5,
            "grpId": 1405920921,
            "nextGrpId": 1405920922
        },
        {
            "index": 6,
            "grpId": 1405920922,
            "nextGrpId": 1405920923
        }
    ],
    "freeStyleDic": {
        "1050": [],
        "1051": []
    }
}