{
    "HBPGBNCBOMP": "",
    "dontUseDefaultFinish": true,
    "startBlackKeepTime": 1.0,
    "KENGMFPNLEP": "",
    "disableNpcLod": true,
    "startFade": {
        "startFadeInDuration": 0.5,
        "startFadeOutDuration": 0.5
    },
    "endFade": {
        "startFadeOutDuration": 0.0
    },
    "actors": [
        {
            "alias": "Avatar",
            "visible": true,
            "bornPointName": "",
            "relativePosNpcAlias": ""
        },
        {
            "configID": 506,
            "alias": "506",
            "visible": true,
            "bornPointName": "COOP10240101Beidou12",
            "relativePosNpcAlias": ""
        }
    ],
    "group": [
        [
            {
                "$type": "ConfigLookAtInterAction",
                "type": "LOOK_AT",
                "aliasList": [
                    "Avatar"
                ],
                "headTurnTime": 0.5,
                "targetNpcAlias": ""
            },
            {
                "$type": "ConfigEmotionTemplateAction",
                "type": "EMOTION_TEMPLATE",
                "aliasList": [
                    "506"
                ],
                "emoTemplateID": 10100
            },
            {
                "$type": "ConfigCameraDOFAction",
                "type": "CAMERA_DOF",
                "delayTime": 0.30000001192092896,
                "focusDistance": 6.0,
                "focusRange": 6.0,
                "quality": 3
            },
            {
                "$type": "ConfigLookAtInterAction",
                "type": "LOOK_AT",
                "delayTime": 0.30000001192092896,
                "aliasList": [
                    "506"
                ],
                "enableAbsolute": true,
                "targetOffset": {
                    "x": 2347.527099609375,
                    "y": 261.25201416015625,
                    "z": -699.9879760742188
                },
                "targetPosition": {
                    "x": 2020.490966796875,
                    "y": 261.9219970703125,
                    "z": -359.2409973144531
                },
                "headTurnTime": 0.30000001192092896,
                "targetNpcAlias": "",
                "lookAtTargetType": "NONE"
            },
            {
                "$type": "ConfigVisibleInterAction",
                "type": "VISIBLE",
                "delayTime": 0.30000001192092896,
                "aliasList": [
                    "Avatar"
                ]
            }
        ],
        [
            {
                "$type": "ConfigEmotionTemplateAction",
                "type": "EMOTION_TEMPLATE",
                "aliasList": [
                    "506"
                ],
                "emoTemplateID": 10601
            },
            {
                "$type": "ConfigEmoSyncInterAction",
                "type": "EMO_SYNC",
                "aliasList": [
                    "506"
                ],
                "dataPath": "Cs_Emo_Avatar_Simple_Common_Set/Cs_Emo_Avatar_Talk/Cs_Emo_Coop_Common/Cs_Emo_Coop_BeiDou_01/Cs_Emo_190500801",
                "phonemePath": "",
                "emotionPath": "",
                "mateDataPath": "",
                "matePhonemePath": "",
                "mateEmotionPath": "",
                "dataPathHashList": [
                    220790579631883009,
                    12358378476666392992,
                    17846126953000054334,
                    12995029708302613268
                ]
            },
            {
                "$type": "ConfigCameraMoveInterAction",
                "type": "CAMERA_MOVE",
                "duration": 1.0,
                "cameraPosType": "RELATIVE_TO_TARGET_ENTITY",
                "camTargetType": "RELATIVE_TO_TARGET_ENTITY",
                "camFov": 30.0,
                "lerpPattern": 6,
                "cameraBlendType": "EaseInOutCubic",
                "cutFrameTrans": {},
                "openCameraDither": false,
                "targetNpcAlias": "506",
                "closeTreeLeafDither": true
            },
            {
                "$type": "ConfigDialogInterAction",
                "type": "DIALOG",
                "aliasList": [
                    "506"
                ],
                "dialogID": 190500801,
                "protectTime": 0.5
            }
        ],
        [
            {
                "$type": "ConfigEmoSyncInterAction",
                "type": "EMO_SYNC",
                "aliasList": [
                    "506"
                ],
                "dataPath": "Cs_Emo_Avatar_Simple_Common_Set/Cs_Emo_Avatar_Talk/Cs_Emo_Coop_Common/Cs_Emo_Coop_BeiDou_01/Cs_Emo_190500802",
                "phonemePath": "",
                "emotionPath": "",
                "mateDataPath": "",
                "matePhonemePath": "",
                "mateEmotionPath": "",
                "dataPathHashList": [
                    18035781173735972415,
                    9154561755632710574,
                    2985826684685741546,
                    1439095887355270325
                ]
            },
            {
                "$type": "ConfigEmotionTemplateAction",
                "type": "EMOTION_TEMPLATE",
                "aliasList": [
                    "506"
                ],
                "emoTemplateID": 10601
            },
            {
                "$type": "ConfigDialogInterAction",
                "type": "DIALOG",
                "aliasList": [
                    "506"
                ],
                "dialogID": 190500802,
                "protectTime": 0.5
            }
        ],
        [
            {
                "$type": "ConfigEmoSyncInterAction",
                "type": "EMO_SYNC",
                "aliasList": [
                    "506"
                ],
                "dataPath": "Cs_Emo_Avatar_Simple_Common_Set/Cs_Emo_Avatar_Talk/Cs_Emo_Coop_Common/Cs_Emo_Coop_BeiDou_01/Cs_Emo_190500803",
                "phonemePath": "",
                "emotionPath": "",
                "mateDataPath": "",
                "matePhonemePath": "",
                "mateEmotionPath": "",
                "dataPathHashList": [
                    2302625995493536625,
                    3600703315030808196,
                    5817578623587350020,
                    10234153496725026842
                ]
            },
            {
                "$type": "ConfigEmotionTemplateAction",
                "type": "EMOTION_TEMPLATE",
                "aliasList": [
                    "506"
                ],
                "emoTemplateID": 10100
            },
            {
                "$type": "ConfigDialogInterAction",
                "type": "DIALOG",
                "aliasList": [
                    "506"
                ],
                "dialogID": 190500803,
                "protectTime": 0.5
            }
        ],
        [
            {
                "$type": "ConfigEmotionTemplateAction",
                "type": "EMOTION_TEMPLATE",
                "aliasList": [
                    "506"
                ],
                "emoTemplateID": 10100
            },
            {
                "$type": "ConfigEmoSyncInterAction",
                "type": "EMO_SYNC",
                "aliasList": [
                    "506"
                ],
                "dataPath": "Cs_Emo_Avatar_Simple_Common_Set/Cs_Emo_Avatar_Talk/Cs_Emo_Coop_Common/Cs_Emo_Coop_BeiDou_01/Cs_Emo_190500804",
                "phonemePath": "",
                "emotionPath": "",
                "mateDataPath": "",
                "matePhonemePath": "",
                "mateEmotionPath": "",
                "dataPathHashList": [
                    12109517160472423243,
                    9782666280367559210,
                    11791413614578252605,
                    6514420406131960909
                ]
            },
            {
                "$type": "ConfigDialogInterAction",
                "type": "DIALOG",
                "aliasList": [
                    "506"
                ],
                "dialogID": 190500804,
                "protectTime": 0.5
            },
            {
                "$type": "ConfigDialogSelectAction",
                "type": "DIALOG_SELECT",
                "delayTime": 0.4000000059604645,
                "aliasList": [
                    "Avatar"
                ],
                "dialogIDList": [
                    190500805,
                    190500806
                ],
                "grpIDList": [
                    2521653303,
                    2521653303
                ],
                "useGrpId": true
            }
        ],
        [
            {
                "$type": "ConfigEmoSyncInterAction",
                "type": "EMO_SYNC",
                "aliasList": [
                    "506"
                ],
                "dataPath": "Cs_Emo_Avatar_Simple_Common_Set/Cs_Emo_Avatar_Talk/Cs_Emo_Coop_Common/Cs_Emo_Coop_BeiDou_01/Cs_Emo_190500807",
                "phonemePath": "",
                "emotionPath": "",
                "mateDataPath": "",
                "matePhonemePath": "",
                "mateEmotionPath": "",
                "dataPathHashList": [
                    1411594872831070165,
                    17786708671657255531,
                    11072637277336515866,
                    12397294850186533838
                ]
            },
            {
                "$type": "ConfigEmotionTemplateAction",
                "type": "EMOTION_TEMPLATE",
                "aliasList": [
                    "506"
                ],
                "emoTemplateID": 10601
            },
            {
                "$type": "ConfigDialogInterAction",
                "type": "DIALOG",
                "aliasList": [
                    "506"
                ],
                "dialogID": 190500807,
                "protectTime": 0.5
            }
        ],
        [
            {
                "$type": "ConfigEmoSyncInterAction",
                "type": "EMO_SYNC",
                "aliasList": [
                    "506"
                ],
                "dataPath": "Cs_Emo_Avatar_Simple_Common_Set/Cs_Emo_Avatar_Talk/Cs_Emo_Coop_Common/Cs_Emo_Coop_BeiDou_01/Cs_Emo_190500808",
                "phonemePath": "",
                "emotionPath": "",
                "mateDataPath": "",
                "matePhonemePath": "",
                "mateEmotionPath": "",
                "dataPathHashList": [
                    18415217442223256373,
                    410793725943630082,
                    18228851874564481947,
                    9917819803154026393
                ]
            },
            {
                "$type": "ConfigEmotionTemplateAction",
                "type": "EMOTION_TEMPLATE",
                "aliasList": [
                    "506"
                ],
                "emoTemplateID": 10100
            },
            {
                "$type": "ConfigDialogInterAction",
                "type": "DIALOG",
                "aliasList": [
                    "506"
                ],
                "dialogID": 190500808,
                "protectTime": 0.5
            }
        ],
        [
            {
                "$type": "ConfigEmoSyncInterAction",
                "type": "EMO_SYNC",
                "aliasList": [
                    "506"
                ],
                "dataPath": "Cs_Emo_Avatar_Simple_Common_Set/Cs_Emo_Avatar_Talk/Cs_Emo_Coop_Common/Cs_Emo_Coop_BeiDou_01/Cs_Emo_190500809",
                "phonemePath": "",
                "emotionPath": "",
                "mateDataPath": "",
                "matePhonemePath": "",
                "mateEmotionPath": "",
                "dataPathHashList": [
                    12248139689098968821,
                    12199316759058768220,
                    14446850372039694790,
                    600157884581567571
                ]
            },
            {
                "$type": "ConfigEmotionTemplateAction",
                "type": "EMOTION_TEMPLATE",
                "aliasList": [
                    "506"
                ],
                "emoTemplateID": 10101
            },
            {
                "$type": "ConfigDialogInterAction",
                "type": "DIALOG",
                "aliasList": [
                    "506"
                ],
                "dialogID": 190500809,
                "protectTime": 0.5
            }
        ],
        [
            {
                "$type": "ConfigEmotionTemplateAction",
                "type": "EMOTION_TEMPLATE",
                "aliasList": [
                    "506"
                ],
                "emoTemplateID": 10100
            },
            {
                "$type": "ConfigEmoSyncInterAction",
                "type": "EMO_SYNC",
                "aliasList": [
                    "506"
                ],
                "dataPath": "Cs_Emo_Avatar_Simple_Common_Set/Cs_Emo_Avatar_Talk/Cs_Emo_Coop_Common/Cs_Emo_Coop_BeiDou_01/Cs_Emo_190500810",
                "phonemePath": "",
                "emotionPath": "",
                "mateDataPath": "",
                "matePhonemePath": "",
                "mateEmotionPath": "",
                "dataPathHashList": [
                    18235324892701354022,
                    1738646097808059761,
                    16420108008008200956,
                    7107994747107724480
                ]
            },
            {
                "$type": "ConfigDialogInterAction",
                "type": "DIALOG",
                "aliasList": [
                    "506"
                ],
                "dialogID": 190500810,
                "protectTime": 0.5
            },
            {
                "$type": "ConfigDialogSelectAction",
                "type": "DIALOG_SELECT",
                "delayTime": 0.4000000059604645,
                "aliasList": [
                    "Avatar"
                ],
                "dialogIDList": [
                    190500811,
                    190500812
                ],
                "grpIDList": [
                    861840958,
                    861840958
                ],
                "useGrpId": true
            }
        ],
        [
            {
                "$type": "ConfigEmoSyncInterAction",
                "type": "EMO_SYNC",
                "aliasList": [
                    "506"
                ],
                "dataPath": "Cs_Emo_Avatar_Simple_Common_Set/Cs_Emo_Avatar_Talk/Cs_Emo_Coop_Common/Cs_Emo_Coop_BeiDou_01/Cs_Emo_190500813",
                "phonemePath": "",
                "emotionPath": "",
                "mateDataPath": "",
                "matePhonemePath": "",
                "mateEmotionPath": "",
                "dataPathHashList": [
                    3104004933221710739,
                    2781033804280768619,
                    17152846845948358439,
                    1346399884095290478
                ]
            },
            {
                "$type": "ConfigEmotionTemplateAction",
                "type": "EMOTION_TEMPLATE",
                "aliasList": [
                    "506"
                ],
                "emoTemplateID": 10401
            },
            {
                "$type": "ConfigDialogInterAction",
                "type": "DIALOG",
                "aliasList": [
                    "506"
                ],
                "dialogID": 190500813,
                "protectTime": 0.5
            }
        ],
        [
            {
                "$type": "ConfigEmoSyncInterAction",
                "type": "EMO_SYNC",
                "aliasList": [
                    "506"
                ],
                "dataPath": "Cs_Emo_Avatar_Simple_Common_Set/Cs_Emo_Avatar_Talk/Cs_Emo_Coop_Common/Cs_Emo_Coop_BeiDou_01/Cs_Emo_190500814",
                "phonemePath": "",
                "emotionPath": "",
                "mateDataPath": "",
                "matePhonemePath": "",
                "mateEmotionPath": "",
                "dataPathHashList": [
                    13636294820631519867,
                    12986092001910298792,
                    16788056978505714050,
                    7362791908589833877
                ]
            },
            {
                "$type": "ConfigEmotionTemplateAction",
                "type": "EMOTION_TEMPLATE",
                "aliasList": [
                    "506"
                ],
                "emoTemplateID": 10100
            },
            {
                "$type": "ConfigDialogInterAction",
                "type": "DIALOG",
                "aliasList": [
                    "506"
                ],
                "dialogID": 190500814,
                "protectTime": 0.5
            }
        ],
        [
            {
                "$type": "ConfigTimeProtectAction",
                "type": "TIME_PROTECT",
                "duration": 3.0
            },
            {
                "$type": "ConfigLuaAction",
                "type": "LUA_ACTION",
                "duration": 2.0,
                "invoke": true,
                "invokeAlias": "19050",
                "invokeParam": 1
            }
        ],
        [
            {
                "$type": "ConfigEmoSyncInterAction",
                "type": "EMO_SYNC",
                "aliasList": [
                    "506"
                ],
                "dataPath": "Cs_Emo_Avatar_Simple_Common_Set/Cs_Emo_Avatar_Talk/Cs_Emo_Coop_Common/Cs_Emo_Coop_BeiDou_01/Cs_Emo_190500815",
                "phonemePath": "",
                "emotionPath": "",
                "mateDataPath": "",
                "matePhonemePath": "",
                "mateEmotionPath": "",
                "dataPathHashList": [
                    9484866283886637173,
                    1754976677661026016,
                    9788563840862004936,
                    12866365094470428152
                ]
            },
            {
                "$type": "ConfigEmotionTemplateAction",
                "type": "EMOTION_TEMPLATE",
                "aliasList": [
                    "506"
                ],
                "emoTemplateID": 10100
            },
            {
                "$type": "ConfigDialogInterAction",
                "type": "DIALOG",
                "aliasList": [
                    "506"
                ],
                "dialogID": 190500815,
                "protectTime": 0.5
            }
        ]
    ],
    "groupId": [
        {
            "grpId": 2521653298,
            "nextGrpId": 2521653299
        },
        {
            "index": 1,
            "grpId": 2521653299,
            "nextGrpId": 2521653300
        },
        {
            "index": 2,
            "grpId": 2521653300,
            "nextGrpId": 2521653301
        },
        {
            "index": 3,
            "grpId": 2521653301,
            "nextGrpId": 2521653302
        },
        {
            "index": 4,
            "grpId": 2521653302,
            "nextGrpId": 2521653303
        },
        {
            "index": 5,
            "grpId": 2521653303,
            "nextGrpId": 2521653304
        },
        {
            "index": 6,
            "grpId": 2521653304,
            "nextGrpId": 2521653305
        },
        {
            "index": 7,
            "grpId": 2521653305,
            "nextGrpId": 2521653306
        },
        {
            "index": 8,
            "grpId": 2521653306,
            "nextGrpId": 861840958
        },
        {
            "index": 9,
            "grpId": 861840958,
            "nextGrpId": 861840959
        },
        {
            "index": 10,
            "grpId": 861840959,
            "nextGrpId": 861840960
        },
        {
            "index": 11,
            "grpId": 861840960,
            "nextGrpId": 861840961
        },
        {
            "index": 12,
            "grpId": 861840961,
            "nextGrpId": 861840962
        }
    ],
    "freeStyleDic": {
        "506": [
            10100,
            10601,
            10101,
            10401
        ]
    }
}