{
    "HBPGBNCBOMP": "",
    "startBlackKeepTime": 0.5,
    "KENGMFPNLEP": "",
    "disableNpcLod": true,
    "startFade": {
        "startFadeInDuration": 0.5,
        "startFadeOutDuration": 0.5
    },
    "endFade": {
        "startFadeOutDuration": 0.0
    },
    "actors": [
        {
            "alias": "Avatar",
            "visible": true,
            "bornPointName": "Q1912111born",
            "relativePosNpcAlias": ""
        },
        {
            "configID": 503,
            "alias": "503",
            "visible": true,
            "bornPointName": "Q1912111tuoma",
            "removeActorType": "REMOVE",
            "relativePosNpcAlias": ""
        },
        {
            "configID": 12162,
            "alias": "12162",
            "visible": true,
            "bornPointName": "Q1912103mass2",
            "relativePosNpcAlias": ""
        }
    ],
    "group": [
        [
            {
                "$type": "ConfigTeleportToAction",
                "type": "TELEPORT_TO",
                "aliasList": [
                    "503"
                ],
                "position": {
                    "x": -3005.569091796875,
                    "y": 220.30099487304688,
                    "z": -4365.89990234375
                },
                "forward": {
                    "x": 0.8730000257492065,
                    "z": 0.4880000054836273
                }
            },
            {
                "$type": "ConfigLookAtEyeCtrlInterAction",
                "type": "LOOK_AT_EYECTRL",
                "aliasList": [
                    "12162"
                ],
                "useTargetPos": false,
                "eyeRotateVecLeft": {
                    "z": 2.0
                },
                "eyeRotateVecRight": {
                    "z": 2.0
                },
                "turnTime": 1.0,
                "targetNpcAlias": "",
                "targetPoint": "Face"
            },
            {
                "$type": "ConfigTeleportToAction",
                "type": "TELEPORT_TO",
                "aliasList": [
                    "12162"
                ],
                "position": {
                    "x": -3003.553955078125,
                    "y": 220.322998046875,
                    "z": -4364.01611328125
                },
                "forward": {
                    "x": -1.8639999628067017,
                    "y": 0.0010000000474974513,
                    "z": -0.5580000281333923
                }
            },
            {
                "$type": "ConfigLookAtInterAction",
                "type": "LOOK_AT",
                "aliasList": [
                    "12162"
                ],
                "enableHead": true,
                "headTurnTime": 0.4000000059604645,
                "targetNpcAlias": ""
            },
            {
                "$type": "ConfigBodyLangInterAction",
                "type": "BODY_LANG",
                "aliasList": [
                    "12162"
                ],
                "forceDoFreeStyle": true,
                "canDoRepeatFreeStyle": false
            },
            {
                "$type": "ConfigTimeProtectAction",
                "type": "TIME_PROTECT",
                "duration": 1.0
            },
            {
                "$type": "ConfigCameraDOFAction",
                "type": "CAMERA_DOF",
                "focusDistance": 6.0,
                "focusRange": 6.0,
                "quality": 3
            },
            {
                "$type": "ConfigBlackScreenAction",
                "type": "BLACK_SCREEN",
                "blackScreenType": "KEEP_BLACK",
                "durationKeepBlack": 0.5,
                "inteePos": "",
                "textMapID": "",
                "useTextFade": true
            },
            {
                "$type": "ConfigLookAtInterAction",
                "type": "LOOK_AT",
                "aliasList": [
                    "503"
                ],
                "enableAbsolute": true,
                "targetOffset": {
                    "x": 2347.527099609375,
                    "y": 261.25201416015625,
                    "z": -699.9879760742188
                },
                "targetPosition": {
                    "x": 2020.490966796875,
                    "y": 261.9219970703125,
                    "z": -359.2409973144531
                },
                "headTurnTime": 0.30000001192092896,
                "targetNpcAlias": "",
                "lookAtTargetType": "NONE"
            },
            {
                "$type": "ConfigVisibleInterAction",
                "type": "VISIBLE",
                "aliasList": [
                    "Avatar"
                ]
            },
            {
                "$type": "ConfigEmotionTemplateAction",
                "type": "EMOTION_TEMPLATE",
                "delayTime": 0.10000000149011612,
                "aliasList": [
                    "503"
                ],
                "emoTemplateID": 10100
            }
        ],
        [
            {
                "$type": "ConfigEmoSyncInterAction",
                "type": "EMO_SYNC",
                "aliasList": [
                    "503"
                ],
                "dataPath": "Cs_Emo_Avatar_Simple_Common_Set/Cs_Emo_Avatar_Talk/Cs_Emo_Coop_Common/Cs_Emo_Coop_Thoma_01/Cs_Emo_191210801",
                "phonemePath": "",
                "emotionPath": "",
                "mateDataPath": "",
                "matePhonemePath": "",
                "mateEmotionPath": "",
                "dataPathHashList": [
                    8129900332843394000,
                    6788558952495696475,
                    4458516988396099693,
                    14901302310024988580
                ]
            },
            {
                "$type": "ConfigBodyLangInterAction",
                "type": "BODY_LANG",
                "aliasList": [
                    "12162"
                ],
                "bodyLangParam": 1230,
                "forceDoFreeStyle": true,
                "canDoRepeatFreeStyle": false
            },
            {
                "$type": "ConfigLookAtInterAction",
                "type": "LOOK_AT",
                "aliasList": [
                    "12162"
                ],
                "enableHead": true,
                "headTurnTime": 0.5,
                "targetNpcAlias": ""
            },
            {
                "$type": "ConfigEmotionTemplateAction",
                "type": "EMOTION_TEMPLATE",
                "aliasList": [
                    "503"
                ],
                "emoTemplateID": 10100
            },
            {
                "$type": "ConfigCameraMoveInterAction",
                "type": "CAMERA_MOVE",
                "duration": 1.0,
                "cameraPosType": "RELATIVE_TO_TARGET_ENTITY",
                "camTargetType": "RELATIVE_TO_TARGET_ENTITY",
                "camFov": 30.0,
                "lerpPattern": 6,
                "cameraBlendType": "EaseInOutCubic",
                "cutFrameTrans": {},
                "openCameraDither": false,
                "targetNpcAlias": "503",
                "closeTreeLeafDither": true
            },
            {
                "$type": "ConfigBlackScreenAction",
                "type": "BLACK_SCREEN",
                "blackScreenType": "FROM_BLACK",
                "durationFromBlack": 0.5,
                "inteePos": "",
                "textMapID": "",
                "useTextFade": true
            },
            {
                "$type": "ConfigDialogInterAction",
                "type": "DIALOG",
                "aliasList": [
                    "503"
                ],
                "dialogID": 191210801,
                "protectTime": 0.5
            }
        ],
        [
            {
                "$type": "ConfigBodyLangInterAction",
                "type": "BODY_LANG",
                "aliasList": [
                    "12162"
                ],
                "bodyLangParam": 4030,
                "forceDoFreeStyle": true,
                "canDoRepeatFreeStyle": false
            },
            {
                "$type": "ConfigEmoSyncInterAction",
                "type": "EMO_SYNC",
                "aliasList": [
                    "12162"
                ],
                "dataPath": "Cs_Emo_Avatar_Simple_Common_Set/Cs_Emo_Avatar_Talk/Cs_Emo_Coop_Common/Cs_Emo_Coop_Thoma_01/Cs_Emo_191210802",
                "phonemePath": "",
                "emotionPath": "",
                "mateDataPath": "",
                "matePhonemePath": "",
                "mateEmotionPath": "",
                "enableBlink": false,
                "dataPathHashList": [
                    9480399762884940293,
                    5838964724280698526,
                    4237948862713801907,
                    12748628379244927923
                ]
            },
            {
                "$type": "ConfigCameraMoveInterAction",
                "type": "CAMERA_MOVE",
                "duration": 1.0,
                "cameraPosType": "RELATIVE_TO_TARGET_ENTITY",
                "camTargetType": "RELATIVE_TO_TARGET_ENTITY",
                "camFov": 30.0,
                "lerpPattern": 6,
                "cameraBlendType": "EaseInOutCubic",
                "cutFrameTrans": {},
                "openCameraDither": false,
                "targetNpcAlias": "12162",
                "closeTreeLeafDither": true
            },
            {
                "$type": "ConfigDialogInterAction",
                "type": "DIALOG",
                "aliasList": [
                    "12162"
                ],
                "dialogID": 191210802,
                "protectTime": 0.5
            },
            {
                "$type": "ConfigBodyLangInterAction",
                "type": "BODY_LANG",
                "delayTime": 1.5379999876022339,
                "aliasList": [
                    "12162"
                ],
                "isContinue": true,
                "forceDoFreeStyle": true,
                "canDoRepeatFreeStyle": false
            },
            {
                "$type": "ConfigBodyLangInterAction",
                "type": "BODY_LANG",
                "delayTime": 2.052999973297119,
                "aliasList": [
                    "12162"
                ],
                "bodyLangParam": 1130,
                "forceDoFreeStyle": true,
                "canDoRepeatFreeStyle": false
            },
            {
                "$type": "ConfigBodyLangInterAction",
                "type": "BODY_LANG",
                "delayTime": 5.3460001945495605,
                "aliasList": [
                    "12162"
                ],
                "isContinue": true,
                "forceDoFreeStyle": true,
                "canDoRepeatFreeStyle": false
            }
        ],
        [
            {
                "$type": "ConfigEmoSyncInterAction",
                "type": "EMO_SYNC",
                "aliasList": [
                    "12162"
                ],
                "dataPath": "Cs_Emo_Avatar_Simple_Common_Set/Cs_Emo_Avatar_Talk/Cs_Emo_Coop_Common/Cs_Emo_Coop_Thoma_01/Cs_Emo_191210803",
                "phonemePath": "",
                "emotionPath": "",
                "mateDataPath": "",
                "matePhonemePath": "",
                "mateEmotionPath": "",
                "dataPathHashList": [
                    2670349685388994574,
                    7612191656361832095,
                    14933208044659740151,
                    3276061580562657175
                ]
            },
            {
                "$type": "ConfigBodyLangInterAction",
                "type": "BODY_LANG",
                "aliasList": [
                    "12162"
                ],
                "isContinue": true,
                "forceDoFreeStyle": true,
                "canDoRepeatFreeStyle": false
            },
            {
                "$type": "ConfigDialogInterAction",
                "type": "DIALOG",
                "aliasList": [
                    "12162"
                ],
                "dialogID": 191210803,
                "protectTime": 0.5
            },
            {
                "$type": "ConfigBodyLangInterAction",
                "type": "BODY_LANG",
                "delayTime": 1.4190000295639038,
                "aliasList": [
                    "12162"
                ],
                "bodyLangParam": 1060,
                "forceDoFreeStyle": true,
                "canDoRepeatFreeStyle": false
            },
            {
                "$type": "ConfigBodyLangInterAction",
                "type": "BODY_LANG",
                "delayTime": 4.01800012588501,
                "aliasList": [
                    "12162"
                ],
                "bodyLangParam": 4040,
                "forceDoFreeStyle": true,
                "canDoRepeatFreeStyle": false
            }
        ],
        [
            {
                "$type": "ConfigBodyLangInterAction",
                "type": "BODY_LANG",
                "aliasList": [
                    "12162"
                ],
                "isContinue": true,
                "forceDoFreeStyle": true,
                "canDoRepeatFreeStyle": false
            },
            {
                "$type": "ConfigEmoSyncInterAction",
                "type": "EMO_SYNC",
                "aliasList": [
                    "12162"
                ],
                "dataPath": "Cs_Emo_Avatar_Simple_Common_Set/Cs_Emo_Avatar_Talk/Cs_Emo_Coop_Common/Cs_Emo_Coop_Thoma_01/Cs_Emo_191210804",
                "phonemePath": "",
                "emotionPath": "",
                "mateDataPath": "",
                "matePhonemePath": "",
                "mateEmotionPath": "",
                "dataPathHashList": [
                    15117333563040627677,
                    3094084202523544920,
                    13427442233887914940,
                    13227174285871323412
                ]
            },
            {
                "$type": "ConfigEmotionTemplateAction",
                "type": "EMOTION_TEMPLATE",
                "aliasList": [
                    "503"
                ],
                "emoTemplateID": 10100
            },
            {
                "$type": "ConfigDialogInterAction",
                "type": "DIALOG",
                "aliasList": [
                    "12162"
                ],
                "dialogID": 191210804,
                "protectTime": 0.5
            },
            {
                "$type": "ConfigBodyLangInterAction",
                "type": "BODY_LANG",
                "delayTime": 0.38199999928474426,
                "aliasList": [
                    "12162"
                ],
                "bodyLangParam": 1120,
                "forceDoFreeStyle": true,
                "canDoRepeatFreeStyle": false
            },
            {
                "$type": "ConfigBodyLangInterAction",
                "type": "BODY_LANG",
                "delayTime": 2.308000087738037,
                "aliasList": [
                    "12162"
                ],
                "isContinue": true,
                "forceDoFreeStyle": true,
                "canDoRepeatFreeStyle": false
            },
            {
                "$type": "ConfigBodyLangInterAction",
                "type": "BODY_LANG",
                "delayTime": 2.688999891281128,
                "aliasList": [
                    "12162"
                ],
                "bodyLangParam": 1171,
                "forceDoFreeStyle": true,
                "canDoRepeatFreeStyle": false
            }
        ],
        [
            {
                "$type": "ConfigEmoSyncInterAction",
                "type": "EMO_SYNC",
                "aliasList": [
                    "503"
                ],
                "dataPath": "Cs_Emo_Avatar_Simple_Common_Set/Cs_Emo_Avatar_Talk/Cs_Emo_Coop_Common/Cs_Emo_Coop_Thoma_01/Cs_Emo_191210805",
                "phonemePath": "",
                "emotionPath": "",
                "mateDataPath": "",
                "matePhonemePath": "",
                "mateEmotionPath": "",
                "dataPathHashList": [
                    9445646926817093066,
                    12528280467051358376,
                    971467501984976125,
                    8815607189736610319
                ]
            },
            {
                "$type": "ConfigBodyLangInterAction",
                "type": "BODY_LANG",
                "aliasList": [
                    "12162"
                ],
                "isContinue": true,
                "forceDoFreeStyle": true,
                "canDoRepeatFreeStyle": false
            },
            {
                "$type": "ConfigEmotionTemplateAction",
                "type": "EMOTION_TEMPLATE",
                "aliasList": [
                    "503"
                ],
                "emoTemplateID": 10101
            },
            {
                "$type": "ConfigCameraMoveInterAction",
                "type": "CAMERA_MOVE",
                "duration": 1.0,
                "cameraPosType": "RELATIVE_TO_TARGET_ENTITY",
                "camTargetType": "RELATIVE_TO_TARGET_ENTITY",
                "camFov": 30.0,
                "lerpPattern": 6,
                "cameraBlendType": "EaseInOutCubic",
                "cutFrameTrans": {},
                "openCameraDither": false,
                "targetNpcAlias": "503",
                "closeTreeLeafDither": true
            },
            {
                "$type": "ConfigDialogInterAction",
                "type": "DIALOG",
                "aliasList": [
                    "503"
                ],
                "dialogID": 191210805,
                "protectTime": 0.5
            }
        ],
        [
            {
                "$type": "ConfigDialogInterAction",
                "type": "DIALOG",
                "aliasList": [
                    "12162"
                ],
                "dialogID": 191210806,
                "protectTime": 0.5
            },
            {
                "$type": "ConfigBodyLangInterAction",
                "type": "BODY_LANG",
                "aliasList": [
                    "12162"
                ],
                "bodyLangParam": 4030,
                "forceDoFreeStyle": true,
                "canDoRepeatFreeStyle": false
            },
            {
                "$type": "ConfigEmoSyncInterAction",
                "type": "EMO_SYNC",
                "aliasList": [
                    "12162"
                ],
                "dataPath": "Cs_Emo_Avatar_Simple_Common_Set/Cs_Emo_Avatar_Talk/Cs_Emo_Coop_Common/Cs_Emo_Coop_Thoma_01/Cs_Emo_191210806",
                "phonemePath": "",
                "emotionPath": "",
                "mateDataPath": "",
                "matePhonemePath": "",
                "mateEmotionPath": "",
                "enableBlink": false,
                "dataPathHashList": [
                    14811028375650471099,
                    17385442927474370340,
                    15608629443655835815,
                    15444191960659536803
                ]
            },
            {
                "$type": "ConfigLookAtInterAction",
                "type": "LOOK_AT",
                "aliasList": [
                    "503"
                ],
                "enableHead": true,
                "useTargetPos": true,
                "enableAbsolute": true,
                "targetPosition": {
                    "x": -3005.823974609375,
                    "y": 221.85400390625,
                    "z": -4364.86279296875
                },
                "headTurnTime": 0.5,
                "targetNpcAlias": ""
            },
            {
                "$type": "ConfigCameraMoveInterAction",
                "type": "CAMERA_MOVE",
                "duration": 1.0,
                "cameraPosType": "RELATIVE_TO_TARGET_ENTITY",
                "camTargetType": "RELATIVE_TO_TARGET_ENTITY",
                "camFov": 30.0,
                "lerpPattern": 6,
                "cameraBlendType": "EaseInOutCubic",
                "cutFrameTrans": {},
                "openCameraDither": false,
                "targetNpcAlias": "12162",
                "closeTreeLeafDither": true
            },
            {
                "$type": "ConfigTeleportToAction",
                "type": "TELEPORT_TO",
                "aliasList": [
                    "503"
                ],
                "position": {
                    "x": -3005.569091796875,
                    "y": 220.32000732421875,
                    "z": -4365.89990234375
                },
                "forward": {
                    "x": -0.11500000208616257,
                    "z": 0.4880000054836273
                }
            },
            {
                "$type": "ConfigDialogSelectAction",
                "type": "DIALOG_SELECT",
                "delayTime": 0.4000000059604645,
                "aliasList": [
                    "Avatar"
                ],
                "dialogIDList": [
                    191210807,
                    191210808
                ],
                "grpIDList": [
                    1279148389,
                    1279148389
                ],
                "useGrpId": true
            },
            {
                "$type": "ConfigBodyLangInterAction",
                "type": "BODY_LANG",
                "delayTime": 1.6349999904632568,
                "aliasList": [
                    "12162"
                ],
                "bodyLangParam": 1130,
                "forceDoFreeStyle": true,
                "canDoRepeatFreeStyle": false
            }
        ],
        [
            {
                "$type": "ConfigEmoSyncInterAction",
                "type": "EMO_SYNC",
                "aliasList": [
                    "503"
                ],
                "dataPath": "Cs_Emo_Avatar_Simple_Common_Set/Cs_Emo_Avatar_Talk/Cs_Emo_Coop_Common/Cs_Emo_Coop_Thoma_01/Cs_Emo_191210809",
                "phonemePath": "",
                "emotionPath": "",
                "mateDataPath": "",
                "matePhonemePath": "",
                "mateEmotionPath": "",
                "dataPathHashList": [
                    10972019244714398055,
                    7348471429467842874,
                    7076121104796252824,
                    3563147372067612735
                ]
            },
            {
                "$type": "ConfigBodyLangInterAction",
                "type": "BODY_LANG",
                "aliasList": [
                    "12162"
                ],
                "isContinue": true,
                "forceDoFreeStyle": true,
                "canDoRepeatFreeStyle": false
            },
            {
                "$type": "ConfigEmotionTemplateAction",
                "type": "EMOTION_TEMPLATE",
                "aliasList": [
                    "503"
                ],
                "emoTemplateID": 10100
            },
            {
                "$type": "ConfigCameraMoveInterAction",
                "type": "CAMERA_MOVE",
                "duration": 1.0,
                "cameraPosType": "RELATIVE_TO_TARGET_ENTITY",
                "camTargetType": "RELATIVE_TO_TARGET_ENTITY",
                "camFov": 30.0,
                "lerpPattern": 6,
                "cameraBlendType": "EaseInOutCubic",
                "cutFrameTrans": {},
                "openCameraDither": false,
                "targetNpcAlias": "503",
                "closeTreeLeafDither": true
            },
            {
                "$type": "ConfigDialogInterAction",
                "type": "DIALOG",
                "aliasList": [
                    "503"
                ],
                "dialogID": 191210809,
                "protectTime": 0.5
            }
        ],
        [
            {
                "$type": "ConfigEmoSyncInterAction",
                "type": "EMO_SYNC",
                "aliasList": [
                    "503"
                ],
                "dataPath": "Cs_Emo_Avatar_Simple_Common_Set/Cs_Emo_Avatar_Talk/Cs_Emo_Coop_Common/Cs_Emo_Coop_Thoma_01/Cs_Emo_191210810",
                "phonemePath": "",
                "emotionPath": "",
                "mateDataPath": "",
                "matePhonemePath": "",
                "mateEmotionPath": "",
                "dataPathHashList": [
                    5824977545622007755,
                    11221501461952295552,
                    626887041199803249,
                    13682750662777024124
                ]
            },
            {
                "$type": "ConfigEmotionTemplateAction",
                "type": "EMOTION_TEMPLATE",
                "aliasList": [
                    "503"
                ],
                "emoTemplateID": 10101
            },
            {
                "$type": "ConfigDialogInterAction",
                "type": "DIALOG",
                "aliasList": [
                    "503"
                ],
                "dialogID": 191210810,
                "protectTime": 0.5
            }
        ],
        [
            {
                "$type": "ConfigEmoSyncInterAction",
                "type": "EMO_SYNC",
                "aliasList": [
                    "503"
                ],
                "dataPath": "Cs_Emo_Avatar_Simple_Common_Set/Cs_Emo_Avatar_Talk/Cs_Emo_Coop_Common/Cs_Emo_Coop_Thoma_01/Cs_Emo_191210811",
                "phonemePath": "",
                "emotionPath": "",
                "mateDataPath": "",
                "matePhonemePath": "",
                "mateEmotionPath": "",
                "dataPathHashList": [
                    11509805457544873287,
                    17627276384552151798,
                    13506539496266387089,
                    17334009647778572294
                ]
            },
            {
                "$type": "ConfigEmotionTemplateAction",
                "type": "EMOTION_TEMPLATE",
                "aliasList": [
                    "503"
                ],
                "emoTemplateID": 10100
            },
            {
                "$type": "ConfigDialogInterAction",
                "type": "DIALOG",
                "aliasList": [
                    "503"
                ],
                "dialogID": 191210811,
                "protectTime": 0.5
            }
        ],
        [
            {
                "$type": "ConfigTimeProtectAction",
                "type": "TIME_PROTECT",
                "duration": 0.699999988079071
            },
            {
                "$type": "ConfigDialogInterAction",
                "type": "DIALOG_CLEAR"
            },
            {
                "$type": "ConfigSimpleBlackScreenAction",
                "type": "SIMPLE_BLACK_SCREEN",
                "durationToBlack": 0.5,
                "durationKeepBlack": 1.0,
                "durationFromBlack": 0.5,
                "textMapID": ""
            },
            {
                "$type": "ConfigVisibleInterAction",
                "type": "VISIBLE",
                "delayTime": 0.6000000238418579,
                "aliasList": [
                    "503"
                ]
            },
            {
                "$type": "ConfigVisibleInterAction",
                "type": "VISIBLE",
                "delayTime": 0.6000000238418579,
                "aliasList": [
                    "12162"
                ]
            },
            {
                "$type": "ConfigCameraMoveInterAction",
                "type": "CAMERA_MOVE",
                "delayTime": 0.6000000238418579,
                "duration": 0.10000000149011612,
                "camPosOffset": {
                    "x": -3008.89794921875,
                    "y": 222.3260040283203,
                    "z": -4363.93994140625
                },
                "camForwardTargetOffset": {
                    "x": -3007.958984375,
                    "y": 221.99899291992188,
                    "z": -4364.046875
                },
                "lerpPattern": 6,
                "cameraBlendType": "EaseInOutCubic",
                "cutFrameTrans": {},
                "openCameraDither": false,
                "targetNpcAlias": "",
                "closeTreeLeafDither": true
            },
            {
                "$type": "ConfigVisibleInterAction",
                "type": "VISIBLE",
                "delayTime": 0.6000000238418579,
                "aliasList": [
                    "Avatar"
                ],
                "isVisible": true
            }
        ]
    ],
    "groupId": [
        {
            "grpId": 1279148382,
            "nextGrpId": 1279148383
        },
        {
            "index": 1,
            "grpId": 1279148383,
            "nextGrpId": 1279148384
        },
        {
            "index": 2,
            "grpId": 1279148384,
            "nextGrpId": 1279148385
        },
        {
            "index": 3,
            "grpId": 1279148385,
            "nextGrpId": 1279148386
        },
        {
            "index": 4,
            "grpId": 1279148386,
            "nextGrpId": 1279148387
        },
        {
            "index": 5,
            "grpId": 1279148387,
            "nextGrpId": 1279148388
        },
        {
            "index": 6,
            "grpId": 1279148388,
            "nextGrpId": 1279148389
        },
        {
            "index": 7,
            "grpId": 1279148389,
            "nextGrpId": 1279148390
        },
        {
            "index": 8,
            "grpId": 1279148390,
            "nextGrpId": 998894226
        },
        {
            "index": 9,
            "grpId": 998894226,
            "nextGrpId": 998894227
        },
        {
            "index": 10,
            "grpId": 998894227,
            "nextGrpId": 998894228
        }
    ],
    "freeStyleDic": {
        "503": [
            10100,
            10101
        ],
        "12162": [
            1230,
            4030,
            1130,
            1060,
            4040,
            1120,
            1171
        ]
    }
}