{
    "HBPGBNCBOMP": "",
    "startBlackKeepTime": 0.5,
    "KENGMFPNLEP": "",
    "disableNpcLod": true,
    "NIHBFFCCJJN": true,
    "MCGPBLEHELN": true,
    "AGMGHOIPEIH": true,
    "startFade": {
        "startFadeInDuration": 0.5,
        "startFadeOutDuration": 0.5
    },
    "endFade": {
        "startFadeOutDuration": 0.0
    },
    "actors": [
        {
            "alias": "Avatar",
            "visible": true,
            "bornPointName": "Q1905506_N10000005",
            "relativePosNpcAlias": ""
        },
        {
            "configID": 12055,
            "alias": "12055",
            "visible": true,
            "bornPointName": "Q1905503_N3139",
            "removeActorType": "REMOVE",
            "relativePosNpcAlias": ""
        },
        {
            "configID": 12551,
            "alias": "12551",
            "visible": true,
            "bornPointName": "Q1905503_N12650_Route4",
            "removeActorType": "REMOVE",
            "relativePosNpcAlias": ""
        },
        {
            "configID": 12056,
            "alias": "12056",
            "visible": true,
            "bornPointName": "Q1905503_N12056",
            "removeActorType": "REMOVE",
            "relativePosNpcAlias": ""
        }
    ],
    "group": [
        [
            {
                "$type": "ConfigTimeProtectAction",
                "type": "TIME_PROTECT",
                "duration": 0.10000000149011612
            }
        ],
        [
            {
                "$type": "ConfigDialogInterAction",
                "type": "DIALOG",
                "aliasList": [
                    "12055"
                ],
                "dialogID": 190551001,
                "protectTime": 0.5
            }
        ],
        [
            {
                "$type": "ConfigDialogInterAction",
                "type": "DIALOG",
                "aliasList": [
                    "12055"
                ],
                "dialogID": 190551002,
                "protectTime": 0.5
            }
        ],
        [
            {
                "$type": "ConfigDialogInterAction",
                "type": "DIALOG",
                "aliasList": [
                    "12551"
                ],
                "dialogID": 190551003,
                "protectTime": 0.5
            }
        ],
        [
            {
                "$type": "ConfigDialogInterAction",
                "type": "DIALOG",
                "aliasList": [
                    "12055"
                ],
                "dialogID": 190551004,
                "protectTime": 0.5
            }
        ],
        [
            {
                "$type": "ConfigDialogInterAction",
                "type": "DIALOG",
                "aliasList": [
                    "12056"
                ],
                "dialogID": 190551005,
                "protectTime": 0.5
            }
        ],
        [
            {
                "$type": "ConfigDialogInterAction",
                "type": "DIALOG",
                "aliasList": [
                    "12551"
                ],
                "dialogID": 190551006,
                "protectTime": 0.5
            }
        ],
        [
            {
                "$type": "ConfigDialogInterAction",
                "type": "DIALOG",
                "aliasList": [
                    "12551"
                ],
                "dialogID": 190551007,
                "protectTime": 0.5
            }
        ],
        [
            {
                "$type": "ConfigDialogInterAction",
                "type": "DIALOG",
                "aliasList": [
                    "12056"
                ],
                "dialogID": 190551008,
                "protectTime": 0.5
            }
        ],
        [
            {
                "$type": "ConfigTimeProtectAction",
                "type": "TIME_PROTECT",
                "duration": 0.10000000149011612
            },
            {
                "$type": "ConfigSimpleBlackScreenAction",
                "type": "SIMPLE_BLACK_SCREEN",
                "durationToBlack": 0.5,
                "durationKeepBlack": 1.0,
                "durationFromBlack": 0.5,
                "textMapID": ""
            },
            {
                "$type": "ConfigTimeProtectAction",
                "type": "TIME_PROTECT",
                "duration": 0.699999988079071
            },
            {
                "$type": "ConfigVisibleInterAction",
                "type": "VISIBLE",
                "delayTime": 0.6000000238418579,
                "aliasList": [
                    "12055"
                ]
            },
            {
                "$type": "ConfigVisibleInterAction",
                "type": "VISIBLE",
                "delayTime": 0.6000000238418579,
                "aliasList": [
                    "12551"
                ]
            },
            {
                "$type": "ConfigVisibleInterAction",
                "type": "VISIBLE",
                "delayTime": 0.6000000238418579,
                "aliasList": [
                    "12056"
                ]
            }
        ]
    ],
    "groupId": [
        {
            "grpId": 1898319563,
            "nextGrpId": 1898319564
        },
        {
            "index": 1,
            "grpId": 1898319564,
            "nextGrpId": 1898319565
        },
        {
            "index": 2,
            "grpId": 1898319565,
            "nextGrpId": 1898319566
        },
        {
            "index": 3,
            "grpId": 1898319566,
            "nextGrpId": 1898319567
        },
        {
            "index": 4,
            "grpId": 1898319567,
            "nextGrpId": 1898319568
        },
        {
            "index": 5,
            "grpId": 1898319568,
            "nextGrpId": 1898319569
        },
        {
            "index": 6,
            "grpId": 1898319569,
            "nextGrpId": 1898319570
        },
        {
            "index": 7,
            "grpId": 1898319570,
            "nextGrpId": 1898319571
        },
        {
            "index": 8,
            "grpId": 1898319571,
            "nextGrpId": 3013331653
        },
        {
            "index": 9,
            "grpId": 3013331653,
            "nextGrpId": 3013331654
        }
    ],
    "freeStyleDic": {
        "12055": [],
        "12551": [],
        "12056": []
    }
}