{
    "HBPGBNCBOMP": "",
    "startBlackKeepTime": 1.0,
    "KENGMFPNLEP": "",
    "disableNpcLod": true,
    "startFade": {
        "startFadeInDuration": 0.5,
        "startFadeOutDuration": 0.5
    },
    "endFade": {
        "startFadeOutDuration": 0.0
    },
    "actors": [
        {
            "alias": "Avatar",
            "visible": true,
            "bornPointName": "",
            "relativePosNpcAlias": ""
        },
        {
            "configID": 506,
            "alias": "506",
            "visible": true,
            "bornPointName": "COOP10240101Beidou21",
            "relativePosNpcAlias": ""
        },
        {
            "configID": 2306,
            "alias": "2306",
            "visible": true,
            "bornPointName": "COOP10240101YanHui02",
            "relativePosNpcAlias": ""
        },
        {
            "configID": 12222,
            "alias": "12222",
            "visible": true,
            "bornPointName": "COOP10240101YanHui01",
            "relativePosNpcAlias": ""
        },
        {
            "configID": 12221,
            "alias": "12221",
            "visible": true,
            "bornPointName": "COOP10240101YanHui03",
            "relativePosNpcAlias": ""
        },
        {
            "configID": 12224,
            "alias": "12224",
            "visible": true,
            "bornPointName": "COOP10240101YanHui04",
            "relativePosNpcAlias": ""
        },
        {
            "configID": 12226,
            "alias": "12226",
            "visible": true,
            "bornPointName": "COOP10240101YanHui06",
            "relativePosNpcAlias": ""
        },
        {
            "configID": 12225,
            "alias": "12225",
            "visible": true,
            "bornPointName": "COOP10240101YanHui05",
            "relativePosNpcAlias": ""
        }
    ],
    "group": [
        [
            {
                "$type": "ConfigTeleportToAction",
                "type": "TELEPORT_TO",
                "aliasList": [
                    "2306"
                ],
                "position": {
                    "x": 1702.9429931640625,
                    "y": 246.91799926757812,
                    "z": 612.9019775390625
                },
                "forward": {
                    "x": 1.9570000171661377,
                    "y": 0.12399999797344208,
                    "z": 0.7960000038146973
                }
            },
            {
                "$type": "ConfigTeleportToAction",
                "type": "TELEPORT_TO",
                "aliasList": [
                    "12226"
                ],
                "position": {
                    "x": 1702.0,
                    "y": 246.92100524902344,
                    "z": 612.1829833984375
                },
                "forward": {
                    "x": 0.8320000171661377,
                    "z": 0.5550000071525574
                }
            },
            {
                "$type": "ConfigEmotionTemplateAction",
                "type": "EMOTION_TEMPLATE",
                "aliasList": [
                    "506"
                ],
                "emoTemplateID": 10100
            },
            {
                "$type": "ConfigTeleportToAction",
                "type": "TELEPORT_TO",
                "aliasList": [
                    "12221"
                ],
                "position": {
                    "x": 1703.2020263671875,
                    "y": 246.927001953125,
                    "z": 614.60400390625
                },
                "forward": {
                    "x": 0.9549999833106995,
                    "z": -0.296999990940094
                }
            },
            {
                "$type": "ConfigTeleportToAction",
                "type": "TELEPORT_TO",
                "aliasList": [
                    "12224"
                ],
                "position": {
                    "x": 1703.9520263671875,
                    "y": 247.0449981689453,
                    "z": 615.6710205078125
                },
                "forward": {
                    "x": 0.875,
                    "z": -0.48500001430511475
                }
            },
            {
                "$type": "ConfigTeleportToAction",
                "type": "TELEPORT_TO",
                "aliasList": [
                    "12222"
                ],
                "position": {
                    "x": 1703.5799560546875,
                    "y": 246.93899536132812,
                    "z": 611.52001953125
                },
                "forward": {
                    "x": 0.7329999804496765,
                    "z": 0.6800000071525574
                }
            },
            {
                "$type": "ConfigCameraMoveInterAction",
                "type": "CAMERA_MOVE",
                "duration": 0.23100000619888306,
                "cameraPosType": "RELATIVE_TO_TARGET_ENTITY",
                "camPosOffset": {
                    "x": 1712.68896484375,
                    "y": 249.07200622558594,
                    "z": 603.6339721679688
                },
                "camTargetType": "RELATIVE_TO_TARGET_ENTITY",
                "camForwardTargetOffset": {
                    "x": 358.3160095214844,
                    "y": 301.7669982910156
                },
                "lerpPattern": 6,
                "cameraBlendType": "EaseInOutCubic",
                "cutFrameTrans": {},
                "openCameraDither": false,
                "targetNpcAlias": "2306",
                "closeTreeLeafDither": true
            },
            {
                "$type": "ConfigTeleportToAction",
                "type": "TELEPORT_TO",
                "aliasList": [
                    "Avatar"
                ],
                "position": {
                    "x": 1706.720947265625,
                    "y": 246.99400329589844,
                    "z": 615.9000244140625
                },
                "forward": {
                    "x": -0.5519999861717224,
                    "y": 0.10199999809265137,
                    "z": -0.765999972820282
                }
            },
            {
                "$type": "ConfigLookAtInterAction",
                "type": "LOOK_AT",
                "aliasList": [
                    "Avatar"
                ],
                "enableHead": true,
                "useTargetPos": true,
                "enableAbsolute": true,
                "headTurnTime": 0.4000000059604645,
                "targetNpcAlias": ""
            },
            {
                "$type": "ConfigTeleportToAction",
                "type": "TELEPORT_TO",
                "aliasList": [
                    "12225"
                ],
                "position": {
                    "x": 1701.8570556640625,
                    "y": 246.91799926757812,
                    "z": 614.0079956054688
                },
                "forward": {
                    "x": 0.9950000047683716,
                    "z": 0.09600000083446503
                }
            },
            {
                "$type": "ConfigSitOrStandAction",
                "type": "SIT_OR_STAND",
                "delayTime": 0.10000000149011612,
                "aliasList": [
                    "Avatar"
                ]
            },
            {
                "$type": "ConfigLookAtInterAction",
                "type": "LOOK_AT",
                "delayTime": 0.30000001192092896,
                "aliasList": [
                    "12225"
                ],
                "enableAbsolute": true,
                "targetOffset": {
                    "x": 2347.527099609375,
                    "y": 261.25201416015625,
                    "z": -699.9879760742188
                },
                "targetPosition": {
                    "x": 2020.490966796875,
                    "y": 261.9219970703125,
                    "z": -359.2409973144531
                },
                "headTurnTime": 0.30000001192092896,
                "targetNpcAlias": "",
                "lookAtTargetType": "NONE"
            },
            {
                "$type": "ConfigLookAtInterAction",
                "type": "LOOK_AT",
                "delayTime": 0.30000001192092896,
                "aliasList": [
                    "12226"
                ],
                "enableAbsolute": true,
                "targetOffset": {
                    "x": 2347.527099609375,
                    "y": 261.25201416015625,
                    "z": -699.9879760742188
                },
                "targetPosition": {
                    "x": 2020.490966796875,
                    "y": 261.9219970703125,
                    "z": -359.2409973144531
                },
                "headTurnTime": 0.30000001192092896,
                "targetNpcAlias": "",
                "lookAtTargetType": "NONE"
            },
            {
                "$type": "ConfigLookAtInterAction",
                "type": "LOOK_AT",
                "delayTime": 0.30000001192092896,
                "aliasList": [
                    "12224"
                ],
                "enableAbsolute": true,
                "targetOffset": {
                    "x": 2347.527099609375,
                    "y": 261.25201416015625,
                    "z": -699.9879760742188
                },
                "targetPosition": {
                    "x": 2020.490966796875,
                    "y": 261.9219970703125,
                    "z": -359.2409973144531
                },
                "headTurnTime": 0.30000001192092896,
                "targetNpcAlias": "",
                "lookAtTargetType": "NONE"
            },
            {
                "$type": "ConfigLookAtInterAction",
                "type": "LOOK_AT",
                "delayTime": 0.30000001192092896,
                "aliasList": [
                    "506"
                ],
                "enableAbsolute": true,
                "targetOffset": {
                    "x": 2347.527099609375,
                    "y": 261.25201416015625,
                    "z": -699.9879760742188
                },
                "targetPosition": {
                    "x": 2020.490966796875,
                    "y": 261.9219970703125,
                    "z": -359.2409973144531
                },
                "headTurnTime": 0.30000001192092896,
                "targetNpcAlias": "",
                "lookAtTargetType": "NONE"
            },
            {
                "$type": "ConfigCameraDOFAction",
                "type": "CAMERA_DOF",
                "delayTime": 0.30000001192092896,
                "focusDistance": 6.0,
                "focusRange": 6.0,
                "quality": 3
            },
            {
                "$type": "ConfigLookAtInterAction",
                "type": "LOOK_AT",
                "delayTime": 0.30000001192092896,
                "aliasList": [
                    "2306"
                ],
                "enableAbsolute": true,
                "targetOffset": {
                    "x": 2347.527099609375,
                    "y": 261.25201416015625,
                    "z": -699.9879760742188
                },
                "targetPosition": {
                    "x": 2020.490966796875,
                    "y": 261.9219970703125,
                    "z": -359.2409973144531
                },
                "headTurnTime": 0.30000001192092896,
                "targetNpcAlias": "",
                "lookAtTargetType": "NONE"
            },
            {
                "$type": "ConfigLookAtInterAction",
                "type": "LOOK_AT",
                "delayTime": 0.30000001192092896,
                "aliasList": [
                    "12221"
                ],
                "enableAbsolute": true,
                "targetOffset": {
                    "x": 2347.527099609375,
                    "y": 261.25201416015625,
                    "z": -699.9879760742188
                },
                "targetPosition": {
                    "x": 2020.490966796875,
                    "y": 261.9219970703125,
                    "z": -359.2409973144531
                },
                "headTurnTime": 0.30000001192092896,
                "targetNpcAlias": "",
                "lookAtTargetType": "NONE"
            },
            {
                "$type": "ConfigLookAtInterAction",
                "type": "LOOK_AT",
                "delayTime": 0.30000001192092896,
                "aliasList": [
                    "12222"
                ],
                "enableAbsolute": true,
                "targetOffset": {
                    "x": 2347.527099609375,
                    "y": 261.25201416015625,
                    "z": -699.9879760742188
                },
                "targetPosition": {
                    "x": 2020.490966796875,
                    "y": 261.9219970703125,
                    "z": -359.2409973144531
                },
                "headTurnTime": 0.30000001192092896,
                "targetNpcAlias": "",
                "lookAtTargetType": "NONE"
            }
        ],
        [
            {
                "$type": "ConfigBodyLangInterAction",
                "type": "BODY_LANG",
                "aliasList": [
                    "2306"
                ],
                "bodyLangParam": 1171,
                "forceDoFreeStyle": true,
                "canDoRepeatFreeStyle": false
            },
            {
                "$type": "ConfigEmoSyncInterAction",
                "type": "EMO_SYNC",
                "aliasList": [
                    "2306"
                ],
                "dataPath": "Cs_Emo_Avatar_Simple_Common_Set/Cs_Emo_Avatar_Talk/Cs_Emo_Coop_Common/Cs_Emo_Coop_BeiDou_01/Cs_Emo_190540501",
                "phonemePath": "",
                "emotionPath": "",
                "mateDataPath": "",
                "matePhonemePath": "",
                "mateEmotionPath": "",
                "dataPathHashList": [
                    18275990330052529581,
                    11066241166417946891,
                    5279293916890539995,
                    16736925952969517027
                ]
            },
            {
                "$type": "ConfigDialogInterAction",
                "type": "DIALOG",
                "aliasList": [
                    "2306"
                ],
                "dialogID": 190540501,
                "protectTime": 0.5
            },
            {
                "$type": "ConfigCameraMoveInterAction",
                "type": "CAMERA_MOVE",
                "duration": 1.0,
                "camPosOffset": {
                    "x": 1712.68896484375,
                    "y": 249.07200622558594,
                    "z": 603.6339721679688
                },
                "camForwardTargetOffset": {
                    "x": 1711.8389892578125,
                    "y": 249.1009979248047,
                    "z": 604.1599731445312
                },
                "lerpPattern": 6,
                "cameraBlendType": "EaseInOutCubic",
                "cutFrameTrans": {},
                "openCameraDither": false,
                "targetNpcAlias": "2306",
                "closeTreeLeafDither": true
            },
            {
                "$type": "ConfigCameraMoveInterAction",
                "type": "CAMERA_MOVE",
                "delayTime": 0.09700000286102295,
                "duration": 15.1899995803833,
                "camPosOffset": {
                    "x": 1712.7110595703125,
                    "y": 248.73599243164062,
                    "z": 603.68701171875
                },
                "camForwardTargetOffset": {
                    "x": 1711.8609619140625,
                    "y": 248.76499938964844,
                    "z": 604.2130126953125
                },
                "cameraBlendType": "EaseOutQuad",
                "cutFrameTrans": {},
                "openCameraDither": false,
                "targetNpcAlias": "2306",
                "closeTreeLeafDither": true
            }
        ],
        [
            {
                "$type": "ConfigBodyLangInterAction",
                "type": "BODY_LANG",
                "aliasList": [
                    "12222"
                ],
                "bodyLangParam": 4030,
                "forceDoFreeStyle": true,
                "canDoRepeatFreeStyle": false
            },
            {
                "$type": "ConfigDialogInterAction",
                "type": "DIALOG",
                "aliasList": [
                    "12222"
                ],
                "dialogID": 190540502,
                "protectTime": 0.5
            },
            {
                "$type": "ConfigLookAtInterAction",
                "type": "LOOK_AT",
                "aliasList": [
                    "12221"
                ],
                "enableHead": true,
                "headTurnTime": 0.5,
                "targetNpcAlias": "506"
            },
            {
                "$type": "ConfigEmoSyncInterAction",
                "type": "EMO_SYNC",
                "aliasList": [
                    "12222"
                ],
                "dataPath": "Cs_Emo_Avatar_Simple_Common_Set/Cs_Emo_Avatar_Talk/Cs_Emo_Coop_Common/Cs_Emo_Coop_BeiDou_01/Cs_Emo_190540502",
                "phonemePath": "",
                "emotionPath": "",
                "mateDataPath": "",
                "matePhonemePath": "",
                "mateEmotionPath": "",
                "dataPathHashList": [
                    17317714950588051272,
                    11588387516536448902,
                    15712504870183526883,
                    1587845909736833969
                ]
            },
            {
                "$type": "ConfigCameraMoveInterAction",
                "type": "CAMERA_MOVE",
                "duration": 1.0,
                "camPosOffset": {
                    "x": 1704.7159423828125,
                    "y": 248.593994140625,
                    "z": 611.7479858398438
                },
                "camForwardTargetOffset": {
                    "x": 1703.720947265625,
                    "y": 248.53599548339844,
                    "z": 611.6699829101562
                },
                "camFov": 30.0,
                "lerpPattern": 6,
                "cameraBlendType": "EaseInOutCubic",
                "cutFrameTrans": {},
                "openCameraDither": false,
                "targetNpcAlias": "12222",
                "closeTreeLeafDither": true
            },
            {
                "$type": "ConfigVisibleInterAction",
                "type": "VISIBLE",
                "aliasList": [
                    "Avatar"
                ]
            },
            {
                "$type": "ConfigLookAtInterAction",
                "type": "LOOK_AT",
                "aliasList": [
                    "506"
                ],
                "enableHead": true,
                "headTurnTime": 0.5,
                "targetNpcAlias": "Avatar"
            },
            {
                "$type": "ConfigCameraMoveInterAction",
                "type": "CAMERA_MOVE",
                "delayTime": 0.07000000029802322,
                "duration": 7.005000114440918,
                "camPosOffset": {
                    "x": 1704.7139892578125,
                    "y": 248.59300231933594,
                    "z": 611.7769775390625
                },
                "camForwardTargetOffset": {
                    "x": 1703.718994140625,
                    "y": 248.53500366210938,
                    "z": 611.698974609375
                },
                "camFov": 30.0,
                "cameraBlendType": "EaseOutQuad",
                "cutFrameTrans": {},
                "openCameraDither": false,
                "targetNpcAlias": "12222",
                "closeTreeLeafDither": true
            },
            {
                "$type": "ConfigBodyLangInterAction",
                "type": "BODY_LANG",
                "delayTime": 1.4049999713897705,
                "aliasList": [
                    "12222"
                ],
                "bodyLangParam": 1171,
                "forceDoFreeStyle": true,
                "canDoRepeatFreeStyle": false
            }
        ],
        [
            {
                "$type": "ConfigLookAtInterAction",
                "type": "LOOK_AT",
                "aliasList": [
                    "12224"
                ],
                "enableHead": true,
                "headTurnTime": 0.5,
                "targetNpcAlias": "506"
            },
            {
                "$type": "ConfigBodyLangInterAction",
                "type": "BODY_LANG",
                "aliasList": [
                    "12224"
                ],
                "bodyLangParam": 1171,
                "forceDoFreeStyle": true,
                "canDoRepeatFreeStyle": false
            },
            {
                "$type": "ConfigEmoSyncInterAction",
                "type": "EMO_SYNC",
                "aliasList": [
                    "12224"
                ],
                "dataPath": "Cs_Emo_Avatar_Simple_Common_Set/Cs_Emo_Avatar_Talk/Cs_Emo_Coop_Common/Cs_Emo_Coop_BeiDou_01/Cs_Emo_190540503",
                "phonemePath": "",
                "emotionPath": "",
                "mateDataPath": "",
                "matePhonemePath": "",
                "mateEmotionPath": "",
                "dataPathHashList": [
                    3669569723611379784,
                    4101114498918563809,
                    15953566662969961037,
                    11017036374383374021
                ]
            },
            {
                "$type": "ConfigDialogInterAction",
                "type": "DIALOG",
                "aliasList": [
                    "12224"
                ],
                "dialogID": 190540503,
                "protectTime": 0.5
            },
            {
                "$type": "ConfigCameraMoveInterAction",
                "type": "CAMERA_MOVE",
                "duration": 1.0,
                "camPosOffset": {
                    "x": 1706.8489990234375,
                    "y": 248.23399353027344,
                    "z": 612.9459838867188
                },
                "camForwardTargetOffset": {
                    "x": 1706.218994140625,
                    "y": 248.29600524902344,
                    "z": 613.719970703125
                },
                "camFov": 20.0,
                "lerpPattern": 6,
                "cameraBlendType": "EaseInOutCubic",
                "cutFrameTrans": {},
                "openCameraDither": false,
                "targetNpcAlias": "12224",
                "closeTreeLeafDither": true
            },
            {
                "$type": "ConfigLookAtInterAction",
                "type": "LOOK_AT",
                "aliasList": [
                    "506"
                ],
                "enableHead": true,
                "useTargetPos": true,
                "enableAbsolute": true,
                "targetPosition": {
                    "x": 1704.2919921875,
                    "y": 248.5989990234375,
                    "z": 615.4530029296875
                },
                "headTurnTime": 0.5,
                "targetNpcAlias": "",
                "lookAtTargetType": "NONE"
            },
            {
                "$type": "ConfigCameraMoveInterAction",
                "type": "CAMERA_MOVE",
                "delayTime": 0.1340000033378601,
                "duration": 7.607999801635742,
                "camPosOffset": {
                    "x": 1706.7860107421875,
                    "y": 248.24600219726562,
                    "z": 612.8930053710938
                },
                "camForwardTargetOffset": {
                    "x": 1706.156005859375,
                    "y": 248.30799865722656,
                    "z": 613.6669921875
                },
                "camFov": 20.0,
                "cameraBlendType": "EaseOutQuad",
                "cutFrameTrans": {},
                "openCameraDither": false,
                "targetNpcAlias": "12224",
                "closeTreeLeafDither": true
            }
        ],
        [
            {
                "$type": "ConfigBodyLangInterAction",
                "type": "BODY_LANG",
                "aliasList": [
                    "12226"
                ],
                "bodyLangParam": 1172,
                "forceDoFreeStyle": true,
                "canDoRepeatFreeStyle": false
            },
            {
                "$type": "ConfigEmoSyncInterAction",
                "type": "EMO_SYNC",
                "aliasList": [
                    "12226"
                ],
                "checkNextImmediately": true,
                "dataPath": "Cs_Emo_Avatar_Simple_Common_Set/Cs_Emo_Avatar_Talk/Cs_Emo_Coop_Common/Cs_Emo_Coop_BeiDou_01/Cs_Emo_190540504",
                "phonemePath": "",
                "emotionPath": "",
                "mateDataPath": "",
                "matePhonemePath": "",
                "mateEmotionPath": "",
                "dataPathHashList": [
                    8916735152713945114,
                    7929431998057478800,
                    860915145961081306,
                    12900368395261934773
                ]
            },
            {
                "$type": "ConfigDialogInterAction",
                "type": "DIALOG",
                "aliasList": [
                    "12226"
                ],
                "dialogID": 190540504,
                "protectTime": 0.5
            },
            {
                "$type": "ConfigCameraMoveInterAction",
                "type": "CAMERA_MOVE",
                "duration": 1.0,
                "camPosOffset": {
                    "x": 1703.6719970703125,
                    "y": 248.0279998779297,
                    "z": 612.489013671875
                },
                "camForwardTargetOffset": {
                    "x": 1702.7259521484375,
                    "y": 248.3090057373047,
                    "z": 612.3280029296875
                },
                "camFov": 20.0,
                "lerpPattern": 6,
                "cameraBlendType": "EaseInOutCubic",
                "cutFrameTrans": {},
                "openCameraDither": false,
                "targetNpcAlias": "12226",
                "closeTreeLeafDither": true
            },
            {
                "$type": "ConfigLookAtInterAction",
                "type": "LOOK_AT",
                "aliasList": [
                    "506"
                ],
                "enableHead": true,
                "headTurnTime": 0.5,
                "targetNpcAlias": ""
            },
            {
                "$type": "ConfigBodyLangInterAction",
                "type": "BODY_LANG",
                "delayTime": 1.6929999589920044,
                "aliasList": [
                    "12226"
                ],
                "bodyLangParam": 1171,
                "forceDoFreeStyle": true,
                "canDoRepeatFreeStyle": false
            }
        ],
        [
            {
                "$type": "ConfigBodyLangInterAction",
                "type": "BODY_LANG",
                "aliasList": [
                    "12225"
                ],
                "bodyLangParam": 1030,
                "forceDoFreeStyle": true,
                "canDoRepeatFreeStyle": false
            },
            {
                "$type": "ConfigEmoSyncInterAction",
                "type": "EMO_SYNC",
                "aliasList": [
                    "12225"
                ],
                "dataPath": "Cs_Emo_Avatar_Simple_Common_Set/Cs_Emo_Avatar_Talk/Cs_Emo_Coop_Common/Cs_Emo_Coop_BeiDou_01/Cs_Emo_190540505",
                "phonemePath": "",
                "emotionPath": "",
                "mateDataPath": "",
                "matePhonemePath": "",
                "mateEmotionPath": "",
                "dataPathHashList": [
                    15511058747184294917,
                    3531200997525348578,
                    6131004517587404951,
                    2901569510217915071
                ]
            },
            {
                "$type": "ConfigCameraMoveInterAction",
                "type": "CAMERA_MOVE",
                "duration": 1.0,
                "camPosOffset": {
                    "x": 1702.531005859375,
                    "y": 248.47999572753906,
                    "z": 615.656005859375
                },
                "camForwardTargetOffset": {
                    "x": 1702.2459716796875,
                    "y": 248.49099731445312,
                    "z": 614.697998046875
                },
                "camFov": 20.0,
                "lerpPattern": 6,
                "cameraBlendType": "EaseInOutCubic",
                "cutFrameTrans": {},
                "openCameraDither": false,
                "targetNpcAlias": "12225",
                "closeTreeLeafDither": true
            },
            {
                "$type": "ConfigDialogInterAction",
                "type": "DIALOG",
                "aliasList": [
                    "12225"
                ],
                "dialogID": 190540505,
                "protectTime": 0.5
            }
        ],
        [
            {
                "$type": "ConfigEmoSyncInterAction",
                "type": "EMO_SYNC",
                "aliasList": [
                    "506"
                ],
                "dataPath": "Cs_Emo_Avatar_Simple_Common_Set/Cs_Emo_Avatar_Talk/Cs_Emo_Coop_Common/Cs_Emo_Coop_BeiDou_01/Cs_Emo_190540506",
                "phonemePath": "",
                "emotionPath": "",
                "mateDataPath": "",
                "matePhonemePath": "",
                "mateEmotionPath": "",
                "dataPathHashList": [
                    2293709579990515261,
                    9996998094921686092,
                    17408768463473196571,
                    12089809223287752139
                ]
            },
            {
                "$type": "ConfigBodyLangInterAction",
                "type": "BODY_LANG",
                "aliasList": [
                    "12225"
                ],
                "isContinue": true,
                "forceDoFreeStyle": true,
                "canDoRepeatFreeStyle": false
            },
            {
                "$type": "ConfigEmotionTemplateAction",
                "type": "EMOTION_TEMPLATE",
                "aliasList": [
                    "506"
                ],
                "emoTemplateID": 10201
            },
            {
                "$type": "ConfigCameraMoveInterAction",
                "type": "CAMERA_MOVE",
                "duration": 1.0,
                "camPosOffset": {
                    "x": 1704.5350341796875,
                    "y": 247.95199584960938,
                    "z": 613.4030151367188
                },
                "camForwardTargetOffset": {
                    "x": 1705.321044921875,
                    "y": 248.1300048828125,
                    "z": 613.9959716796875
                },
                "camFov": 27.0,
                "lerpPattern": 6,
                "cameraBlendType": "EaseInOutCubic",
                "cutFrameTrans": {},
                "openCameraDither": false,
                "targetNpcAlias": "506",
                "closeTreeLeafDither": true
            },
            {
                "$type": "ConfigDialogInterAction",
                "type": "DIALOG",
                "aliasList": [
                    "506"
                ],
                "dialogID": 190540506,
                "protectTime": 0.5
            }
        ],
        [
            {
                "$type": "ConfigAudioPlayAction",
                "type": "AUDIO_PLAY",
                "audioEventStr": "Play_sfx_quest_CoopBeidou_1905405_celebrate"
            },
            {
                "$type": "ConfigEmotionTemplateAction",
                "type": "EMOTION_TEMPLATE",
                "aliasList": [
                    "506"
                ],
                "emoTemplateID": 10100
            },
            {
                "$type": "ConfigBlackScreenAction",
                "type": "BLACK_SCREEN",
                "duration": 6.0,
                "durationToBlack": 0.30000001192092896,
                "durationKeepBlack": 5.400000095367432,
                "durationFromBlack": 0.30000001192092896,
                "inteePos": "",
                "textMapID": "COOP_Message_Q1905405",
                "useTextFade": true
            },
            {
                "$type": "ConfigTimeProtectAction",
                "type": "TIME_PROTECT",
                "duration": 6.0
            },
            {
                "$type": "ConfigDialogInterAction",
                "type": "DIALOG_CLEAR",
                "delayTime": 0.00800000037997961,
                "duration": 2.0
            },
            {
                "$type": "ConfigCameraMoveInterAction",
                "type": "CAMERA_MOVE",
                "delayTime": 1.4919999837875366,
                "duration": 1.0,
                "cameraPosType": "RELATIVE_TO_TARGET_ENTITY",
                "camTargetType": "RELATIVE_TO_TARGET_ENTITY",
                "camFov": 30.0,
                "lerpPattern": 6,
                "cameraBlendType": "EaseInOutCubic",
                "cutFrameTrans": {},
                "openCameraDither": false,
                "targetNpcAlias": "506",
                "closeTreeLeafDither": true
            }
        ],
        [
            {
                "$type": "ConfigEmotionTemplateAction",
                "type": "EMOTION_TEMPLATE",
                "aliasList": [
                    "506"
                ],
                "emoTemplateID": 10101
            },
            {
                "$type": "ConfigEmoSyncInterAction",
                "type": "EMO_SYNC",
                "aliasList": [
                    "506"
                ],
                "dataPath": "Cs_Emo_Avatar_Simple_Common_Set/Cs_Emo_Avatar_Talk/Cs_Emo_Coop_Common/Cs_Emo_Coop_BeiDou_01/Cs_Emo_190540507",
                "phonemePath": "",
                "emotionPath": "",
                "mateDataPath": "",
                "matePhonemePath": "",
                "mateEmotionPath": "",
                "dataPathHashList": [
                    10261723267535577734,
                    11869988293432622300,
                    14098592739145873407,
                    15173337615427932045
                ]
            },
            {
                "$type": "ConfigCameraMoveInterAction",
                "type": "CAMERA_MOVE",
                "duration": 1.0,
                "cameraPosType": "RELATIVE_TO_TARGET_ENTITY",
                "camTargetType": "RELATIVE_TO_TARGET_ENTITY",
                "camFov": 30.0,
                "lerpPattern": 6,
                "cameraBlendType": "EaseInOutCubic",
                "cutFrameTrans": {},
                "openCameraDither": false,
                "targetNpcAlias": "506",
                "closeTreeLeafDither": true
            },
            {
                "$type": "ConfigDialogInterAction",
                "type": "DIALOG",
                "aliasList": [
                    "506"
                ],
                "dialogID": 190540507,
                "protectTime": 0.5
            }
        ],
        [
            {
                "$type": "ConfigEmotionTemplateAction",
                "type": "EMOTION_TEMPLATE",
                "aliasList": [
                    "506"
                ],
                "emoTemplateID": 10100
            },
            {
                "$type": "ConfigEmoSyncInterAction",
                "type": "EMO_SYNC",
                "aliasList": [
                    "506"
                ],
                "dataPath": "Cs_Emo_Avatar_Simple_Common_Set/Cs_Emo_Avatar_Talk/Cs_Emo_Coop_Common/Cs_Emo_Coop_BeiDou_01/Cs_Emo_190540508",
                "phonemePath": "",
                "emotionPath": "",
                "mateDataPath": "",
                "matePhonemePath": "",
                "mateEmotionPath": "",
                "dataPathHashList": [
                    5078128532115983175,
                    15838721186917177388,
                    13440835899381867557,
                    17711993347193911212
                ]
            },
            {
                "$type": "ConfigDialogInterAction",
                "type": "DIALOG",
                "aliasList": [
                    "506"
                ],
                "dialogID": 190540508,
                "protectTime": 0.5
            },
            {
                "$type": "ConfigDialogSelectAction",
                "type": "DIALOG_SELECT",
                "delayTime": 0.4000000059604645,
                "aliasList": [
                    "Avatar"
                ],
                "dialogIDList": [
                    190540509
                ],
                "grpIDList": [
                    976268190
                ],
                "useGrpId": true
            }
        ],
        [
            {
                "$type": "ConfigEmoSyncInterAction",
                "type": "EMO_SYNC",
                "aliasList": [
                    "506"
                ],
                "dataPath": "Cs_Emo_Avatar_Simple_Common_Set/Cs_Emo_Avatar_Talk/Cs_Emo_Coop_Common/Cs_Emo_Coop_BeiDou_01/Cs_Emo_190540510",
                "phonemePath": "",
                "emotionPath": "",
                "mateDataPath": "",
                "matePhonemePath": "",
                "mateEmotionPath": "",
                "dataPathHashList": [
                    11910432246885769901,
                    7819005486607107082,
                    2070020566072323363,
                    6573214439799455
                ]
            },
            {
                "$type": "ConfigEmotionTemplateAction",
                "type": "EMOTION_TEMPLATE",
                "aliasList": [
                    "506"
                ],
                "emoTemplateID": 10201
            },
            {
                "$type": "ConfigDialogInterAction",
                "type": "DIALOG",
                "aliasList": [
                    "506"
                ],
                "dialogID": 190540510,
                "protectTime": 0.5
            }
        ],
        [
            {
                "$type": "ConfigEmoSyncInterAction",
                "type": "EMO_SYNC",
                "aliasList": [
                    "506"
                ],
                "dataPath": "Cs_Emo_Avatar_Simple_Common_Set/Cs_Emo_Avatar_Talk/Cs_Emo_Coop_Common/Cs_Emo_Coop_BeiDou_01/Cs_Emo_190540511",
                "phonemePath": "",
                "emotionPath": "",
                "mateDataPath": "",
                "matePhonemePath": "",
                "mateEmotionPath": "",
                "dataPathHashList": [
                    15856322485031558997,
                    1193970087637418539,
                    17674137297560023999,
                    1637196431347553859
                ]
            },
            {
                "$type": "ConfigEmotionTemplateAction",
                "type": "EMOTION_TEMPLATE",
                "aliasList": [
                    "506"
                ],
                "emoTemplateID": 10100
            },
            {
                "$type": "ConfigDialogInterAction",
                "type": "DIALOG",
                "aliasList": [
                    "506"
                ],
                "dialogID": 190540511,
                "protectTime": 0.5
            }
        ],
        [
            {
                "$type": "ConfigTimeProtectAction",
                "type": "TIME_PROTECT",
                "duration": 0.699999988079071
            },
            {
                "$type": "ConfigEmotionTemplateAction",
                "type": "EMOTION_TEMPLATE",
                "aliasList": [
                    "506"
                ],
                "emoTemplateID": 10100
            },
            {
                "$type": "ConfigSimpleBlackScreenAction",
                "type": "SIMPLE_BLACK_SCREEN",
                "durationToBlack": 0.5,
                "durationKeepBlack": 1.0,
                "durationFromBlack": 0.5,
                "textMapID": ""
            },
            {
                "$type": "ConfigDialogInterAction",
                "type": "DIALOG_CLEAR"
            },
            {
                "$type": "ConfigVisibleInterAction",
                "type": "VISIBLE",
                "delayTime": 0.6000000238418579,
                "aliasList": [
                    "506"
                ]
            },
            {
                "$type": "ConfigCameraMoveInterAction",
                "type": "CAMERA_MOVE",
                "delayTime": 0.6000000238418579,
                "duration": 0.10000000149011612,
                "camPosOffset": {
                    "x": 1708.10498046875,
                    "y": 248.76699829101562,
                    "z": 617.3489990234375
                },
                "camForwardTargetOffset": {
                    "x": 1707.4949951171875,
                    "y": 248.41400146484375,
                    "z": 616.6389770507812
                },
                "lerpPattern": 6,
                "cameraBlendType": "EaseInOutCubic",
                "cutFrameTrans": {},
                "openCameraDither": false,
                "targetNpcAlias": "",
                "closeTreeLeafDither": true
            },
            {
                "$type": "ConfigVisibleInterAction",
                "type": "VISIBLE",
                "delayTime": 0.6000000238418579,
                "aliasList": [
                    "Avatar"
                ],
                "isVisible": true
            }
        ]
    ],
    "groupId": [
        {
            "grpId": 2525344499,
            "nextGrpId": 2525344500
        },
        {
            "index": 1,
            "grpId": 2525344500,
            "nextGrpId": 2525344501
        },
        {
            "index": 2,
            "grpId": 2525344501,
            "nextGrpId": 2525344502
        },
        {
            "index": 3,
            "grpId": 2525344502,
            "nextGrpId": 2525344503
        },
        {
            "index": 4,
            "grpId": 2525344503,
            "nextGrpId": 2525344504
        },
        {
            "index": 5,
            "grpId": 2525344504,
            "nextGrpId": 2525344505
        },
        {
            "index": 6,
            "grpId": 2525344505,
            "nextGrpId": 2525344506
        },
        {
            "index": 7,
            "grpId": 2525344506,
            "nextGrpId": 2525344507
        },
        {
            "index": 8,
            "grpId": 2525344507,
            "nextGrpId": 976268189
        },
        {
            "index": 9,
            "grpId": 976268189,
            "nextGrpId": 976268190
        },
        {
            "index": 10,
            "grpId": 976268190,
            "nextGrpId": 976268191
        },
        {
            "index": 11,
            "grpId": 976268191,
            "nextGrpId": 976268192
        },
        {
            "index": 12,
            "grpId": 976268192,
            "nextGrpId": 976268193
        }
    ],
    "freeStyleDic": {
        "506": [
            10100,
            10201,
            10101
        ],
        "2306": [
            1171
        ],
        "12222": [
            4030,
            1171
        ],
        "12221": [],
        "12224": [
            1171
        ],
        "12226": [
            1172,
            1171
        ],
        "12225": [
            1030
        ]
    }
}