{
    "HBPGBNCBOMP": "",
    "KENGMFPNLEP": "",
    "disableNpcLod": true,
    "NIHBFFCCJJN": true,
    "AGMGHOIPEIH": true,
    "startFade": {
        "startFadeOutDuration": 0.0
    },
    "endFade": {
        "startFadeOutDuration": 0.0
    },
    "actors": [
        {
            "alias": "Avatar",
            "visible": true,
            "bornPointName": "Q1906006_N10000005",
            "relativePosNpcAlias": ""
        },
        {
            "configID": 511,
            "alias": "511",
            "visible": true,
            "bornPointName": "Q1906006_N511",
            "relativePosNpcAlias": ""
        },
        {
            "configID": 1005,
            "alias": "1005",
            "visible": true,
            "bornPointName": "",
            "removeActorType": "REMOVE_WITH_DISAPPEAR",
            "relativePosNpcAlias": ""
        }
    ],
    "group": [
        [
            {
                "$type": "ConfigCameraMoveInterAction",
                "type": "CAMERA_MOVE",
                "duration": 1.0,
                "cameraPosType": "RELATIVE_TO_TARGET_ENTITY",
                "camTargetType": "RELATIVE_TO_TARGET_ENTITY",
                "camFov": 30.0,
                "lerpPattern": 6,
                "cameraBlendType": "EaseInOutCubic",
                "cutFrameTrans": {},
                "openCameraDither": false,
                "targetNpcAlias": "511",
                "closeTreeLeafDither": true
            },
            {
                "$type": "ConfigDialogInterAction",
                "type": "DIALOG",
                "aliasList": [
                    "511"
                ],
                "dialogID": 190604801,
                "protectTime": 0.5
            },
            {
                "$type": "ConfigEmotionTemplateAction",
                "type": "EMOTION_TEMPLATE",
                "aliasList": [
                    "511"
                ],
                "emoTemplateID": 10100
            },
            {
                "$type": "ConfigEmoSyncInterAction",
                "type": "EMO_SYNC",
                "aliasList": [
                    "511"
                ],
                "dataPath": "Cs_Emo_Avatar_Simple_Common_Set/Cs_Emo_Avatar_Talk/Cs_Emo_Coop_Common/Cs_Emo_Coop_Heizo_01/Cs_Emo_190604801",
                "phonemePath": "",
                "emotionPath": "",
                "mateDataPath": "",
                "matePhonemePath": "",
                "mateEmotionPath": "",
                "dataPathHashList": [
                    13629090363908928684,
                    11276981291358887956,
                    9276269703044293452,
                    3492527523122382686
                ]
            },
            {
                "$type": "ConfigVisibleInterAction",
                "type": "VISIBLE",
                "aliasList": [
                    "1005"
                ],
                "actionId": 123
            }
        ],
        [
            {
                "$type": "ConfigLuaAction",
                "type": "LUA_ACTION",
                "duration": 0.10000000149011612,
                "invoke": true,
                "invokeAlias": "19060",
                "invokeParam": 1
            },
            {
                "$type": "ConfigTimeProtectAction",
                "type": "TIME_PROTECT",
                "duration": 0.699999988079071
            },
            {
                "$type": "ConfigSimpleBlackScreenAction",
                "type": "SIMPLE_BLACK_SCREEN",
                "actionId": 118,
                "durationToBlack": 0.5,
                "durationKeepBlack": 1.0,
                "durationFromBlack": 0.5,
                "textMapID": "",
                "useTextFade": true
            },
            {
                "$type": "ConfigDialogInterAction",
                "type": "DIALOG_CLEAR",
                "actionId": 122,
                "dialogID": 190604801
            },
            {
                "$type": "ConfigCameraMoveInterAction",
                "type": "CAMERA_MOVE",
                "delayTime": 0.6000000238418579,
                "duration": 0.10000000149011612,
                "actionId": 120,
                "camPosOffset": {
                    "x": -3131.277099609375,
                    "y": 255.23500061035156,
                    "z": -4509.0048828125
                },
                "camForwardTargetOffset": {
                    "x": -3132.219970703125,
                    "y": 255.12100219726562,
                    "z": -4509.31787109375
                },
                "lerpPattern": 6,
                "cameraBlendType": "EaseInOutCubic",
                "cutFrameTrans": {},
                "needZAxisRotate": true,
                "openCameraDither": false,
                "targetNpcAlias": "",
                "closeTreeLeafDither": true
            },
            {
                "$type": "ConfigVisibleInterAction",
                "type": "VISIBLE",
                "delayTime": 0.6000000238418579,
                "aliasList": [
                    "Avatar"
                ],
                "actionId": 121,
                "isVisible": true
            },
            {
                "$type": "ConfigVisibleInterAction",
                "type": "VISIBLE",
                "delayTime": 0.6000000238418579,
                "aliasList": [
                    "1005"
                ],
                "actionId": 125,
                "isVisible": true
            }
        ]
    ],
    "groupId": [
        {
            "grpId": 250296619,
            "nextGrpId": 250296620
        },
        {
            "index": 1,
            "grpId": 250296620,
            "nextGrpId": 250296621
        }
    ],
    "freeStyleDic": {
        "511": [
            10100
        ]
    }
}