{
    "HBPGBNCBOMP": "",
    "startBlackKeepTime": 1.0,
    "KENGMFPNLEP": "",
    "disableNpcLod": true,
    "startFade": {
        "startFadeInDuration": 0.5,
        "startFadeOutDuration": 0.5
    },
    "endFade": {
        "startFadeOutDuration": 0.0
    },
    "actors": [
        {
            "alias": "Avatar",
            "visible": true,
            "bornPointName": "",
            "relativePosNpcAlias": ""
        },
        {
            "configID": 12306,
            "alias": "12306",
            "visible": true,
            "bornPointName": "Q1913704_C1913703Stalker",
            "relativePosNpcAlias": ""
        }
    ],
    "group": [
        [
            {
                "$type": "ConfigLookAtInterAction",
                "type": "LOOK_AT",
                "aliasList": [
                    "Avatar"
                ],
                "headTurnTime": 0.5,
                "targetNpcAlias": ""
            },
            {
                "$type": "ConfigVisibleInterAction",
                "type": "VISIBLE",
                "aliasList": [
                    "Avatar"
                ]
            },
            {
                "$type": "ConfigLookAtInterAction",
                "type": "LOOK_AT",
                "aliasList": [
                    "12306"
                ],
                "headTurnTime": 0.5,
                "targetNpcAlias": ""
            },
            {
                "$type": "ConfigCameraMoveInterAction",
                "type": "CAMERA_FOCUS",
                "duration": 0.10000000149011612,
                "targetNpcAlias": ""
            },
            {
                "$type": "ConfigTimeProtectAction",
                "type": "TIME_PROTECT",
                "duration": 0.10000000149011612
            },
            {
                "$type": "ConfigCameraMoveInterAction",
                "type": "CAMERA_MOVE",
                "duration": 1.0,
                "cameraPosType": "RELATIVE_TO_TARGET_ENTITY",
                "camTargetType": "RELATIVE_TO_TARGET_ENTITY",
                "camFov": 30.0,
                "lerpPattern": 6,
                "cameraBlendType": "EaseInOutCubic",
                "cutFrameTrans": {},
                "openCameraDither": false,
                "targetNpcAlias": "12306",
                "closeTreeLeafDither": true
            }
        ],
        [
            {
                "$type": "ConfigBodyLangInterAction",
                "type": "BODY_LANG",
                "aliasList": [
                    "12306"
                ],
                "bodyLangParam": 1171,
                "forceDoFreeStyle": true,
                "canDoRepeatFreeStyle": false
            },
            {
                "$type": "ConfigEmoSyncInterAction",
                "type": "EMO_SYNC",
                "aliasList": [
                    "12306"
                ],
                "dataPath": "Cs_Emo_Avatar_Simple_Common_Set/Cs_Emo_Avatar_Talk/Cs_Emo_Coop_Common/Cs_Emo_Coop_Ningguang_01/Cs_Emo_191370401",
                "phonemePath": "",
                "emotionPath": "",
                "mateDataPath": "",
                "matePhonemePath": "",
                "mateEmotionPath": "",
                "dataPathHashList": [
                    16582454253551612739,
                    11124070821535211315,
                    6023857596391995107,
                    10727019263798578430
                ]
            },
            {
                "$type": "ConfigCameraMoveInterAction",
                "type": "CAMERA_MOVE",
                "duration": 1.0,
                "cameraPosType": "RELATIVE_TO_TARGET_ENTITY",
                "camTargetType": "RELATIVE_TO_TARGET_ENTITY",
                "camFov": 30.0,
                "lerpPattern": 6,
                "cameraBlendType": "EaseInOutCubic",
                "cutFrameTrans": {},
                "openCameraDither": false,
                "targetNpcAlias": "12306",
                "closeTreeLeafDither": true
            },
            {
                "$type": "ConfigDialogInterAction",
                "type": "DIALOG",
                "aliasList": [
                    "12306"
                ],
                "dialogID": 191370401,
                "protectTime": 0.5
            }
        ],
        [
            {
                "$type": "ConfigEmoSyncInterAction",
                "type": "EMO_SYNC",
                "aliasList": [
                    "12306"
                ],
                "dataPath": "Cs_Emo_Avatar_Simple_Common_Set/Cs_Emo_Avatar_Talk/Cs_Emo_Coop_Common/Cs_Emo_Coop_Ningguang_01/Cs_Emo_191370402",
                "phonemePath": "",
                "emotionPath": "",
                "mateDataPath": "",
                "matePhonemePath": "",
                "mateEmotionPath": "",
                "dataPathHashList": [
                    16555594992245282015,
                    12284447252368290551,
                    2568744843560570049,
                    12626534816144326028
                ]
            },
            {
                "$type": "ConfigBodyLangInterAction",
                "type": "BODY_LANG",
                "aliasList": [
                    "12306"
                ],
                "bodyLangParam": 1150,
                "forceDoFreeStyle": true,
                "canDoRepeatFreeStyle": false
            },
            {
                "$type": "ConfigDialogInterAction",
                "type": "DIALOG",
                "aliasList": [
                    "12306"
                ],
                "dialogID": 191370402,
                "protectTime": 0.5
            }
        ],
        [
            {
                "$type": "ConfigDialogInterAction",
                "type": "DIALOG_CLEAR",
                "dialogID": 191370402
            },
            {
                "$type": "ConfigSimpleBlackScreenAction",
                "type": "SIMPLE_BLACK_SCREEN",
                "durationToBlack": 0.5,
                "durationKeepBlack": 1.0,
                "durationFromBlack": 0.5,
                "textMapID": "",
                "useTextFade": true
            },
            {
                "$type": "ConfigTimeProtectAction",
                "type": "TIME_PROTECT",
                "duration": 0.699999988079071
            },
            {
                "$type": "ConfigVisibleInterAction",
                "type": "VISIBLE",
                "delayTime": 0.6000000238418579,
                "aliasList": [
                    "Avatar"
                ],
                "isVisible": true
            },
            {
                "$type": "ConfigCameraMoveInterAction",
                "type": "CAMERA_MOVE",
                "delayTime": 0.6000000238418579,
                "duration": 0.10000000149011612,
                "camPosOffset": {
                    "x": -577.5449829101562,
                    "y": 228.13499450683594,
                    "z": 348.23199462890625
                },
                "camForwardTargetOffset": {
                    "x": -578.5269775390625,
                    "y": 228.03599548339844,
                    "z": 348.072998046875
                },
                "lerpPattern": 6,
                "cameraBlendType": "EaseInOutCubic",
                "cutFrameTrans": {},
                "needZAxisRotate": true,
                "openCameraDither": false,
                "targetNpcAlias": "",
                "closeTreeLeafDither": true
            }
        ]
    ],
    "groupId": [
        {
            "grpId": 1841683605,
            "nextGrpId": 1841683606
        },
        {
            "index": 1,
            "grpId": 1841683606,
            "nextGrpId": 1841683607
        },
        {
            "index": 2,
            "grpId": 1841683607,
            "nextGrpId": 1841683608
        },
        {
            "index": 3,
            "grpId": 1841683608,
            "nextGrpId": 1841683609
        }
    ],
    "freeStyleDic": {
        "12306": [
            1171,
            1150
        ]
    }
}