{
    "HBPGBNCBOMP": "",
    "startBlackKeepTime": 1.0,
    "KENGMFPNLEP": "",
    "disableNpcLod": true,
    "startFade": {
        "startFadeInDuration": 0.5,
        "startFadeOutDuration": 0.5
    },
    "endFade": {
        "startFadeOutDuration": 0.0
    },
    "actors": [
        {
            "alias": "Avatar",
            "visible": true,
            "bornPointName": "Q19012_Player4_Pos",
            "relativePosNpcAlias": ""
        }
    ],
    "group": [
        [
            {
                "$type": "ConfigCameraMoveInterAction",
                "type": "CAMERA_MOVE",
                "duration": 3.0,
                "camPosOffset": {
                    "x": -3107.68994140625,
                    "y": 250.4499969482422,
                    "z": -4483.18994140625
                },
                "camForwardTargetOffset": {
                    "x": -3108.466064453125,
                    "y": 250.45700073242188,
                    "z": -4483.82080078125
                },
                "lerpPattern": 6,
                "cameraBlendType": "EaseInOutCubic",
                "cutFrameTrans": {},
                "needZAxisRotate": true,
                "openCameraDither": false,
                "targetNpcAlias": "",
                "closeTreeLeafDither": true
            },
            {
                "$type": "ConfigVisibleInterAction",
                "type": "VISIBLE",
                "aliasList": [
                    "Avatar"
                ]
            },
            {
                "$type": "ConfigBlackScreenAction",
                "type": "BLACK_SCREEN",
                "blackScreenType": "KEEP_BLACK",
                "durationKeepBlack": 0.5,
                "inteePos": "",
                "textMapID": "",
                "useTextFade": true
            },
            {
                "$type": "ConfigCameraDOFAction",
                "type": "CAMERA_DOF",
                "delayTime": 0.30000001192092896,
                "focusDistance": 6.0,
                "focusRange": 6.0,
                "quality": 3
            }
        ],
        [
            {
                "$type": "ConfigDialogInterAction",
                "type": "DIALOG",
                "aliasList": [
                    "Avatar"
                ],
                "dialogID": 190120201,
                "protectTime": 0.5
            },
            {
                "$type": "ConfigBlackScreenAction",
                "type": "BLACK_SCREEN",
                "blackScreenType": "FROM_BLACK",
                "durationFromBlack": 0.5,
                "inteePos": "",
                "textMapID": "",
                "useTextFade": true
            },
            {
                "$type": "ConfigCameraMoveInterAction",
                "type": "CAMERA_MOVE",
                "duration": 0.10000000149011612,
                "camPosOffset": {
                    "x": -3107.68994140625,
                    "y": 250.4499969482422,
                    "z": -4483.18994140625
                },
                "camForwardTargetOffset": {
                    "x": -3108.466064453125,
                    "y": 250.45700073242188,
                    "z": -4483.82080078125
                },
                "lerpPattern": 6,
                "cameraBlendType": "EaseInOutCubic",
                "cutFrameTrans": {},
                "needZAxisRotate": true,
                "openCameraDither": false,
                "targetNpcAlias": "",
                "closeTreeLeafDither": true
            },
            {
                "$type": "ConfigCameraMoveInterAction",
                "type": "CAMERA_MOVE",
                "delayTime": 0.10000000149011612,
                "duration": 20.0,
                "camPosOffset": {
                    "x": -3106.64208984375,
                    "y": 250.38600158691406,
                    "z": -4483.5498046875
                },
                "camForwardTargetOffset": {
                    "x": -3106.681884765625,
                    "y": 250.44000244140625,
                    "z": -4484.546875
                },
                "cameraBlendType": "EaseOutQuart",
                "cutFrameTrans": {},
                "needZAxisRotate": true,
                "rotateAngle": 4.36299991607666,
                "openCameraDither": false,
                "targetNpcAlias": "",
                "closeTreeLeafDither": true
            }
        ],
        [
            {
                "$type": "ConfigDialogInterAction",
                "type": "DIALOG",
                "aliasList": [
                    "Avatar"
                ],
                "dialogID": 190120202,
                "protectTime": 0.5
            },
            {
                "$type": "ConfigCameraMoveInterAction",
                "type": "CAMERA_MOVE",
                "duration": 10.0,
                "camPosOffset": {
                    "x": -3105.7939453125,
                    "y": 250.35899353027344,
                    "z": -4484.47021484375
                },
                "camForwardTargetOffset": {
                    "x": -3105.69189453125,
                    "y": 250.343994140625,
                    "z": -4485.46484375
                },
                "cameraBlendType": "EaseOutQuad",
                "cutFrameTrans": {},
                "needZAxisRotate": true,
                "rotateAngle": 4.763999938964844,
                "openCameraDither": false,
                "targetNpcAlias": "",
                "closeTreeLeafDither": true
            }
        ],
        [
            {
                "$type": "ConfigDialogInterAction",
                "type": "DIALOG",
                "aliasList": [
                    "Avatar"
                ],
                "dialogID": 190120203,
                "protectTime": 0.5
            },
            {
                "$type": "ConfigCameraMoveInterAction",
                "type": "CAMERA_MOVE",
                "duration": 10.0,
                "camPosOffset": {
                    "x": -3105.81103515625,
                    "y": 250.41799926757812,
                    "z": -4484.4091796875
                },
                "camForwardTargetOffset": {
                    "x": -3104.990966796875,
                    "y": 250.2100067138672,
                    "z": -4484.94287109375
                },
                "cameraBlendType": "EaseOutQuad",
                "cutFrameTrans": {},
                "needZAxisRotate": true,
                "openCameraDither": false,
                "targetNpcAlias": "",
                "closeTreeLeafDither": true
            }
        ],
        [
            {
                "$type": "ConfigTimeProtectAction",
                "type": "TIME_PROTECT",
                "duration": 0.699999988079071
            },
            {
                "$type": "ConfigDialogInterAction",
                "type": "DIALOG_CLEAR"
            },
            {
                "$type": "ConfigSimpleBlackScreenAction",
                "type": "SIMPLE_BLACK_SCREEN",
                "durationToBlack": 0.5,
                "durationKeepBlack": 1.0,
                "durationFromBlack": 0.5,
                "textMapID": ""
            },
            {
                "$type": "ConfigVisibleInterAction",
                "type": "VISIBLE",
                "delayTime": 0.6000000238418579,
                "aliasList": [
                    "Avatar"
                ],
                "isVisible": true
            },
            {
                "$type": "ConfigCameraMoveInterAction",
                "type": "CAMERA_MOVE",
                "delayTime": 0.6000000238418579,
                "duration": 0.10000000149011612,
                "camPosOffset": {
                    "x": -3107.52392578125,
                    "y": 250.53700256347656,
                    "z": -4482.3251953125
                },
                "camForwardTargetOffset": {
                    "x": -3108.031982421875,
                    "y": 250.43299865722656,
                    "z": -4483.18017578125
                },
                "lerpPattern": 6,
                "cameraBlendType": "EaseInOutCubic",
                "cutFrameTrans": {},
                "openCameraDither": false,
                "targetNpcAlias": "",
                "closeTreeLeafDither": true
            },
            {
                "$type": "ConfigTeleportToAction",
                "type": "TELEPORT_TO",
                "delayTime": 0.7409999966621399,
                "aliasList": [
                    "Avatar"
                ],
                "position": {
                    "x": -3109.986083984375,
                    "y": 248.88099670410156,
                    "z": -4486.416015625
                },
                "forward": {
                    "x": -3.382999897003174,
                    "z": -5.651000022888184
                }
            }
        ]
    ],
    "groupId": [
        {
            "grpId": 3142224726,
            "nextGrpId": 3142224727
        },
        {
            "index": 1,
            "grpId": 3142224727,
            "nextGrpId": 3142224728
        },
        {
            "index": 2,
            "grpId": 3142224728,
            "nextGrpId": 3142224729
        },
        {
            "index": 3,
            "grpId": 3142224729,
            "nextGrpId": 3142224730
        },
        {
            "index": 4,
            "grpId": 3142224730,
            "nextGrpId": 3142224731
        }
    ]
}