{
    "HBPGBNCBOMP": "",
    "KENGMFPNLEP": "",
    "disableNpcLod": true,
    "NIHBFFCCJJN": true,
    "MCGPBLEHELN": true,
    "AGMGHOIPEIH": true,
    "startFade": {
        "startFadeOutDuration": 0.0
    },
    "endFade": {
        "startFadeOutDuration": 0.0
    },
    "actors": [
        {
            "alias": "Avatar",
            "visible": true,
            "bornPointName": "",
            "relativePosNpcAlias": ""
        },
        {
            "configID": 1039,
            "alias": "1039",
            "visible": true,
            "bornPointName": "",
            "relativePosNpcAlias": ""
        }
    ],
    "group": [
        [
            {
                "$type": "ConfigTimeProtectAction",
                "type": "TIME_PROTECT",
                "duration": 0.10000000149011612
            }
        ],
        [
            {
                "$type": "ConfigDialogInterAction",
                "type": "DIALOG",
                "aliasList": [
                    "1039"
                ],
                "dialogID": 190551802,
                "protectTime": 0.5
            }
        ],
        [
            {
                "$type": "ConfigDialogInterAction",
                "type": "DIALOG",
                "aliasList": [
                    "1039"
                ],
                "dialogID": 190551803,
                "protectTime": 0.5
            }
        ],
        [
            {
                "$type": "ConfigDialogInterAction",
                "type": "DIALOG",
                "aliasList": [
                    "1039"
                ],
                "dialogID": 190551804,
                "protectTime": 0.5
            }
        ],
        [
            {
                "$type": "ConfigTimeProtectAction",
                "type": "TIME_PROTECT",
                "duration": 0.10000000149011612
            }
        ]
    ],
    "groupId": [
        {
            "grpId": 1898327251,
            "nextGrpId": 1898327252
        },
        {
            "index": 1,
            "grpId": 1898327252,
            "nextGrpId": 1898327253
        },
        {
            "index": 2,
            "grpId": 1898327253,
            "nextGrpId": 1898327254
        },
        {
            "index": 3,
            "grpId": 1898327254,
            "nextGrpId": 1898327255
        },
        {
            "index": 4,
            "grpId": 1898327255,
            "nextGrpId": 1898327256
        }
    ],
    "freeStyleDic": {
        "1039": []
    }
}