{
    "HBPGBNCBOMP": "",
    "startBlackKeepTime": 1.0,
    "KENGMFPNLEP": "",
    "disableNpcLod": true,
    "NIHBFFCCJJN": true,
    "startFade": {
        "startFadeInDuration": 0.5,
        "startFadeOutDuration": 0.5
    },
    "endFade": {
        "startFadeInDuration": 0.5,
        "startFadeOutDuration": 0.5
    },
    "actors": [
        {
            "alias": "Avatar",
            "visible": true,
            "bornPointName": "Q1914802_C1914802_N10000005",
            "relativePosNpcAlias": ""
        },
        {
            "configID": 510,
            "alias": "510",
            "visible": true,
            "bornPointName": "Q1914802_C1914802_N510",
            "relativePosNpcAlias": ""
        }
    ],
    "group": [
        [
            {
                "$type": "ConfigTimeProtectAction",
                "type": "TIME_PROTECT",
                "duration": 0.10000000149011612
            },
            {
                "$type": "ConfigBlackScreenAction",
                "type": "BLACK_SCREEN",
                "blackScreenType": "KEEP_BLACK",
                "durationKeepBlack": 0.5,
                "inteePos": "",
                "textMapID": "",
                "useTextFade": true
            },
            {
                "$type": "ConfigEmotionTemplateAction",
                "type": "EMOTION_TEMPLATE",
                "aliasList": [
                    "510"
                ],
                "emoTemplateID": 10100
            },
            {
                "$type": "ConfigLookAtInterAction",
                "type": "LOOK_AT",
                "aliasList": [
                    "510"
                ],
                "headTurnTime": 0.5,
                "targetNpcAlias": ""
            }
        ],
        [
            {
                "$type": "ConfigCameraMoveInterAction",
                "type": "CAMERA_MOVE",
                "duration": 1.0,
                "cameraPosType": "RELATIVE_TO_TARGET_ENTITY",
                "camTargetType": "RELATIVE_TO_TARGET_ENTITY",
                "camFov": 30.0,
                "lerpPattern": 6,
                "cameraBlendType": "EaseInOutCubic",
                "cutFrameTrans": {},
                "openCameraDither": false,
                "targetNpcAlias": "510",
                "closeTreeLeafDither": true
            },
            {
                "$type": "ConfigBlackScreenAction",
                "type": "BLACK_SCREEN",
                "blackScreenType": "FROM_BLACK",
                "durationFromBlack": 0.5,
                "inteePos": "",
                "textMapID": "",
                "useTextFade": true
            },
            {
                "$type": "ConfigDialogInterAction",
                "type": "DIALOG",
                "aliasList": [
                    "510"
                ],
                "dialogID": 191480201,
                "protectTime": 0.5
            },
            {
                "$type": "ConfigEmotionTemplateAction",
                "type": "EMOTION_TEMPLATE",
                "aliasList": [
                    "510"
                ],
                "emoTemplateID": 10100
            },
            {
                "$type": "ConfigLookAtInterAction",
                "type": "LOOK_AT",
                "aliasList": [
                    "510"
                ],
                "headTurnTime": 0.5,
                "targetNpcAlias": ""
            },
            {
                "$type": "ConfigDialogSelectAction",
                "type": "DIALOG_SELECT",
                "delayTime": 0.4000000059604645,
                "aliasList": [
                    "Avatar"
                ],
                "dialogIDList": [
                    191480202,
                    191480203
                ],
                "grpIDList": [
                    322624251,
                    322624251
                ],
                "useGrpId": true
            }
        ],
        [
            {
                "$type": "ConfigDialogInterAction",
                "type": "DIALOG",
                "aliasList": [
                    "510"
                ],
                "dialogID": 191480204,
                "protectTime": 0.5
            },
            {
                "$type": "ConfigEmotionTemplateAction",
                "type": "EMOTION_TEMPLATE",
                "aliasList": [
                    "510"
                ],
                "emoTemplateID": 10601
            }
        ],
        [
            {
                "$type": "ConfigDialogInterAction",
                "type": "DIALOG",
                "aliasList": [
                    "510"
                ],
                "dialogID": 191480205,
                "protectTime": 0.5
            },
            {
                "$type": "ConfigEmotionTemplateAction",
                "type": "EMOTION_TEMPLATE",
                "aliasList": [
                    "510"
                ],
                "emoTemplateID": 10100
            }
        ],
        [
            {
                "$type": "ConfigTimeProtectAction",
                "type": "TIME_PROTECT",
                "duration": 0.699999988079071
            },
            {
                "$type": "ConfigDialogInterAction",
                "type": "DIALOG_CLEAR",
                "dialogID": 191480205
            },
            {
                "$type": "ConfigSimpleBlackScreenAction",
                "type": "SIMPLE_BLACK_SCREEN",
                "durationToBlack": 0.5,
                "durationKeepBlack": 2.0,
                "durationFromBlack": 0.5,
                "textMapID": "",
                "useTextFade": true
            },
            {
                "$type": "ConfigEmotionTemplateAction",
                "type": "EMOTION_TEMPLATE",
                "aliasList": [
                    "510"
                ],
                "emoTemplateID": 10100
            },
            {
                "$type": "ConfigCameraMoveInterAction",
                "type": "CAMERA_MOVE",
                "delayTime": 0.5109999775886536,
                "duration": 0.10000000149011612,
                "camPosOffset": {
                    "x": -2977.39306640625,
                    "y": 201.7100067138672,
                    "z": -4282.3251953125
                },
                "camForwardTargetOffset": {
                    "x": -2977.26904296875,
                    "y": 201.4720001220703,
                    "z": -4281.36181640625
                },
                "lerpPattern": 6,
                "cameraBlendType": "EaseInOutCubic",
                "cutFrameTrans": {},
                "needZAxisRotate": true,
                "openCameraDither": false,
                "targetNpcAlias": "",
                "closeTreeLeafDither": true
            }
        ]
    ],
    "groupId": [
        {
            "grpId": 322624249,
            "nextGrpId": 322624250
        },
        {
            "index": 1,
            "grpId": 322624250,
            "nextGrpId": 322624251
        },
        {
            "index": 2,
            "grpId": 322624251,
            "nextGrpId": 322624252
        },
        {
            "index": 3,
            "grpId": 322624252,
            "nextGrpId": 322624253
        },
        {
            "index": 4,
            "grpId": 322624253,
            "nextGrpId": 322624254
        }
    ],
    "freeStyleDic": {
        "510": [
            10100,
            10601
        ]
    }
}