{
    "HBPGBNCBOMP": "",
    "KENGMFPNLEP": "",
    "disableNpcLod": true,
    "NIHBFFCCJJN": true,
    "MCGPBLEHELN": true,
    "AGMGHOIPEIH": true,
    "startFade": {
        "startFadeOutDuration": 0.0
    },
    "endFade": {
        "startFadeOutDuration": 0.0
    },
    "actors": [
        {
            "alias": "Avatar",
            "visible": true,
            "bornPointName": "",
            "relativePosNpcAlias": ""
        },
        {
            "configID": 3041,
            "alias": "3041",
            "visible": true,
            "bornPointName": "",
            "forceCreateDaily": true,
            "relativePosNpcAlias": ""
        }
    ],
    "group": [
        [
            {
                "$type": "ConfigTimeProtectAction",
                "type": "TIME_PROTECT",
                "duration": 0.10000000149011612
            }
        ],
        [
            {
                "$type": "ConfigDialogInterAction",
                "type": "DIALOG",
                "aliasList": [
                    "3041"
                ],
                "dialogID": 190604201,
                "protectTime": 0.5
            },
            {
                "$type": "ConfigDialogSelectAction",
                "type": "DIALOG_SELECT",
                "delayTime": 0.4000000059604645,
                "aliasList": [
                    "Avatar"
                ],
                "dialogIDList": [
                    190604202
                ],
                "grpIDList": [
                    1922422406
                ],
                "useGrpId": true
            }
        ],
        [
            {
                "$type": "ConfigDialogInterAction",
                "type": "DIALOG",
                "aliasList": [
                    "3041"
                ],
                "dialogID": 190604203,
                "protectTime": 0.5
            }
        ],
        [
            {
                "$type": "ConfigDialogInterAction",
                "type": "DIALOG",
                "aliasList": [
                    "3041"
                ],
                "dialogID": 190604204,
                "protectTime": 0.5
            }
        ],
        [
            {
                "$type": "ConfigTimeProtectAction",
                "type": "TIME_PROTECT",
                "duration": 0.10000000149011612
            }
        ]
    ],
    "groupId": [
        {
            "grpId": 1922422404,
            "nextGrpId": 1922422405
        },
        {
            "index": 1,
            "grpId": 1922422405,
            "nextGrpId": 1922422406
        },
        {
            "index": 2,
            "grpId": 1922422406,
            "nextGrpId": 1922422407
        },
        {
            "index": 3,
            "grpId": 1922422407,
            "nextGrpId": 1922422408
        },
        {
            "index": 4,
            "grpId": 1922422408,
            "nextGrpId": 1922422409
        }
    ],
    "freeStyleDic": {
        "3041": []
    }
}