{
    "HBPGBNCBOMP": "",
    "KENGMFPNLEP": "",
    "disableNpcLod": true,
    "NIHBFFCCJJN": true,
    "MCGPBLEHELN": true,
    "AGMGHOIPEIH": true,
    "startFade": {
        "startFadeOutDuration": 0.0
    },
    "endFade": {
        "startFadeOutDuration": 0.0
    },
    "actors": [
        {
            "alias": "Avatar",
            "visible": true,
            "bornPointName": "",
            "relativePosNpcAlias": ""
        },
        {
            "configID": 511,
            "alias": "511",
            "visible": true,
            "bornPointName": "",
            "relativePosNpcAlias": ""
        }
    ],
    "group": [
        [
            {
                "$type": "ConfigTimeProtectAction",
                "type": "TIME_PROTECT",
                "duration": 0.10000000149011612
            }
        ],
        [
            {
                "$type": "ConfigDialogInterAction",
                "type": "DIALOG",
                "aliasList": [
                    "511"
                ],
                "dialogID": 190560901,
                "protectTime": 0.5
            }
        ],
        [
            {
                "$type": "ConfigTimeProtectAction",
                "type": "TIME_PROTECT",
                "duration": 0.10000000149011612
            }
        ]
    ],
    "groupId": [
        {
            "grpId": 1899221942,
            "nextGrpId": 1899221943
        },
        {
            "index": 1,
            "grpId": 1899221943,
            "nextGrpId": 1899221944
        },
        {
            "index": 2,
            "grpId": 1899221944,
            "nextGrpId": 1899221945
        }
    ],
    "freeStyleDic": {
        "511": []
    }
}