{
    "HBPGBNCBOMP": "",
    "KENGMFPNLEP": "",
    "disableNpcLod": true,
    "NIHBFFCCJJN": true,
    "MCGPBLEHELN": true,
    "AGMGHOIPEIH": true,
    "startFade": {
        "startFadeOutDuration": 0.0
    },
    "endFade": {
        "startFadeOutDuration": 0.0
    },
    "actors": [
        {
            "alias": "Avatar",
            "visible": true,
            "bornPointName": "",
            "relativePosNpcAlias": ""
        },
        {
            "configID": 511,
            "alias": "511",
            "visible": true,
            "bornPointName": "",
            "relativePosNpcAlias": ""
        },
        {
            "configID": 1005,
            "alias": "1005",
            "visible": true,
            "bornPointName": "",
            "removeActorType": "REMOVE_WITH_DISAPPEAR",
            "relativePosNpcAlias": ""
        }
    ],
    "group": [
        [
            {
                "$type": "ConfigCameraMoveInterAction",
                "type": "CAMERA_MOVE",
                "duration": 1.0,
                "cameraPosType": "RELATIVE_TO_TARGET_ENTITY",
                "camTargetType": "RELATIVE_TO_TARGET_ENTITY",
                "camFov": 30.0,
                "lerpPattern": 6,
                "cameraBlendType": "EaseInOutCubic",
                "cutFrameTrans": {},
                "openCameraDither": false,
                "targetNpcAlias": "511",
                "closeTreeLeafDither": true
            },
            {
                "$type": "ConfigVisibleInterAction",
                "type": "VISIBLE",
                "aliasList": [
                    "Avatar"
                ],
                "actionId": 141
            },
            {
                "$type": "ConfigDialogInterAction",
                "type": "DIALOG",
                "aliasList": [
                    "511"
                ],
                "dialogID": 190360901,
                "protectTime": 0.5
            },
            {
                "$type": "ConfigEmotionTemplateAction",
                "type": "EMOTION_TEMPLATE",
                "aliasList": [
                    "511"
                ],
                "emoTemplateID": 10401
            },
            {
                "$type": "ConfigLookAtInterAction",
                "type": "LOOK_AT",
                "aliasList": [
                    "511"
                ],
                "actionId": 132,
                "headTurnTime": 0.5,
                "targetNpcAlias": ""
            },
            {
                "$type": "ConfigEmoSyncInterAction",
                "type": "EMO_SYNC",
                "aliasList": [
                    "511"
                ],
                "dataPath": "Cs_Emo_Avatar_Simple_Common_Set/Cs_Emo_Avatar_Talk/Cs_Emo_Coop_Common/Cs_Emo_Coop_Heizo_01/Cs_Emo_190360901",
                "phonemePath": "",
                "emotionPath": "",
                "mateDataPath": "",
                "matePhonemePath": "",
                "mateEmotionPath": "",
                "dataPathHashList": [
                    6858378434993780577,
                    17032407939760553332,
                    14177305540584811566,
                    12531141383907602270
                ]
            },
            {
                "$type": "ConfigTeleportToAction",
                "type": "TELEPORT_TO",
                "aliasList": [
                    "1005"
                ],
                "actionId": 177,
                "position": {
                    "x": -3977.18603515625,
                    "y": 200.15199279785156,
                    "z": -1083.072021484375
                },
                "forward": {
                    "x": 1.2309999465942383,
                    "z": 0.39399999380111694
                },
                "openLongDisTeleport": true
            },
            {
                "$type": "ConfigLookAtInterAction",
                "type": "LOOK_AT",
                "delayTime": 0.10000000149011612,
                "aliasList": [
                    "1005"
                ],
                "actionId": 179,
                "useTargetPos": true,
                "enableAbsolute": true,
                "targetPosition": {
                    "x": -3971.8779296875,
                    "y": 201.718994140625,
                    "z": -1081.761962890625
                },
                "headTurnTime": 0.5,
                "targetNpcAlias": "",
                "lookAtTargetType": "NONE"
            }
        ],
        [
            {
                "$type": "ConfigDialogInterAction",
                "type": "DIALOG",
                "aliasList": [
                    "511"
                ],
                "dialogID": 190360902,
                "protectTime": 0.5
            },
            {
                "$type": "ConfigEmotionTemplateAction",
                "type": "EMOTION_TEMPLATE",
                "aliasList": [
                    "511"
                ],
                "emoTemplateID": 10100
            },
            {
                "$type": "ConfigEmoSyncInterAction",
                "type": "EMO_SYNC",
                "aliasList": [
                    "511"
                ],
                "dataPath": "Cs_Emo_Avatar_Simple_Common_Set/Cs_Emo_Avatar_Talk/Cs_Emo_Coop_Common/Cs_Emo_Coop_Heizo_01/Cs_Emo_190360902",
                "phonemePath": "",
                "emotionPath": "",
                "mateDataPath": "",
                "matePhonemePath": "",
                "mateEmotionPath": "",
                "dataPathHashList": [
                    7198010707348813774,
                    9551227828204503614,
                    3745542882225739171,
                    4404688837752847093
                ]
            }
        ],
        [
            {
                "$type": "ConfigTimeProtectAction",
                "type": "TIME_PROTECT",
                "duration": 0.699999988079071
            },
            {
                "$type": "ConfigSimpleBlackScreenAction",
                "type": "SIMPLE_BLACK_SCREEN",
                "actionId": 113,
                "durationToBlack": 0.5,
                "durationKeepBlack": 1.0,
                "durationFromBlack": 0.5,
                "textMapID": "",
                "useTextFade": true
            },
            {
                "$type": "ConfigDialogInterAction",
                "type": "DIALOG_CLEAR",
                "actionId": 127,
                "dialogID": 190360902
            },
            {
                "$type": "ConfigCameraMoveInterAction",
                "type": "CAMERA_MOVE",
                "delayTime": 0.6000000238418579,
                "duration": 0.10000000149011612,
                "actionId": 225,
                "camPosOffset": {
                    "x": -3979.51904296875,
                    "y": 201.4010009765625,
                    "z": -1084.6429443359375
                },
                "camForwardTargetOffset": {
                    "x": -3978.56298828125,
                    "y": 201.2689971923828,
                    "z": -1084.3819580078125
                },
                "lerpPattern": 6,
                "cameraBlendType": "EaseInOutCubic",
                "cutFrameTrans": {},
                "needZAxisRotate": true,
                "openCameraDither": false,
                "targetNpcAlias": "",
                "closeTreeLeafDither": true
            },
            {
                "$type": "ConfigVisibleInterAction",
                "type": "VISIBLE",
                "delayTime": 0.6000000238418579,
                "aliasList": [
                    "Avatar"
                ],
                "actionId": 125,
                "isVisible": true
            },
            {
                "$type": "ConfigTeleportToAction",
                "type": "TELEPORT_TO",
                "delayTime": 0.6000000238418579,
                "aliasList": [
                    "Avatar"
                ],
                "actionId": 193,
                "position": {
                    "x": -3976.76708984375,
                    "y": 200.15699768066406,
                    "z": -1083.883056640625
                },
                "forward": {
                    "x": 0.9539999961853027,
                    "z": 0.29899999499320984
                },
                "openLongDisTeleport": true
            },
            {
                "$type": "ConfigLookAtInterAction",
                "type": "LOOK_AT",
                "delayTime": 0.6000000238418579,
                "aliasList": [
                    "Avatar"
                ],
                "actionId": 130,
                "headTurnTime": 0.5,
                "targetNpcAlias": ""
            }
        ]
    ],
    "groupId": [
        {
            "grpId": 169832089,
            "nextGrpId": 169832090
        },
        {
            "index": 1,
            "grpId": 169832090,
            "nextGrpId": 169832091
        },
        {
            "index": 2,
            "grpId": 169832091,
            "nextGrpId": 169832092
        }
    ],
    "freeStyleDic": {
        "511": [
            10401,
            10100
        ]
    }
}