{
    "HBPGBNCBOMP": "",
    "startBlackKeepTime": 0.5,
    "KENGMFPNLEP": "",
    "disableNpcLod": true,
    "NIHBFFCCJJN": true,
    "MCGPBLEHELN": true,
    "AGMGHOIPEIH": true,
    "startFade": {
        "startFadeInDuration": 0.5,
        "startFadeOutDuration": 0.5
    },
    "endFade": {
        "startFadeOutDuration": 0.0
    },
    "actors": [
        {
            "alias": "Avatar",
            "visible": true,
            "bornPointName": "Q1903601_N10000005",
            "relativePosNpcAlias": ""
        },
        {
            "configID": 3042,
            "alias": "3042",
            "visible": true,
            "bornPointName": "Q1903601_N3042",
            "forceCreateDaily": true,
            "relativePosNpcAlias": ""
        },
        {
            "configID": 3041,
            "alias": "3041",
            "visible": true,
            "bornPointName": "Q1903602_N3041",
            "forceCreateDaily": true,
            "relativePosNpcAlias": ""
        }
    ],
    "group": [
        [
            {
                "$type": "ConfigTimeProtectAction",
                "type": "TIME_PROTECT",
                "duration": 0.10000000149011612
            }
        ],
        [
            {
                "$type": "ConfigDialogInterAction",
                "type": "DIALOG",
                "aliasList": [
                    "3042"
                ],
                "dialogID": 190361401,
                "protectTime": 0.5
            }
        ],
        [
            {
                "$type": "ConfigDialogInterAction",
                "type": "DIALOG",
                "aliasList": [
                    "3041"
                ],
                "dialogID": 190361402,
                "protectTime": 0.5
            }
        ],
        [
            {
                "$type": "ConfigDialogInterAction",
                "type": "DIALOG",
                "aliasList": [
                    "3041"
                ],
                "dialogID": 190361403,
                "protectTime": 0.5
            }
        ],
        [
            {
                "$type": "ConfigDialogInterAction",
                "type": "DIALOG",
                "aliasList": [
                    "3042"
                ],
                "dialogID": 190361404,
                "protectTime": 0.5
            },
            {
                "$type": "ConfigDialogSelectAction",
                "type": "DIALOG_SELECT",
                "delayTime": 0.4000000059604645,
                "aliasList": [
                    "Avatar"
                ],
                "dialogIDList": [
                    190361405
                ],
                "grpIDList": [
                    1841988631
                ],
                "useGrpId": true
            }
        ],
        [
            {
                "$type": "ConfigDialogInterAction",
                "type": "DIALOG",
                "aliasList": [
                    "3041"
                ],
                "dialogID": 190361406,
                "protectTime": 0.5
            }
        ],
        [
            {
                "$type": "ConfigDialogInterAction",
                "type": "DIALOG",
                "aliasList": [
                    "3042"
                ],
                "dialogID": 190361407,
                "protectTime": 0.5
            }
        ],
        [
            {
                "$type": "ConfigDialogInterAction",
                "type": "DIALOG",
                "aliasList": [
                    "3042"
                ],
                "dialogID": 190361408,
                "protectTime": 0.5
            }
        ],
        [
            {
                "$type": "ConfigDialogInterAction",
                "type": "DIALOG",
                "aliasList": [
                    "3041"
                ],
                "dialogID": 190361409,
                "protectTime": 0.5
            }
        ],
        [
            {
                "$type": "ConfigDialogInterAction",
                "type": "DIALOG",
                "aliasList": [
                    "3042"
                ],
                "dialogID": 190361410,
                "protectTime": 0.5
            },
            {
                "$type": "ConfigDialogSelectAction",
                "type": "DIALOG_SELECT",
                "delayTime": 0.4000000059604645,
                "aliasList": [
                    "Avatar"
                ],
                "dialogIDList": [
                    190361411
                ],
                "grpIDList": [
                    1267072607
                ],
                "useGrpId": true
            }
        ],
        [
            {
                "$type": "ConfigDialogInterAction",
                "type": "DIALOG",
                "aliasList": [
                    "3042"
                ],
                "dialogID": 190361412,
                "protectTime": 0.5
            }
        ],
        [
            {
                "$type": "ConfigDialogInterAction",
                "type": "DIALOG",
                "aliasList": [
                    "3042"
                ],
                "dialogID": 190361413,
                "protectTime": 0.5
            }
        ],
        [
            {
                "$type": "ConfigDialogInterAction",
                "type": "DIALOG",
                "aliasList": [
                    "3042"
                ],
                "dialogID": 190361414,
                "protectTime": 0.5
            }
        ],
        [
            {
                "$type": "ConfigDialogInterAction",
                "type": "DIALOG",
                "aliasList": [
                    "3042"
                ],
                "dialogID": 190361415,
                "protectTime": 0.5
            }
        ],
        [
            {
                "$type": "ConfigDialogInterAction",
                "type": "DIALOG",
                "aliasList": [
                    "3041"
                ],
                "dialogID": 190361416,
                "protectTime": 0.5
            }
        ],
        [
            {
                "$type": "ConfigDialogInterAction",
                "type": "DIALOG",
                "aliasList": [
                    "3042"
                ],
                "dialogID": 190361417,
                "protectTime": 0.5
            }
        ],
        [
            {
                "$type": "ConfigDialogInterAction",
                "type": "DIALOG",
                "aliasList": [
                    "3042"
                ],
                "dialogID": 190361418,
                "protectTime": 0.5
            }
        ],
        [
            {
                "$type": "ConfigDialogInterAction",
                "type": "DIALOG",
                "aliasList": [
                    "3042"
                ],
                "dialogID": 190361419,
                "protectTime": 0.5
            }
        ],
        [
            {
                "$type": "ConfigDialogInterAction",
                "type": "DIALOG",
                "aliasList": [
                    "3041"
                ],
                "dialogID": 190361420,
                "protectTime": 0.5
            }
        ],
        [
            {
                "$type": "ConfigDialogInterAction",
                "type": "DIALOG",
                "aliasList": [
                    "3042"
                ],
                "dialogID": 190361421,
                "protectTime": 0.5
            }
        ],
        [
            {
                "$type": "ConfigDialogInterAction",
                "type": "DIALOG",
                "aliasList": [
                    "3042"
                ],
                "dialogID": 190361422,
                "protectTime": 0.5
            }
        ],
        [
            {
                "$type": "ConfigDialogInterAction",
                "type": "DIALOG",
                "aliasList": [
                    "3042"
                ],
                "dialogID": 190361423,
                "protectTime": 0.5
            },
            {
                "$type": "ConfigDialogSelectAction",
                "type": "DIALOG_SELECT",
                "delayTime": 0.4000000059604645,
                "aliasList": [
                    "Avatar"
                ],
                "dialogIDList": [
                    190361424,
                    190361425
                ],
                "grpIDList": [
                    1267072640,
                    1267072640
                ],
                "useGrpId": true
            }
        ],
        [
            {
                "$type": "ConfigDialogInterAction",
                "type": "DIALOG",
                "aliasList": [
                    "3041"
                ],
                "dialogID": 190361426,
                "protectTime": 0.5
            }
        ],
        [
            {
                "$type": "ConfigDialogInterAction",
                "type": "DIALOG",
                "aliasList": [
                    "3041"
                ],
                "dialogID": 190361427,
                "protectTime": 0.5
            }
        ],
        [
            {
                "$type": "ConfigDialogInterAction",
                "type": "DIALOG",
                "aliasList": [
                    "3041"
                ],
                "dialogID": 190361428,
                "protectTime": 0.5
            }
        ],
        [
            {
                "$type": "ConfigDialogInterAction",
                "type": "DIALOG",
                "aliasList": [
                    "3042"
                ],
                "dialogID": 190361429,
                "protectTime": 0.5
            },
            {
                "$type": "ConfigDialogSelectAction",
                "type": "DIALOG_SELECT",
                "delayTime": 0.4000000059604645,
                "aliasList": [
                    "Avatar"
                ],
                "dialogIDList": [
                    190361430
                ],
                "grpIDList": [
                    1267072644
                ],
                "useGrpId": true
            }
        ],
        [
            {
                "$type": "ConfigDialogInterAction",
                "type": "DIALOG",
                "aliasList": [
                    "3042"
                ],
                "dialogID": 190361431,
                "protectTime": 0.5
            }
        ],
        [
            {
                "$type": "ConfigDialogInterAction",
                "type": "DIALOG",
                "aliasList": [
                    "3042"
                ],
                "dialogID": 190361432,
                "protectTime": 0.5
            }
        ],
        [
            {
                "$type": "ConfigDialogInterAction",
                "type": "DIALOG",
                "aliasList": [
                    "3041"
                ],
                "dialogID": 190361433,
                "protectTime": 0.5
            }
        ],
        [
            {
                "$type": "ConfigDialogInterAction",
                "type": "DIALOG",
                "aliasList": [
                    "3042"
                ],
                "dialogID": 190361434,
                "protectTime": 0.5
            }
        ],
        [
            {
                "$type": "ConfigDialogInterAction",
                "type": "DIALOG",
                "aliasList": [
                    "3042"
                ],
                "dialogID": 190361435,
                "protectTime": 0.5
            },
            {
                "$type": "ConfigDialogSelectAction",
                "type": "DIALOG_SELECT",
                "delayTime": 0.4000000059604645,
                "aliasList": [
                    "Avatar"
                ],
                "dialogIDList": [
                    190361436,
                    190361437
                ],
                "grpIDList": [
                    1267072670,
                    1267072670
                ],
                "useGrpId": true
            }
        ],
        [
            {
                "$type": "ConfigDialogInterAction",
                "type": "DIALOG",
                "aliasList": [
                    "3042"
                ],
                "dialogID": 190361438,
                "protectTime": 0.5
            }
        ],
        [
            {
                "$type": "ConfigDialogInterAction",
                "type": "DIALOG",
                "aliasList": [
                    "3042"
                ],
                "dialogID": 190361439,
                "protectTime": 0.5
            }
        ],
        [
            {
                "$type": "ConfigDialogInterAction",
                "type": "DIALOG",
                "aliasList": [
                    "3042"
                ],
                "dialogID": 190361440,
                "protectTime": 0.5
            },
            {
                "$type": "ConfigDialogSelectAction",
                "type": "DIALOG_SELECT",
                "delayTime": 0.4000000059604645,
                "aliasList": [
                    "Avatar"
                ],
                "dialogIDList": [
                    190361441
                ],
                "grpIDList": [
                    1267072673
                ],
                "useGrpId": true
            }
        ],
        [
            {
                "$type": "ConfigDialogInterAction",
                "type": "DIALOG",
                "aliasList": [
                    "3042"
                ],
                "dialogID": 190361442,
                "protectTime": 0.5
            }
        ],
        [
            {
                "$type": "ConfigDialogInterAction",
                "type": "DIALOG",
                "aliasList": [
                    "3042"
                ],
                "dialogID": 190361443,
                "protectTime": 0.5
            }
        ],
        [
            {
                "$type": "ConfigDialogInterAction",
                "type": "DIALOG",
                "aliasList": [
                    "3042"
                ],
                "dialogID": 190361444,
                "protectTime": 0.5
            },
            {
                "$type": "ConfigDialogSelectAction",
                "type": "DIALOG_SELECT",
                "delayTime": 0.4000000059604645,
                "aliasList": [
                    "Avatar"
                ],
                "dialogIDList": [
                    190361445
                ],
                "grpIDList": [
                    1267072676
                ],
                "useGrpId": true
            }
        ],
        [
            {
                "$type": "ConfigDialogInterAction",
                "type": "DIALOG",
                "aliasList": [
                    "3042"
                ],
                "dialogID": 190361446,
                "protectTime": 0.5
            }
        ],
        [
            {
                "$type": "ConfigDialogInterAction",
                "type": "DIALOG",
                "aliasList": [
                    "3042"
                ],
                "dialogID": 190361447,
                "protectTime": 0.5
            }
        ],
        [
            {
                "$type": "ConfigDialogInterAction",
                "type": "DIALOG",
                "aliasList": [
                    "3042"
                ],
                "dialogID": 190361448,
                "protectTime": 0.5
            },
            {
                "$type": "ConfigDialogSelectAction",
                "type": "DIALOG_SELECT",
                "delayTime": 0.4000000059604645,
                "aliasList": [
                    "Avatar"
                ],
                "dialogIDList": [
                    190361449
                ],
                "grpIDList": [
                    1267072700
                ],
                "useGrpId": true
            }
        ],
        [
            {
                "$type": "ConfigDialogInterAction",
                "type": "DIALOG",
                "aliasList": [
                    "3042"
                ],
                "dialogID": 190361450,
                "protectTime": 0.5
            }
        ],
        [
            {
                "$type": "ConfigTimeProtectAction",
                "type": "TIME_PROTECT",
                "duration": 0.10000000149011612
            },
            {
                "$type": "ConfigSimpleBlackScreenAction",
                "type": "SIMPLE_BLACK_SCREEN",
                "durationToBlack": 0.5,
                "durationKeepBlack": 1.0,
                "durationFromBlack": 0.5,
                "textMapID": ""
            },
            {
                "$type": "ConfigTimeProtectAction",
                "type": "TIME_PROTECT",
                "duration": 0.699999988079071
            }
        ]
    ],
    "groupId": [
        {
            "grpId": 1841988626,
            "nextGrpId": 1841988627
        },
        {
            "index": 1,
            "grpId": 1841988627,
            "nextGrpId": 1841988628
        },
        {
            "index": 2,
            "grpId": 1841988628,
            "nextGrpId": 1841988629
        },
        {
            "index": 3,
            "grpId": 1841988629,
            "nextGrpId": 1841988630
        },
        {
            "index": 4,
            "grpId": 1841988630,
            "nextGrpId": 1841988631
        },
        {
            "index": 5,
            "grpId": 1841988631,
            "nextGrpId": 1841988632
        },
        {
            "index": 6,
            "grpId": 1841988632,
            "nextGrpId": 1841988633
        },
        {
            "index": 7,
            "grpId": 1841988633,
            "nextGrpId": 1841988634
        },
        {
            "index": 8,
            "grpId": 1841988634,
            "nextGrpId": 1267072606
        },
        {
            "index": 9,
            "grpId": 1267072606,
            "nextGrpId": 1267072607
        },
        {
            "index": 10,
            "grpId": 1267072607,
            "nextGrpId": 1267072608
        },
        {
            "index": 11,
            "grpId": 1267072608,
            "nextGrpId": 1267072609
        },
        {
            "index": 12,
            "grpId": 1267072609,
            "nextGrpId": 1267072610
        },
        {
            "index": 13,
            "grpId": 1267072610,
            "nextGrpId": 1267072611
        },
        {
            "index": 14,
            "grpId": 1267072611,
            "nextGrpId": 1267072612
        },
        {
            "index": 15,
            "grpId": 1267072612,
            "nextGrpId": 1267072613
        },
        {
            "index": 16,
            "grpId": 1267072613,
            "nextGrpId": 1267072614
        },
        {
            "index": 17,
            "grpId": 1267072614,
            "nextGrpId": 1267072615
        },
        {
            "index": 18,
            "grpId": 1267072615,
            "nextGrpId": 1267072637
        },
        {
            "index": 19,
            "grpId": 1267072637,
            "nextGrpId": 1267072638
        },
        {
            "index": 20,
            "grpId": 1267072638,
            "nextGrpId": 1267072639
        },
        {
            "index": 21,
            "grpId": 1267072639,
            "nextGrpId": 1267072640
        },
        {
            "index": 22,
            "grpId": 1267072640,
            "nextGrpId": 1267072641
        },
        {
            "index": 23,
            "grpId": 1267072641,
            "nextGrpId": 1267072642
        },
        {
            "index": 24,
            "grpId": 1267072642,
            "nextGrpId": 1267072643
        },
        {
            "index": 25,
            "grpId": 1267072643,
            "nextGrpId": 1267072644
        },
        {
            "index": 26,
            "grpId": 1267072644,
            "nextGrpId": 1267072645
        },
        {
            "index": 27,
            "grpId": 1267072645,
            "nextGrpId": 1267072646
        },
        {
            "index": 28,
            "grpId": 1267072646,
            "nextGrpId": 1267072668
        },
        {
            "index": 29,
            "grpId": 1267072668,
            "nextGrpId": 1267072669
        },
        {
            "index": 30,
            "grpId": 1267072669,
            "nextGrpId": 1267072670
        },
        {
            "index": 31,
            "grpId": 1267072670,
            "nextGrpId": 1267072671
        },
        {
            "index": 32,
            "grpId": 1267072671,
            "nextGrpId": 1267072672
        },
        {
            "index": 33,
            "grpId": 1267072672,
            "nextGrpId": 1267072673
        },
        {
            "index": 34,
            "grpId": 1267072673,
            "nextGrpId": 1267072674
        },
        {
            "index": 35,
            "grpId": 1267072674,
            "nextGrpId": 1267072675
        },
        {
            "index": 36,
            "grpId": 1267072675,
            "nextGrpId": 1267072676
        },
        {
            "index": 37,
            "grpId": 1267072676,
            "nextGrpId": 1267072677
        },
        {
            "index": 38,
            "grpId": 1267072677,
            "nextGrpId": 1267072699
        },
        {
            "index": 39,
            "grpId": 1267072699,
            "nextGrpId": 1267072700
        },
        {
            "index": 40,
            "grpId": 1267072700,
            "nextGrpId": 1267072701
        },
        {
            "index": 41,
            "grpId": 1267072701,
            "nextGrpId": 1267072702
        }
    ],
    "freeStyleDic": {
        "3042": [],
        "3041": []
    }
}