{
    "HBPGBNCBOMP": "",
    "dontUseDefaultFinish": true,
    "startBlackKeepTime": 1.0,
    "KENGMFPNLEP": "",
    "disableNpcLod": true,
    "startFade": {
        "startFadeInDuration": 0.5,
        "startFadeOutDuration": 0.5
    },
    "endFade": {
        "startFadeOutDuration": 0.0
    },
    "actors": [
        {
            "alias": "Avatar",
            "visible": true,
            "bornPointName": "Q19019_Talk8",
            "relativePosNpcAlias": ""
        },
        {
            "configID": 505,
            "alias": "505",
            "visible": true,
            "bornPointName": "Q19019_Wulang8",
            "removeActorType": "REMOVE",
            "relativePosNpcAlias": ""
        }
    ],
    "group": [
        [
            {
                "$type": "ConfigVisibleInterAction",
                "type": "VISIBLE",
                "delayTime": 0.30000001192092896,
                "aliasList": [
                    "Avatar"
                ]
            },
            {
                "$type": "ConfigCameraDOFAction",
                "type": "CAMERA_DOF",
                "delayTime": 0.30000001192092896,
                "focusDistance": 6.0,
                "focusRange": 6.0,
                "quality": 3
            }
        ],
        [
            {
                "$type": "ConfigDialogInterAction",
                "type": "DIALOG",
                "aliasList": [
                    "505"
                ],
                "dialogID": 190192401,
                "protectTime": 0.5
            },
            {
                "$type": "ConfigCameraMoveInterAction",
                "type": "CAMERA_MOVE",
                "duration": 1.0,
                "cameraPosType": "RELATIVE_TO_TARGET_ENTITY",
                "camTargetType": "RELATIVE_TO_TARGET_ENTITY",
                "camFov": 30.0,
                "lerpPattern": 6,
                "cameraBlendType": "EaseInOutCubic",
                "cutFrameTrans": {},
                "openCameraDither": false,
                "targetNpcAlias": "505",
                "closeTreeLeafDither": true
            }
        ],
        [
            {
                "$type": "ConfigDialogInterAction",
                "type": "DIALOG",
                "aliasList": [
                    "505"
                ],
                "dialogID": 190192402,
                "protectTime": 0.5
            },
            {
                "$type": "ConfigDialogSelectAction",
                "type": "DIALOG_SELECT",
                "delayTime": 0.4000000059604645,
                "aliasList": [
                    "Avatar"
                ],
                "dialogIDList": [
                    190192403
                ],
                "grpIDList": [
                    2137633630
                ],
                "useGrpId": true
            }
        ],
        [
            {
                "$type": "ConfigDialogInterAction",
                "type": "DIALOG",
                "aliasList": [
                    "505"
                ],
                "dialogID": 190192404,
                "protectTime": 0.5
            }
        ],
        [
            {
                "$type": "ConfigDialogInterAction",
                "type": "DIALOG",
                "aliasList": [
                    "505"
                ],
                "dialogID": 190192405,
                "protectTime": 0.5
            }
        ]
    ],
    "groupId": [
        {
            "grpId": 2137633627,
            "nextGrpId": 2137633628
        },
        {
            "index": 1,
            "grpId": 2137633628,
            "nextGrpId": 2137633629
        },
        {
            "index": 2,
            "grpId": 2137633629,
            "nextGrpId": 2137633630
        },
        {
            "index": 3,
            "grpId": 2137633630,
            "nextGrpId": 2137633631
        },
        {
            "index": 4,
            "grpId": 2137633631,
            "nextGrpId": 2137633632
        }
    ],
    "freeStyleDic": {
        "505": []
    }
}