{
    "common": {
        "effectAttachShape": {
            "$type": "ConfigEffectAttachSkinnedMesh",
            "mesh": "EffectMesh"
        },
        "mass": 100000.0,
        "affectedByWorld": true,
        "useGrassDisplacement": true
    },
    "headControl": {
        "$type": "ConfigHeadControl",
        "useWhiteAnimStates": false,
        "dontAnimStates": [
            "Turn01_90LBS",
            "Turn01_90LAS",
            "Turn01_90RBS",
            "Turn01_90RAS",
            "Downcast01BS",
            "Downcast01AS",
            "Downcast01Loop",
            "DrinkToComplain",
            "FountainPray",
            "FountainSneak",
            "Pray01Loop",
            "Investigate01Loop",
            "Shy01Loop",
            "HoldHead01Loop",
            "Play01BS",
            "Play01Loop",
            "Play01AS"
        ]
    },
    "stateLayers": {
        "defaultLayer": {
            "$type": "ConfigNormalStateLayer",
            "layerIndexName": "",
            "stateIDs": {
                "Born": {
                    "$type": "ConfigNpcStateIDInfo",
                    "animatorStates": {
                        "Born": [
                            "Npc_ResetFreeStyle"
                        ]
                    }
                },
                "Disappear": {
                    "$type": "ConfigNpcStateIDInfo",
                    "animatorStates": {
                        "Disappear": [
                            "Npc_FadeOut"
                        ]
                    },
                    "MFHIFMAHGLP": false
                },
                "FreeStyleReset": {
                    "$type": "ConfigNpcStateIDInfo",
                    "animatorStates": {
                        "HitLightBackrake01": [
                            "Npc_ResetFreeStyle"
                        ],
                        "HitLightForerake01": [
                            "Npc_ResetFreeStyle"
                        ],
                        "AfraidAS": [
                            "Npc_ResetFreeStyle"
                        ],
                        "Alert01AS": [
                            "Npc_ResetFreeStyle"
                        ],
                        "Clap01": [
                            "Npc_ResetFreeStyle"
                        ]
                    }
                },
                "FemaleVoiceState": {
                    "$type": "ConfigNpcStateIDInfo",
                    "animatorStates": {
                        "Absorb": [
                            "Audio_Monster_Fungus_Trois_Absorb"
                        ],
                        "Dance": [
                            "Audio_Monster_Fungus_Trois_Dance"
                        ],
                        "Tease": [
                            "Audio_Monster_Fungus_Trois_Tease"
                        ]
                    }
                }
            }
        }
    },
    "billboard": {
        "$type": "ConfigBillboard",
        "attachPoint": "BillboardAttach",
        "offset": {
            "x": -0.09000000357627869,
            "y": 0.25
        },
        "offsetType": "Character",
        "radiusOffset": 0.12999999523162842,
        "showDistance": 20.0,
        "markShowDistance": 45.0
    },
    "IEDAKIJDDHG": 0.0,
    "aibeta": {
        "enable": true,
        "friendliness": 1,
        "moveSetting": {
            "navMeshAgentName": "Undead01",
            "almostReachedDistanceWalk": 0.30000001192092896,
            "almostReachedDistanceRun": 0.6000000238418579
        },
        "sensing": {
            "enable": false
        },
        "threat": {
            "enable": false
        },
        "defendArea": {
            "enable": false
        },
        "profiling": {
            "lodStrategy": "Npc"
        },
        "scriptedMoveToTactic": {
            "enable": true,
            "defaultSetting": {
                "speedLevel": 1
            }
        }
    },
    "move": {
        "$type": "ConfigNPCMove",
        "velocityForce": {
            "includeForces": [
                "RetreatType",
                "RetreatAirType",
                "RushMoveType",
                "WindZoneType",
                "AirflowType",
                "RiseType",
                "SpeedupType",
                "AirflowAccType",
                "InertiaType"
            ]
        }
    },
    "intee": {},
    "audio": {
        "$type": "ConfigGadgetAudio",
        "animAudio": {}
    },
    "emojiBubble": {},
    "PGNCGCIMNJC": "PRIVATE_Pendant"
}