{
    "common": {
        "effectAttachShape": {
            "$type": "ConfigEffectAttachSkinnedMesh",
            "mesh": "EffectMesh"
        },
        "mass": 100000.0,
        "affectedByWorld": true
    },
    "headControl": {
        "$type": "ConfigHeadControl",
        "useWhiteAnimStates": false,
        "dontAnimStates": [
            "GiveBS",
            "Turn_01",
            "Turn_02",
            "Nod_01",
            "HeadShake_01",
            "Refuse_01",
            "Refuse_02",
            "Chat_01",
            "Chat_02",
            "Hand_01",
            "Hand_02",
            "Hand_03",
            "Shock_01",
            "Shock_02",
            "Angry_01",
            "Angry_02",
            "Angry_03",
            "Sad_01",
            "Sad_02",
            "Helpless_01",
            "Think_01",
            "Confuse_01",
            "HoldArm_01",
            "HoldArm_02",
            "HoldArm_03",
            "Applaud_01",
            "Applaud_02",
            "Pray_01",
            "Give_01",
            "Check_01",
            "Conflicted_01",
            "Conflicted_02",
            "Happy_01",
            "Dislike_01",
            "PointSelf_01",
            "PointFront_01",
            "PointFront_02",
            "PointUp_01",
            "PointDown_01",
            "PointLeft_01",
            "PointRight_01",
            "Escape_01",
            "Escape_02",
            "Salute_01",
            "Salute_02",
            "Sit_01",
            "Lay_01",
            "Lay_02",
            "Lay_03",
            "Heal_01",
            "Heal_02",
            "Applause_01",
            "Applause_02",
            "Applause_03",
            "Bask_01",
            "Bask_02",
            "Curious_01",
            "Curious_02",
            "Curious_03",
            "Curious_04",
            "Frightened_01",
            "Frightened_02",
            "Guard_01",
            "Guard_02",
            "Carry_01",
            "Layback_01",
            "Forerake_01",
            "Bargain",
            "NoBargain",
            "DrinkToComplain",
            "FountainPray",
            "FountainSneak"
        ]
    },
    "stateLayers": {
        "defaultLayer": {
            "$type": "ConfigNormalStateLayer",
            "layerIndexName": "",
            "stateIDs": {
                "Born": {
                    "$type": "ConfigNpcStateIDInfo",
                    "animatorStates": {
                        "Born": [
                            "Npc_FadeIn"
                        ]
                    },
                    "MFHIFMAHGLP": false
                },
                "Disappear": {
                    "$type": "ConfigNpcStateIDInfo",
                    "animatorStates": {
                        "Disappear": [
                            "Npc_FadeOut"
                        ]
                    },
                    "MFHIFMAHGLP": false
                },
                "FreeStyleReset": {
                    "$type": "ConfigNpcStateIDInfo",
                    "animatorStates": {
                        "HitLightBackrake01": [
                            "Npc_ResetFreeStyle"
                        ],
                        "HitLightForerake01": [
                            "Npc_ResetFreeStyle"
                        ],
                        "AfraidAS": [
                            "Npc_ResetFreeStyle"
                        ],
                        "Alert01AS": [
                            "Npc_ResetFreeStyle"
                        ],
                        "Clap01": [
                            "Npc_ResetFreeStyle"
                        ]
                    }
                },
                "FreeStyle": {
                    "$type": "ConfigNpcStateIDInfo",
                    "animatorStates": {
                        "Ani_Monster_Abyss_Water_01_HitThrowToGround": [
                            "Audio_Abyss_HitThrowToGround_Npc"
                        ]
                    }
                }
            }
        }
    },
    "billboard": {
        "$type": "ConfigBillboard",
        "attachPoint": "BillboardAttach",
        "offset": {
            "x": -0.019999999552965164
        },
        "offsetType": "Character",
        "radiusOffset": 0.20000000298023224,
        "showDistance": 20.0,
        "markShowDistance": 45.0
    },
    "IEDAKIJDDHG": 0.0,
    "aibeta": {
        "enable": true,
        "friendliness": 1,
        "moveSetting": {
            "navMeshAgentName": "Undead01",
            "almostReachedDistanceWalk": 0.5
        },
        "sensing": {
            "enable": false
        },
        "threat": {
            "enable": false
        },
        "defendArea": {
            "enable": false
        },
        "profiling": {
            "lodStrategy": "Npc"
        },
        "scriptedMoveToTactic": {
            "enable": true,
            "defaultSetting": {
                "speedLevel": 1
            }
        }
    },
    "move": {
        "$type": "ConfigNPCMove"
    },
    "intee": {
        "usePushCollider": true
    },
    "emojiBubble": {},
    "PGNCGCIMNJC": "PRIVATE_Pendant"
}