{
    "buttonSequence": [
        {
            "button": "Left_Left",
            "time": 2907,
            "note": 65
        },
        {
            "time": 5569,
            "note": 74
        },
        {
            "button": "Left_Right",
            "time": 8049,
            "note": 74
        },
        {
            "button": "Left_Right",
            "time": 9262,
            "note": 74
        },
        {
            "button": "Left_Left",
            "time": 10815,
            "note": 74
        },
        {
            "button": "Left_Right",
            "time": 13319,
            "note": 74
        },
        {
            "button": "Left_Down",
            "time": 15812,
            "note": 72
        },
        {
            "button": "Right_Left",
            "time": 18097,
            "note": 72
        },
        {
            "button": "Right_Left",
            "time": 19280,
            "note": 72
        },
        {
            "button": "Right_Down",
            "time": 20706,
            "note": 69
        },
        {
            "button": "Right_Right",
            "time": 23289,
            "note": 65
        },
        {
            "button": "Right_Up",
            "time": 25576,
            "note": 69
        },
        {
            "button": "Right_Right",
            "time": 26789,
            "note": 67
        },
        {
            "button": "Left_Left",
            "time": 32667,
            "note": 65
        },
        {
            "button": "Left_Left",
            "time": 33866,
            "note": 65
        },
        {
            "time": 35030,
            "note": 69
        },
        {
            "button": "Right_Right",
            "time": 42174,
            "note": 65
        },
        {
            "button": "Right_Up",
            "time": 44431,
            "note": 74
        },
        {
            "button": "Right_Left",
            "time": 46655,
            "note": 74
        },
        {
            "button": "Right_Left",
            "time": 47810,
            "note": 74
        },
        {
            "button": "Right_Right",
            "time": 49000,
            "note": 74
        },
        {
            "button": "Right_Left",
            "time": 51278,
            "note": 74
        },
        {
            "button": "Right_Down",
            "time": 53581,
            "note": 72
        },
        {
            "button": "Left_Right",
            "time": 55822,
            "note": 72
        },
        {
            "button": "Left_Right",
            "time": 56961,
            "note": 72
        },
        {
            "button": "Left_Down",
            "time": 58611,
            "note": 69
        },
        {
            "button": "Left_Left",
            "time": 60495,
            "note": 65
        },
        {
            "time": 62644,
            "note": 69
        },
        {
            "button": "Left_Left",
            "time": 63771,
            "note": 67
        },
        {
            "button": "Right_Right",
            "time": 69736,
            "note": 65
        },
        {
            "button": "Right_Right",
            "time": 72095,
            "note": 65
        },
        {
            "button": "Right_Down",
            "time": 73356,
            "note": 62
        },
        {
            "button": "Right_Up",
            "time": 75333,
            "note": 72,
            "MCCFCKMLOCC": true,
            "DBJOIPMGCLJ": 1600
        }
    ],
    "instrument": 1,
    "playMusicEvent": {
        "text": "Play_ui_musicgame_LiYue_night"
    },
    "stopMusicEvent": {
        "text": "Stop_ui_musicgame_LiYue_night"
    },
    "pauseMusicEvent": {
        "text": "Pause_ui_musicgame_LiYue_night"
    },
    "resumeMusicEvent": {
        "text": "Resume_ui_musicgame_LiYue_night"
    }
}