{
    "buttonSequence": [
        {
            "button": "Left_Down",
            "time": 11627
        },
        {
            "button": "Left_Down",
            "time": 14883
        },
        {
            "button": "Left_Down",
            "time": 26914
        },
        {
            "button": "Left_Down",
            "time": 35359
        },
        {
            "button": "Left_Down",
            "time": 62244,
            "MCCFCKMLOCC": true,
            "DBJOIPMGCLJ": 853
        },
        {
            "button": "Left_Down",
            "time": 69491
        },
        {
            "button": "Left_Down",
            "time": 75876,
            "MCCFCKMLOCC": true,
            "DBJOIPMGCLJ": 413
        },
        {
            "button": "Left_Down",
            "time": 78811
        },
        {
            "button": "Left_Right",
            "time": 3720
        },
        {
            "button": "Left_Right",
            "time": 4418
        },
        {
            "button": "Left_Right",
            "time": 6046
        },
        {
            "button": "Left_Right",
            "time": 6976
        },
        {
            "button": "Left_Right",
            "time": 9302
        },
        {
            "button": "Left_Right",
            "time": 10697
        },
        {
            "button": "Left_Right",
            "time": 16744
        },
        {
            "button": "Left_Right",
            "time": 19534
        },
        {
            "button": "Left_Right",
            "time": 22914
        },
        {
            "button": "Left_Right",
            "time": 24692
        },
        {
            "button": "Left_Right",
            "time": 30025
        },
        {
            "button": "Left_Right",
            "time": 31803
        },
        {
            "button": "Left_Right",
            "time": 33581
        },
        {
            "button": "Left_Right",
            "time": 37581
        },
        {
            "button": "Left_Right",
            "time": 39359
        },
        {
            "button": "Left_Right",
            "time": 40247
        },
        {
            "button": "Left_Right",
            "time": 41136
        },
        {
            "button": "Left_Right",
            "time": 42025
        },
        {
            "button": "Left_Right",
            "time": 43359
        },
        {
            "button": "Left_Right",
            "time": 45136
        },
        {
            "button": "Left_Right",
            "time": 51032
        },
        {
            "button": "Left_Right",
            "time": 51477
        },
        {
            "button": "Left_Right",
            "time": 53255
        },
        {
            "button": "Left_Right",
            "time": 54143
        },
        {
            "button": "Left_Right",
            "time": 55032
        },
        {
            "button": "Left_Right",
            "time": 57981
        },
        {
            "button": "Left_Right",
            "time": 59686
        },
        {
            "button": "Left_Right",
            "time": 64802
        },
        {
            "button": "Left_Right",
            "time": 66507
        },
        {
            "button": "Left_Right",
            "time": 67360
        },
        {
            "button": "Left_Right",
            "time": 68207
        },
        {
            "button": "Left_Right",
            "time": 70778
        },
        {
            "button": "Left_Right",
            "time": 71207
        },
        {
            "button": "Left_Right",
            "time": 72492
        },
        {
            "button": "Left_Right",
            "time": 72921
        },
        {
            "button": "Left_Right",
            "time": 75255
        },
        {
            "button": "Left_Right",
            "time": 76703
        },
        {
            "button": "Left_Right",
            "time": 78380
        },
        {
            "button": "Left_Right",
            "time": 80106
        },
        {
            "button": "Right_Left",
            "time": 1860
        },
        {
            "button": "Right_Left",
            "time": 2558
        },
        {
            "button": "Right_Left",
            "time": 5581
        },
        {
            "button": "Right_Left",
            "time": 6511
        },
        {
            "button": "Right_Left",
            "time": 7325
        },
        {
            "button": "Right_Left",
            "time": 9999
        },
        {
            "button": "Right_Left",
            "time": 15813
        },
        {
            "button": "Right_Left",
            "time": 17674
        },
        {
            "button": "Right_Left",
            "time": 22025
        },
        {
            "button": "Right_Left",
            "time": 23803
        },
        {
            "button": "Right_Left",
            "time": 29136
        },
        {
            "button": "Right_Left",
            "time": 30914
        },
        {
            "button": "Right_Left",
            "time": 32692
        },
        {
            "button": "Right_Left",
            "time": 36247
        },
        {
            "button": "Right_Left",
            "time": 38025
        },
        {
            "button": "Right_Left",
            "time": 39803
        },
        {
            "button": "Right_Left",
            "time": 40692
        },
        {
            "button": "Right_Left",
            "time": 41581
        },
        {
            "button": "Right_Left",
            "time": 42914
        },
        {
            "button": "Right_Left",
            "time": 44247
        },
        {
            "button": "Right_Left",
            "time": 47032
        },
        {
            "button": "Right_Left",
            "time": 47477
        },
        {
            "button": "Right_Left",
            "time": 55424
        },
        {
            "button": "Right_Left",
            "time": 57129
        },
        {
            "button": "Right_Left",
            "time": 58834
        },
        {
            "button": "Right_Left",
            "time": 63949
        },
        {
            "button": "Right_Left",
            "time": 65654
        },
        {
            "button": "Right_Left",
            "time": 67786
        },
        {
            "button": "Right_Left",
            "time": 68638
        },
        {
            "button": "Right_Left",
            "time": 71635
        },
        {
            "button": "Right_Left",
            "time": 72064
        },
        {
            "button": "Right_Left",
            "time": 73350
        },
        {
            "button": "Right_Left",
            "time": 73778
        },
        {
            "button": "Right_Left",
            "time": 75048
        },
        {
            "button": "Right_Left",
            "time": 76910
        },
        {
            "button": "Right_Left",
            "time": 77948
        },
        {
            "button": "Right_Left",
            "time": 79243
        },
        {
            "button": "Right_Left",
            "time": 85383,
            "MCCFCKMLOCC": true,
            "DBJOIPMGCLJ": 512
        },
        {
            "button": "Right_Left",
            "time": 86409
        },
        {
            "button": "Right_Down",
            "time": 13953
        },
        {
            "button": "Right_Down",
            "time": 25581
        },
        {
            "button": "Right_Down",
            "time": 27359
        },
        {
            "button": "Right_Down",
            "time": 34470
        },
        {
            "button": "Right_Down",
            "time": 49255
        },
        {
            "button": "Right_Down",
            "time": 60539,
            "MCCFCKMLOCC": true,
            "DBJOIPMGCLJ": 853
        },
        {
            "button": "Right_Down",
            "time": 69065
        },
        {
            "button": "Right_Down",
            "time": 69921
        },
        {
            "button": "Right_Down",
            "time": 74221,
            "MCCFCKMLOCC": true,
            "DBJOIPMGCLJ": 413
        },
        {
            "button": "Right_Down",
            "time": 77517
        },
        {
            "button": "Right_Down",
            "time": 81401
        },
        {
            "button": "Right_Down",
            "time": 82265
        },
        {
            "button": "Right_Down",
            "time": 83128
        },
        {
            "button": "Right_Down",
            "time": 83991
        },
        {
            "button": "Right_Down",
            "time": 84358
        }
    ],
    "instrument": -1507746808,
    "playMusicEvent": {
        "text": "Play_ui_feedback_musicgame_char_keli"
    },
    "stopMusicEvent": {
        "text": "Stop_ui_feedback_musicgame_char_keli"
    },
    "pauseMusicEvent": {
        "text": "Pause_ui_feedback_musicgame_char_keli"
    },
    "resumeMusicEvent": {
        "text": "Resume_ui_feedback_musicgame_char_keli"
    }
}