{
    "buttonSequence": [
        {
            "button": "Left_Left",
            "time": 5073,
            "note": 71
        },
        {
            "button": "Left_Right",
            "time": 6980,
            "note": 76
        },
        {
            "button": "Right_Up",
            "time": 8612,
            "note": 76,
            "MCCFCKMLOCC": true,
            "DBJOIPMGCLJ": 1650
        },
        {
            "button": "Right_Right",
            "time": 11987,
            "note": 74
        },
        {
            "button": "Right_Left",
            "time": 13711,
            "note": 66
        },
        {
            "time": 15437,
            "note": 73,
            "MCCFCKMLOCC": true,
            "DBJOIPMGCLJ": 1737
        },
        {
            "button": "Right_Right",
            "time": 18870,
            "note": 71
        },
        {
            "button": "Right_Down",
            "time": 20561,
            "note": 76
        },
        {
            "button": "Left_Right",
            "time": 22312,
            "note": 76,
            "MCCFCKMLOCC": true,
            "DBJOIPMGCLJ": 1709
        },
        {
            "button": "Left_Left",
            "time": 25698,
            "note": 74
        },
        {
            "button": "Left_Down",
            "time": 27412,
            "note": 73
        },
        {
            "button": "Right_Left",
            "time": 29145,
            "note": 81,
            "MCCFCKMLOCC": true,
            "DBJOIPMGCLJ": 1644
        },
        {
            "button": "Left_Left",
            "time": 46286,
            "note": 71
        },
        {
            "time": 47995,
            "note": 76
        },
        {
            "button": "Left_Right",
            "time": 49727,
            "note": 76,
            "MCCFCKMLOCC": true,
            "DBJOIPMGCLJ": 1651
        },
        {
            "button": "Right_Left",
            "time": 53191,
            "note": 73
        },
        {
            "button": "Right_Up",
            "time": 54845,
            "note": 71,
            "MCCFCKMLOCC": true,
            "DBJOIPMGCLJ": 6000
        },
        {
            "button": "Right_Left",
            "time": 60961,
            "note": 69
        },
        {
            "button": "Left_Right",
            "time": 62368,
            "note": 71,
            "MCCFCKMLOCC": true,
            "DBJOIPMGCLJ": 6203
        }
    ],
    "instrument": 1,
    "playMusicEvent": {
        "text": "Play_ui_musicgame_windingRiver"
    },
    "stopMusicEvent": {
        "text": "Stop_ui_musicgame_windingRiver"
    },
    "pauseMusicEvent": {
        "text": "Pause_ui_musicgame_windingRiver"
    },
    "resumeMusicEvent": {
        "text": "Resume_ui_musicgame_windingRiver"
    }
}