{
    "buttonSequence": [
        {
            "button": "Right_Right",
            "time": 4983,
            "note": 71
        },
        {
            "button": "Right_Left",
            "time": 6719,
            "note": 82,
            "MCCFCKMLOCC": true,
            "DBJOIPMGCLJ": 2421
        },
        {
            "button": "Left_Right",
            "time": 9191,
            "note": 80
        },
        {
            "button": "Left_Down",
            "time": 10047,
            "note": 78
        },
        {
            "button": "Left_Left",
            "time": 11745,
            "note": 68
        },
        {
            "button": "Left_Right",
            "time": 13449,
            "note": 78,
            "MCCFCKMLOCC": true,
            "DBJOIPMGCLJ": 1958
        },
        {
            "button": "Right_Left",
            "time": 15921,
            "note": 76
        },
        {
            "button": "Right_Down",
            "time": 16746,
            "note": 75
        },
        {
            "button": "Right_Right",
            "time": 18477,
            "note": 75
        },
        {
            "button": "Right_Up",
            "time": 20187,
            "note": 73
        },
        {
            "button": "Left_Left",
            "time": 38624,
            "note": 75
        },
        {
            "button": "Left_Down",
            "time": 40334,
            "note": 73
        },
        {
            "button": "Left_Right",
            "time": 43600,
            "note": 71
        },
        {
            "time": 44491,
            "note": 78
        },
        {
            "button": "Right_Left",
            "time": 47000,
            "note": 71,
            "MCCFCKMLOCC": true,
            "DBJOIPMGCLJ": 1600
        },
        {
            "button": "Right_Up",
            "time": 48654,
            "note": 73,
            "MCCFCKMLOCC": true,
            "DBJOIPMGCLJ": 1650
        },
        {
            "button": "Right_Right",
            "time": 50371,
            "note": 71,
            "MCCFCKMLOCC": true,
            "DBJOIPMGCLJ": 1900
        },
        {
            "button": "Left_Right",
            "time": 52790,
            "note": 82
        },
        {
            "time": 53745,
            "note": 71,
            "MCCFCKMLOCC": true,
            "DBJOIPMGCLJ": 3300
        },
        {
            "button": "Left_Left",
            "time": 57117,
            "note": 73,
            "MCCFCKMLOCC": true,
            "DBJOIPMGCLJ": 3300
        },
        {
            "button": "Right_Left",
            "time": 70610,
            "note": 71
        },
        {
            "button": "Left_Right",
            "time": 71395,
            "note": 75
        }
    ],
    "instrument": 1,
    "playMusicEvent": {
        "text": "Play_ui_musicgame_loversOath"
    },
    "stopMusicEvent": {
        "text": "Stop_ui_musicgame_loversOath"
    },
    "pauseMusicEvent": {
        "text": "Pause_ui_musicgame_loversOath"
    },
    "resumeMusicEvent": {
        "text": "Resume_ui_musicgame_loversOath"
    }
}