{
    "crowdSpawnInfos": [
        {
            "crowdTypeID": 136,
            "animConfigID": 1,
            "spawnPosition": {
                "x": -3199.56103515625,
                "y": 260.7821960449219,
                "z": -4470.30810546875
            },
            "spawnFaceFwd": {
                "z": 1.0
            },
            "hairColor": {
                "r": 0.25882354378700256,
                "g": 0.25882354378700256,
                "b": 0.25882354378700256,
                "a": 1.0
            },
            "bodyColors": [
                {
                    "r": 0.9333333373069763,
                    "g": 0.8666666746139526,
                    "b": 0.843137264251709,
                    "a": 1.0
                },
                {
                    "r": 0.5529412031173706,
                    "g": 0.615686297416687,
                    "b": 0.7137255072593689,
                    "a": 1.0
                },
                {
                    "r": 0.250980406999588,
                    "g": 0.2549019753932953,
                    "b": 0.32156863808631897,
                    "a": 1.0
                },
                {
                    "r": 0.5607843399047852,
                    "g": 0.4941176474094391,
                    "b": 0.4313725531101227,
                    "a": 1.0
                }
            ],
            "OLLPOHKGJCA": 30002
        },
        {
            "crowdTypeID": 140,
            "animConfigID": 1,
            "spawnPosition": {
                "x": -3200.52490234375,
                "y": 261.0278015136719,
                "z": -4470.5322265625
            },
            "spawnFaceFwd": {
                "z": 1.0
            },
            "hairColor": {
                "r": 0.3960784375667572,
                "g": 0.27843138575553894,
                "b": 0.1882352977991104,
                "a": 1.0
            },
            "bodyColors": [
                {
                    "r": 0.9333333373069763,
                    "g": 0.8666666746139526,
                    "b": 0.843137264251709,
                    "a": 1.0
                },
                {
                    "r": 0.5372549295425415,
                    "g": 0.364705890417099,
                    "b": 0.34117648005485535,
                    "a": 1.0
                },
                {
                    "r": 0.26274511218070984,
                    "g": 0.2078431397676468,
                    "b": 0.18039216101169586,
                    "a": 1.0
                },
                {
                    "r": 0.41960784792900085,
                    "g": 0.43529412150382996,
                    "b": 0.4941176474094391,
                    "a": 1.0
                }
            ],
            "OLLPOHKGJCA": 30003
        },
        {
            "crowdTypeID": 142,
            "animConfigID": 1,
            "spawnPosition": {
                "x": -3197.75390625,
                "y": 260.29791259765625,
                "z": -4470.4580078125
            },
            "spawnFaceFwd": {
                "z": 1.0
            },
            "hairColor": {
                "r": 0.3960784375667572,
                "g": 0.27843138575553894,
                "b": 0.1882352977991104,
                "a": 1.0
            },
            "bodyColors": [
                {
                    "r": 0.9333333373069763,
                    "g": 0.8666666746139526,
                    "b": 0.843137264251709,
                    "a": 1.0
                },
                {
                    "r": 0.545098066329956,
                    "g": 0.3529411852359772,
                    "b": 0.37254902720451355,
                    "a": 1.0
                },
                {
                    "r": 0.3176470696926117,
                    "g": 0.2666666805744171,
                    "b": 0.23137255012989044,
                    "a": 1.0
                },
                {
                    "r": 0.7411764860153198,
                    "g": 0.686274528503418,
                    "b": 0.615686297416687,
                    "a": 1.0
                }
            ],
            "OLLPOHKGJCA": 30004
        },
        {
            "crowdTypeID": 149,
            "spawnPosition": {
                "x": -3198.77490234375,
                "y": 260.58709716796875,
                "z": -4469.912109375
            },
            "spawnFaceFwd": {
                "z": 1.0
            },
            "hairColor": {
                "r": 0.25882354378700256,
                "g": 0.25882354378700256,
                "b": 0.25882354378700256,
                "a": 1.0
            },
            "bodyColors": [
                {
                    "r": 0.9058823585510254,
                    "g": 0.7882353067398071,
                    "b": 0.7333333492279053,
                    "a": 1.0
                },
                {
                    "r": 0.7450980544090271,
                    "g": 0.6941176652908325,
                    "b": 0.6431372761726379,
                    "a": 1.0
                },
                {
                    "r": 0.34117648005485535,
                    "g": 0.2666666805744171,
                    "b": 0.24705882370471954,
                    "a": 1.0
                },
                {
                    "r": 0.48627451062202454,
                    "g": 0.38823530077934265,
                    "b": 0.3019607961177826,
                    "a": 1.0
                }
            ],
            "OLLPOHKGJCA": 30005
        },
        {
            "crowdTypeID": 149,
            "spawnPosition": {
                "x": -3200.2119140625,
                "y": 260.9378967285156,
                "z": -4469.77001953125
            },
            "spawnFaceFwd": {
                "z": 1.0
            },
            "hairColor": {
                "r": 0.25882354378700256,
                "g": 0.25882354378700256,
                "b": 0.25882354378700256,
                "a": 1.0
            },
            "bodyColors": [
                {
                    "r": 0.9058823585510254,
                    "g": 0.7882353067398071,
                    "b": 0.7333333492279053,
                    "a": 1.0
                },
                {
                    "r": 0.2549019753932953,
                    "g": 0.30980393290519714,
                    "b": 0.3921568691730499,
                    "a": 1.0
                },
                {
                    "r": 0.6313725709915161,
                    "g": 0.6274510025978088,
                    "b": 0.658823549747467,
                    "a": 1.0
                },
                {
                    "r": 0.34117648005485535,
                    "g": 0.3529411852359772,
                    "b": 0.4000000059604645,
                    "a": 1.0
                }
            ],
            "OLLPOHKGJCA": 30006
        },
        {
            "crowdTypeID": 149,
            "spawnPosition": {
                "x": -3196.81396484375,
                "y": 260.05621337890625,
                "z": -4470.4619140625
            },
            "spawnFaceFwd": {
                "z": 1.0
            },
            "hairColor": {
                "r": 0.25882354378700256,
                "g": 0.25882354378700256,
                "b": 0.25882354378700256,
                "a": 1.0
            },
            "bodyColors": [
                {
                    "r": 0.9058823585510254,
                    "g": 0.7882353067398071,
                    "b": 0.7333333492279053,
                    "a": 1.0
                },
                {
                    "r": 0.2549019753932953,
                    "g": 0.30980393290519714,
                    "b": 0.3921568691730499,
                    "a": 1.0
                },
                {
                    "r": 0.6313725709915161,
                    "g": 0.6274510025978088,
                    "b": 0.658823549747467,
                    "a": 1.0
                },
                {
                    "r": 0.34117648005485535,
                    "g": 0.3529411852359772,
                    "b": 0.4000000059604645,
                    "a": 1.0
                }
            ],
            "OLLPOHKGJCA": 30007
        },
        {
            "crowdTypeID": 151,
            "spawnPosition": {
                "x": -3197.68408203125,
                "y": 260.26849365234375,
                "z": -4471.93994140625
            },
            "spawnFaceFwd": {
                "z": 1.0
            },
            "hairColor": {
                "r": 0.25882354378700256,
                "g": 0.25882354378700256,
                "b": 0.25882354378700256,
                "a": 1.0
            },
            "bodyColors": [
                {
                    "r": 0.9058823585510254,
                    "g": 0.7882353067398071,
                    "b": 0.7333333492279053,
                    "a": 1.0
                },
                {
                    "r": 0.4156862795352936,
                    "g": 0.45490196347236633,
                    "b": 0.4745098054409027,
                    "a": 1.0
                },
                {
                    "r": 0.6352941393852234,
                    "g": 0.6117647290229797,
                    "b": 0.5921568870544434,
                    "a": 1.0
                },
                {
                    "r": 0.2980392277240753,
                    "g": 0.27450981736183167,
                    "b": 0.25882354378700256,
                    "a": 1.0
                }
            ],
            "OLLPOHKGJCA": 30008
        },
        {
            "crowdTypeID": 151,
            "spawnPosition": {
                "x": -3201.076904296875,
                "y": 261.1756896972656,
                "z": -4470.90087890625
            },
            "spawnFaceFwd": {
                "z": 1.0
            },
            "hairColor": {
                "r": 0.25882354378700256,
                "g": 0.25882354378700256,
                "b": 0.25882354378700256,
                "a": 1.0
            },
            "bodyColors": [
                {
                    "r": 0.9058823585510254,
                    "g": 0.7882353067398071,
                    "b": 0.7333333492279053,
                    "a": 1.0
                },
                {
                    "r": 0.4156862795352936,
                    "g": 0.45490196347236633,
                    "b": 0.4745098054409027,
                    "a": 1.0
                },
                {
                    "r": 0.6352941393852234,
                    "g": 0.6117647290229797,
                    "b": 0.5921568870544434,
                    "a": 1.0
                },
                {
                    "r": 0.2980392277240753,
                    "g": 0.27450981736183167,
                    "b": 0.25882354378700256,
                    "a": 1.0
                }
            ],
            "OLLPOHKGJCA": 30009
        }
    ]
}