{
    "crowdSpawnInfos": [
        {
            "crowdTypeID": 280,
            "spawnPosition": {
                "x": -483.5790100097656,
                "y": 223.4687957763672,
                "z": 2799.26806640625
            },
            "spawnFaceFwd": {
                "x": -0.9999130368232727,
                "z": -0.013189435005187988
            },
            "hairColor": {
                "r": 0.32156863808631897,
                "g": 0.21568627655506134,
                "b": 0.18039216101169586,
                "a": 1.0
            },
            "bodyColors": [
                {
                    "r": 0.9058823585510254,
                    "g": 0.7882353067398071,
                    "b": 0.7333333492279053,
                    "a": 1.0
                },
                {
                    "r": 0.20392157137393951,
                    "g": 0.27450981736183167,
                    "b": 0.3921568691730499,
                    "a": 1.0
                },
                {
                    "r": 0.4901960790157318,
                    "g": 0.19607843458652496,
                    "b": 0.239215686917305,
                    "a": 1.0
                },
                {
                    "r": 0.8627451062202454,
                    "g": 0.8549019694328308,
                    "b": 0.8039215803146362,
                    "a": 1.0
                }
            ],
            "OLLPOHKGJCA": 30001
        },
        {
            "crowdTypeID": 291,
            "spawnPosition": {
                "x": -487.7408142089844,
                "y": 222.73129272460938,
                "z": 2773.534912109375
            },
            "spawnFaceFwd": {
                "x": -0.9955797791481018,
                "z": -0.09392035007476807
            },
            "hairColor": {
                "r": 0.3960784375667572,
                "g": 0.27843138575553894,
                "b": 0.1882352977991104,
                "a": 1.0
            },
            "bodyColors": [
                {
                    "r": 0.9333333373069763,
                    "g": 0.8666666746139526,
                    "b": 0.843137264251709,
                    "a": 1.0
                },
                {
                    "r": 0.3686274588108063,
                    "g": 0.4588235318660736,
                    "b": 0.3294117748737335,
                    "a": 1.0
                },
                {
                    "r": 0.33725491166114807,
                    "g": 0.3019607961177826,
                    "b": 0.09019608050584793,
                    "a": 1.0
                },
                {
                    "r": 0.729411780834198,
                    "g": 0.7372549176216125,
                    "b": 0.5921568870544434,
                    "a": 1.0
                }
            ],
            "OLLPOHKGJCA": 30003
        },
        {
            "crowdTypeID": 303,
            "spawnPosition": {
                "x": -494.5823059082031,
                "y": 223.50819396972656,
                "z": 2804.31298828125
            },
            "spawnFaceFwd": {
                "x": 0.8414297103881836,
                "z": 0.5403665900230408
            },
            "sitOnChair": true,
            "hairColor": {
                "r": 0.25882354378700256,
                "g": 0.25882354378700256,
                "b": 0.25882354378700256,
                "a": 1.0
            },
            "bodyColors": [
                {
                    "r": 0.9058823585510254,
                    "g": 0.7882353067398071,
                    "b": 0.7333333492279053,
                    "a": 1.0
                },
                {
                    "r": 0.7803921699523926,
                    "g": 0.7215686440467834,
                    "b": 0.6666666865348816,
                    "a": 1.0
                },
                {
                    "r": 0.3490196168422699,
                    "g": 0.25882354378700256,
                    "b": 0.20392157137393951,
                    "a": 1.0
                },
                {
                    "r": 0.572549045085907,
                    "g": 0.4000000059604645,
                    "b": 0.25882354378700256,
                    "a": 1.0
                }
            ],
            "OLLPOHKGJCA": 30006
        },
        {
            "crowdTypeID": 287,
            "spawnPosition": {
                "x": -492.31280517578125,
                "y": 223.4687957763672,
                "z": 2805.47705078125
            },
            "spawnFaceFwd": {
                "x": -0.9397660493850708,
                "z": -0.3418184518814087
            },
            "sitOnChair": true,
            "hairColor": {
                "r": 0.3960784375667572,
                "g": 0.27843138575553894,
                "b": 0.1882352977991104,
                "a": 1.0
            },
            "bodyColors": [
                {
                    "r": 0.9333333373069763,
                    "g": 0.8666666746139526,
                    "b": 0.843137264251709,
                    "a": 1.0
                },
                {
                    "r": 0.38823530077934265,
                    "g": 0.46666666865348816,
                    "b": 0.5490196347236633,
                    "a": 1.0
                },
                {
                    "r": 0.8117647171020508,
                    "g": 0.8078431487083435,
                    "b": 0.7960784435272217,
                    "a": 1.0
                },
                {
                    "r": 0.7098039388656616,
                    "g": 0.5686274766921997,
                    "b": 0.32549020648002625,
                    "a": 1.0
                }
            ],
            "OLLPOHKGJCA": 30007
        },
        {
            "crowdTypeID": 324,
            "spawnPosition": {
                "x": -475.54449462890625,
                "y": 223.4954071044922,
                "z": 2804.7939453125
            },
            "spawnFaceFwd": {
                "x": -0.23770084977149963,
                "z": 0.9713383913040161
            },
            "hairColor": {
                "r": 0.25882354378700256,
                "g": 0.25882354378700256,
                "b": 0.25882354378700256,
                "a": 1.0
            },
            "bodyColors": [
                {
                    "r": 0.9058823585510254,
                    "g": 0.7882353067398071,
                    "b": 0.7333333492279053,
                    "a": 1.0
                },
                {
                    "r": 0.22745098173618317,
                    "g": 0.2862745225429535,
                    "b": 0.3137255012989044,
                    "a": 1.0
                },
                {
                    "r": 0.6196078658103943,
                    "g": 0.5568627715110779,
                    "b": 0.42352941632270813,
                    "a": 1.0
                },
                {
                    "r": 0.8313725590705872,
                    "g": 0.8235294222831726,
                    "b": 0.8078431487083435,
                    "a": 1.0
                }
            ],
            "OLLPOHKGJCA": 30015
        },
        {
            "crowdTypeID": 301,
            "spawnPosition": {
                "x": -477.997802734375,
                "y": 226.5406036376953,
                "z": 2784.593994140625
            },
            "spawnFaceFwd": {
                "x": -0.24655915796756744,
                "z": -0.9691277742385864
            },
            "hairColor": {
                "r": 0.3960784375667572,
                "g": 0.27843138575553894,
                "b": 0.1882352977991104,
                "a": 1.0
            },
            "bodyColors": [
                {
                    "r": 0.9058823585510254,
                    "g": 0.7882353067398071,
                    "b": 0.7333333492279053,
                    "a": 1.0
                },
                {
                    "r": 0.38823530077934265,
                    "g": 0.46666666865348816,
                    "b": 0.5490196347236633,
                    "a": 1.0
                },
                {
                    "r": 0.8117647171020508,
                    "g": 0.8078431487083435,
                    "b": 0.7960784435272217,
                    "a": 1.0
                },
                {
                    "r": 0.7098039388656616,
                    "g": 0.5686274766921997,
                    "b": 0.32549020648002625,
                    "a": 1.0
                }
            ],
            "OLLPOHKGJCA": 30017
        },
        {
            "crowdTypeID": 289,
            "spawnPosition": {
                "x": -478.319091796875,
                "y": 226.5406036376953,
                "z": 2783.568115234375
            },
            "spawnFaceFwd": {
                "x": 0.3210344910621643,
                "z": 0.9470674991607666
            },
            "hairColor": {
                "r": 0.32156863808631897,
                "g": 0.21568627655506134,
                "b": 0.18039216101169586,
                "a": 1.0
            },
            "bodyColors": [
                {
                    "r": 0.9333333373069763,
                    "g": 0.8666666746139526,
                    "b": 0.843137264251709,
                    "a": 1.0
                },
                {
                    "r": 0.6509804129600525,
                    "g": 0.5921568870544434,
                    "b": 0.34117648005485535,
                    "a": 1.0
                },
                {
                    "r": 0.364705890417099,
                    "g": 0.38823530077934265,
                    "b": 0.2666666805744171,
                    "a": 1.0
                },
                {
                    "r": 0.47058823704719543,
                    "g": 0.32156863808631897,
                    "b": 0.239215686917305,
                    "a": 1.0
                }
            ],
            "OLLPOHKGJCA": 30018
        },
        {
            "crowdTypeID": 277,
            "spawnPosition": {
                "x": -489.41900634765625,
                "y": 222.72390747070312,
                "z": 2773.364990234375
            },
            "spawnFaceFwd": {
                "x": 0.7316833138465881,
                "z": 0.6816447377204895
            },
            "hairColor": {
                "r": 0.8392156958580017,
                "g": 0.8392156958580017,
                "b": 0.8392156958580017,
                "a": 1.0
            },
            "bodyColors": [
                {
                    "r": 0.9058823585510254,
                    "g": 0.7882353067398071,
                    "b": 0.7333333492279053,
                    "a": 1.0
                },
                {
                    "r": 0.38823530077934265,
                    "g": 0.46666666865348816,
                    "b": 0.5490196347236633,
                    "a": 1.0
                },
                {
                    "r": 0.8117647171020508,
                    "g": 0.8078431487083435,
                    "b": 0.7960784435272217,
                    "a": 1.0
                },
                {
                    "r": 0.7098039388656616,
                    "g": 0.5686274766921997,
                    "b": 0.32549020648002625,
                    "a": 1.0
                }
            ],
            "OLLPOHKGJCA": 30019
        },
        {
            "crowdTypeID": 299,
            "spawnPosition": {
                "x": -502.19989013671875,
                "y": 222.72369384765625,
                "z": 2754.7099609375
            },
            "spawnFaceFwd": {
                "x": -0.5430497527122498,
                "z": -0.8397005796432495
            },
            "hairColor": {
                "r": 0.25882354378700256,
                "g": 0.25882354378700256,
                "b": 0.25882354378700256,
                "a": 1.0
            },
            "bodyColors": [
                {
                    "r": 0.9058823585510254,
                    "g": 0.7882353067398071,
                    "b": 0.7333333492279053,
                    "a": 1.0
                },
                {
                    "r": 0.22745098173618317,
                    "g": 0.2862745225429535,
                    "b": 0.3137255012989044,
                    "a": 1.0
                },
                {
                    "r": 0.6196078658103943,
                    "g": 0.5568627715110779,
                    "b": 0.42352941632270813,
                    "a": 1.0
                },
                {
                    "r": 0.8313725590705872,
                    "g": 0.8235294222831726,
                    "b": 0.8078431487083435,
                    "a": 1.0
                }
            ],
            "OLLPOHKGJCA": 30020,
            "JMFENODECIO": "Middle"
        },
        {
            "crowdTypeID": 288,
            "spawnPosition": {
                "x": -502.8149108886719,
                "y": 222.7238006591797,
                "z": 2753.806884765625
            },
            "spawnFaceFwd": {
                "x": 0.5662637948989868,
                "z": 0.824224054813385
            },
            "hairColor": {
                "r": 0.3960784375667572,
                "g": 0.27843138575553894,
                "b": 0.1882352977991104,
                "a": 1.0
            },
            "bodyColors": [
                {
                    "r": 0.9333333373069763,
                    "g": 0.8666666746139526,
                    "b": 0.843137264251709,
                    "a": 1.0
                },
                {
                    "r": 0.3686274588108063,
                    "g": 0.4588235318660736,
                    "b": 0.3294117748737335,
                    "a": 1.0
                },
                {
                    "r": 0.33725491166114807,
                    "g": 0.3019607961177826,
                    "b": 0.09019608050584793,
                    "a": 1.0
                },
                {
                    "r": 0.729411780834198,
                    "g": 0.7372549176216125,
                    "b": 0.5921568870544434,
                    "a": 1.0
                }
            ],
            "OLLPOHKGJCA": 30021,
            "JMFENODECIO": "Middle"
        }
    ]
}