{
    "crowdSpawnInfos": [
        {
            "crowdTypeID": 75,
            "animConfigID": 11,
            "spawnPosition": {
                "x": -416.5215148925781,
                "y": 213.36790466308594,
                "z": -1116.0479736328125
            },
            "spawnFaceFwd": {
                "x": 0.9593139886856079,
                "z": -0.2823415994644165
            },
            "hairColor": {
                "r": 0.32156863808631897,
                "g": 0.21568627655506134,
                "b": 0.18039216101169586,
                "a": 1.0
            },
            "bodyColors": [
                {
                    "r": 0.9058823585510254,
                    "g": 0.7882353067398071,
                    "b": 0.7333333492279053,
                    "a": 1.0
                },
                {
                    "r": 0.6470588445663452,
                    "g": 0.6470588445663452,
                    "b": 0.6470588445663452,
                    "a": 1.0
                },
                {
                    "r": 0.2666666805744171,
                    "g": 0.29411765933036804,
                    "b": 0.3019607961177826,
                    "a": 1.0
                },
                {
                    "r": 0.4941176474094391,
                    "g": 0.2980392277240753,
                    "b": 0.2980392277240753,
                    "a": 1.0
                }
            ],
            "OLLPOHKGJCA": 50001
        },
        {
            "crowdTypeID": 77,
            "animConfigID": 4,
            "spawnPosition": {
                "x": -415.45269775390625,
                "y": 213.36790466308594,
                "z": -1115.1419677734375
            },
            "spawnFaceFwd": {
                "x": 0.6059883832931519,
                "z": -0.7954733371734619
            },
            "hairColor": {
                "r": 0.25882354378700256,
                "g": 0.25882354378700256,
                "b": 0.25882354378700256,
                "a": 1.0
            },
            "bodyColors": [
                {
                    "r": 0.9058823585510254,
                    "g": 0.7882353067398071,
                    "b": 0.7333333492279053,
                    "a": 1.0
                },
                {
                    "r": 0.6470588445663452,
                    "g": 0.6470588445663452,
                    "b": 0.6470588445663452,
                    "a": 1.0
                },
                {
                    "r": 0.2666666805744171,
                    "g": 0.29411765933036804,
                    "b": 0.3019607961177826,
                    "a": 1.0
                },
                {
                    "r": 0.4941176474094391,
                    "g": 0.2980392277240753,
                    "b": 0.2980392277240753,
                    "a": 1.0
                }
            ],
            "OLLPOHKGJCA": 50002
        },
        {
            "crowdTypeID": 67,
            "animConfigID": 6,
            "spawnPosition": {
                "x": -414.1014099121094,
                "y": 213.36790466308594,
                "z": -1115.3409423828125
            },
            "spawnFaceFwd": {
                "x": -0.015707172453403473,
                "z": -0.9998767375946045
            },
            "hairColor": {
                "r": 0.32156863808631897,
                "g": 0.21568627655506134,
                "b": 0.18039216101169586,
                "a": 1.0
            },
            "bodyColors": [
                {
                    "r": 0.7921568751335144,
                    "g": 0.6549019813537598,
                    "b": 0.5843137502670288,
                    "a": 1.0
                },
                {
                    "r": 0.6470588445663452,
                    "g": 0.6470588445663452,
                    "b": 0.6470588445663452,
                    "a": 1.0
                },
                {
                    "r": 0.2666666805744171,
                    "g": 0.29411765933036804,
                    "b": 0.3019607961177826,
                    "a": 1.0
                },
                {
                    "r": 0.4941176474094391,
                    "g": 0.2980392277240753,
                    "b": 0.2980392277240753,
                    "a": 1.0
                }
            ],
            "OLLPOHKGJCA": 50003
        }
    ]
}