{
    "crowdSpawnInfos": [
        {
            "crowdTypeID": 207,
            "spawnPosition": {
                "x": -163.66600036621094,
                "y": 260.38531494140625,
                "z": 3314.60595703125
            },
            "spawnFaceFwd": {
                "x": -0.942663848400116,
                "z": 0.3337439298629761
            },
            "bodyColors": [
                {
                    "r": 1.0,
                    "g": 1.0,
                    "b": 1.0,
                    "a": 1.0
                },
                {
                    "r": 0.8705882430076599,
                    "g": 0.9098039269447327,
                    "b": 0.6235294342041016,
                    "a": 1.0
                },
                {
                    "r": 0.6392157077789307,
                    "g": 0.8235294222831726,
                    "b": 0.30588236451148987,
                    "a": 1.0
                },
                {
                    "r": 0.9764705896377563,
                    "g": 0.9803921580314636,
                    "b": 0.9254902005195618,
                    "a": 1.0
                }
            ],
            "PAJIPLJODOA": [
                {
                    "r": 0.43529412150382996,
                    "g": 0.6705882549285889,
                    "b": 0.29019609093666077,
                    "a": 1.0
                },
                {
                    "r": 0.6392157077789307,
                    "g": 0.8235294222831726,
                    "b": 0.30588236451148987,
                    "a": 1.0
                },
                {
                    "r": 0.615686297416687,
                    "g": 0.7529411911964417,
                    "b": 0.4000000059604645,
                    "a": 1.0
                }
            ],
            "HMPLLNNAMEF": [
                {
                    "r": 0.24313725531101227,
                    "g": 0.4627451002597809,
                    "b": 0.3137255012989044,
                    "a": 1.0
                },
                {
                    "r": 0.24313725531101227,
                    "g": 0.4627451002597809,
                    "b": 0.3137255012989044,
                    "a": 1.0
                },
                {
                    "r": 1.0,
                    "g": 1.0,
                    "b": 1.0,
                    "a": 1.0
                }
            ],
            "OLLPOHKGJCA": 460001
        }
    ]
}