{
    "crowdSpawnInfos": [
        {
            "crowdTypeID": 256,
            "animConfigID": 4,
            "spawnPosition": {
                "x": -425.4978942871094,
                "y": 273.1408996582031,
                "z": 2712.589111328125
            },
            "spawnFaceFwd": {
                "x": 0.8119816184043884,
                "z": -0.5836828947067261
            },
            "hairColor": {
                "r": 0.25882354378700256,
                "g": 0.25882354378700256,
                "b": 0.25882354378700256,
                "a": 1.0
            },
            "bodyColors": [
                {
                    "r": 0.9058823585510254,
                    "g": 0.7882353067398071,
                    "b": 0.7333333492279053,
                    "a": 1.0
                },
                {
                    "r": 0.22745098173618317,
                    "g": 0.2862745225429535,
                    "b": 0.3137255012989044,
                    "a": 1.0
                },
                {
                    "r": 0.6196078658103943,
                    "g": 0.5568627715110779,
                    "b": 0.42352941632270813,
                    "a": 1.0
                },
                {
                    "r": 0.8313725590705872,
                    "g": 0.8235294222831726,
                    "b": 0.8078431487083435,
                    "a": 1.0
                }
            ],
            "OLLPOHKGJCA": 200002
        },
        {
            "crowdTypeID": 284,
            "spawnPosition": {
                "x": -417.9082946777344,
                "y": 273.4607849121094,
                "z": 2710.10400390625
            },
            "spawnFaceFwd": {
                "x": -0.3420201539993286,
                "z": -0.939692497253418
            },
            "hairColor": {
                "r": 0.29019609093666077,
                "g": 0.3176470696926117,
                "b": 0.3529411852359772,
                "a": 1.0
            },
            "bodyColors": [
                {
                    "r": 0.9058823585510254,
                    "g": 0.7882353067398071,
                    "b": 0.7333333492279053,
                    "a": 1.0
                },
                {
                    "r": 0.5529412031173706,
                    "g": 0.615686297416687,
                    "b": 0.7137255072593689,
                    "a": 1.0
                },
                {
                    "r": 0.250980406999588,
                    "g": 0.2549019753932953,
                    "b": 0.32156863808631897,
                    "a": 1.0
                },
                {
                    "r": 0.5607843399047852,
                    "g": 0.4941176474094391,
                    "b": 0.4313725531101227,
                    "a": 1.0
                }
            ],
            "OLLPOHKGJCA": 200003
        },
        {
            "crowdTypeID": 261,
            "spawnPosition": {
                "x": -424.8869934082031,
                "y": 273.8140869140625,
                "z": 2714.547119140625
            },
            "spawnFaceFwd": {
                "x": 0.5000000596046448,
                "z": -0.8660253286361694
            },
            "hairColor": {
                "r": 0.3960784375667572,
                "g": 0.27843138575553894,
                "b": 0.1882352977991104,
                "a": 1.0
            },
            "bodyColors": [
                {
                    "r": 0.7921568751335144,
                    "g": 0.6549019813537598,
                    "b": 0.5843137502670288,
                    "a": 1.0
                },
                {
                    "r": 0.5803921818733215,
                    "g": 0.5803921818733215,
                    "b": 0.48627451062202454,
                    "a": 1.0
                },
                {
                    "r": 0.35686275362968445,
                    "g": 0.29411765933036804,
                    "b": 0.239215686917305,
                    "a": 1.0
                },
                {
                    "r": 0.2980392277240753,
                    "g": 0.2823529541492462,
                    "b": 0.27843138575553894,
                    "a": 1.0
                }
            ],
            "OLLPOHKGJCA": 200004,
            "JMFENODECIO": "Middle"
        },
        {
            "crowdTypeID": 305,
            "spawnPosition": {
                "x": -418.3912048339844,
                "y": 273.2857971191406,
                "z": 2711.18701171875
            },
            "spawnFaceFwd": {
                "x": -8.742277657347586e-08,
                "z": -1.0
            },
            "hairColor": {
                "r": 0.3960784375667572,
                "g": 0.27843138575553894,
                "b": 0.1882352977991104,
                "a": 1.0
            },
            "bodyColors": [
                {
                    "r": 0.9058823585510254,
                    "g": 0.7882353067398071,
                    "b": 0.7333333492279053,
                    "a": 1.0
                },
                {
                    "r": 0.6509804129600525,
                    "g": 0.5921568870544434,
                    "b": 0.34117648005485535,
                    "a": 1.0
                },
                {
                    "r": 0.364705890417099,
                    "g": 0.38823530077934265,
                    "b": 0.2666666805744171,
                    "a": 1.0
                },
                {
                    "r": 0.47058823704719543,
                    "g": 0.32156863808631897,
                    "b": 0.239215686917305,
                    "a": 1.0
                }
            ],
            "OLLPOHKGJCA": 200005
        },
        {
            "crowdTypeID": 244,
            "spawnPosition": {
                "x": -424.5495910644531,
                "y": 274.4136962890625,
                "z": 2715.985107421875
            },
            "spawnFaceFwd": {
                "x": 0.7715001702308655,
                "z": -0.6362291574478149
            },
            "hairColor": {
                "r": 0.25882354378700256,
                "g": 0.25882354378700256,
                "b": 0.25882354378700256,
                "a": 1.0
            },
            "bodyColors": [
                {
                    "r": 0.9058823585510254,
                    "g": 0.7882353067398071,
                    "b": 0.7333333492279053,
                    "a": 1.0
                },
                {
                    "r": 0.3686274588108063,
                    "g": 0.4588235318660736,
                    "b": 0.3294117748737335,
                    "a": 1.0
                },
                {
                    "r": 0.33725491166114807,
                    "g": 0.3019607961177826,
                    "b": 0.09019608050584793,
                    "a": 1.0
                },
                {
                    "r": 0.729411780834198,
                    "g": 0.7372549176216125,
                    "b": 0.5921568870544434,
                    "a": 1.0
                }
            ],
            "OLLPOHKGJCA": 200006
        },
        {
            "crowdTypeID": 234,
            "animConfigID": 1,
            "spawnPosition": {
                "x": -424.5433044433594,
                "y": 273.044189453125,
                "z": 2711.2900390625
            },
            "spawnFaceFwd": {
                "x": 0.9848077893257141,
                "z": -0.17364811897277832
            },
            "hairColor": {
                "r": 0.5215686559677124,
                "g": 0.40392157435417175,
                "b": 0.2549019753932953,
                "a": 1.0
            },
            "bodyColors": [
                {
                    "r": 0.9058823585510254,
                    "g": 0.7882353067398071,
                    "b": 0.7333333492279053,
                    "a": 1.0
                },
                {
                    "r": 0.3686274588108063,
                    "g": 0.4588235318660736,
                    "b": 0.3294117748737335,
                    "a": 1.0
                },
                {
                    "r": 0.33725491166114807,
                    "g": 0.3019607961177826,
                    "b": 0.09019608050584793,
                    "a": 1.0
                },
                {
                    "r": 0.729411780834198,
                    "g": 0.7372549176216125,
                    "b": 0.5921568870544434,
                    "a": 1.0
                }
            ],
            "OLLPOHKGJCA": 200007
        },
        {
            "crowdTypeID": 233,
            "animConfigID": 1,
            "spawnPosition": {
                "x": -419.40008544921875,
                "y": 273.044189453125,
                "z": 2710.139892578125
            },
            "spawnFaceFwd": {
                "x": -0.17364822328090668,
                "z": -0.9848078489303589
            },
            "hairColor": {
                "r": 0.3960784375667572,
                "g": 0.27843138575553894,
                "b": 0.1882352977991104,
                "a": 1.0
            },
            "bodyColors": [
                {
                    "r": 0.9333333373069763,
                    "g": 0.8666666746139526,
                    "b": 0.843137264251709,
                    "a": 1.0
                },
                {
                    "r": 0.6509804129600525,
                    "g": 0.5921568870544434,
                    "b": 0.34117648005485535,
                    "a": 1.0
                },
                {
                    "r": 0.364705890417099,
                    "g": 0.38823530077934265,
                    "b": 0.2666666805744171,
                    "a": 1.0
                },
                {
                    "r": 0.47058823704719543,
                    "g": 0.32156863808631897,
                    "b": 0.239215686917305,
                    "a": 1.0
                }
            ],
            "OLLPOHKGJCA": 200008,
            "JMFENODECIO": "Middle"
        },
        {
            "crowdTypeID": 261,
            "spawnPosition": {
                "x": -426.2456970214844,
                "y": 273.044189453125,
                "z": 2712.407958984375
            },
            "spawnFaceFwd": {
                "x": -8.742277657347586e-08,
                "z": -1.0
            },
            "hairColor": {
                "r": 0.5215686559677124,
                "g": 0.40392157435417175,
                "b": 0.2549019753932953,
                "a": 1.0
            },
            "bodyColors": [
                {
                    "r": 0.9058823585510254,
                    "g": 0.7882353067398071,
                    "b": 0.7333333492279053,
                    "a": 1.0
                },
                {
                    "r": 0.5529412031173706,
                    "g": 0.615686297416687,
                    "b": 0.7137255072593689,
                    "a": 1.0
                },
                {
                    "r": 0.250980406999588,
                    "g": 0.2549019753932953,
                    "b": 0.32156863808631897,
                    "a": 1.0
                },
                {
                    "r": 0.5607843399047852,
                    "g": 0.4941176474094391,
                    "b": 0.4313725531101227,
                    "a": 1.0
                }
            ],
            "OLLPOHKGJCA": 200009
        },
        {
            "crowdTypeID": 235,
            "spawnPosition": {
                "x": -423.4678955078125,
                "y": 275.8514099121094,
                "z": 2719.674072265625
            },
            "spawnFaceFwd": {
                "x": 0.5000000596046448,
                "z": -0.8660253286361694
            },
            "hairColor": {
                "r": 0.8392156958580017,
                "g": 0.8392156958580017,
                "b": 0.8392156958580017,
                "a": 1.0
            },
            "bodyColors": [
                {
                    "r": 0.9058823585510254,
                    "g": 0.7882353067398071,
                    "b": 0.7333333492279053,
                    "a": 1.0
                },
                {
                    "r": 0.3686274588108063,
                    "g": 0.4588235318660736,
                    "b": 0.3294117748737335,
                    "a": 1.0
                },
                {
                    "r": 0.33725491166114807,
                    "g": 0.3019607961177826,
                    "b": 0.09019608050584793,
                    "a": 1.0
                },
                {
                    "r": 0.729411780834198,
                    "g": 0.7372549176216125,
                    "b": 0.5921568870544434,
                    "a": 1.0
                }
            ],
            "OLLPOHKGJCA": 200011
        },
        {
            "crowdTypeID": 290,
            "spawnPosition": {
                "x": -417.27630615234375,
                "y": 274.6841125488281,
                "z": 2714.60791015625
            },
            "spawnFaceFwd": {
                "x": -0.3955456018447876,
                "z": -0.9184463024139404
            },
            "hairColor": {
                "r": 0.5215686559677124,
                "g": 0.40392157435417175,
                "b": 0.2549019753932953,
                "a": 1.0
            },
            "bodyColors": [
                {
                    "r": 0.9058823585510254,
                    "g": 0.7882353067398071,
                    "b": 0.7333333492279053,
                    "a": 1.0
                },
                {
                    "r": 0.38823530077934265,
                    "g": 0.46666666865348816,
                    "b": 0.5490196347236633,
                    "a": 1.0
                },
                {
                    "r": 0.8117647171020508,
                    "g": 0.8078431487083435,
                    "b": 0.7960784435272217,
                    "a": 1.0
                },
                {
                    "r": 0.7098039388656616,
                    "g": 0.5686274766921997,
                    "b": 0.32549020648002625,
                    "a": 1.0
                }
            ],
            "OLLPOHKGJCA": 200012
        },
        {
            "crowdTypeID": 302,
            "spawnPosition": {
                "x": -416.61669921875,
                "y": 275.418701171875,
                "z": 2716.452880859375
            },
            "spawnFaceFwd": {
                "x": 0.13900035619735718,
                "z": -0.9902924299240112
            },
            "hairColor": {
                "r": 0.3960784375667572,
                "g": 0.27843138575553894,
                "b": 0.1882352977991104,
                "a": 1.0
            },
            "bodyColors": [
                {
                    "r": 0.9058823585510254,
                    "g": 0.7882353067398071,
                    "b": 0.7333333492279053,
                    "a": 1.0
                },
                {
                    "r": 0.22745098173618317,
                    "g": 0.2862745225429535,
                    "b": 0.3137255012989044,
                    "a": 1.0
                },
                {
                    "r": 0.6196078658103943,
                    "g": 0.5568627715110779,
                    "b": 0.42352941632270813,
                    "a": 1.0
                },
                {
                    "r": 0.8313725590705872,
                    "g": 0.8235294222831726,
                    "b": 0.8078431487083435,
                    "a": 1.0
                }
            ],
            "OLLPOHKGJCA": 200013,
            "JMFENODECIO": "High"
        },
        {
            "crowdTypeID": 293,
            "spawnPosition": {
                "x": -424.3829040527344,
                "y": 273.75469970703125,
                "z": 2714.25
            },
            "spawnFaceFwd": {
                "x": 0.8119620680809021,
                "y": 0.006925351917743683,
                "z": -0.5836686491966248
            },
            "hairColor": {
                "r": 0.4274509847164154,
                "g": 0.37254902720451355,
                "b": 0.3019607961177826,
                "a": 1.0
            },
            "bodyColors": [
                {
                    "r": 0.9333333373069763,
                    "g": 0.8666666746139526,
                    "b": 0.843137264251709,
                    "a": 1.0
                },
                {
                    "r": 0.38823530077934265,
                    "g": 0.46666666865348816,
                    "b": 0.5490196347236633,
                    "a": 1.0
                },
                {
                    "r": 0.8117647171020508,
                    "g": 0.8078431487083435,
                    "b": 0.7960784435272217,
                    "a": 1.0
                },
                {
                    "r": 0.7098039388656616,
                    "g": 0.5686274766921997,
                    "b": 0.32549020648002625,
                    "a": 1.0
                }
            ],
            "OLLPOHKGJCA": 200014,
            "JMFENODECIO": "High"
        }
    ]
}