{
    "crowdSpawnInfos": [
        {
            "crowdTypeID": 127,
            "animConfigID": 1,
            "spawnPosition": {
                "x": -2987.800048828125,
                "y": 220.314697265625,
                "z": -4369.048828125
            },
            "spawnFaceFwd": {
                "x": -0.6871787309646606,
                "z": -0.7264883518218994
            },
            "hairColor": {
                "r": 0.4274509847164154,
                "g": 0.37254902720451355,
                "b": 0.3019607961177826,
                "a": 1.0
            },
            "bodyColors": [
                {
                    "r": 0.9333333373069763,
                    "g": 0.8666666746139526,
                    "b": 0.843137264251709,
                    "a": 1.0
                },
                {
                    "r": 0.7411764860153198,
                    "g": 0.686274528503418,
                    "b": 0.615686297416687,
                    "a": 1.0
                },
                {
                    "r": 0.545098066329956,
                    "g": 0.3529411852359772,
                    "b": 0.37254902720451355,
                    "a": 1.0
                },
                {
                    "r": 0.3176470696926117,
                    "g": 0.2666666805744171,
                    "b": 0.23137255012989044,
                    "a": 1.0
                }
            ],
            "OLLPOHKGJCA": 180001
        },
        {
            "crowdTypeID": 130,
            "spawnPosition": {
                "x": -2988.97900390625,
                "y": 220.31109619140625,
                "z": -4370.30810546875
            },
            "spawnFaceFwd": {
                "x": 0.6997606158256531,
                "z": 0.7143774032592773
            },
            "hairColor": {
                "r": 0.8392156958580017,
                "g": 0.8392156958580017,
                "b": 0.8392156958580017,
                "a": 1.0
            },
            "bodyColors": [
                {
                    "r": 0.9058823585510254,
                    "g": 0.7882353067398071,
                    "b": 0.7333333492279053,
                    "a": 1.0
                },
                {
                    "r": 0.5372549295425415,
                    "g": 0.364705890417099,
                    "b": 0.34117648005485535,
                    "a": 1.0
                },
                {
                    "r": 0.5372549295425415,
                    "g": 0.364705890417099,
                    "b": 0.34117648005485535,
                    "a": 1.0
                },
                {
                    "r": 0.26274511218070984,
                    "g": 0.2078431397676468,
                    "b": 0.18039216101169586,
                    "a": 1.0
                }
            ],
            "OLLPOHKGJCA": 180002
        }
    ]
}