{
    "crowdSpawnInfos": [
        {
            "crowdTypeID": 137,
            "animConfigID": 1,
            "spawnPosition": {
                "x": -3033.35595703125,
                "y": 236.01040649414062,
                "z": -4439.59521484375
            },
            "spawnFaceFwd": {
                "x": -0.9999999403953552,
                "z": 5.960464477539063e-08
            },
            "hairColor": {
                "r": 0.25882354378700256,
                "g": 0.25882354378700256,
                "b": 0.25882354378700256,
                "a": 1.0
            },
            "bodyColors": [
                {
                    "r": 0.9333333373069763,
                    "g": 0.8666666746139526,
                    "b": 0.843137264251709,
                    "a": 1.0
                },
                {
                    "r": 0.545098066329956,
                    "g": 0.3529411852359772,
                    "b": 0.37254902720451355,
                    "a": 1.0
                },
                {
                    "r": 0.7411764860153198,
                    "g": 0.686274528503418,
                    "b": 0.615686297416687,
                    "a": 1.0
                },
                {
                    "r": 0.3176470696926117,
                    "g": 0.2666666805744171,
                    "b": 0.23137255012989044,
                    "a": 1.0
                }
            ],
            "OLLPOHKGJCA": 100001
        },
        {
            "crowdTypeID": 155,
            "animConfigID": 12,
            "spawnPosition": {
                "x": -3024.72802734375,
                "y": 236.01040649414062,
                "z": -4440.2890625
            },
            "spawnFaceFwd": {
                "x": -0.3174881637096405,
                "z": -0.9482622146606445
            },
            "hairColor": {
                "r": 0.29019609093666077,
                "g": 0.3176470696926117,
                "b": 0.3529411852359772,
                "a": 1.0
            },
            "bodyColors": [
                {
                    "r": 0.9058823585510254,
                    "g": 0.7882353067398071,
                    "b": 0.7333333492279053,
                    "a": 1.0
                },
                {
                    "r": 0.35686275362968445,
                    "g": 0.29411765933036804,
                    "b": 0.239215686917305,
                    "a": 1.0
                },
                {
                    "r": 0.5803921818733215,
                    "g": 0.5803921818733215,
                    "b": 0.48627451062202454,
                    "a": 1.0
                },
                {
                    "r": 0.2980392277240753,
                    "g": 0.2823529541492462,
                    "b": 0.27843138575553894,
                    "a": 1.0
                }
            ],
            "OLLPOHKGJCA": 100002
        },
        {
            "crowdTypeID": 127,
            "animConfigID": 1,
            "spawnPosition": {
                "x": -3025.972900390625,
                "y": 236.01040649414062,
                "z": -4440.0419921875
            },
            "spawnFaceFwd": {
                "x": 0.7660444378852844,
                "z": -0.6427876949310303
            },
            "hairColor": {
                "r": 0.25882354378700256,
                "g": 0.25882354378700256,
                "b": 0.25882354378700256,
                "a": 1.0
            },
            "bodyColors": [
                {
                    "r": 0.9333333373069763,
                    "g": 0.8666666746139526,
                    "b": 0.843137264251709,
                    "a": 1.0
                },
                {
                    "r": 0.2980392277240753,
                    "g": 0.2823529541492462,
                    "b": 0.27843138575553894,
                    "a": 1.0
                },
                {
                    "r": 0.5803921818733215,
                    "g": 0.5803921818733215,
                    "b": 0.48627451062202454,
                    "a": 1.0
                },
                {
                    "r": 0.2980392277240753,
                    "g": 0.2823529541492462,
                    "b": 0.27843138575553894,
                    "a": 1.0
                }
            ],
            "OLLPOHKGJCA": 100003
        },
        {
            "crowdTypeID": 142,
            "animConfigID": 1,
            "spawnPosition": {
                "x": -3034.283935546875,
                "y": 236.01040649414062,
                "z": -4439.1259765625
            },
            "spawnFaceFwd": {
                "x": -8.742277657347586e-08,
                "z": -1.0
            },
            "hairColor": {
                "r": 0.25882354378700256,
                "g": 0.25882354378700256,
                "b": 0.25882354378700256,
                "a": 1.0
            },
            "bodyColors": [
                {
                    "r": 0.9058823585510254,
                    "g": 0.7882353067398071,
                    "b": 0.7333333492279053,
                    "a": 1.0
                },
                {
                    "r": 0.7450980544090271,
                    "g": 0.6941176652908325,
                    "b": 0.6431372761726379,
                    "a": 1.0
                },
                {
                    "r": 0.34117648005485535,
                    "g": 0.2666666805744171,
                    "b": 0.24705882370471954,
                    "a": 1.0
                },
                {
                    "r": 0.48627451062202454,
                    "g": 0.38823530077934265,
                    "b": 0.3019607961177826,
                    "a": 1.0
                }
            ],
            "OLLPOHKGJCA": 100004
        }
    ]
}