{
    "crowdSpawnInfos": [
        {
            "crowdTypeID": 203,
            "spawnPosition": {
                "x": -165.99830627441406,
                "y": 242.4925994873047,
                "z": 3662.43603515625
            },
            "spawnFaceFwd": {
                "x": -0.9992580413818359,
                "z": 0.03851515054702759
            },
            "bodyColors": [
                {
                    "r": 1.0,
                    "g": 1.0,
                    "b": 1.0,
                    "a": 1.0
                },
                {
                    "r": 1.0,
                    "g": 0.8156862854957581,
                    "b": 0.6196078658103943,
                    "a": 1.0
                },
                {
                    "r": 0.9137254953384399,
                    "g": 0.6431372761726379,
                    "b": 0.3686274588108063,
                    "a": 1.0
                },
                {
                    "r": 0.9882352948188782,
                    "g": 0.929411768913269,
                    "b": 0.8470588326454163,
                    "a": 1.0
                }
            ],
            "PAJIPLJODOA": [
                {
                    "r": 0.8235294222831726,
                    "g": 0.5215686559677124,
                    "b": 0.3137255012989044,
                    "a": 1.0
                },
                {
                    "r": 0.9137254953384399,
                    "g": 0.6431372761726379,
                    "b": 0.3686274588108063,
                    "a": 1.0
                },
                {
                    "r": 0.8666666746139526,
                    "g": 0.6352941393852234,
                    "b": 0.47843137383461,
                    "a": 1.0
                }
            ],
            "HMPLLNNAMEF": [
                {
                    "r": 0.5490196347236633,
                    "g": 0.5529412031173706,
                    "b": 0.08627451211214066,
                    "a": 1.0
                },
                {
                    "r": 0.5490196347236633,
                    "g": 0.5529412031173706,
                    "b": 0.08627451211214066,
                    "a": 1.0
                },
                {
                    "r": 1.0,
                    "g": 1.0,
                    "b": 1.0,
                    "a": 1.0
                }
            ],
            "OLLPOHKGJCA": 170001
        }
    ]
}