{
    "crowdSpawnInfos": [
        {
            "crowdTypeID": 134,
            "spawnPosition": {
                "x": -2536.576904296875,
                "y": 275.8263854980469,
                "z": -4622.85888671875
            },
            "spawnFaceFwd": {
                "x": -0.829657793045044,
                "z": 0.5582722425460815
            },
            "hairColor": {
                "r": 0.29019609093666077,
                "g": 0.3176470696926117,
                "b": 0.3529411852359772,
                "a": 1.0
            },
            "bodyColors": [
                {
                    "r": 1.0,
                    "g": 1.0,
                    "b": 1.0,
                    "a": 1.0
                },
                {
                    "r": 1.0,
                    "g": 1.0,
                    "b": 1.0,
                    "a": 1.0
                },
                {
                    "r": 1.0,
                    "g": 1.0,
                    "b": 1.0,
                    "a": 1.0
                },
                {
                    "r": 1.0,
                    "g": 1.0,
                    "b": 1.0,
                    "a": 1.0
                }
            ],
            "OLLPOHKGJCA": 30001
        },
        {
            "crowdTypeID": 164,
            "spawnPosition": {
                "x": -2536.25,
                "y": 275.8263854980469,
                "z": -4619.31982421875
            },
            "spawnFaceFwd": {
                "x": -0.9705965518951416,
                "z": -0.24071228504180908
            },
            "hairColor": {
                "r": 0.25882354378700256,
                "g": 0.25882354378700256,
                "b": 0.25882354378700256,
                "a": 1.0
            },
            "bodyColors": [
                {
                    "r": 1.0,
                    "g": 1.0,
                    "b": 1.0,
                    "a": 1.0
                },
                {
                    "r": 1.0,
                    "g": 1.0,
                    "b": 1.0,
                    "a": 1.0
                },
                {
                    "r": 1.0,
                    "g": 1.0,
                    "b": 1.0,
                    "a": 1.0
                },
                {
                    "r": 1.0,
                    "g": 1.0,
                    "b": 1.0,
                    "a": 1.0
                }
            ],
            "OLLPOHKGJCA": 30002
        }
    ]
}