{
    "crowdSpawnInfos": [
        {
            "crowdTypeID": 97,
            "animConfigID": 11,
            "spawnPosition": {
                "x": 2318.3369140625,
                "y": 249.98989868164062,
                "z": -760.9862060546875
            },
            "spawnFaceFwd": {
                "x": -0.8940439820289612,
                "z": -0.447979211807251
            },
            "hairColor": {
                "r": 0.4274509847164154,
                "g": 0.37254902720451355,
                "b": 0.3019607961177826,
                "a": 1.0
            },
            "bodyColors": [
                {
                    "r": 0.7921568751335144,
                    "g": 0.6549019813537598,
                    "b": 0.5843137502670288,
                    "a": 1.0
                },
                {
                    "r": 0.5647059082984924,
                    "g": 0.545098066329956,
                    "b": 0.38823530077934265,
                    "a": 1.0
                },
                {
                    "r": 0.29411765933036804,
                    "g": 0.2666666805744171,
                    "b": 0.2078431397676468,
                    "a": 1.0
                },
                {
                    "r": 0.7568627595901489,
                    "g": 0.7568627595901489,
                    "b": 0.7568627595901489,
                    "a": 1.0
                }
            ],
            "OLLPOHKGJCA": 10001
        },
        {
            "crowdTypeID": 111,
            "spawnPosition": {
                "x": 2314.412109375,
                "y": 249.98989868164062,
                "z": -761.0418090820312
            },
            "spawnFaceFwd": {
                "x": -0.5070798993110657,
                "z": 0.8618990778923035
            },
            "hairColor": {
                "r": 0.4274509847164154,
                "g": 0.37254902720451355,
                "b": 0.3019607961177826,
                "a": 1.0
            },
            "bodyColors": [
                {
                    "r": 0.7921568751335144,
                    "g": 0.6549019813537598,
                    "b": 0.5843137502670288,
                    "a": 1.0
                },
                {
                    "r": 0.4431372582912445,
                    "g": 0.3960784375667572,
                    "b": 0.4941176474094391,
                    "a": 1.0
                },
                {
                    "r": 0.8235294222831726,
                    "g": 0.8235294222831726,
                    "b": 0.8235294222831726,
                    "a": 1.0
                },
                {
                    "r": 0.3686274588108063,
                    "g": 0.24313725531101227,
                    "b": 0.24313725531101227,
                    "a": 1.0
                }
            ],
            "OLLPOHKGJCA": 10002
        },
        {
            "crowdTypeID": 117,
            "spawnPosition": {
                "x": 2316.535888671875,
                "y": 249.98989868164062,
                "z": -762.05029296875
            },
            "spawnFaceFwd": {
                "x": 0.9298291802406311,
                "z": 0.3679913878440857
            },
            "hairColor": {
                "r": 0.5215686559677124,
                "g": 0.40392157435417175,
                "b": 0.2549019753932953,
                "a": 1.0
            },
            "bodyColors": [
                {
                    "r": 0.9058823585510254,
                    "g": 0.7882353067398071,
                    "b": 0.7333333492279053,
                    "a": 1.0
                },
                {
                    "r": 0.42352941632270813,
                    "g": 0.4627451002597809,
                    "b": 0.5647059082984924,
                    "a": 1.0
                },
                {
                    "r": 0.6745098233222961,
                    "g": 0.6666666865348816,
                    "b": 0.6549019813537598,
                    "a": 1.0
                },
                {
                    "r": 0.2980392277240753,
                    "g": 0.27843138575553894,
                    "b": 0.3176470696926117,
                    "a": 1.0
                }
            ],
            "OLLPOHKGJCA": 10003
        },
        {
            "crowdTypeID": 99,
            "animConfigID": 2,
            "spawnPosition": {
                "x": 2313.64892578125,
                "y": 249.98989868164062,
                "z": -759.4716796875
            },
            "spawnFaceFwd": {
                "x": 0.4764593839645386,
                "z": -0.8791965246200562
            },
            "hairColor": {
                "r": 0.3960784375667572,
                "g": 0.27843138575553894,
                "b": 0.1882352977991104,
                "a": 1.0
            },
            "bodyColors": [
                {
                    "r": 0.9333333373069763,
                    "g": 0.8666666746139526,
                    "b": 0.843137264251709,
                    "a": 1.0
                },
                {
                    "r": 0.3333333432674408,
                    "g": 0.364705890417099,
                    "b": 0.43529412150382996,
                    "a": 1.0
                },
                {
                    "r": 0.22745098173618317,
                    "g": 0.2549019753932953,
                    "b": 0.33725491166114807,
                    "a": 1.0
                },
                {
                    "r": 0.6352941393852234,
                    "g": 0.6196078658103943,
                    "b": 0.6549019813537598,
                    "a": 1.0
                }
            ],
            "OLLPOHKGJCA": 10004
        }
    ]
}