{
    "crowdSpawnInfos": [
        {
            "crowdTypeID": 305,
            "spawnPosition": {
                "x": -1942.032958984375,
                "y": 202.3123016357422,
                "z": 2513.60302734375
            },
            "spawnFaceFwd": {
                "x": 0.9996659755706787,
                "z": 0.02584373950958252
            },
            "hairColor": {
                "r": 0.32156863808631897,
                "g": 0.21568627655506134,
                "b": 0.18039216101169586,
                "a": 1.0
            },
            "bodyColors": [
                {
                    "r": 0.9058823585510254,
                    "g": 0.7882353067398071,
                    "b": 0.7333333492279053,
                    "a": 1.0
                },
                {
                    "r": 0.3686274588108063,
                    "g": 0.4588235318660736,
                    "b": 0.3294117748737335,
                    "a": 1.0
                },
                {
                    "r": 0.33725491166114807,
                    "g": 0.3019607961177826,
                    "b": 0.09019608050584793,
                    "a": 1.0
                },
                {
                    "r": 0.729411780834198,
                    "g": 0.7372549176216125,
                    "b": 0.5921568870544434,
                    "a": 1.0
                }
            ],
            "OLLPOHKGJCA": 110001
        },
        {
            "crowdTypeID": 264,
            "spawnPosition": {
                "x": -1940.3690185546875,
                "y": 202.3123016357422,
                "z": 2513.656005859375
            },
            "spawnFaceFwd": {
                "x": -0.9901315569877625,
                "z": -0.14014065265655518
            },
            "hairColor": {
                "r": 0.4274509847164154,
                "g": 0.37254902720451355,
                "b": 0.3019607961177826,
                "a": 1.0
            },
            "bodyColors": [
                {
                    "r": 0.7921568751335144,
                    "g": 0.6549019813537598,
                    "b": 0.5843137502670288,
                    "a": 1.0
                },
                {
                    "r": 0.6509804129600525,
                    "g": 0.5921568870544434,
                    "b": 0.34117648005485535,
                    "a": 1.0
                },
                {
                    "r": 0.364705890417099,
                    "g": 0.38823530077934265,
                    "b": 0.2666666805744171,
                    "a": 1.0
                },
                {
                    "r": 0.47058823704719543,
                    "g": 0.32156863808631897,
                    "b": 0.239215686917305,
                    "a": 1.0
                }
            ],
            "OLLPOHKGJCA": 110002
        },
        {
            "crowdTypeID": 262,
            "animConfigID": 1,
            "spawnPosition": {
                "x": -1864.3370361328125,
                "y": 204.83230590820312,
                "z": 2518.6220703125
            },
            "spawnFaceFwd": {
                "x": -0.46512001752853394,
                "z": 0.8852475881576538
            },
            "hairColor": {
                "r": 0.25882354378700256,
                "g": 0.25882354378700256,
                "b": 0.25882354378700256,
                "a": 1.0
            },
            "bodyColors": [
                {
                    "r": 0.7921568751335144,
                    "g": 0.6549019813537598,
                    "b": 0.5843137502670288,
                    "a": 1.0
                },
                {
                    "r": 0.7803921699523926,
                    "g": 0.7215686440467834,
                    "b": 0.6666666865348816,
                    "a": 1.0
                },
                {
                    "r": 0.3490196168422699,
                    "g": 0.25882354378700256,
                    "b": 0.20392157137393951,
                    "a": 1.0
                },
                {
                    "r": 0.572549045085907,
                    "g": 0.4000000059604645,
                    "b": 0.25882354378700256,
                    "a": 1.0
                }
            ],
            "OLLPOHKGJCA": 110003
        },
        {
            "crowdTypeID": 257,
            "spawnPosition": {
                "x": -1864.76904296875,
                "y": 204.83230590820312,
                "z": 2519.85009765625
            },
            "spawnFaceFwd": {
                "x": 0.2627062499523163,
                "z": -0.9648758172988892
            },
            "hairColor": {
                "r": 0.3960784375667572,
                "g": 0.27843138575553894,
                "b": 0.1882352977991104,
                "a": 1.0
            },
            "bodyColors": [
                {
                    "r": 0.7921568751335144,
                    "g": 0.6549019813537598,
                    "b": 0.5843137502670288,
                    "a": 1.0
                },
                {
                    "r": 0.22745098173618317,
                    "g": 0.2862745225429535,
                    "b": 0.3137255012989044,
                    "a": 1.0
                },
                {
                    "r": 0.6196078658103943,
                    "g": 0.5568627715110779,
                    "b": 0.42352941632270813,
                    "a": 1.0
                },
                {
                    "r": 0.8313725590705872,
                    "g": 0.8235294222831726,
                    "b": 0.8078431487083435,
                    "a": 1.0
                }
            ],
            "OLLPOHKGJCA": 110004
        },
        {
            "crowdTypeID": 262,
            "spawnPosition": {
                "x": -1957.3310546875,
                "y": 201.39019775390625,
                "z": 2508.35302734375
            },
            "spawnFaceFwd": {
                "z": 1.0
            },
            "hairColor": {
                "r": 0.3960784375667572,
                "g": 0.27843138575553894,
                "b": 0.1882352977991104,
                "a": 1.0
            },
            "bodyColors": [
                {
                    "r": 0.7921568751335144,
                    "g": 0.6549019813537598,
                    "b": 0.5843137502670288,
                    "a": 1.0
                },
                {
                    "r": 0.3686274588108063,
                    "g": 0.4588235318660736,
                    "b": 0.3294117748737335,
                    "a": 1.0
                },
                {
                    "r": 0.33725491166114807,
                    "g": 0.3019607961177826,
                    "b": 0.09019608050584793,
                    "a": 1.0
                },
                {
                    "r": 0.729411780834198,
                    "g": 0.7372549176216125,
                    "b": 0.5921568870544434,
                    "a": 1.0
                }
            ],
            "OLLPOHKGJCA": 110005
        },
        {
            "crowdTypeID": 289,
            "spawnPosition": {
                "x": -1923.373046875,
                "y": 203.09970092773438,
                "z": 2501.382080078125
            },
            "spawnFaceFwd": {
                "x": -0.2661501169204712,
                "z": -0.963931679725647
            },
            "hairColor": {
                "r": 0.3960784375667572,
                "g": 0.27843138575553894,
                "b": 0.1882352977991104,
                "a": 1.0
            },
            "bodyColors": [
                {
                    "r": 0.9058823585510254,
                    "g": 0.7882353067398071,
                    "b": 0.7333333492279053,
                    "a": 1.0
                },
                {
                    "r": 0.38823530077934265,
                    "g": 0.46666666865348816,
                    "b": 0.5490196347236633,
                    "a": 1.0
                },
                {
                    "r": 0.8117647171020508,
                    "g": 0.8078431487083435,
                    "b": 0.7960784435272217,
                    "a": 1.0
                },
                {
                    "r": 0.7098039388656616,
                    "g": 0.5686274766921997,
                    "b": 0.32549020648002625,
                    "a": 1.0
                }
            ],
            "OLLPOHKGJCA": 110006
        },
        {
            "crowdTypeID": 257,
            "animConfigID": 1,
            "spawnPosition": {
                "x": -1863.427001953125,
                "y": 201.99229431152344,
                "z": 2540.1689453125
            },
            "spawnFaceFwd": {
                "x": 0.9163334369659424,
                "z": 0.40041619539260864
            },
            "hairColor": {
                "r": 0.3960784375667572,
                "g": 0.27843138575553894,
                "b": 0.1882352977991104,
                "a": 1.0
            },
            "bodyColors": [
                {
                    "r": 0.7921568751335144,
                    "g": 0.6549019813537598,
                    "b": 0.5843137502670288,
                    "a": 1.0
                },
                {
                    "r": 0.3686274588108063,
                    "g": 0.4588235318660736,
                    "b": 0.3294117748737335,
                    "a": 1.0
                },
                {
                    "r": 0.33725491166114807,
                    "g": 0.3019607961177826,
                    "b": 0.09019608050584793,
                    "a": 1.0
                },
                {
                    "r": 0.729411780834198,
                    "g": 0.7372549176216125,
                    "b": 0.5921568870544434,
                    "a": 1.0
                }
            ],
            "OLLPOHKGJCA": 110010
        },
        {
            "crowdTypeID": 253,
            "spawnPosition": {
                "x": -1825.8070068359375,
                "y": 201.3881072998047,
                "z": 2544.306884765625
            },
            "spawnFaceFwd": {
                "x": -0.7977449297904968,
                "z": -0.6029949188232422
            },
            "hairColor": {
                "r": 0.32156863808631897,
                "g": 0.21568627655506134,
                "b": 0.18039216101169586,
                "a": 1.0
            },
            "bodyColors": [
                {
                    "r": 0.7921568751335144,
                    "g": 0.6549019813537598,
                    "b": 0.5843137502670288,
                    "a": 1.0
                },
                {
                    "r": 0.3686274588108063,
                    "g": 0.4588235318660736,
                    "b": 0.3294117748737335,
                    "a": 1.0
                },
                {
                    "r": 0.33725491166114807,
                    "g": 0.3019607961177826,
                    "b": 0.09019608050584793,
                    "a": 1.0
                },
                {
                    "r": 0.729411780834198,
                    "g": 0.7372549176216125,
                    "b": 0.5921568870544434,
                    "a": 1.0
                }
            ],
            "OLLPOHKGJCA": 110011
        },
        {
            "crowdTypeID": 241,
            "animConfigID": 1,
            "spawnPosition": {
                "x": -1826.7900390625,
                "y": 201.40780639648438,
                "z": 2543.655029296875
            },
            "spawnFaceFwd": {
                "x": 0.8810558915138245,
                "z": 0.47301220893859863
            },
            "hairColor": {
                "r": 0.25882354378700256,
                "g": 0.25882354378700256,
                "b": 0.25882354378700256,
                "a": 1.0
            },
            "bodyColors": [
                {
                    "r": 0.9058823585510254,
                    "g": 0.7882353067398071,
                    "b": 0.7333333492279053,
                    "a": 1.0
                },
                {
                    "r": 0.7803921699523926,
                    "g": 0.7215686440467834,
                    "b": 0.6666666865348816,
                    "a": 1.0
                },
                {
                    "r": 0.3490196168422699,
                    "g": 0.25882354378700256,
                    "b": 0.20392157137393951,
                    "a": 1.0
                },
                {
                    "r": 0.572549045085907,
                    "g": 0.4000000059604645,
                    "b": 0.25882354378700256,
                    "a": 1.0
                }
            ],
            "OLLPOHKGJCA": 110012
        },
        {
            "crowdTypeID": 291,
            "spawnPosition": {
                "x": -1827.0009765625,
                "y": 202.92019653320312,
                "z": 2528.443115234375
            },
            "spawnFaceFwd": {
                "x": -0.7706455588340759,
                "z": 0.6372640132904053
            },
            "hairColor": {
                "r": 0.3960784375667572,
                "g": 0.27843138575553894,
                "b": 0.1882352977991104,
                "a": 1.0
            },
            "bodyColors": [
                {
                    "r": 0.9058823585510254,
                    "g": 0.7882353067398071,
                    "b": 0.7333333492279053,
                    "a": 1.0
                },
                {
                    "r": 0.20392157137393951,
                    "g": 0.27450981736183167,
                    "b": 0.3921568691730499,
                    "a": 1.0
                },
                {
                    "r": 0.4901960790157318,
                    "g": 0.19607843458652496,
                    "b": 0.239215686917305,
                    "a": 1.0
                },
                {
                    "r": 0.8627451062202454,
                    "g": 0.8549019694328308,
                    "b": 0.8039215803146362,
                    "a": 1.0
                }
            ],
            "OLLPOHKGJCA": 110013
        },
        {
            "crowdTypeID": 262,
            "spawnPosition": {
                "x": -1828.4739990234375,
                "y": 202.92030334472656,
                "z": 2528.81494140625
            },
            "spawnFaceFwd": {
                "x": 0.9721752405166626,
                "z": -0.23425471782684326
            },
            "hairColor": {
                "r": 0.4274509847164154,
                "g": 0.37254902720451355,
                "b": 0.3019607961177826,
                "a": 1.0
            },
            "bodyColors": [
                {
                    "r": 0.7921568751335144,
                    "g": 0.6549019813537598,
                    "b": 0.5843137502670288,
                    "a": 1.0
                },
                {
                    "r": 0.3686274588108063,
                    "g": 0.4588235318660736,
                    "b": 0.3294117748737335,
                    "a": 1.0
                },
                {
                    "r": 0.33725491166114807,
                    "g": 0.3019607961177826,
                    "b": 0.09019608050584793,
                    "a": 1.0
                },
                {
                    "r": 0.729411780834198,
                    "g": 0.7372549176216125,
                    "b": 0.5921568870544434,
                    "a": 1.0
                }
            ],
            "OLLPOHKGJCA": 110014
        },
        {
            "crowdTypeID": 255,
            "spawnPosition": {
                "x": -1828.0810546875,
                "y": 202.91929626464844,
                "z": 2529.822998046875
            },
            "spawnFaceFwd": {
                "x": 0.6091393232345581,
                "z": -0.7930631637573242
            },
            "hairColor": {
                "r": 0.25882354378700256,
                "g": 0.25882354378700256,
                "b": 0.25882354378700256,
                "a": 1.0
            },
            "bodyColors": [
                {
                    "r": 0.7921568751335144,
                    "g": 0.6549019813537598,
                    "b": 0.5843137502670288,
                    "a": 1.0
                },
                {
                    "r": 0.7803921699523926,
                    "g": 0.7215686440467834,
                    "b": 0.6666666865348816,
                    "a": 1.0
                },
                {
                    "r": 0.3490196168422699,
                    "g": 0.25882354378700256,
                    "b": 0.20392157137393951,
                    "a": 1.0
                },
                {
                    "r": 0.572549045085907,
                    "g": 0.4000000059604645,
                    "b": 0.25882354378700256,
                    "a": 1.0
                }
            ],
            "OLLPOHKGJCA": 110015
        }
    ]
}