{
    "crowdSpawnInfos": [
        {
            "crowdTypeID": 180,
            "spawnPosition": {
                "x": -184.32040405273438,
                "y": 245.79640197753906,
                "z": 3375.195068359375
            },
            "spawnFaceFwd": {
                "x": -0.9199617505073547,
                "z": -0.39200806617736816
            },
            "bodyColors": [
                {
                    "r": 1.0,
                    "g": 1.0,
                    "b": 1.0,
                    "a": 1.0
                },
                {
                    "r": 0.8705882430076599,
                    "g": 0.9098039269447327,
                    "b": 0.6235294342041016,
                    "a": 1.0
                },
                {
                    "r": 0.6392157077789307,
                    "g": 0.8235294222831726,
                    "b": 0.30588236451148987,
                    "a": 1.0
                },
                {
                    "r": 0.9764705896377563,
                    "g": 0.9803921580314636,
                    "b": 0.9254902005195618,
                    "a": 1.0
                }
            ],
            "PAJIPLJODOA": [
                {
                    "r": 0.43529412150382996,
                    "g": 0.6705882549285889,
                    "b": 0.29019609093666077,
                    "a": 1.0
                },
                {
                    "r": 0.6392157077789307,
                    "g": 0.8235294222831726,
                    "b": 0.30588236451148987,
                    "a": 1.0
                },
                {
                    "r": 0.615686297416687,
                    "g": 0.7529411911964417,
                    "b": 0.4000000059604645,
                    "a": 1.0
                }
            ],
            "HMPLLNNAMEF": [
                {
                    "r": 0.5490196347236633,
                    "g": 0.5529412031173706,
                    "b": 0.08627451211214066,
                    "a": 1.0
                },
                {
                    "r": 0.5490196347236633,
                    "g": 0.5529412031173706,
                    "b": 0.08627451211214066,
                    "a": 1.0
                },
                {
                    "r": 1.0,
                    "g": 1.0,
                    "b": 1.0,
                    "a": 1.0
                }
            ],
            "OLLPOHKGJCA": 410001
        }
    ]
}