{
    "crowdSpawnInfos": [
        {
            "crowdTypeID": 285,
            "spawnPosition": {
                "x": -396.0090026855469,
                "y": 266.9674987792969,
                "z": 2708.89404296875
            },
            "spawnFaceFwd": {
                "x": -0.30312326550483704,
                "z": 0.9529513716697693
            },
            "hairColor": {
                "r": 0.5215686559677124,
                "g": 0.40392157435417175,
                "b": 0.2549019753932953,
                "a": 1.0
            },
            "bodyColors": [
                {
                    "r": 1.0,
                    "g": 1.0,
                    "b": 1.0,
                    "a": 1.0
                },
                {
                    "r": 1.0,
                    "g": 1.0,
                    "b": 1.0,
                    "a": 1.0
                },
                {
                    "r": 1.0,
                    "g": 1.0,
                    "b": 1.0,
                    "a": 1.0
                },
                {
                    "r": 1.0,
                    "g": 1.0,
                    "b": 1.0,
                    "a": 1.0
                }
            ],
            "OLLPOHKGJCA": 100001
        },
        {
            "crowdTypeID": 308,
            "spawnPosition": {
                "x": -396.31671142578125,
                "y": 266.6853942871094,
                "z": 2709.841064453125
            },
            "spawnFaceFwd": {
                "x": 0.4001524746417999,
                "z": -0.9164484739303589
            },
            "hairColor": {
                "r": 0.32156863808631897,
                "g": 0.21568627655506134,
                "b": 0.18039216101169586,
                "a": 1.0
            },
            "bodyColors": [
                {
                    "r": 1.0,
                    "g": 1.0,
                    "b": 1.0,
                    "a": 1.0
                },
                {
                    "r": 1.0,
                    "g": 1.0,
                    "b": 1.0,
                    "a": 1.0
                },
                {
                    "r": 1.0,
                    "g": 1.0,
                    "b": 1.0,
                    "a": 1.0
                },
                {
                    "r": 1.0,
                    "g": 1.0,
                    "b": 1.0,
                    "a": 1.0
                }
            ],
            "OLLPOHKGJCA": 100002
        }
    ]
}