{
    "normal": {
        "type": "VIDEO",
        "videoConfig": {
            "heroDiff": true,
            "videoName": "Cs_Inazuma_LQ1203105_YaeMiko_Boy.usm",
            "videoNameOther": "Cs_Inazuma_LQ1203105_YaeMiko_Girl.usm",
            "subtitleId": 300067,
            "subtitleIdOther": 300068,
            "JJKMBKIBEMM": true,
            "bgColor": {
                "a": 1.0
            },
            "fadeInDuration": 0.5,
            "fadeOutDuration": 0.5
        }
    }
}