{
    "normal": {
        "type": "VIDEO",
        "videoConfig": {
            "heroDiff": true,
            "videoName": "Cs_MD_EQ4002802_WinterCampAlbedoConfront.usm",
            "videoNameOther": "Cs_MD_EQ4002802_WinterCampAlbedoConfront.usm",
            "subtitleId": 300060,
            "subtitleIdOther": 300064,
            "JJKMBKIBEMM": true,
            "bgColor": {
                "a": 1.0
            },
            "fadeInDuration": 1.5,
            "fadeOutDuration": 1.0
        }
    }
}