{
    "normal": {
        "type": "VIDEO",
        "videoConfig": {
            "heroDiff": true,
            "videoName": "Cs_Inazuma_EQ400571101_IRODORI.usm",
            "videoNameOther": "Cs_Inazuma_EQ400571101_IRODORI.usm",
            "subtitleId": 300077,
            "subtitleIdOther": 300077,
            "JJKMBKIBEMM": true,
            "bgColor": {
                "a": 1.0
            },
            "fadeInDuration": 1.5,
            "fadeOutDuration": 1.5,
            "MHOLOFEBAEK": 1
        }
    }
}