{
    "normal": {
        "cutsceneConfig": {
            "type": "TIME_LINE_PREFAB",
            "luaDataPath": "",
            "resPath": "ART/Cutscene/Cs_201104_DaoQiDengdao_P1_Convert",
            "castListPath": "Cs_CastList_Q201101",
            "entityBan": "",
            "clearAvatarLocalGadget": true,
            "syncLoad": true,
            "fadeInDuration": 0.0,
            "fadeOutDuration": 2.5
        }
    }
}