{
    "normal": {
        "type": "VIDEO",
        "videoConfig": {
            "heroDiff": true,
            "videoName": "Cs_Sumeru_AQ30221401_DinA.usm",
            "videoNameOther": "Cs_Sumeru_AQ30221401_DinA.usm",
            "subtitleId": 300108,
            "subtitleIdOther": 300108,
            "JJKMBKIBEMM": true,
            "bgColor": {
                "a": 1.0
            },
            "fadeInDuration": 1.0,
            "fadeOutDuration": 1.0
        }
    }
}