{
    "normal": {
        "type": "VIDEO",
        "videoConfig": {
            "heroDiff": true,
            "videoName": "Cs_Sumeru_AQ30061401_ALPlay_Boy.usm",
            "videoNameOther": "Cs_Sumeru_AQ30061401_ALPlay_Girl.usm",
            "subtitleId": 300091,
            "subtitleIdOther": 300092,
            "JJKMBKIBEMM": true,
            "bgColor": {
                "a": 1.0
            },
            "fadeInDuration": 0.5,
            "fadeOutDuration": 0.5
        }
    }
}