{
    "HBPGBNCBOMP": "",
    "KENGMFPNLEP": "",
    "group": [
        [
            {
                "$type": "ConfigBodyLangInterAction",
                "type": "BODY_LANG",
                "delayTime": 1.0,
                "bodyLangParam": 5010
            },
            {
                "$type": "ConfigSteerInterAction",
                "type": "STEER_TO",
                "duration": 1.0,
                "steerType": "TO_LOCAL_AVATAR_ADVANCED",
                "useSteerAnim": true,
                "targetNpcAlias": ""
            },
            {
                "$type": "ConfigCameraMoveInterAction",
                "type": "CAMERA_FOCUS",
                "duration": 1.0,
                "cameraPosType": "RELATIVE_TO_INTER",
                "camPosOffset": {
                    "y": 0.5
                },
                "nearLength": 2.0,
                "camTargetType": "TO_INTEE",
                "camForwardTargetOffset": {
                    "y": 0.5
                },
                "lerpRatio": 5.0,
                "lerpPattern": 6,
                "targetNpcAlias": ""
            }
        ]
    ]
}