{
    "HBPGBNCBOMP": "",
    "isSimpleTalk": true,
    "KENGMFPNLEP": "",
    "disableNpcLod": true,
    "NIHBFFCCJJN": true,
    "startFade": {
        "startFadeOutDuration": 0.0
    },
    "endFade": {
        "startFadeOutDuration": 0.0
    },
    "actors": [
        {
            "alias": "Avatar",
            "visible": true,
            "bornPointName": "",
            "relativePosNpcAlias": ""
        },
        {
            "configID": 20713,
            "alias": "20713",
            "visible": true,
            "bornPointName": "",
            "useRelativePos": true,
            "relativePos": {
                "x": -0.5,
                "z": 0.5
            },
            "relativePosNpcAlias": ""
        }
    ],
    "group": [
        [
            {
                "$type": "ConfigTimeProtectAction",
                "type": "TIME_PROTECT",
                "duration": 0.4000000059604645
            },
            {
                "$type": "ConfigCameraMoveInterAction",
                "type": "CAMERA_FOCUS",
                "delayTime": 0.30000001192092896,
                "duration": 0.10000000149011612,
                "targetNpcAlias": ""
            }
        ],
        [
            {
                "$type": "ConfigDialogInterAction",
                "type": "DIALOG",
                "aliasList": [
                    "20713"
                ],
                "dialogID": 730491701,
                "protectTime": 0.5
            },
            {
                "$type": "ConfigDialogSelectAction",
                "type": "DIALOG_SELECT",
                "delayTime": 0.4000000059604645,
                "aliasList": [
                    "Avatar"
                ],
                "dialogIDList": [
                    730491702,
                    730491703
                ],
                "grpIDList": [
                    3407225802,
                    3407225807
                ],
                "useGrpId": true
            }
        ],
        [
            {
                "$type": "ConfigDialogInterAction",
                "type": "DIALOG",
                "aliasList": [
                    "20713"
                ],
                "dialogID": 730491704,
                "protectTime": 0.5
            }
        ],
        [
            {
                "$type": "ConfigDialogInterAction",
                "type": "DIALOG",
                "aliasList": [
                    "20713"
                ],
                "dialogID": 730491705,
                "protectTime": 0.5
            },
            {
                "$type": "ConfigDialogSelectAction",
                "type": "DIALOG_SELECT",
                "delayTime": 0.4000000059604645,
                "aliasList": [
                    "Avatar"
                ],
                "dialogIDList": [
                    730491706,
                    730491707
                ],
                "grpIDList": [
                    3407225804,
                    3407225807
                ],
                "useGrpId": true
            }
        ],
        [
            {
                "$type": "ConfigDialogInterAction",
                "type": "DIALOG",
                "aliasList": [
                    "20713"
                ],
                "dialogID": 730491708,
                "protectTime": 0.5
            }
        ],
        [
            {
                "$type": "ConfigDialogInterAction",
                "type": "DIALOG",
                "aliasList": [
                    "20713"
                ],
                "dialogID": 730491709,
                "protectTime": 0.5
            },
            {
                "$type": "ConfigDialogSelectAction",
                "type": "DIALOG_SELECT",
                "delayTime": 0.4000000059604645,
                "aliasList": [
                    "Avatar"
                ],
                "dialogIDList": [
                    730491710,
                    730491711
                ],
                "grpIDList": [
                    3407225806,
                    3407225807
                ],
                "useGrpId": true
            }
        ],
        [
            {
                "$type": "ConfigDialogInterAction",
                "type": "DIALOG",
                "aliasList": [
                    "20713"
                ],
                "dialogID": 730491712,
                "protectTime": 0.5
            }
        ],
        [
            {
                "$type": "ConfigDialogInterAction",
                "type": "DIALOG",
                "aliasList": [
                    "20713"
                ],
                "dialogID": 730491713,
                "protectTime": 0.5
            }
        ],
        [
            {
                "$type": "ConfigTimeProtectAction",
                "type": "TIME_PROTECT",
                "duration": 0.10000000149011612
            }
        ],
        [
            {
                "$type": "ConfigTimeProtectAction",
                "type": "TIME_PROTECT",
                "duration": 0.10000000149011612
            }
        ]
    ],
    "groupId": [
        {
            "grpId": 3407225800,
            "nextGrpId": 3407225801
        },
        {
            "index": 1,
            "grpId": 3407225801,
            "nextGrpId": 3407225802
        },
        {
            "index": 2,
            "grpId": 3407225802,
            "nextGrpId": 3407225803
        },
        {
            "index": 3,
            "grpId": 3407225803,
            "nextGrpId": 3407225804
        },
        {
            "index": 4,
            "grpId": 3407225804,
            "nextGrpId": 3407225805
        },
        {
            "index": 5,
            "grpId": 3407225805,
            "nextGrpId": 3407225806
        },
        {
            "index": 6,
            "grpId": 3407225806,
            "nextGrpId": 3407225808
        },
        {
            "index": 7,
            "grpId": 3407225807,
            "nextGrpId": 3407225808
        },
        {
            "index": 8,
            "grpId": 3407225808,
            "nextGrpId": 2544784744
        },
        {
            "index": 9,
            "grpId": 2544784744,
            "nextGrpId": 2544784745
        }
    ],
    "freeStyleDic": {
        "20713": []
    }
}