{
    "HBPGBNCBOMP": "",
    "isSimpleTalk": true,
    "KENGMFPNLEP": "",
    "disableNpcLod": true,
    "AGMGHOIPEIH": true,
    "startFade": {
        "startFadeOutDuration": 0.0
    },
    "endFade": {
        "startFadeOutDuration": 0.0
    },
    "actors": [
        {
            "alias": "Avatar",
            "visible": true,
            "bornPointName": "",
            "relativePosType": "AVATAR_NEW",
            "relativePosNpcAlias": ""
        },
        {
            "configID": 4235,
            "alias": "4235",
            "visible": true,
            "bornPointName": "",
            "forceCreateDaily": true,
            "relativePosType": "AVATAR_NEW",
            "relativePosNpcAlias": ""
        },
        {
            "configID": 1005,
            "alias": "1005",
            "visible": true,
            "bornPointName": "",
            "relativePosType": "AVATAR_NEW",
            "relativePosNpcAlias": ""
        },
        {
            "configID": 4232,
            "alias": "4232",
            "visible": true,
            "bornPointName": "",
            "forceCreateDaily": true,
            "relativePosType": "AVATAR_NEW",
            "relativePosNpcAlias": ""
        }
    ],
    "group": [
        [
            {
                "$type": "ConfigCameraMoveInterAction",
                "type": "CAMERA_FOCUS",
                "duration": 0.10000000149011612,
                "targetNpcAlias": ""
            },
            {
                "$type": "ConfigTimeProtectAction",
                "type": "TIME_PROTECT",
                "duration": 0.10000000149011612
            },
            {
                "$type": "ConfigSteerInterAction",
                "type": "STEER_TO",
                "delayTime": 0.30000001192092896,
                "duration": 0.800000011920929,
                "aliasList": [
                    "Avatar"
                ],
                "steerType": "TO_TARGET_ADVANCED",
                "useSteerAnim": true,
                "interruptFreestyle": true,
                "forceSteer": true,
                "targetNpcAlias": "4235"
            },
            {
                "$type": "ConfigSteerInterAction",
                "type": "STEER_TO",
                "delayTime": 0.30000001192092896,
                "duration": 0.800000011920929,
                "aliasList": [
                    "4235"
                ],
                "steerType": "TO_LOCAL_AVATAR_ADVANCED",
                "useSteerAnim": true,
                "interruptFreestyle": true,
                "forceSteer": true,
                "targetNpcAlias": ""
            },
            {
                "$type": "ConfigSteerInterAction",
                "type": "STEER_TO",
                "delayTime": 0.30000001192092896,
                "duration": 0.800000011920929,
                "aliasList": [
                    "4232"
                ],
                "steerType": "TO_LOCAL_AVATAR_ADVANCED",
                "useSteerAnim": true,
                "interruptFreestyle": true,
                "forceSteer": true,
                "targetNpcAlias": ""
            }
        ],
        [
            {
                "$type": "ConfigDialogInterAction",
                "type": "DIALOG",
                "aliasList": [
                    "4235"
                ],
                "dialogID": 731930101,
                "protectTime": 0.5
            }
        ],
        [
            {
                "$type": "ConfigDialogInterAction",
                "type": "DIALOG",
                "aliasList": [
                    "4235"
                ],
                "dialogID": 731930102,
                "protectTime": 0.5
            }
        ],
        [
            {
                "$type": "ConfigDialogInterAction",
                "type": "DIALOG",
                "aliasList": [
                    "4235"
                ],
                "dialogID": 731930103,
                "protectTime": 0.5
            }
        ],
        [
            {
                "$type": "ConfigDialogInterAction",
                "type": "DIALOG",
                "aliasList": [
                    "1005"
                ],
                "dialogID": 731930104,
                "protectTime": 0.5
            }
        ],
        [
            {
                "$type": "ConfigDialogInterAction",
                "type": "DIALOG",
                "aliasList": [
                    "1005"
                ],
                "dialogID": 731930105,
                "protectTime": 0.5
            }
        ],
        [
            {
                "$type": "ConfigDialogInterAction",
                "type": "DIALOG",
                "aliasList": [
                    "4232"
                ],
                "dialogID": 731930106,
                "protectTime": 0.5
            },
            {
                "$type": "ConfigDialogSelectAction",
                "type": "DIALOG_SELECT",
                "delayTime": 0.4000000059604645,
                "aliasList": [
                    "Avatar"
                ],
                "dialogIDList": [
                    731930107,
                    731930110
                ],
                "grpIDList": [
                    137331264,
                    137331265
                ],
                "useGrpId": true
            }
        ],
        [
            {
                "$type": "ConfigDialogInterAction",
                "type": "DIALOG",
                "aliasList": [
                    "4232"
                ],
                "dialogID": 731930108,
                "protectTime": 0.5
            }
        ],
        [
            {
                "$type": "ConfigDialogInterAction",
                "type": "DIALOG",
                "aliasList": [
                    "4232"
                ],
                "dialogID": 731930111,
                "protectTime": 0.5
            }
        ],
        [
            {
                "$type": "ConfigDialogInterAction",
                "type": "DIALOG",
                "aliasList": [
                    "1005"
                ],
                "dialogID": 731930112,
                "protectTime": 0.5
            }
        ],
        [
            {
                "$type": "ConfigDialogInterAction",
                "type": "DIALOG",
                "aliasList": [
                    "1005"
                ],
                "dialogID": 731930113,
                "protectTime": 0.5
            }
        ],
        [
            {
                "$type": "ConfigDialogInterAction",
                "type": "DIALOG",
                "aliasList": [
                    "4232"
                ],
                "dialogID": 731930114,
                "protectTime": 0.5
            }
        ],
        [
            {
                "$type": "ConfigDialogInterAction",
                "type": "DIALOG",
                "aliasList": [
                    "1005"
                ],
                "dialogID": 731930115,
                "protectTime": 0.5
            }
        ],
        [
            {
                "$type": "ConfigDialogInterAction",
                "type": "DIALOG",
                "aliasList": [
                    "4232"
                ],
                "dialogID": 731930116,
                "protectTime": 0.5
            }
        ],
        [
            {
                "$type": "ConfigDialogInterAction",
                "type": "DIALOG",
                "aliasList": [
                    "4232"
                ],
                "dialogID": 731930117,
                "protectTime": 0.5
            }
        ],
        [
            {
                "$type": "ConfigDialogInterAction",
                "type": "DIALOG",
                "aliasList": [
                    "4232"
                ],
                "dialogID": 731930118,
                "protectTime": 0.5
            }
        ],
        [
            {
                "$type": "ConfigDialogInterAction",
                "type": "DIALOG",
                "aliasList": [
                    "4232"
                ],
                "dialogID": 731930119,
                "protectTime": 0.5
            },
            {
                "$type": "ConfigDialogSelectAction",
                "type": "DIALOG_SELECT",
                "delayTime": 0.4000000059604645,
                "aliasList": [
                    "Avatar"
                ],
                "dialogIDList": [
                    731930120
                ],
                "grpIDList": [
                    4257269023
                ],
                "useGrpId": true
            }
        ],
        [
            {
                "$type": "ConfigDialogInterAction",
                "type": "DIALOG",
                "aliasList": [
                    "4232"
                ],
                "dialogID": 731930122,
                "protectTime": 0.5
            }
        ],
        [
            {
                "$type": "ConfigDialogInterAction",
                "type": "DIALOG",
                "aliasList": [
                    "1005"
                ],
                "dialogID": 731930123,
                "protectTime": 0.5
            }
        ],
        [
            {
                "$type": "ConfigDialogInterAction",
                "type": "DIALOG",
                "aliasList": [
                    "4232"
                ],
                "dialogID": 731930124,
                "protectTime": 0.5
            }
        ],
        [
            {
                "$type": "ConfigDialogInterAction",
                "type": "DIALOG",
                "aliasList": [
                    "1005"
                ],
                "dialogID": 731930125,
                "protectTime": 0.5
            }
        ],
        [
            {
                "$type": "ConfigDialogInterAction",
                "type": "DIALOG",
                "aliasList": [
                    "4232"
                ],
                "dialogID": 731930126,
                "protectTime": 0.5
            }
        ],
        [
            {
                "$type": "ConfigDialogInterAction",
                "type": "DIALOG",
                "aliasList": [
                    "4232"
                ],
                "dialogID": 731930127,
                "protectTime": 0.5
            }
        ],
        [
            {
                "$type": "ConfigDialogInterAction",
                "type": "DIALOG",
                "aliasList": [
                    "4232"
                ],
                "dialogID": 731930128,
                "protectTime": 0.5
            }
        ],
        [
            {
                "$type": "ConfigDialogInterAction",
                "type": "DIALOG",
                "aliasList": [
                    "4232"
                ],
                "dialogID": 731930129,
                "protectTime": 0.5
            }
        ],
        [
            {
                "$type": "ConfigDialogInterAction",
                "type": "DIALOG",
                "aliasList": [
                    "4232"
                ],
                "dialogID": 731930130,
                "protectTime": 0.5
            }
        ],
        [
            {
                "$type": "ConfigDialogInterAction",
                "type": "DIALOG",
                "aliasList": [
                    "4232"
                ],
                "dialogID": 731930131,
                "protectTime": 0.5
            }
        ],
        [
            {
                "$type": "ConfigDialogInterAction",
                "type": "DIALOG",
                "aliasList": [
                    "4232"
                ],
                "dialogID": 731930132,
                "protectTime": 0.5
            }
        ],
        [
            {
                "$type": "ConfigDialogInterAction",
                "type": "DIALOG",
                "aliasList": [
                    "1005"
                ],
                "dialogID": 731930133,
                "protectTime": 0.5
            }
        ],
        [
            {
                "$type": "ConfigDialogInterAction",
                "type": "DIALOG",
                "aliasList": [
                    "1005"
                ],
                "dialogID": 731930134,
                "protectTime": 0.5
            }
        ],
        [
            {
                "$type": "ConfigDialogInterAction",
                "type": "DIALOG",
                "aliasList": [
                    "4232"
                ],
                "dialogID": 731930135,
                "protectTime": 0.5
            }
        ],
        [
            {
                "$type": "ConfigDialogInterAction",
                "type": "DIALOG",
                "aliasList": [
                    "1005"
                ],
                "dialogID": 731930136,
                "protectTime": 0.5
            }
        ],
        [
            {
                "$type": "ConfigDialogInterAction",
                "type": "DIALOG",
                "aliasList": [
                    "1005"
                ],
                "dialogID": 731930137,
                "protectTime": 0.5
            },
            {
                "$type": "ConfigDialogSelectAction",
                "type": "DIALOG_SELECT",
                "delayTime": 0.4000000059604645,
                "aliasList": [
                    "Avatar"
                ],
                "dialogIDList": [
                    731930138
                ],
                "grpIDList": [
                    4257269081
                ],
                "useGrpId": true
            }
        ],
        [
            {
                "$type": "ConfigDialogInterAction",
                "type": "DIALOG",
                "aliasList": [
                    "4232"
                ],
                "dialogID": 731930140,
                "protectTime": 0.5
            }
        ],
        [
            {
                "$type": "ConfigDialogInterAction",
                "type": "DIALOG",
                "aliasList": [
                    "1005"
                ],
                "dialogID": 731930141,
                "protectTime": 0.5
            },
            {
                "$type": "ConfigDialogSelectAction",
                "type": "DIALOG_SELECT",
                "delayTime": 0.4000000059604645,
                "aliasList": [
                    "Avatar"
                ],
                "dialogIDList": [
                    731930142
                ],
                "grpIDList": [
                    4257269083
                ],
                "useGrpId": true
            }
        ],
        [
            {
                "$type": "ConfigDialogInterAction",
                "type": "DIALOG",
                "aliasList": [
                    "4232"
                ],
                "dialogID": 731930143,
                "protectTime": 0.5
            }
        ],
        [
            {
                "$type": "ConfigDialogInterAction",
                "type": "DIALOG",
                "aliasList": [
                    "4232"
                ],
                "dialogID": 731930144,
                "protectTime": 0.5
            }
        ],
        [
            {
                "$type": "ConfigDialogInterAction",
                "type": "DIALOG",
                "aliasList": [
                    "4232"
                ],
                "dialogID": 731930145,
                "protectTime": 0.5
            }
        ],
        [
            {
                "$type": "ConfigDialogInterAction",
                "type": "DIALOG",
                "aliasList": [
                    "4232"
                ],
                "dialogID": 731930146,
                "protectTime": 0.5
            },
            {
                "$type": "ConfigDialogSelectAction",
                "type": "DIALOG_SELECT",
                "delayTime": 0.4000000059604645,
                "aliasList": [
                    "Avatar"
                ],
                "dialogIDList": [
                    731930147
                ],
                "grpIDList": [
                    4257269108
                ],
                "useGrpId": true
            }
        ],
        [
            {
                "$type": "ConfigDialogInterAction",
                "type": "DIALOG",
                "aliasList": [
                    "4232"
                ],
                "dialogID": 731930148,
                "protectTime": 0.5
            }
        ],
        [
            {
                "$type": "ConfigDialogInterAction",
                "type": "DIALOG",
                "aliasList": [
                    "4232"
                ],
                "dialogID": 731930149,
                "protectTime": 0.5
            }
        ],
        [
            {
                "$type": "ConfigDialogInterAction",
                "type": "DIALOG",
                "aliasList": [
                    "1005"
                ],
                "dialogID": 731930150,
                "protectTime": 0.5
            }
        ],
        [
            {
                "$type": "ConfigTimeProtectAction",
                "type": "TIME_PROTECT",
                "duration": 0.10000000149011612
            }
        ]
    ],
    "groupId": [
        {
            "grpId": 137331257,
            "nextGrpId": 137331258
        },
        {
            "index": 1,
            "grpId": 137331258,
            "nextGrpId": 137331259
        },
        {
            "index": 2,
            "grpId": 137331259,
            "nextGrpId": 137331260
        },
        {
            "index": 3,
            "grpId": 137331260,
            "nextGrpId": 137331261
        },
        {
            "index": 4,
            "grpId": 137331261,
            "nextGrpId": 137331262
        },
        {
            "index": 5,
            "grpId": 137331262,
            "nextGrpId": 137331263
        },
        {
            "index": 6,
            "grpId": 137331263,
            "nextGrpId": 137331264
        },
        {
            "index": 7,
            "grpId": 137331264,
            "nextGrpId": 137331265
        },
        {
            "index": 8,
            "grpId": 137331265,
            "nextGrpId": 4257269015
        },
        {
            "index": 9,
            "grpId": 4257269015,
            "nextGrpId": 4257269016
        },
        {
            "index": 10,
            "grpId": 4257269016,
            "nextGrpId": 4257269017
        },
        {
            "index": 11,
            "grpId": 4257269017,
            "nextGrpId": 4257269018
        },
        {
            "index": 12,
            "grpId": 4257269018,
            "nextGrpId": 4257269019
        },
        {
            "index": 13,
            "grpId": 4257269019,
            "nextGrpId": 4257269020
        },
        {
            "index": 14,
            "grpId": 4257269020,
            "nextGrpId": 4257269021
        },
        {
            "index": 15,
            "grpId": 4257269021,
            "nextGrpId": 4257269022
        },
        {
            "index": 16,
            "grpId": 4257269022,
            "nextGrpId": 4257269023
        },
        {
            "index": 17,
            "grpId": 4257269023,
            "nextGrpId": 4257269024
        },
        {
            "index": 18,
            "grpId": 4257269024,
            "nextGrpId": 4257269046
        },
        {
            "index": 19,
            "grpId": 4257269046,
            "nextGrpId": 4257269047
        },
        {
            "index": 20,
            "grpId": 4257269047,
            "nextGrpId": 4257269048
        },
        {
            "index": 21,
            "grpId": 4257269048,
            "nextGrpId": 4257269049
        },
        {
            "index": 22,
            "grpId": 4257269049,
            "nextGrpId": 4257269050
        },
        {
            "index": 23,
            "grpId": 4257269050,
            "nextGrpId": 4257269051
        },
        {
            "index": 24,
            "grpId": 4257269051,
            "nextGrpId": 4257269052
        },
        {
            "index": 25,
            "grpId": 4257269052,
            "nextGrpId": 4257269053
        },
        {
            "index": 26,
            "grpId": 4257269053,
            "nextGrpId": 4257269054
        },
        {
            "index": 27,
            "grpId": 4257269054,
            "nextGrpId": 4257269055
        },
        {
            "index": 28,
            "grpId": 4257269055,
            "nextGrpId": 4257269077
        },
        {
            "index": 29,
            "grpId": 4257269077,
            "nextGrpId": 4257269078
        },
        {
            "index": 30,
            "grpId": 4257269078,
            "nextGrpId": 4257269079
        },
        {
            "index": 31,
            "grpId": 4257269079,
            "nextGrpId": 4257269080
        },
        {
            "index": 32,
            "grpId": 4257269080,
            "nextGrpId": 4257269081
        },
        {
            "index": 33,
            "grpId": 4257269081,
            "nextGrpId": 4257269082
        },
        {
            "index": 34,
            "grpId": 4257269082,
            "nextGrpId": 4257269083
        },
        {
            "index": 35,
            "grpId": 4257269083,
            "nextGrpId": 4257269084
        },
        {
            "index": 36,
            "grpId": 4257269084,
            "nextGrpId": 4257269085
        },
        {
            "index": 37,
            "grpId": 4257269085,
            "nextGrpId": 4257269086
        },
        {
            "index": 38,
            "grpId": 4257269086,
            "nextGrpId": 4257269108
        },
        {
            "index": 39,
            "grpId": 4257269108,
            "nextGrpId": 4257269109
        },
        {
            "index": 40,
            "grpId": 4257269109,
            "nextGrpId": 4257269110
        },
        {
            "index": 41,
            "grpId": 4257269110,
            "nextGrpId": 4257269111
        },
        {
            "index": 42,
            "grpId": 4257269111,
            "nextGrpId": 4257269112
        }
    ],
    "freeStyleDic": {
        "4235": [],
        "4232": []
    }
}