{
    "HBPGBNCBOMP": "",
    "startBlackKeepTime": 0.5,
    "KENGMFPNLEP": "",
    "disableNpcLod": true,
    "NIHBFFCCJJN": true,
    "MCGPBLEHELN": true,
    "AGMGHOIPEIH": true,
    "startFade": {
        "startFadeInDuration": 0.5,
        "startFadeOutDuration": 0.5
    },
    "endFade": {
        "startFadeOutDuration": 0.0
    },
    "actors": [
        {
            "alias": "Avatar",
            "visible": true,
            "bornPointName": "Q3007Day1EscapePlayer",
            "relativePosNpcAlias": ""
        },
        {
            "configID": 1052,
            "alias": "1052",
            "visible": true,
            "bornPointName": "Q3007Day1EscapeDicia",
            "relativePosNpcAlias": ""
        },
        {
            "configID": 1005,
            "alias": "1005",
            "visible": true,
            "bornPointName": "Q3007Day1EscapePaimon",
            "removeActorType": "REMOVE_WITH_DISAPPEAR",
            "relativePosNpcAlias": ""
        },
        {
            "configID": 12555,
            "alias": "12555",
            "visible": true,
            "bornPointName": "Q3007Day1EscapeDina",
            "removeActorType": "REMOVE",
            "relativePosNpcAlias": ""
        }
    ],
    "group": [
        [
            {
                "$type": "ConfigTimeProtectAction",
                "type": "TIME_PROTECT",
                "duration": 0.10000000149011612
            }
        ],
        [
            {
                "$type": "ConfigDialogInterAction",
                "type": "DIALOG",
                "aliasList": [
                    "1052"
                ],
                "dialogID": 30110201,
                "protectTime": 0.5
            }
        ],
        [
            {
                "$type": "ConfigDialogInterAction",
                "type": "DIALOG",
                "aliasList": [
                    "1005"
                ],
                "dialogID": 30110202,
                "protectTime": 0.5
            }
        ],
        [
            {
                "$type": "ConfigDialogInterAction",
                "type": "DIALOG",
                "aliasList": [
                    "1052"
                ],
                "dialogID": 30110203,
                "protectTime": 0.5
            }
        ],
        [
            {
                "$type": "ConfigDialogInterAction",
                "type": "DIALOG",
                "aliasList": [
                    "1005"
                ],
                "dialogID": 30110204,
                "protectTime": 0.5
            }
        ],
        [
            {
                "$type": "ConfigDialogInterAction",
                "type": "DIALOG",
                "aliasList": [
                    "1052"
                ],
                "dialogID": 30110205,
                "protectTime": 0.5
            }
        ],
        [
            {
                "$type": "ConfigDialogInterAction",
                "type": "DIALOG",
                "aliasList": [
                    "1005"
                ],
                "dialogID": 30110206,
                "protectTime": 0.5
            },
            {
                "$type": "ConfigDialogSelectAction",
                "type": "DIALOG_SELECT",
                "delayTime": 0.4000000059604645,
                "aliasList": [
                    "Avatar"
                ],
                "dialogIDList": [
                    30110207,
                    30110208
                ],
                "grpIDList": [
                    61516673,
                    61516673
                ],
                "useGrpId": true
            }
        ],
        [
            {
                "$type": "ConfigDialogInterAction",
                "type": "DIALOG",
                "aliasList": [
                    "1005"
                ],
                "dialogID": 30110209,
                "protectTime": 0.5
            },
            {
                "$type": "ConfigDialogSelectAction",
                "type": "DIALOG_SELECT",
                "delayTime": 0.4000000059604645,
                "aliasList": [
                    "Avatar"
                ],
                "dialogIDList": [
                    30110210
                ],
                "grpIDList": [
                    61516674
                ],
                "useGrpId": true
            }
        ],
        [
            {
                "$type": "ConfigDialogSelectAction",
                "type": "DIALOG_SELECT",
                "delayTime": 0.4000000059604645,
                "aliasList": [
                    "Avatar"
                ],
                "dialogIDList": [
                    30110211,
                    30110212
                ],
                "grpIDList": [
                    1907016694,
                    1907016694
                ],
                "useGrpId": true
            }
        ],
        [
            {
                "$type": "ConfigDialogInterAction",
                "type": "DIALOG",
                "aliasList": [
                    "1052"
                ],
                "dialogID": 30110213,
                "protectTime": 0.5
            }
        ],
        [
            {
                "$type": "ConfigDialogInterAction",
                "type": "DIALOG",
                "aliasList": [
                    "1005"
                ],
                "dialogID": 30110214,
                "protectTime": 0.5
            }
        ],
        [
            {
                "$type": "ConfigDialogInterAction",
                "type": "DIALOG",
                "aliasList": [
                    "1052"
                ],
                "dialogID": 30110215,
                "protectTime": 0.5
            }
        ],
        [
            {
                "$type": "ConfigDialogInterAction",
                "type": "DIALOG",
                "aliasList": [
                    "1005"
                ],
                "dialogID": 30110216,
                "protectTime": 0.5
            }
        ],
        [
            {
                "$type": "ConfigDialogInterAction",
                "type": "DIALOG",
                "aliasList": [
                    "1052"
                ],
                "dialogID": 30110217,
                "protectTime": 0.5
            }
        ],
        [
            {
                "$type": "ConfigDialogInterAction",
                "type": "DIALOG",
                "aliasList": [
                    "1005"
                ],
                "dialogID": 30110218,
                "protectTime": 0.5
            }
        ],
        [
            {
                "$type": "ConfigDialogInterAction",
                "type": "DIALOG",
                "aliasList": [
                    "1052"
                ],
                "dialogID": 30110219,
                "protectTime": 0.5
            }
        ],
        [
            {
                "$type": "ConfigDialogInterAction",
                "type": "DIALOG",
                "aliasList": [
                    "1052"
                ],
                "dialogID": 30110220,
                "protectTime": 0.5
            },
            {
                "$type": "ConfigDialogSelectAction",
                "type": "DIALOG_SELECT",
                "delayTime": 0.4000000059604645,
                "aliasList": [
                    "Avatar"
                ],
                "dialogIDList": [
                    30110221
                ],
                "grpIDList": [
                    1907016702
                ],
                "useGrpId": true
            }
        ],
        [
            {
                "$type": "ConfigDialogSelectAction",
                "type": "DIALOG_SELECT",
                "delayTime": 0.4000000059604645,
                "aliasList": [
                    "Avatar"
                ],
                "dialogIDList": [
                    30110222,
                    30110223
                ],
                "grpIDList": [
                    1907016703,
                    1907016703
                ],
                "useGrpId": true
            }
        ],
        [
            {
                "$type": "ConfigDialogInterAction",
                "type": "DIALOG",
                "aliasList": [
                    "1005"
                ],
                "dialogID": 30110224,
                "protectTime": 0.5
            }
        ],
        [
            {
                "$type": "ConfigDialogInterAction",
                "type": "DIALOG",
                "aliasList": [
                    "1005"
                ],
                "dialogID": 30110225,
                "protectTime": 0.5
            }
        ],
        [
            {
                "$type": "ConfigDialogInterAction",
                "type": "DIALOG",
                "aliasList": [
                    "1052"
                ],
                "dialogID": 30110226,
                "protectTime": 0.5
            }
        ],
        [
            {
                "$type": "ConfigDialogInterAction",
                "type": "DIALOG",
                "aliasList": [
                    "1005"
                ],
                "dialogID": 30110227,
                "protectTime": 0.5
            }
        ],
        [
            {
                "$type": "ConfigDialogInterAction",
                "type": "DIALOG",
                "aliasList": [
                    "1052"
                ],
                "dialogID": 30110228,
                "protectTime": 0.5
            }
        ],
        [
            {
                "$type": "ConfigDialogInterAction",
                "type": "DIALOG",
                "aliasList": [
                    "1052"
                ],
                "dialogID": 30110229,
                "protectTime": 0.5
            }
        ],
        [
            {
                "$type": "ConfigTimeProtectAction",
                "type": "TIME_PROTECT",
                "duration": 0.10000000149011612
            },
            {
                "$type": "ConfigSimpleBlackScreenAction",
                "type": "SIMPLE_BLACK_SCREEN",
                "durationToBlack": 0.5,
                "durationKeepBlack": 1.0,
                "durationFromBlack": 0.5,
                "textMapID": ""
            },
            {
                "$type": "ConfigTimeProtectAction",
                "type": "TIME_PROTECT",
                "duration": 0.699999988079071
            },
            {
                "$type": "ConfigVisibleInterAction",
                "type": "VISIBLE",
                "delayTime": 0.6000000238418579,
                "aliasList": [
                    "12555"
                ]
            }
        ]
    ],
    "groupId": [
        {
            "grpId": 61516666,
            "nextGrpId": 61516667
        },
        {
            "index": 1,
            "grpId": 61516667,
            "nextGrpId": 61516668
        },
        {
            "index": 2,
            "grpId": 61516668,
            "nextGrpId": 61516669
        },
        {
            "index": 3,
            "grpId": 61516669,
            "nextGrpId": 61516670
        },
        {
            "index": 4,
            "grpId": 61516670,
            "nextGrpId": 61516671
        },
        {
            "index": 5,
            "grpId": 61516671,
            "nextGrpId": 61516672
        },
        {
            "index": 6,
            "grpId": 61516672,
            "nextGrpId": 61516673
        },
        {
            "index": 7,
            "grpId": 61516673,
            "nextGrpId": 61516674
        },
        {
            "index": 8,
            "grpId": 61516674,
            "nextGrpId": 1907016694
        },
        {
            "index": 9,
            "grpId": 1907016694,
            "nextGrpId": 1907016695
        },
        {
            "index": 10,
            "grpId": 1907016695,
            "nextGrpId": 1907016696
        },
        {
            "index": 11,
            "grpId": 1907016696,
            "nextGrpId": 1907016697
        },
        {
            "index": 12,
            "grpId": 1907016697,
            "nextGrpId": 1907016698
        },
        {
            "index": 13,
            "grpId": 1907016698,
            "nextGrpId": 1907016699
        },
        {
            "index": 14,
            "grpId": 1907016699,
            "nextGrpId": 1907016700
        },
        {
            "index": 15,
            "grpId": 1907016700,
            "nextGrpId": 1907016701
        },
        {
            "index": 16,
            "grpId": 1907016701,
            "nextGrpId": 1907016702
        },
        {
            "index": 17,
            "grpId": 1907016702,
            "nextGrpId": 1907016703
        },
        {
            "index": 18,
            "grpId": 1907016703,
            "nextGrpId": 1907016725
        },
        {
            "index": 19,
            "grpId": 1907016725,
            "nextGrpId": 1907016726
        },
        {
            "index": 20,
            "grpId": 1907016726,
            "nextGrpId": 1907016727
        },
        {
            "index": 21,
            "grpId": 1907016727,
            "nextGrpId": 1907016728
        },
        {
            "index": 22,
            "grpId": 1907016728,
            "nextGrpId": 1907016729
        },
        {
            "index": 23,
            "grpId": 1907016729,
            "nextGrpId": 1907016730
        },
        {
            "index": 24,
            "grpId": 1907016730,
            "nextGrpId": 1907016731
        }
    ],
    "freeStyleDic": {
        "1052": [],
        "12555": []
    }
}