{
    "HBPGBNCBOMP": "",
    "startBlackKeepTime": 0.5,
    "KENGMFPNLEP": "",
    "disableNpcLod": true,
    "NIHBFFCCJJN": true,
    "MCGPBLEHELN": true,
    "AGMGHOIPEIH": true,
    "startFade": {
        "startFadeInDuration": 0.5,
        "startFadeOutDuration": 0.5
    },
    "endFade": {
        "startFadeOutDuration": 0.0
    },
    "actors": [
        {
            "alias": "Avatar",
            "visible": true,
            "bornPointName": "",
            "relativePosType": "AVATAR_NEW",
            "relativePosNpcAlias": ""
        },
        {
            "configID": 30252,
            "alias": "30252",
            "visible": true,
            "bornPointName": "",
            "relativePosType": "AVATAR_NEW",
            "relativePosNpcAlias": ""
        }
    ],
    "group": [
        [
            {
                "$type": "ConfigTimeProtectAction",
                "type": "TIME_PROTECT",
                "duration": 0.10000000149011612
            }
        ],
        [
            {
                "$type": "ConfigDialogInterAction",
                "type": "DIALOG",
                "aliasList": [
                    "30252"
                ],
                "dialogID": 727270101,
                "protectTime": 0.5
            },
            {
                "$type": "ConfigDialogSelectAction",
                "type": "DIALOG_SELECT",
                "delayTime": 0.4000000059604645,
                "aliasList": [
                    "Avatar"
                ],
                "dialogIDList": [
                    727270102,
                    727270104
                ],
                "grpIDList": [
                    3522833037,
                    3522833038
                ],
                "useGrpId": true
            }
        ],
        [
            {
                "$type": "ConfigDialogInterAction",
                "type": "DIALOG",
                "aliasList": [
                    "30252"
                ],
                "dialogID": 727270103,
                "protectTime": 0.5
            }
        ],
        [
            {
                "$type": "ConfigDialogInterAction",
                "type": "DIALOG",
                "aliasList": [
                    "30252"
                ],
                "dialogID": 727270105,
                "protectTime": 0.5
            }
        ],
        [
            {
                "$type": "ConfigDialogInterAction",
                "type": "DIALOG",
                "aliasList": [
                    "30252"
                ],
                "dialogID": 727270106,
                "protectTime": 0.5
            },
            {
                "$type": "ConfigDialogSelectAction",
                "type": "DIALOG_SELECT",
                "delayTime": 0.4000000059604645,
                "aliasList": [
                    "Avatar"
                ],
                "dialogIDList": [
                    727270107,
                    727270112
                ],
                "grpIDList": [
                    3522833040,
                    1833641733
                ],
                "useGrpId": true
            }
        ],
        [
            {
                "$type": "ConfigDialogInterAction",
                "type": "DIALOG",
                "aliasList": [
                    "30252"
                ],
                "dialogID": 727270108,
                "protectTime": 0.5
            }
        ],
        [
            {
                "$type": "ConfigDialogInterAction",
                "type": "DIALOG",
                "aliasList": [
                    "30252"
                ],
                "dialogID": 727270109,
                "protectTime": 0.5
            }
        ],
        [
            {
                "$type": "ConfigDialogInterAction",
                "type": "DIALOG",
                "aliasList": [
                    "30252"
                ],
                "dialogID": 727270110,
                "protectTime": 0.5
            }
        ],
        [
            {
                "$type": "ConfigDialogInterAction",
                "type": "DIALOG",
                "aliasList": [
                    "30252"
                ],
                "dialogID": 727270111,
                "protectTime": 0.5
            }
        ],
        [
            {
                "$type": "ConfigDialogInterAction",
                "type": "DIALOG",
                "aliasList": [
                    "30252"
                ],
                "dialogID": 727270113,
                "protectTime": 0.5
            }
        ],
        [
            {
                "$type": "ConfigDialogInterAction",
                "type": "DIALOG",
                "aliasList": [
                    "30252"
                ],
                "dialogID": 727270114,
                "protectTime": 0.5
            }
        ],
        [
            {
                "$type": "ConfigDialogInterAction",
                "type": "DIALOG",
                "aliasList": [
                    "30252"
                ],
                "dialogID": 727270115,
                "protectTime": 0.5
            }
        ],
        [
            {
                "$type": "ConfigSimpleBlackScreenAction",
                "type": "SIMPLE_BLACK_SCREEN",
                "durationToBlack": 0.5,
                "durationKeepBlack": 3.0,
                "durationFromBlack": 0.5,
                "textMapID": "",
                "useTextFade": true,
                "dialogID": 727270116
            },
            {
                "$type": "ConfigDialogInterAction",
                "type": "DIALOG_CLEAR"
            }
        ],
        [
            {
                "$type": "ConfigTimeProtectAction",
                "type": "TIME_PROTECT",
                "duration": 0.10000000149011612
            },
            {
                "$type": "ConfigSimpleBlackScreenAction",
                "type": "SIMPLE_BLACK_SCREEN",
                "durationToBlack": 0.5,
                "durationKeepBlack": 1.0,
                "durationFromBlack": 0.5,
                "textMapID": ""
            },
            {
                "$type": "ConfigTimeProtectAction",
                "type": "TIME_PROTECT",
                "duration": 0.699999988079071
            }
        ]
    ],
    "groupId": [
        {
            "grpId": 3522833035,
            "nextGrpId": 3522833036
        },
        {
            "index": 1,
            "grpId": 3522833036,
            "nextGrpId": 3522833037
        },
        {
            "index": 2,
            "grpId": 3522833037,
            "nextGrpId": 3522833039
        },
        {
            "index": 3,
            "grpId": 3522833038,
            "nextGrpId": 3522833039
        },
        {
            "index": 4,
            "grpId": 3522833039,
            "nextGrpId": 3522833040
        },
        {
            "index": 5,
            "grpId": 3522833040,
            "nextGrpId": 3522833041
        },
        {
            "index": 6,
            "grpId": 3522833041,
            "nextGrpId": 3522833042
        },
        {
            "index": 7,
            "grpId": 3522833042,
            "nextGrpId": 3522833043
        },
        {
            "index": 8,
            "grpId": 3522833043,
            "nextGrpId": 1833641735
        },
        {
            "index": 9,
            "grpId": 1833641733,
            "nextGrpId": 1833641734
        },
        {
            "index": 10,
            "grpId": 1833641734,
            "nextGrpId": 1833641735
        },
        {
            "index": 11,
            "grpId": 1833641735,
            "nextGrpId": 1833641736
        },
        {
            "index": 12,
            "grpId": 1833641736,
            "nextGrpId": 1833641737
        },
        {
            "index": 13,
            "grpId": 1833641737,
            "nextGrpId": 1833641738
        }
    ],
    "freeStyleDic": {
        "30252": []
    }
}