{
    "HBPGBNCBOMP": "",
    "KENGMFPNLEP": "",
    "disableNpcLod": true,
    "NIHBFFCCJJN": true,
    "MCGPBLEHELN": true,
    "AGMGHOIPEIH": true,
    "startFade": {
        "startFadeOutDuration": 0.0
    },
    "endFade": {
        "startFadeOutDuration": 0.0
    },
    "actors": [
        {
            "alias": "Avatar",
            "visible": true,
            "bornPointName": "21036paoku_player",
            "relativePosType": "AVATAR_NEW",
            "relativePosNpcAlias": ""
        },
        {
            "alias": "AvatarNpc",
            "visible": true,
            "bornPointName": "21036paoku_player",
            "removeActorType": "NEW_REMOVE",
            "relativePosType": "AVATAR_NEW",
            "relativePosNpcAlias": ""
        },
        {
            "configID": 2400,
            "alias": "2400",
            "visible": true,
            "bornPointName": "Q2103605",
            "forceCreateDaily": true,
            "relativePosType": "AVATAR_NEW",
            "relativePosNpcAlias": ""
        }
    ],
    "group": [
        [
            {
                "$type": "ConfigTimeProtectAction",
                "type": "TIME_PROTECT",
                "duration": 1.0,
                "actionId": 104
            },
            {
                "$type": "ConfigBlackScreenAction",
                "type": "BLACK_SCREEN",
                "duration": 1.0,
                "actionId": 132,
                "blackScreenType": "KEEP_BLACK",
                "durationToBlack": 0.5,
                "durationKeepBlack": 1.0,
                "durationFromBlack": 0.5,
                "inteePos": "",
                "textMapID": "",
                "useTextFade": true
            },
            {
                "$type": "ConfigVisibleInterAction",
                "type": "VISIBLE",
                "aliasList": [
                    "Avatar"
                ],
                "actionId": 139
            },
            {
                "$type": "ConfigPlayerNPCEnergyTypeAction",
                "type": "SET_PLAYER_NPC_ENERGY_TYPE",
                "aliasList": [
                    "AvatarNpc"
                ],
                "actionId": 137,
                "setHeroEngergyType": true
            }
        ],
        [
            {
                "$type": "ConfigBlackScreenAction",
                "type": "BLACK_SCREEN",
                "duration": 0.5,
                "actionId": 133,
                "blackScreenType": "FROM_BLACK",
                "durationToBlack": 0.5,
                "durationKeepBlack": 0.5,
                "durationFromBlack": 0.5,
                "inteePos": "",
                "textMapID": "",
                "useTextFade": true
            },
            {
                "$type": "ConfigLookAtInterAction",
                "type": "LOOK_AT",
                "aliasList": [
                    "Avatar"
                ],
                "actionId": 142,
                "enableHead": true,
                "headTurnTime": 0.5,
                "targetNpcAlias": "2400",
                "openBackProtect": true
            },
            {
                "$type": "ConfigLookAtInterAction",
                "type": "LOOK_AT",
                "aliasList": [
                    "AvatarNpc"
                ],
                "actionId": 143,
                "enableHead": true,
                "headTurnTime": 0.5,
                "targetNpcAlias": "2400",
                "openBackProtect": true
            },
            {
                "$type": "ConfigDialogInterAction",
                "type": "DIALOG",
                "aliasList": [
                    "2400"
                ],
                "actionId": 107,
                "dialogID": 210360501,
                "protectTime": 0.5
            },
            {
                "$type": "ConfigBodyLangInterAction",
                "type": "BODY_LANG",
                "aliasList": [
                    "2400"
                ],
                "actionId": 144,
                "bodyLangParam": 1160,
                "forceDoFreeStyle": true,
                "canDoRepeatFreeStyle": false,
                "cantBackToIdleWhenSitLoop": true
            },
            {
                "$type": "ConfigDialogSelectAction",
                "type": "DIALOG_SELECT",
                "delayTime": 0.4000000059604645,
                "aliasList": [
                    "AvatarNpc"
                ],
                "actionId": 135,
                "dialogIDList": [
                    210360502,
                    210360504
                ],
                "grpIDList": [
                    337511428,
                    337511429
                ],
                "useGrpId": true,
                "countDownGrpId": 337511425
            }
        ],
        [
            {
                "$type": "ConfigDialogInterAction",
                "type": "DIALOG",
                "aliasList": [
                    "2400"
                ],
                "actionId": 110,
                "dialogID": 210360503,
                "protectTime": 0.5
            }
        ],
        [
            {
                "$type": "ConfigDialogInterAction",
                "type": "DIALOG",
                "aliasList": [
                    "2400"
                ],
                "actionId": 112,
                "dialogID": 210360505,
                "protectTime": 0.5
            }
        ],
        [
            {
                "$type": "ConfigDialogInterAction",
                "type": "DIALOG",
                "aliasList": [
                    "2400"
                ],
                "actionId": 114,
                "dialogID": 210360506,
                "protectTime": 0.5
            },
            {
                "$type": "ConfigBodyLangInterAction",
                "type": "BODY_LANG",
                "delayTime": 0.382999986410141,
                "aliasList": [
                    "2400"
                ],
                "actionId": 145,
                "bodyLangParam": 1030,
                "forceDoFreeStyle": true,
                "canDoRepeatFreeStyle": false,
                "cantBackToIdleWhenSitLoop": true
            },
            {
                "$type": "ConfigDialogSelectAction",
                "type": "DIALOG_SELECT",
                "delayTime": 0.4000000059604645,
                "aliasList": [
                    "AvatarNpc"
                ],
                "actionId": 136,
                "dialogIDList": [
                    210360507,
                    210360510
                ],
                "grpIDList": [
                    337511431,
                    337511433
                ],
                "useGrpId": true,
                "countDownGrpId": 337511425
            }
        ],
        [
            {
                "$type": "ConfigDialogInterAction",
                "type": "DIALOG",
                "aliasList": [
                    "2400"
                ],
                "actionId": 117,
                "dialogID": 210360508,
                "protectTime": 0.5
            },
            {
                "$type": "ConfigBodyLangInterAction",
                "type": "BODY_LANG",
                "aliasList": [
                    "2400"
                ],
                "actionId": 146,
                "bodyLangParam": 1050,
                "forceDoFreeStyle": true,
                "canDoRepeatFreeStyle": false,
                "cantBackToIdleWhenSitLoop": true
            }
        ],
        [
            {
                "$type": "ConfigDialogInterAction",
                "type": "DIALOG",
                "aliasList": [
                    "2400"
                ],
                "actionId": 119,
                "dialogID": 210360509,
                "protectTime": 0.5
            }
        ],
        [
            {
                "$type": "ConfigDialogInterAction",
                "type": "DIALOG",
                "aliasList": [
                    "2400"
                ],
                "actionId": 121,
                "dialogID": 210360511,
                "protectTime": 0.5
            },
            {
                "$type": "ConfigBodyLangInterAction",
                "type": "BODY_LANG",
                "aliasList": [
                    "2400"
                ],
                "actionId": 147,
                "forceDoFreeStyle": true,
                "canDoRepeatFreeStyle": false,
                "cantBackToIdleWhenSitLoop": true
            }
        ],
        [
            {
                "$type": "ConfigDialogInterAction",
                "type": "DIALOG",
                "aliasList": [
                    "2400"
                ],
                "actionId": 123,
                "dialogID": 210360512,
                "protectTime": 0.5
            }
        ],
        [
            {
                "$type": "ConfigDialogInterAction",
                "type": "DIALOG",
                "aliasList": [
                    "2400"
                ],
                "actionId": 125,
                "dialogID": 210360513,
                "protectTime": 0.5
            }
        ],
        [
            {
                "$type": "ConfigDialogInterAction",
                "type": "DIALOG",
                "aliasList": [
                    "2400"
                ],
                "actionId": 127,
                "dialogID": 210360514,
                "protectTime": 0.5
            },
            {
                "$type": "ConfigBodyLangInterAction",
                "type": "BODY_LANG",
                "aliasList": [
                    "2400"
                ],
                "actionId": 148,
                "bodyLangParam": 1050,
                "forceDoFreeStyle": true,
                "canDoRepeatFreeStyle": false,
                "cantBackToIdleWhenSitLoop": true
            }
        ],
        [
            {
                "$type": "ConfigTimeProtectAction",
                "type": "TIME_PROTECT",
                "duration": 0.10000000149011612,
                "actionId": 129
            }
        ],
        [
            {
                "$type": "ConfigTimeProtectAction",
                "type": "TIME_PROTECT",
                "duration": 0.10000000149011612,
                "actionId": 105
            },
            {
                "$type": "ConfigSimpleBlackScreenAction",
                "type": "SIMPLE_BLACK_SCREEN",
                "actionId": 130,
                "durationToBlack": 0.5,
                "durationKeepBlack": 1.0,
                "durationFromBlack": 0.5,
                "textMapID": ""
            },
            {
                "$type": "ConfigTimeProtectAction",
                "type": "TIME_PROTECT",
                "duration": 0.699999988079071,
                "actionId": 131
            },
            {
                "$type": "ConfigVisibleInterAction",
                "type": "VISIBLE",
                "aliasList": [
                    "AvatarNpc"
                ],
                "actionId": 140
            },
            {
                "$type": "ConfigCameraMoveInterAction",
                "type": "CAMERA_MOVE",
                "delayTime": 0.5,
                "duration": 0.10000000149011612,
                "actionId": 134,
                "camForwardTargetOffset": {
                    "z": 1.0
                },
                "camFov": 30.0,
                "lerpPattern": 5,
                "cameraBlendType": "EaseInOutCubic",
                "cutFrameTrans": {},
                "openCameraDither": false,
                "targetNpcAlias": "",
                "closeTreeLeafDither": true
            },
            {
                "$type": "ConfigVisibleInterAction",
                "type": "VISIBLE",
                "delayTime": 0.6000000238418579,
                "aliasList": [
                    "Avatar"
                ],
                "actionId": 138,
                "isVisible": true
            }
        ]
    ],
    "groupId": [
        {
            "grpId": 337511426,
            "nextGrpId": 337511427
        },
        {
            "index": 1,
            "grpId": 337511427,
            "nextGrpId": 337511428
        },
        {
            "index": 2,
            "grpId": 337511428,
            "nextGrpId": 337511430
        },
        {
            "index": 3,
            "grpId": 337511429,
            "nextGrpId": 337511430
        },
        {
            "index": 4,
            "grpId": 337511430,
            "nextGrpId": 337511431
        },
        {
            "index": 5,
            "grpId": 337511431,
            "nextGrpId": 337511432
        },
        {
            "index": 6,
            "grpId": 337511432,
            "nextGrpId": 1872919664
        },
        {
            "index": 7,
            "grpId": 337511433,
            "nextGrpId": 337511434
        },
        {
            "index": 8,
            "grpId": 337511434,
            "nextGrpId": 1872919662
        },
        {
            "index": 9,
            "grpId": 1872919662,
            "nextGrpId": 1872919663
        },
        {
            "index": 10,
            "grpId": 1872919663,
            "nextGrpId": 1872919664
        },
        {
            "index": 11,
            "grpId": 1872919664,
            "nextGrpId": 1872919665
        },
        {
            "index": 12,
            "grpId": 1872919665,
            "nextGrpId": 1872919666
        }
    ],
    "freeStyleDic": {
        "1025": [],
        "1026": [],
        "2400": [
            1160,
            1030,
            1050
        ]
    }
}