{
    "HBPGBNCBOMP": "",
    "isSimpleTalk": true,
    "KENGMFPNLEP": "",
    "disableNpcLod": true,
    "startFade": {
        "startFadeInDuration": 0.5,
        "startFadeOutDuration": 0.5
    },
    "endFade": {
        "startFadeOutDuration": 0.0
    },
    "actors": [
        {
            "alias": "Avatar",
            "visible": true,
            "bornPointName": "T7217756_N10000005",
            "relativePosNpcAlias": ""
        },
        {
            "configID": 20339,
            "alias": "20339",
            "visible": true,
            "bornPointName": "T7217756_N20339",
            "relativePosNpcAlias": ""
        },
        {
            "configID": 1005,
            "alias": "1005",
            "visible": true,
            "bornPointName": "T7217756_N1005",
            "removeActorType": "REMOVE_WITH_DISAPPEAR",
            "relativePosNpcAlias": ""
        }
    ],
    "group": [
        [
            {
                "$type": "ConfigTimeProtectAction",
                "type": "TIME_PROTECT",
                "duration": 0.10000000149011612
            },
            {
                "$type": "ConfigCameraMoveInterAction",
                "type": "CAMERA_FOCUS",
                "duration": 0.10000000149011612,
                "targetNpcAlias": ""
            }
        ],
        [
            {
                "$type": "ConfigDialogInterAction",
                "type": "DIALOG",
                "aliasList": [
                    "20339"
                ],
                "dialogID": 721775601,
                "protectTime": 0.5
            }
        ],
        [
            {
                "$type": "ConfigDialogInterAction",
                "type": "DIALOG",
                "aliasList": [
                    "20339"
                ],
                "dialogID": 721775602,
                "protectTime": 0.5
            }
        ],
        [
            {
                "$type": "ConfigDialogInterAction",
                "type": "DIALOG",
                "aliasList": [
                    "1005"
                ],
                "dialogID": 721775603,
                "protectTime": 0.5
            }
        ],
        [
            {
                "$type": "ConfigDialogInterAction",
                "type": "DIALOG",
                "aliasList": [
                    "20339"
                ],
                "dialogID": 721775604,
                "protectTime": 0.5
            }
        ],
        [
            {
                "$type": "ConfigDialogInterAction",
                "type": "DIALOG",
                "aliasList": [
                    "20339"
                ],
                "dialogID": 721775605,
                "protectTime": 0.5
            }
        ],
        [
            {
                "$type": "ConfigDialogInterAction",
                "type": "DIALOG",
                "aliasList": [
                    "20339"
                ],
                "dialogID": 721775606,
                "protectTime": 0.5
            }
        ],
        [
            {
                "$type": "ConfigDialogInterAction",
                "type": "DIALOG",
                "aliasList": [
                    "1005"
                ],
                "dialogID": 721775607,
                "protectTime": 0.5
            }
        ],
        [
            {
                "$type": "ConfigDialogInterAction",
                "type": "DIALOG",
                "aliasList": [
                    "20339"
                ],
                "dialogID": 721775608,
                "protectTime": 0.5
            }
        ],
        [
            {
                "$type": "ConfigDialogInterAction",
                "type": "DIALOG",
                "aliasList": [
                    "20339"
                ],
                "dialogID": 721775609,
                "protectTime": 0.5
            }
        ],
        [
            {
                "$type": "ConfigDialogInterAction",
                "type": "DIALOG",
                "aliasList": [
                    "1005"
                ],
                "dialogID": 721775610,
                "protectTime": 0.5
            }
        ],
        [
            {
                "$type": "ConfigDialogInterAction",
                "type": "DIALOG",
                "aliasList": [
                    "20339"
                ],
                "dialogID": 721775611,
                "protectTime": 0.5
            }
        ],
        [
            {
                "$type": "ConfigDialogInterAction",
                "type": "DIALOG",
                "aliasList": [
                    "20339"
                ],
                "dialogID": 721775612,
                "protectTime": 0.5
            }
        ],
        [
            {
                "$type": "ConfigDialogInterAction",
                "type": "DIALOG",
                "aliasList": [
                    "20339"
                ],
                "dialogID": 721775613,
                "protectTime": 0.5
            }
        ],
        [
            {
                "$type": "ConfigDialogInterAction",
                "type": "DIALOG",
                "aliasList": [
                    "20339"
                ],
                "dialogID": 721775614,
                "protectTime": 0.5
            }
        ],
        [
            {
                "$type": "ConfigDialogInterAction",
                "type": "DIALOG",
                "aliasList": [
                    "20339"
                ],
                "dialogID": 721775615,
                "protectTime": 0.5
            },
            {
                "$type": "ConfigDialogSelectAction",
                "type": "DIALOG_SELECT",
                "delayTime": 0.4000000059604645,
                "aliasList": [
                    "Avatar"
                ],
                "dialogIDList": [
                    721775616,
                    721775617
                ],
                "grpIDList": [
                    114031991,
                    114031991
                ],
                "useGrpId": true
            }
        ],
        [
            {
                "$type": "ConfigDialogInterAction",
                "type": "DIALOG",
                "aliasList": [
                    "20339"
                ],
                "dialogID": 721775618,
                "protectTime": 0.5
            }
        ],
        [
            {
                "$type": "ConfigDialogInterAction",
                "type": "DIALOG",
                "aliasList": [
                    "20339"
                ],
                "dialogID": 721775619,
                "protectTime": 0.5
            }
        ],
        [
            {
                "$type": "ConfigDialogInterAction",
                "type": "DIALOG",
                "aliasList": [
                    "1005"
                ],
                "dialogID": 721775620,
                "protectTime": 0.5
            }
        ],
        [
            {
                "$type": "ConfigDialogInterAction",
                "type": "DIALOG",
                "aliasList": [
                    "20339"
                ],
                "dialogID": 721775621,
                "protectTime": 0.5
            }
        ],
        [
            {
                "$type": "ConfigDialogInterAction",
                "type": "DIALOG",
                "aliasList": [
                    "20339"
                ],
                "dialogID": 721775622,
                "protectTime": 0.5
            }
        ],
        [
            {
                "$type": "ConfigDialogInterAction",
                "type": "DIALOG",
                "aliasList": [
                    "20339"
                ],
                "dialogID": 721775623,
                "protectTime": 0.5
            }
        ],
        [
            {
                "$type": "ConfigTimeProtectAction",
                "type": "TIME_PROTECT",
                "duration": 0.699999988079071
            },
            {
                "$type": "ConfigSimpleBlackScreenAction",
                "type": "SIMPLE_BLACK_SCREEN",
                "durationToBlack": 0.5,
                "durationKeepBlack": 1.0,
                "durationFromBlack": 0.5,
                "textMapID": ""
            },
            {
                "$type": "ConfigTimeProtectAction",
                "type": "TIME_PROTECT",
                "duration": 0.10000000149011612
            }
        ]
    ],
    "groupId": [
        {
            "grpId": 2636077760,
            "nextGrpId": 2636077761
        },
        {
            "index": 1,
            "grpId": 2636077761,
            "nextGrpId": 2636077762
        },
        {
            "index": 2,
            "grpId": 2636077762,
            "nextGrpId": 2636077763
        },
        {
            "index": 3,
            "grpId": 2636077763,
            "nextGrpId": 2636077764
        },
        {
            "index": 4,
            "grpId": 2636077764,
            "nextGrpId": 2636077765
        },
        {
            "index": 5,
            "grpId": 2636077765,
            "nextGrpId": 2636077766
        },
        {
            "index": 6,
            "grpId": 2636077766,
            "nextGrpId": 2636077767
        },
        {
            "index": 7,
            "grpId": 2636077767,
            "nextGrpId": 2636077768
        },
        {
            "index": 8,
            "grpId": 2636077768,
            "nextGrpId": 114031984
        },
        {
            "index": 9,
            "grpId": 114031984,
            "nextGrpId": 114031985
        },
        {
            "index": 10,
            "grpId": 114031985,
            "nextGrpId": 114031986
        },
        {
            "index": 11,
            "grpId": 114031986,
            "nextGrpId": 114031987
        },
        {
            "index": 12,
            "grpId": 114031987,
            "nextGrpId": 114031988
        },
        {
            "index": 13,
            "grpId": 114031988,
            "nextGrpId": 114031989
        },
        {
            "index": 14,
            "grpId": 114031989,
            "nextGrpId": 114031990
        },
        {
            "index": 15,
            "grpId": 114031990,
            "nextGrpId": 114031991
        },
        {
            "index": 16,
            "grpId": 114031991,
            "nextGrpId": 114031992
        },
        {
            "index": 17,
            "grpId": 114031992,
            "nextGrpId": 114031993
        },
        {
            "index": 18,
            "grpId": 114031993,
            "nextGrpId": 114032015
        },
        {
            "index": 19,
            "grpId": 114032015,
            "nextGrpId": 114032016
        },
        {
            "index": 20,
            "grpId": 114032016,
            "nextGrpId": 114032017
        },
        {
            "index": 21,
            "grpId": 114032017,
            "nextGrpId": 114032018
        },
        {
            "index": 22,
            "grpId": 114032018,
            "nextGrpId": 114032019
        }
    ],
    "freeStyleDic": {
        "20339": []
    }
}